{
    "job_args": {
        "metric_limit": 500,
        "seed": 2797882656
    },
    "job_id": "batch_80_do_500",
    "result": {
        "collections": {
            "crystal": [
                0.36343589545276356,
                0.5336142531141196,
                0.6616572831606167,
                0.6616572831606166,
                0.6616572831606166,
                0.38615868746651766,
                0.4322002449959472,
                0.4501844172185601,
                0.4615942130673597,
                0.42990954972835843,
                0.6616572831606167,
                0.3876106753940025,
                0.4595579572600067,
                0.6616572831606167,
                0.6616572831606164,
                0.6616572831606166,
                0.5654153250115848,
                0.03167745965452251,
                0.4185560505255903,
                0.6616572831606166,
                0.6616572831606167,
                0.4485261386242152,
                0.15373704242446312,
                0.6616572831606166,
                0.46958443329681787,
                0.6616572831606166,
                0.6616572831606167,
                0.24237115044622076,
                0.001561700707373381,
                0.5122659154738889,
                0.6616572831606166,
                0.07525000000000001,
                0.6616572831606167,
                0.4492514805877632,
                0.08407363737205165,
                0.4326297994753891,
                0.07207484155104019,
                0.6616572831606166,
                0.33465965815445614,
                0.6616572831606166,
                0.45389790310226424,
                0.2959151710413918,
                0.6616572831606164,
                0.6616572831606166,
                0.20548585528303662,
                0.409549065155566,
                0.6616572831606167,
                0.6616572831606166,
                0.1105978451765686,
                0.30649719393916,
                0.6616572831606166,
                0.6616572831606166,
                0.6616572831606166,
                0.08855281008466265,
                0.6525793249317914,
                0.6616572831606164,
                0.6031709150751471,
                0.6616572831606164,
                0.6616572831606164,
                0.39138594470126115,
                0.6616572831606164,
                0.05637949668477072,
                0.6616572831606166,
                0.44168628889924716,
                0.6616572831606167,
                0.6616572831606167,
                0.29167632102422847,
                0.6616572831606166,
                0.6616572831606166,
                0.5685742756375778,
                0.17449237282944535,
                0.6616572831606164,
                0.03930764001329297,
                0.6616572831606164,
                0.6616572831606164,
                0.6616572831606167,
                0.6616572831606166,
                0.6616572831606166,
                0.0444295,
                0.5537502147973471,
                0.23900507032107643,
                0.5098549107300013,
                0.38970535619568136,
                0.6616572831606166,
                0.4191646614467798,
                0.6616572831606167,
                0.3542613301671508,
                0.6616572831606164,
                0.2252805236570265,
                0.6616572831606166,
                0.46297699571754775,
                0.6616572831606164,
                0.6616572831606166,
                0.044268005506048036,
                0.6616572831606166,
                0.4740521674059365,
                0.6616572831606166,
                0.6616572831606167,
                0.6616572831606167,
                0.6616572831606167,
                0.4413555558804926,
                0.45053606857222117,
                0.6616572831606164,
                0.05719290726792042,
                0.6616572831606166,
                0.07303900000000002,
                0.05297247638502933,
                0.6616572831606166,
                0.6616572831606166,
                0.2314592207347217,
                0.6616572831606166,
                0.6616572831606167,
                0.4783740205250215,
                0.4307299269001039,
                0.07525,
                0.026259194091964422,
                0.1488759893671212,
                0.4692784101944846,
                0.027792851601428636,
                0.40350461203883664,
                0.6616572831606167,
                0.3727340626964755,
                0.6616572831606163,
                0.06190469178355473,
                0.47933241819926875,
                0.06411176711310479,
                0.6616572831606167,
                0.6616572831606167,
                0.087534,
                0.6616572831606167,
                0.18600874293680097,
                0.12004001307497325,
                0.06261213720041903,
                0.6616572831606166,
                0.06869626934005635,
                0.007805022155707553,
                0.45074288350381486,
                0.5650429329244095,
                0.6616572831606166,
                0.02556337120037161,
                0.12399818260746098,
                0.5260947656178911,
                0.5165861733494701,
                0.22913599166697046,
                0.2887631982799175,
                0.6616572831606167,
                0.6616572831606167,
                0.6616572831606164,
                0.6616572831606164,
                0.6616572831606164,
                0.2462734408574132,
                0.6616572831606164,
                0.6616572831606166,
                0.4424786283939209,
                0.6616572831606166,
                0.4251176356645937,
                0.20406879832298935,
                0.24450593847006363,
                0.013161798329650753,
                0.6616572831606167,
                0.32597322181947863,
                0.6616572831606167,
                0.6616572831606166,
                0.6616572831606166,
                0.5149539377537797,
                0.4109937409580091,
                0.2914630218160136,
                0.4418428150481881,
                0.23620427120004503,
                0.4036039803128746,
                0.6616572831606166,
                0.4321219377565709,
                0.31908377919378506,
                0.6616572831606166,
                0.24522317256645793,
                0.2645702078783749,
                0.17495458470560088,
                0.6616572831606166,
                0.23684036749720525,
                0.09165852618468884,
                0.6616572831606167,
                0.6616572831606167,
                0.6616572831606166,
                0.6616572831606166,
                0.6616572831606164,
                0.4336563720746345,
                0.28996041357240443,
                0.4833419663037811,
                0.4480992491615067,
                0.4251438242154902,
                0.6616572831606166,
                0.10805386741004785,
                0.6616572831606166,
                0.5338815033234454,
                0.6616572831606167,
                0.49333869637990047,
                0.6616572831606166,
                0.021922534703516124,
                0.19453523754302904,
                0.6616572831606167,
                0.3940145494416549,
                0.6616572831606167,
                0.6616572831606167,
                0.5074038941847158,
                0.07524999999999998,
                0.4643879288168662,
                0.45746748824910677,
                0.6616572831606167,
                0.6616572831606167,
                0.35292568187995615,
                0.6616572831606167,
                0.3764027818368059,
                0.6616572831606167,
                0.03038201454519851,
                0.001087242893310414,
                0.6616572831606167,
                0.6616572831606166,
                0.3404201734198429,
                0.28579830911060655,
                0.1599547172756317,
                0.27717786216829604,
                0.6616572831606167,
                0.6616572831606166,
                0.6616572831606164,
                0.6616572831606167,
                0.6616572831606166,
                0.6616572831606166,
                0.6616572831606166,
                0.6616572831606167,
                0.6616572831606166,
                0.03009324855851442,
                0.6616572831606167,
                0.6616572831606166,
                0.23639593568773995,
                0.005110726501164564,
                0.44281827742168267,
                0.6616572831606166,
                0.5584862791791693,
                0.358738199206276,
                0.23415610472659587,
                0.4384481175546179,
                0.5532257667402023,
                0.6616572831606164,
                0.6037455102664939,
                0.12038378022600159,
                0.15484950449312304,
                0.6616572831606166,
                0.0724932958294841,
                0.25899780204279416,
                0.6616572831606167,
                0.6616572831606167,
                0.6616572831606166,
                0.3633670429396107,
                0.28727753884543145,
                0.537598580104793,
                0.352615090565641,
                0.6616572831606164,
                0.1808659988994907,
                0.07525,
                0.3808514302106318,
                0.39788483633789873,
                0.2943622716892537,
                0.3873830370919841,
                0.6616572831606167,
                0.44116621897441954,
                0.6616572831606167,
                0.6616572831606166,
                0.36213053049875565,
                0.6616572831606166,
                0.6616572831606166,
                0.20619880665350682,
                0.37688089623909277,
                0.34810972678776514,
                0.061944521366849026,
                0.11449305575695762,
                0.6616572831606167,
                0.34991560341212097,
                0.6329942949130476,
                0.07040264657289075,
                0.6616572831606166,
                0.6616572831606166,
                0.4472012459781395,
                0.00810747011700419,
                0.6616572831606164,
                0.6616572831606166,
                0.3474721174545655,
                0.6123973496506876,
                0.0943325084106944,
                0.4797607000961339,
                0.425190810563127,
                0.6616572831606167,
                0.19844998723106277,
                0.6616572831606166,
                0.30511846452396685,
                0.11422688936988147,
                0.13446877323062145,
                0.595776953649302,
                0.6616572831606164,
                0.6616572831606167,
                0.31169508998350215,
                0.6616572831606164,
                0.6616572831606164,
                0.06237857864496221,
                0.42157025960133543,
                0.6616572831606166,
                0.6616572831606166,
                0.6616572831606166,
                0.04681535904193612,
                0.5619316934101178,
                0.05168090894398525,
                0.02658270104556007,
                0.09630955517080486,
                0.6616572831606166,
                0.5007628857723788,
                0.6616572831606167,
                0.6616572831606164,
                0.20088617039834583,
                0.40575999584214684,
                0.03684456950745263,
                0.03182774271167809,
                0.07524999999999998,
                0.6616572831606167,
                0.4441077707816498,
                0.6616572831606168,
                0.6616572831606167,
                0.07008019396578948,
                0.3501213505451888,
                0.6616572831606166,
                0.6616572831606166,
                0.531722598363176,
                0.08474069999999999,
                0.19504993537160326,
                0.42905903423057634,
                0.4685374124505009,
                0.4937111762175455,
                0.6616572831606166,
                0.1356411216871849,
                0.1082215875665997,
                0.11631905305791165,
                0.376645879726764,
                0.35728670652837163,
                0.07083892387759472,
                0.24671701498987947,
                0.07525,
                0.6616572831606164,
                0.0801584680697973,
                0.46130215351865883,
                0.44014833246653967,
                0.6276462322687102,
                0.6616572831606164,
                0.6616572831606167,
                0.0523242526192107,
                0.3646869753914247,
                0.6616572831606167,
                0.15212146927466963,
                0.6616572831606166,
                0.6616572831606166,
                0.36778357502547565,
                0.17574083712801541,
                0.34709428175937085,
                0.2400594823267669,
                0.35281823012515906,
                0.25958646394411855,
                0.33584344281221035,
                0.5964530290063934,
                0.4413565616629494,
                0.6616572831606166,
                0.6616572831606167,
                0.06337677773001515,
                0.27681083552558733,
                0.6616572831606166,
                0.6616572831606167,
                0.09843778415070636,
                0.6616572831606166,
                0.4180121846074896,
                0.3420313885821198,
                0.4306609619611345,
                0.6616572831606164,
                0.5751657251456621,
                0.3863740627501089,
                0.2951179454117724,
                0.6616572831606167,
                0.1276748327761192,
                0.620605273671251,
                0.6616572831606164,
                0.17285280881845627,
                0.40433905221081734,
                0.3314090073163747,
                0.05797647646659565,
                0.6616572831606167,
                0.4484049814339679,
                0.3211506285414456,
                0.16534351621357626,
                0.37562090583678853,
                0.47989576798415934,
                0.5188969521421193,
                0.6616572831606166,
                0.34501157935707183,
                0.099214106547174,
                0.015938593504358667,
                0.17890638041428214,
                0.4004893596297562,
                0.6616572831606166,
                0.05876956914505239,
                0.24661218893836134,
                0.14326201747563305,
                0.43194664503172137,
                0.6616572831606167,
                0.14867739971447744,
                0.6616572831606166,
                0.4496319569987598,
                0.21388229245557322,
                0.6616572831606164,
                0.6616572831606166,
                0.46807960165340745,
                0.4524059953536003,
                0.6616572831606167,
                0.6616572831606166,
                0.6616572831606166,
                0.6616572831606166,
                0.5892639094103762,
                0.44894654997054484,
                0.6616572831606166,
                0.6616572831606167,
                0.3743961556164083,
                0.29539823347934224,
                0.6616572831606164,
                0.6616572831606164,
                0.6616572831606164,
                0.45961368232729427,
                0.0385036076135814,
                0.6616572831606167,
                0.47654353594833065,
                0.03042200020715788,
                0.6616572831606166,
                0.3007485691431191,
                0.42543489654765226,
                0.6616572831606167,
                0.6616572831606166,
                0.20312634130566698,
                0.6616572831606166,
                0.6616572831606167,
                0.0018578590545296203,
                0.41846982025866514,
                0.2745226849745914,
                0.6616572831606166,
                0.6616572831606167,
                0.06989633989404942,
                0.18912162841905533,
                0.6616572831606164,
                0.2573243689484879,
                0.6616572831606167,
                0.6616572831606166,
                0.6616572831606166,
                0.21698207200082964,
                0.2992362835599709,
                0.1468812420908555,
                0.15445219743975758,
                0.6616572831606167,
                0.24241200311929828,
                0.3786506870183939,
                0.018497796886629447,
                0.6616572831606166,
                0.6616572831606164,
                0.6616572831606166,
                0.6616572831606166,
                0.06546881237321467,
                0.07989957284647953,
                0.38566851526838736,
                0.6202837682022766,
                0.4537946712511156,
                0.6616572831606166,
                0.6616572831606166,
                0.6616572831606167,
                0.6616572831606167,
                0.07842614040717688,
                0.31765834461074866,
                0.22750101396724037,
                0.6616572831606166,
                0.14103599659463334,
                0.23675910844718312,
                0.6616572831606166,
                0.6616572831606166,
                0.07525,
                0.6616572831606166,
                0.23672475623801525,
                0.08831382223465267,
                0.09337574400867554,
                0.6616572831606166,
                0.3355722305792257,
                0.2782396620678482,
                0.6616572831606167,
                0.04965702377106862,
                0.6616572831606166,
                0.6616572831606164,
                0.5377282631224369,
                0.07613538707321899,
                0.617653101878989,
                0.6616572831606167,
                0.6616572831606164
            ],
            "photocathode": [
                2566,
                3738,
                4684,
                4629,
                4495,
                2725,
                3120,
                3192,
                3239,
                3064,
                4602,
                2736,
                3189,
                4601,
                4878,
                4564,
                3930,
                214,
                2915,
                4717,
                4634,
                3177,
                1038,
                4570,
                3373,
                4816,
                4554,
                1703,
                9,
                3626,
                4740,
                520,
                4741,
                3024,
                605,
                3249,
                491,
                4687,
                2340,
                4498,
                3081,
                2089,
                4664,
                4584,
                1422,
                2824,
                4552,
                4527,
                764,
                2046,
                4718,
                4620,
                4600,
                617,
                4547,
                4581,
                4054,
                4705,
                4720,
                2784,
                4464,
                388,
                4698,
                2998,
                4586,
                4657,
                2063,
                4461,
                4628,
                4081,
                1242,
                4773,
                267,
                4460,
                4668,
                4553,
                4627,
                4642,
                310,
                3939,
                1645,
                3540,
                2730,
                4563,
                2960,
                4647,
                2388,
                4558,
                1556,
                4755,
                3327,
                4669,
                4710,
                335,
                4655,
                3254,
                4707,
                4673,
                4558,
                4662,
                3094,
                3147,
                4672,
                406,
                4611,
                488,
                365,
                4691,
                4573,
                1625,
                4567,
                4708,
                3257,
                2969,
                483,
                185,
                1046,
                3368,
                191,
                2989,
                4470,
                2526,
                4609,
                479,
                3427,
                490,
                4548,
                4526,
                583,
                4721,
                1339,
                846,
                402,
                4706,
                511,
                41,
                3178,
                3931,
                4621,
                176,
                878,
                3861,
                3694,
                1582,
                2024,
                4455,
                4525,
                4587,
                4669,
                4597,
                1682,
                4678,
                4642,
                3094,
                4608,
                2927,
                1420,
                1697,
                87,
                4420,
                2254,
                4427,
                4825,
                4657,
                3607,
                2894,
                2026,
                3059,
                1697,
                2916,
                4623,
                2968,
                2191,
                4776,
                1688,
                1894,
                1229,
                4726,
                1656,
                609,
                4593,
                4614,
                4685,
                4480,
                4617,
                3034,
                2003,
                3333,
                3246,
                2943,
                4528,
                700,
                4516,
                3861,
                4639,
                3509,
                4689,
                175,
                1422,
                4656,
                2753,
                4575,
                4604,
                3551,
                502,
                3224,
                3159,
                4679,
                4667,
                2387,
                4535,
                2721,
                4606,
                205,
                12,
                4604,
                4671,
                2435,
                2011,
                1090,
                1985,
                4517,
                4772,
                4558,
                4586,
                4708,
                4628,
                4695,
                4581,
                4658,
                189,
                4465,
                4633,
                1628,
                32,
                3041,
                4670,
                3919,
                2504,
                1609,
                3093,
                3835,
                4597,
                4088,
                806,
                1103,
                4751,
                548,
                1777,
                4574,
                4671,
                4604,
                2489,
                2083,
                3880,
                2444,
                4569,
                1247,
                536,
                2729,
                2757,
                2030,
                2690,
                4638,
                3067,
                4793,
                4605,
                2559,
                4537,
                4689,
                1416,
                2680,
                2398,
                446,
                832,
                4462,
                2428,
                4573,
                489,
                4528,
                4645,
                3142,
                67,
                4672,
                4604,
                2446,
                4399,
                608,
                3407,
                2869,
                4711,
                1415,
                4569,
                2159,
                764,
                932,
                4088,
                4568,
                4608,
                2164,
                4655,
                4613,
                448,
                3008,
                4647,
                4602,
                4620,
                323,
                4218,
                371,
                180,
                695,
                4609,
                3467,
                4726,
                4537,
                1389,
                2951,
                248,
                205,
                570,
                4526,
                3161,
                4573,
                4705,
                499,
                2502,
                4589,
                4638,
                3610,
                624,
                1451,
                3091,
                3314,
                3425,
                4778,
                1000,
                710,
                866,
                2677,
                2563,
                476,
                1777,
                472,
                4643,
                614,
                3265,
                3080,
                4360,
                4738,
                4691,
                378,
                2611,
                4585,
                1111,
                4548,
                4579,
                2633,
                1269,
                2433,
                1736,
                2343,
                1831,
                2363,
                4188,
                3034,
                4514,
                4487,
                442,
                2008,
                4725,
                4659,
                687,
                4631,
                2999,
                2386,
                3033,
                4637,
                4014,
                2729,
                2075,
                4589,
                877,
                4382,
                4605,
                1172,
                2960,
                2258,
                410,
                4601,
                3238,
                2191,
                1145,
                2610,
                3403,
                3700,
                4667,
                2368,
                696,
                109,
                1254,
                2818,
                4621,
                396,
                1701,
                959,
                2983,
                4777,
                1046,
                4778,
                3193,
                1536,
                4655,
                4539,
                3231,
                3129,
                4574,
                4526,
                4536,
                4583,
                4211,
                3067,
                4789,
                4453,
                2627,
                2045,
                4766,
                4896,
                4599,
                3202,
                270,
                4673,
                3231,
                197,
                4599,
                2183,
                2992,
                4586,
                4595,
                1383,
                4546,
                4684,
                10,
                2883,
                1958,
                4618,
                4722,
                496,
                1298,
                4620,
                1841,
                4744,
                4575,
                4750,
                1470,
                2121,
                1048,
                1080,
                4480,
                1709,
                2525,
                120,
                4679,
                4840,
                4701,
                4448,
                466,
                535,
                2730,
                4260,
                3119,
                4708,
                4644,
                4561,
                4558,
                607,
                2267,
                1625,
                4640,
                1037,
                1618,
                4657,
                4600,
                523,
                4717,
                1594,
                577,
                699,
                4692,
                2404,
                1891,
                4596,
                343,
                4567,
                4488,
                3719,
                546,
                4208,
                4640,
                4656
            ]
        },
        "detections": 500,
        "events": 190238
    }
}