{
    "job_args": {
        "metric_limit": 500,
        "seed": 4184627491
    },
    "job_id": "batch_2_do_500",
    "result": {
        "collections": {
            "crystal": [
                0.3374248880571618,
                0.38051664065613683,
                0.6616572831606164,
                0.15293754200183263,
                0.421838750286093,
                0.09446085329006801,
                0.39066690762309414,
                0.6616572831606167,
                0.6616572831606164,
                0.073039,
                0.3588178857900982,
                0.3600712916670016,
                0.5326653500377306,
                0.12577875310846998,
                0.6616572831606164,
                0.4876395941103072,
                0.6616572831606166,
                0.6616572831606167,
                0.07525000000000001,
                0.6616572831606167,
                0.6616572831606166,
                0.08356998420722285,
                0.6616572831606164,
                0.6616572831606166,
                0.4567430467200144,
                0.6616572831606164,
                0.13105243983317533,
                0.34078746132661053,
                0.6616572831606166,
                0.6616572831606166,
                0.6616572831606167,
                0.6616572831606166,
                0.6616572831606166,
                0.4744015291047714,
                0.024268481702173328,
                0.556981210452967,
                0.6616572831606166,
                0.2555768303407309,
                0.07525,
                0.4534638258091619,
                0.6616572831606166,
                0.24521402438037704,
                0.11048821597693814,
                0.13233947834400658,
                0.6616572831606167,
                0.6616572831606164,
                0.5885222643740063,
                0.6616572831606167,
                0.6616572831606166,
                0.6616572831606166,
                0.03731652160461463,
                0.29296493812482927,
                0.6076986696557726,
                0.38975292680610574,
                0.45040640503889406,
                0.025516568571286924,
                0.24345664906083953,
                0.026763830872393535,
                0.6616572831606166,
                0.6616572831606167,
                0.48293760572251115,
                0.3754203966181931,
                0.6616572831606166,
                0.22366802918158546,
                0.6616572831606166,
                0.6616572831606164,
                0.2745207168240861,
                0.4616943592737636,
                0.4523242589139568,
                0.6616572831606167,
                0.013446735726394654,
                0.23153513899845413,
                0.6616572831606166,
                0.4756195125450042,
                0.2504884060063484,
                0.43806827302221374,
                0.14055283905485683,
                0.1928479844861165,
                0.23838499337126445,
                0.4806302680301212,
                0.6315997309137069,
                0.21745920935764235,
                0.07524999999999998,
                0.3221319795382494,
                0.6616572831606166,
                0.07412970154376425,
                0.4538545774309048,
                0.6616572831606166,
                0.6616572831606164,
                0.6616572831606166,
                0.15019233141465127,
                0.05141415134151417,
                0.6616572831606167,
                0.4987004286565183,
                0.6616572831606167,
                0.4807344054179068,
                0.6616572831606167,
                0.6158269813119686,
                0.44137114380684095,
                0.19759768235951541,
                0.45408319289827914,
                0.6616572831606166,
                0.6616572831606167,
                0.32180575167081904,
                0.07525,
                0.6616572831606164,
                0.32698937754586455,
                0.5599535298204286,
                0.30106125728475486,
                0.24137840405346492,
                0.04442950000000001,
                0.6616572831606166,
                0.6616572831606164,
                0.14738116368339524,
                0.41494858151712954,
                0.6616572831606166,
                0.6616572831606166,
                0.32951076983533945,
                0.4076674214243981,
                0.10315273897243604,
                0.6616572831606166,
                0.6616572831606166,
                0.6616572831606164,
                0.6616572831606166,
                0.45651772933615986,
                0.327856666167231,
                0.6616572831606166,
                0.07525,
                0.13491906482011592,
                0.18659391177917561,
                0.21687123364192334,
                0.37485998582517266,
                0.4998280621415863,
                0.07384875883293418,
                0.6616572831606167,
                0.6616572831606166,
                0.3119481479200744,
                0.6616572831606166,
                0.25830388770792734,
                0.6616572831606167,
                0.19704495666573493,
                0.008484892902291485,
                0.19389297623271198,
                0.6616572831606167,
                0.13456702792283115,
                0.5150452177082879,
                0.12287162972404692,
                0.0433086647875247,
                0.6616572831606167,
                0.5440619802840776,
                0.030464624513297234,
                0.41626665639252747,
                0.6616572831606166,
                0.6616572831606167,
                0.6616572831606166,
                0.349946033673488,
                0.019479705247900103,
                0.07404843314270683,
                0.6616572831606166,
                0.6616572831606166,
                0.6616572831606166,
                0.4494281647422266,
                0.6616572831606166,
                0.6616572831606164,
                0.4272933610510199,
                0.6455583404282395,
                0.529123880799237,
                0.14118019065338427,
                0.10718593178643976,
                0.18659156454228348,
                0.6616572831606164,
                0.6616572831606166,
                0.5589828998402863,
                0.47525377838631677,
                0.6616572831606164,
                0.13753786128712042,
                0.6616572831606166,
                0.6616572831606166,
                0.6616572831606168,
                0.11218496232569941,
                0.38754248908872,
                0.6616572831606164,
                0.14564341537306336,
                0.4901808791925181,
                0.12052208168984191,
                0.6616572831606166,
                0.20368228701817148,
                0.2644707474070189,
                0.6616572831606167,
                0.20365939462814842,
                0.19799798598737461,
                0.0882024,
                0.20406695887225906,
                0.28857782753043026,
                0.22715477140538334,
                0.3441988483054325,
                0.17923234262180976,
                0.6616572831606167,
                0.39810102041336126,
                0.6616572831606166,
                0.38036437718808647,
                0.07415048195815156,
                0.4123331124902676,
                0.4134523978292284,
                0.6616572831606163,
                0.6616572831606166,
                0.07525,
                0.6616572831606166,
                0.6616572831606167,
                0.46402839882167674,
                0.6616572831606168,
                0.20755449648652602,
                0.6616572831606167,
                0.039459925448663946,
                0.25853137300956086,
                0.6616572831606164,
                0.5348366304501156,
                0.196423491648345,
                0.2084445959871682,
                0.3228595038068195,
                0.05120650763707435,
                0.05193212184154605,
                0.41201155320593236,
                0.6616572831606166,
                0.6616572831606166,
                0.6616572831606164,
                0.6616572831606167,
                0.6616572831606164,
                0.26564704011658014,
                0.6616572831606166,
                0.6616572831606166,
                0.6616572831606166,
                0.6616572831606166,
                0.0869522110606033,
                0.5254982499116952,
                0.23212353411458742,
                0.6616572831606164,
                0.6616572831606167,
                0.3722627048296421,
                0.10716597124621036,
                0.4026359265094433,
                0.14518377581595962,
                0.6616572831606164,
                0.13264979674518707,
                0.22653589533447221,
                0.3622609902775099,
                0.6616572831606164,
                0.6616572831606167,
                0.06843297597987644,
                0.5359960114973713,
                0.21684977792841392,
                0.6616572831606166,
                0.15013966686764585,
                0.6616572831606166,
                0.6616572831606164,
                0.07524999999999998,
                0.3876757102064425,
                0.09105245116640992,
                0.2093979552535702,
                0.2600334061144362,
                0.5697997902755153,
                0.6616572831606166,
                0.4430070941122116,
                0.38568435783952915,
                0.6616572831606164,
                0.6616572831606166,
                0.38060479791408075,
                0.2657810423361281,
                0.6616572831606166,
                0.4496843225080715,
                0.4854536769169212,
                0.24197525913972556,
                0.3869223047163538,
                0.06763581951233466,
                0.0847407,
                0.1747359856191904,
                0.40181260199443514,
                0.6329492750517384,
                0.005065184869570222,
                0.24278298066084625,
                0.6616572831606167,
                0.05307607358851352,
                0.6616572831606166,
                0.25708189693396644,
                0.0422202,
                0.6616572831606166,
                0.17414354694244671,
                0.6616572831606167,
                0.6616572831606167,
                0.6616572831606166,
                0.4097459236796055,
                0.6616572831606166,
                0.11223045814966925,
                0.48695818565169846,
                0.07303899999999999,
                0.0187212759031532,
                0.6616572831606166,
                0.0529986,
                0.6616572831606164,
                0.10439673155523188,
                0.2648971020552745,
                0.07525,
                0.6616572831606166,
                0.44854191585060865,
                0.6616572831606166,
                0.4401682209487463,
                0.38256222857430633,
                0.5677410732735076,
                0.3872592911580464,
                0.4205059598593001,
                0.4633656768418788,
                0.48652012513501824,
                0.6616572831606167,
                0.46278001395586416,
                0.19647135143682248,
                0.6616572831606166,
                0.39475545384247834,
                0.0882464383746111,
                0.3068462922646796,
                0.5838661588564353,
                0.6616572831606166,
                0.0847407,
                0.6239038961629143,
                0.469301545870331,
                0.6616572831606166,
                0.33159305644200227,
                0.6616572831606166,
                0.47301556142510465,
                0.31085869281796363,
                0.43967774805734516,
                0.4895299081681816,
                0.5102561850254836,
                0.25473024938267524,
                0.2817971973455344,
                0.6282439689695002,
                0.6556907818508079,
                0.03683311930455091,
                0.5318949768022878,
                0.6616572831606164,
                0.07524999999999998,
                0.3052603853761363,
                0.3963020130940757,
                0.07525000000000001,
                0.6616572831606163,
                0.41021584617620566,
                0.09528079431096415,
                0.6616572831606164,
                0.4477226571331808,
                0.21680553618237006,
                0.5890383190692241,
                0.0703693572306121,
                0.481736654570491,
                0.6616572831606167,
                0.1896124987853185,
                0.6616572831606166,
                0.16411096585276008,
                0.6616572831606166,
                0.6616572831606166,
                0.6616572831606166,
                0.6616572831606166,
                0.06747679778733597,
                0.3964065621755568,
                0.07525,
                0.6616572831606166,
                0.6616572831606166,
                0.6616572831606167,
                0.5148239327691818,
                0.024585090523025543,
                0.6616572831606164,
                0.2541047992435207,
                0.6616572831606167,
                0.3465556984350614,
                0.6616572831606166,
                0.6384744189472354,
                0.45396177087376305,
                0.6616572831606166,
                0.6616572831606166,
                0.6616572831606166,
                0.22352213965286477,
                0.6616572831606166,
                0.44876728083194695,
                0.1632023393505097,
                0.6616572831606166,
                0.6616572831606166,
                0.6616572831606166,
                0.16661977935546635,
                0.6616572831606166,
                0.06585385864613025,
                0.2378623416749745,
                0.3855527987481709,
                0.3467370967348291,
                0.1373663537110451,
                0.23061507536352185,
                0.6616572831606166,
                0.12988021520982163,
                0.40797297439443414,
                0.6616572831606166,
                0.06768712930632262,
                0.24268347470367663,
                0.6616572831606166,
                0.6616572831606164,
                0.04594603253491947,
                0.6616572831606166,
                0.11982078793626649,
                0.6616572831606166,
                0.6616572831606167,
                0.6616572831606166,
                0.6616572831606164,
                0.6616572831606166,
                0.43534462850173267,
                0.17578283785275461,
                0.6616572831606166,
                0.41013578873742984,
                0.4041658776268102,
                0.6616572831606167,
                0.07657308344958769,
                0.6616572831606167,
                0.6616572831606167,
                0.4762515681625005,
                0.2594239989556601,
                0.004118680499848648,
                0.14115972543076077,
                0.6616572831606164,
                0.04943390291939709,
                0.1384021887465873,
                0.4464180828430392,
                0.07303900000000002,
                0.33393419673520086,
                0.485908528838629,
                0.6616572831606164,
                0.6616572831606166,
                0.6616572831606167,
                0.3502097618251906,
                0.31698625265523034,
                0.6616572831606166,
                0.6616572831606164,
                0.3931816496235949,
                0.6616572831606167,
                0.5929025057510733,
                0.6616572831606166,
                0.3029441800939927,
                0.5218459929549056,
                0.6616572831606166,
                0.5008432423779892,
                0.07525,
                0.4493380463506443,
                0.49318969520935885,
                0.46491638055337714,
                0.10057341207195569,
                0.6616572831606167,
                0.6616572831606166,
                0.13299544999898572,
                0.6616572831606167,
                0.3141505535328155,
                0.4609029782441998,
                0.27795788510478087,
                0.6616572831606167,
                0.6616572831606166,
                0.6616572831606164,
                0.008019047591721007,
                0.07525,
                0.6616572831606164,
                0.10232481911309144,
                0.5859544481523054,
                0.6616572831606167,
                0.6616572831606166,
                0.073039,
                0.48023709739537845,
                0.6616572831606168,
                0.16593242612757203,
                0.0996909043691825,
                0.6616572831606166,
                0.31143708610952,
                0.6616572831606167,
                0.5065499360478549,
                0.46469043832721696,
                0.4201388306588031,
                0.07303899999999999,
                0.6616572831606164,
                0.6616572831606164,
                0.6616572831606166,
                0.6616572831606167,
                0.6616572831606166,
                0.33071874534637336,
                0.07525000000000001,
                0.6616572831606166,
                0.41872964751638686,
                0.2885511666866469,
                0.46826299639426067,
                0.4235668107298489,
                0.2651404233965898,
                0.0394361631878552,
                0.29089977642644727,
                0.43521308158119515,
                0.20441319163929825,
                0.033819636860684676,
                0.6616572831606168,
                0.36237766453145026,
                0.3342954517795341,
                0.6616572831606167
            ],
            "photocathode": [
                2424,
                2710,
                4759,
                1078,
                2989,
                684,
                2913,
                4583,
                4615,
                505,
                2513,
                2551,
                3827,
                915,
                4828,
                3424,
                4653,
                4602,
                561,
                4659,
                4597,
                571,
                4536,
                4617,
                3173,
                4721,
                921,
                2456,
                4554,
                4570,
                4471,
                4662,
                4481,
                3314,
                159,
                3949,
                4502,
                1844,
                511,
                3211,
                4767,
                1772,
                707,
                924,
                4770,
                4704,
                4023,
                4559,
                4568,
                4537,
                264,
                2063,
                4299,
                2734,
                3166,
                180,
                1694,
                173,
                4654,
                4741,
                3270,
                2652,
                4781,
                1518,
                4680,
                4653,
                2006,
                3266,
                3193,
                4558,
                86,
                1616,
                4682,
                3314,
                1769,
                3088,
                996,
                1303,
                1713,
                3379,
                4410,
                1595,
                478,
                2242,
                4642,
                513,
                3209,
                4519,
                4772,
                4551,
                1084,
                360,
                4600,
                3535,
                4689,
                3395,
                4685,
                4356,
                3076,
                1399,
                3111,
                4582,
                4598,
                2303,
                536,
                4467,
                2342,
                3789,
                2139,
                1637,
                296,
                4716,
                4629,
                1002,
                2965,
                4550,
                4622,
                2261,
                2835,
                706,
                4517,
                4789,
                4644,
                4676,
                3238,
                2371,
                4565,
                527,
                985,
                1282,
                1602,
                2621,
                3500,
                501,
                4632,
                4594,
                2243,
                4742,
                1786,
                4592,
                1322,
                56,
                1404,
                4716,
                958,
                3608,
                872,
                287,
                4604,
                3645,
                226,
                2962,
                4592,
                4686,
                4671,
                2464,
                134,
                520,
                4471,
                4726,
                4625,
                3175,
                4727,
                4560,
                3029,
                4654,
                3774,
                995,
                806,
                1325,
                4617,
                4795,
                3975,
                3306,
                4593,
                1000,
                4727,
                4751,
                4710,
                792,
                2741,
                4753,
                1013,
                3464,
                858,
                4689,
                1455,
                1853,
                4459,
                1363,
                1406,
                669,
                1498,
                2081,
                1474,
                2474,
                1292,
                4586,
                2821,
                4821,
                2742,
                514,
                2942,
                2970,
                4734,
                4580,
                496,
                4578,
                4617,
                3204,
                4528,
                1490,
                4560,
                276,
                1819,
                4728,
                3731,
                1423,
                1423,
                2248,
                348,
                377,
                2855,
                4713,
                4739,
                4668,
                4659,
                4622,
                1918,
                4628,
                4730,
                4717,
                4670,
                633,
                3588,
                1580,
                4634,
                4648,
                2625,
                781,
                2796,
                1051,
                4677,
                931,
                1621,
                2695,
                4726,
                4639,
                499,
                3908,
                1514,
                4672,
                1039,
                4659,
                4609,
                505,
                2691,
                635,
                1419,
                1810,
                4063,
                4647,
                3020,
                2749,
                4603,
                4707,
                2721,
                1966,
                4553,
                3024,
                3296,
                1602,
                2809,
                468,
                576,
                1244,
                2912,
                4510,
                32,
                1772,
                4752,
                400,
                4642,
                1910,
                319,
                4685,
                1220,
                4613,
                4515,
                4623,
                2763,
                4681,
                738,
                3353,
                476,
                112,
                4629,
                365,
                4483,
                755,
                1874,
                523,
                4637,
                3137,
                4687,
                3076,
                2720,
                4082,
                2742,
                2972,
                3284,
                3419,
                4499,
                3171,
                1348,
                4587,
                2674,
                663,
                2146,
                4052,
                4593,
                614,
                4468,
                3263,
                4786,
                2304,
                4708,
                3275,
                2155,
                3062,
                3509,
                3656,
                1778,
                1892,
                4430,
                4566,
                251,
                3641,
                4693,
                533,
                2114,
                2842,
                494,
                4659,
                2977,
                655,
                4614,
                3086,
                1530,
                4023,
                491,
                3334,
                4865,
                1320,
                4726,
                1185,
                4658,
                4707,
                4628,
                4545,
                458,
                2726,
                559,
                4646,
                4507,
                4607,
                3814,
                179,
                4563,
                1861,
                4713,
                2472,
                4589,
                4574,
                3352,
                4664,
                4635,
                4682,
                1595,
                4739,
                3266,
                1032,
                4510,
                4774,
                4593,
                1153,
                4587,
                496,
                1692,
                2644,
                2384,
                947,
                1609,
                4585,
                894,
                2891,
                4695,
                450,
                1689,
                4707,
                4545,
                329,
                4732,
                874,
                4640,
                4499,
                4598,
                4483,
                4638,
                3085,
                1205,
                4753,
                2936,
                2827,
                4633,
                516,
                4698,
                4646,
                3389,
                1785,
                26,
                1011,
                4499,
                362,
                975,
                3144,
                511,
                2290,
                3372,
                4568,
                4664,
                4554,
                2549,
                2182,
                4766,
                4748,
                2789,
                4667,
                4159,
                4552,
                2095,
                3628,
                4526,
                3578,
                539,
                3131,
                3442,
                3172,
                648,
                4564,
                4564,
                942,
                4597,
                2115,
                3280,
                1935,
                4571,
                4719,
                4688,
                64,
                506,
                4675,
                777,
                4218,
                4686,
                4696,
                487,
                3368,
                4544,
                1179,
                659,
                4531,
                2254,
                4700,
                3545,
                3277,
                2871,
                484,
                4534,
                4672,
                4733,
                4576,
                4674,
                2291,
                540,
                4685,
                2964,
                2033,
                3273,
                2886,
                1848,
                266,
                2004,
                3052,
                1507,
                255,
                4588,
                2475,
                2278,
                4681
            ]
        },
        "detections": 500,
        "events": 189749
    }
}