{
    "job_args": {
        "metric_limit": 500,
        "seed": 3206799301
    },
    "job_id": "batch_112_do_500",
    "result": {
        "collections": {
            "crystal": [
                0.6616572831606166,
                0.37170092479628847,
                0.12304927116800148,
                0.6616572831606164,
                0.6616572831606166,
                0.401037277019153,
                0.5254352124231974,
                0.11540148057013266,
                0.555583762008129,
                0.5539803519853229,
                0.6616572831606166,
                0.5162220422740772,
                0.41251932640310346,
                0.6616572831606166,
                0.6616572831606167,
                0.3257732595374812,
                0.6616572831606166,
                0.2814123091451912,
                0.6616572831606166,
                0.41254741752609636,
                0.2688995466160427,
                0.5210862557245188,
                0.6616572831606167,
                0.6616572831606164,
                0.2267933837601988,
                0.09263839127377016,
                0.6449917319890863,
                0.07724133955253415,
                0.11137721604133279,
                0.10945432504591347,
                0.4026183134854374,
                0.37577693947211627,
                0.6616572831606166,
                0.2669761485471982,
                0.3951813768653239,
                0.6616572831606167,
                0.04994431097325902,
                0.4247175619470176,
                0.6616572831606166,
                0.45948607879364983,
                0.17556303502169832,
                0.09488315867415031,
                0.21439337060268,
                0.6616572831606168,
                0.2819501871981759,
                0.6616572831606164,
                0.03737967221901367,
                0.6616572831606166,
                0.6616572831606166,
                0.4465650530380351,
                0.43017962625444384,
                0.38293586238242416,
                0.6616572831606166,
                0.029630242824972175,
                0.6616572831606166,
                0.0012315648663967504,
                0.6566283471341794,
                0.6616572831606166,
                0.6616572831606167,
                0.27746657115346623,
                0.510429917314696,
                0.18429952193073273,
                0.16241461265635893,
                0.6556406630087859,
                0.4886949477353004,
                0.246089367971691,
                0.4432785128938317,
                0.31242172629688036,
                0.6616572831606167,
                0.44344808967063154,
                0.18747483224298847,
                0.4574420044290683,
                0.45348490528779195,
                0.6616572831606166,
                0.6616572831606166,
                0.6430800438987259,
                0.6616572831606166,
                0.5238078539389532,
                0.32347176760146584,
                0.42940482900910515,
                0.3832385287393144,
                0.6616572831606167,
                0.2532587708125907,
                0.11174845182962388,
                0.12506072591756145,
                0.6616572831606167,
                0.6616572831606167,
                0.6616572831606166,
                0.19623059418708555,
                0.4214967644030826,
                0.6616572831606167,
                0.14651255387722623,
                0.037442245435324595,
                0.29144232678741017,
                0.21457244314016446,
                0.40701899892643406,
                0.6616572831606166,
                0.5341440055327198,
                0.6616572831606166,
                0.6616572831606164,
                0.10462120730496238,
                0.5656335549211915,
                0.6616572831606167,
                0.041541295442941384,
                0.6616572831606167,
                0.6616572831606166,
                0.19934627590428106,
                0.19212503730786434,
                0.6616572831606167,
                0.6616572831606167,
                0.5289854110138931,
                0.6242446199833426,
                0.3237350462578157,
                0.6616572831606164,
                0.17924282668013763,
                0.0496782695683895,
                0.2676170234723896,
                0.34218573471469005,
                0.20785181575578993,
                0.14088058068013498,
                0.06366032083024625,
                0.45468333954858947,
                0.6616572831606166,
                0.6616572831606164,
                0.6597035281960331,
                0.09564633838752025,
                0.19909931900298466,
                0.6616572831606167,
                0.6616572831606167,
                0.4985263254997234,
                0.44864472066240624,
                0.44281965998023004,
                0.42853519032034915,
                0.2282513733725406,
                0.06949127158694424,
                0.3253129888344847,
                0.03746433113063229,
                0.31703320861170325,
                0.23343742354608082,
                0.4668630500779848,
                0.4189255765164433,
                0.07525,
                0.38392447768918114,
                0.6616572831606167,
                0.6616572831606166,
                0.6616572831606166,
                0.026374372000092072,
                0.6616572831606166,
                0.6616572831606167,
                0.6616572831606164,
                0.6616572831606166,
                0.35478906631899965,
                0.4376027912580619,
                0.6616572831606166,
                0.5364947929626804,
                0.6616572831606166,
                0.15448033918417353,
                0.6616572831606166,
                0.6616572831606164,
                0.07525000000000001,
                0.43964909785152634,
                0.3812518215514151,
                0.1742430058145925,
                0.6616572831606167,
                0.6616572831606167,
                0.6616572831606166,
                0.36585529713978526,
                0.6616572831606166,
                0.4606091062350151,
                0.42065488230909714,
                0.6616572831606166,
                0.6616572831606167,
                0.6616572831606167,
                0.6616572831606167,
                0.494513450347811,
                0.3552544054582983,
                0.11208520635330366,
                0.3088936356202912,
                0.4112713799524853,
                0.3584835740130601,
                0.45848272579855615,
                0.14693286065378108,
                0.46993117395066664,
                0.6616572831606164,
                0.3809089134185174,
                0.6616572831606164,
                0.4518014880205538,
                0.6616572831606163,
                0.6616572831606164,
                0.041886815717147696,
                0.2565548180816632,
                0.6616572831606164,
                0.6616572831606166,
                0.6616572831606166,
                0.46127963889964874,
                0.6616572831606166,
                0.6616572831606167,
                0.6616572831606167,
                0.5180329633327722,
                0.13863378031738885,
                0.6616572831606166,
                0.06647242229897499,
                0.4925772760006696,
                0.47265995203504485,
                0.3693992312746762,
                0.45992836733222775,
                0.5025533744482574,
                0.6616572831606167,
                0.6255512413842839,
                0.6616572831606166,
                0.4899034732690957,
                0.6616572831606166,
                0.42928263635172514,
                0.041594689304894295,
                0.39537719598227444,
                0.43476688918230433,
                0.6616572831606166,
                0.3615928693435273,
                0.6616572831606166,
                0.6616572831606166,
                0.31510199381542947,
                0.6616572831606166,
                0.6616572831606167,
                0.466747680705572,
                0.6616572831606166,
                0.046157804929989,
                0.6616572831606167,
                0.6399495369461209,
                0.1701036239486569,
                0.47546277494984623,
                0.3232423203116428,
                0.6616572831606166,
                0.6616572831606164,
                0.5069498707158175,
                0.07673739915476141,
                0.6616572831606166,
                0.6616572831606164,
                0.6616572831606166,
                0.09389337304854539,
                0.10861237555540137,
                0.3355088406764546,
                0.1612590613854219,
                0.2835142580653713,
                0.6616572831606166,
                0.6616572831606167,
                0.5483984903632073,
                0.13259411129558368,
                0.3606431289804499,
                0.4494122326913154,
                0.6616572831606164,
                0.6616572831606166,
                0.4250892392443164,
                0.03597430132093543,
                0.6616572831606164,
                0.5193231998382302,
                0.22643217249266462,
                0.6616572831606167,
                0.4931424105405087,
                0.447661060156051,
                0.6616572831606164,
                0.6616572831606166,
                0.6616572831606167,
                0.6616572831606164,
                0.4902807072378141,
                0.6616572831606166,
                0.6616572831606167,
                0.6616572831606164,
                0.2897384033688114,
                0.5496085309815502,
                0.4660720291214904,
                0.6616572831606167,
                0.6616572831606166,
                0.38261224400045574,
                0.2770061994559168,
                0.14468409198395388,
                0.05834412322853294,
                0.445830915264672,
                0.1489508914844765,
                0.40153164269170916,
                0.6616572831606164,
                0.6616572831606166,
                0.6022606321230219,
                0.6616572831606166,
                0.6616572831606166,
                0.6616572831606164,
                0.6616572831606166,
                0.6616572831606166,
                0.25390165054435654,
                0.07122077413052841,
                0.6616572831606164,
                0.18955336529814568,
                0.4698137536305891,
                0.34451593409220993,
                0.13324329598405105,
                0.6616572831606164,
                0.6616572831606164,
                0.6616572831606164,
                0.31639619738538005,
                0.32664906258138526,
                0.6616572831606167,
                0.6616572831606167,
                0.6616572831606164,
                0.6616572831606167,
                0.45302031194038417,
                0.6616572831606166,
                0.23484053221443849,
                0.5139329476512992,
                0.6616572831606164,
                0.6616572831606164,
                0.13424550562301973,
                0.4726758958843626,
                0.6616572831606166,
                0.03989500940732765,
                0.08189636541965295,
                0.6616572831606167,
                0.14922300126263788,
                0.6616572831606166,
                0.28648724603481546,
                0.40416263035674127,
                0.6616572831606167,
                0.6616572831606164,
                0.3635343647492978,
                0.34069151533458025,
                0.6616572831606167,
                0.2395075224408984,
                0.4777767047111792,
                0.45351929322981344,
                0.22271825303953846,
                0.2746452780823377,
                0.6032414036317699,
                0.6616572831606167,
                0.2369733329853594,
                0.21324543075104307,
                0.6616572831606167,
                0.0170006973362794,
                0.6616572831606167,
                0.0012825775391617222,
                0.6616572831606164,
                0.6616572831606164,
                0.6616572831606164,
                0.412716765596768,
                0.6616572831606166,
                0.07253580270151727,
                0.5578075753966969,
                0.6616572831606166,
                0.0726575284360157,
                0.0408022,
                0.6616572831606164,
                0.5129221470890405,
                0.14738691929085163,
                0.6616572831606166,
                0.6616572831606164,
                0.06504299795215152,
                0.13679905363014677,
                0.4551568576455174,
                0.5270008938445818,
                0.5185012230557338,
                0.6616572831606166,
                0.073039,
                0.4578964173348831,
                0.14227313742991604,
                0.487270101619025,
                0.29445432396436155,
                0.5638656686251481,
                0.06437779515467246,
                0.6616572831606164,
                0.6616572831606167,
                0.6616572831606166,
                0.6616572831606166,
                0.1972972852757241,
                0.403667127424054,
                0.6616572831606166,
                0.2625837895374113,
                0.6616572831606164,
                0.6616572831606166,
                0.6616572831606166,
                0.19686976286301083,
                0.3379158879080897,
                0.6616572831606164,
                0.2656429344115858,
                0.32985663908948554,
                0.5366638475951142,
                0.6616572831606166,
                0.39248381703838103,
                0.6616572831606164,
                0.22377223215916708,
                0.3243379945615447,
                0.6616572831606167,
                0.33279161857049006,
                0.1763972385742795,
                0.6616572831606167,
                0.06631748454795117,
                0.3936992254107515,
                0.3051955025945274,
                0.43126415624166514,
                0.6616572831606167,
                0.6616572831606167,
                0.4604769639672901,
                0.2813578417450874,
                0.3120557845700485,
                0.6616572831606166,
                0.6616572831606166,
                0.07524999999999998,
                0.2166732254742172,
                0.6616572831606164,
                0.31527231390462257,
                0.6616572831606164,
                0.6616572831606166,
                0.6616572831606164,
                0.3961607901599073,
                0.6616572831606166,
                0.6616572831606164,
                0.5276919262598251,
                0.32969910657625473,
                0.279959155942084,
                0.6616572831606167,
                0.24230067510491998,
                0.6616572831606166,
                0.2867750303832603,
                0.6616572831606167,
                0.13867719303202397,
                0.3052690496008499,
                0.6616572831606166,
                0.0852354,
                0.6616572831606164,
                0.6616572831606167,
                0.13069311405121142,
                0.5531074960929022,
                0.0881791,
                0.011120683932454689,
                0.49005740340007997,
                0.6616572831606166,
                0.2327513854673474,
                0.32675503461193184,
                0.391428799159941,
                0.16155447484235505,
                0.6616572831606164,
                0.11653375890754539,
                0.2515223762003789,
                0.3538052397990178,
                0.38315502233080045,
                0.4435282540267652,
                0.32697118205975717,
                0.01405626178762276,
                0.3119937063201051,
                0.6616572831606167,
                0.4293920791305703,
                0.6616572831606167,
                0.44502716101685563,
                0.6616572831606167,
                0.5049438870291392,
                0.16180463422973865,
                0.49686003130994055,
                0.04677735686689388,
                0.08523539999999999,
                0.4277880913174734,
                0.6616572831606166,
                0.6616572831606166,
                0.3303336240702532,
                0.22506694209108408,
                0.3281369467327111,
                0.24736170537238938,
                0.6616572831606166,
                0.3738917098268635,
                0.6616572831606167,
                0.5709240477392976,
                0.6616572831606164,
                0.6616572831606164,
                0.6616572831606166,
                0.26537750630924617,
                0.6616572831606166,
                0.6616572831606166,
                0.6616572831606166,
                0.34046860714744487,
                0.6616572831606166,
                0.31413736586196916,
                0.6616572831606167,
                0.6616572831606167,
                0.258826265800464,
                0.6616572831606166,
                0.5967972342648837,
                0.6616572831606167,
                0.6616572831606167,
                0.4323320633000692,
                0.6616572831606166,
                0.032980549758928945,
                0.6616572831606166,
                0.41365595239707165,
                0.5798534497117367,
                0.6616572831606166,
                0.6616572831606166,
                0.011269506235018989,
                0.10138263348770193,
                0.46789092286228073,
                0.6616572831606164,
                0.6616572831606166,
                0.09251618386635663,
                0.4167199555628426,
                0.4610680807387711,
                0.16541470794979893
            ],
            "photocathode": [
                4625,
                2677,
                857,
                4600,
                4542,
                2842,
                3630,
                827,
                3947,
                3876,
                4644,
                3684,
                2881,
                4652,
                4610,
                2219,
                4693,
                1934,
                4719,
                2819,
                1879,
                3696,
                4663,
                4555,
                1587,
                667,
                4461,
                568,
                789,
                759,
                2838,
                2671,
                4536,
                1915,
                2775,
                4752,
                359,
                2924,
                4643,
                3236,
                1215,
                670,
                1506,
                4683,
                1984,
                4627,
                226,
                4789,
                4759,
                3151,
                2973,
                2639,
                4784,
                198,
                4615,
                3,
                4654,
                4646,
                4671,
                1954,
                3552,
                1305,
                1069,
                4630,
                3397,
                1764,
                3172,
                2189,
                4543,
                2980,
                1327,
                3164,
                2890,
                4901,
                4611,
                4540,
                4615,
                3672,
                2294,
                2931,
                2574,
                4518,
                1800,
                797,
                851,
                4676,
                4694,
                4433,
                1363,
                3028,
                4577,
                1045,
                258,
                2037,
                1496,
                2902,
                4670,
                3702,
                4600,
                4702,
                764,
                3978,
                4622,
                283,
                4644,
                4617,
                1380,
                1347,
                4622,
                4629,
                3692,
                4425,
                2307,
                4456,
                1311,
                342,
                1870,
                2314,
                1445,
                980,
                419,
                3181,
                4607,
                4654,
                4689,
                640,
                1429,
                4670,
                4698,
                3667,
                3198,
                3143,
                2927,
                1596,
                498,
                2315,
                265,
                2203,
                1662,
                3296,
                3021,
                587,
                2717,
                4693,
                4697,
                4647,
                186,
                4588,
                4579,
                4671,
                4623,
                2540,
                2972,
                4658,
                3690,
                4664,
                1084,
                4587,
                4541,
                531,
                2991,
                2657,
                1274,
                4733,
                4578,
                4573,
                2590,
                4596,
                3261,
                2857,
                4598,
                4528,
                4697,
                4552,
                3457,
                2463,
                794,
                2259,
                2846,
                2704,
                3199,
                1082,
                3390,
                4682,
                2632,
                4588,
                3240,
                4840,
                4572,
                290,
                1744,
                4527,
                4738,
                4641,
                3293,
                4635,
                4606,
                4561,
                3672,
                1046,
                4619,
                464,
                3534,
                3320,
                2539,
                3212,
                3617,
                4635,
                4374,
                4463,
                3480,
                4674,
                2946,
                308,
                2779,
                3023,
                4615,
                2563,
                4601,
                4647,
                2167,
                4670,
                4693,
                3178,
                4557,
                320,
                4627,
                4452,
                1212,
                3250,
                2307,
                4601,
                4563,
                3518,
                540,
                4612,
                4664,
                4741,
                657,
                788,
                2353,
                1129,
                1980,
                4629,
                4545,
                3910,
                929,
                2441,
                3312,
                4547,
                4542,
                2904,
                261,
                4595,
                3584,
                1542,
                4622,
                3480,
                3162,
                4622,
                4601,
                4651,
                4600,
                3374,
                4752,
                4681,
                4712,
                2060,
                3734,
                3295,
                4608,
                4543,
                2606,
                1937,
                991,
                391,
                3108,
                1072,
                2844,
                4428,
                4603,
                4339,
                4684,
                4702,
                4704,
                4564,
                4648,
                1784,
                487,
                4574,
                1391,
                3426,
                2403,
                911,
                4531,
                4769,
                4723,
                2099,
                2276,
                4607,
                4580,
                4719,
                4683,
                3165,
                4577,
                1688,
                3551,
                4532,
                4586,
                891,
                3298,
                4669,
                305,
                586,
                4668,
                1110,
                4687,
                2075,
                2851,
                4678,
                4708,
                2572,
                2443,
                4715,
                1706,
                3328,
                2959,
                1624,
                1965,
                4210,
                4693,
                1676,
                1543,
                4536,
                129,
                4575,
                9,
                4730,
                4635,
                4713,
                2797,
                4664,
                517,
                3867,
                4584,
                515,
                276,
                4666,
                3635,
                1035,
                4657,
                4670,
                472,
                1001,
                3150,
                3731,
                3611,
                4563,
                542,
                3188,
                1050,
                3530,
                2032,
                3980,
                422,
                4589,
                4704,
                4562,
                4504,
                1411,
                2854,
                4584,
                1882,
                4483,
                4625,
                4640,
                1330,
                2364,
                4751,
                1807,
                2353,
                3766,
                4449,
                2768,
                4744,
                1548,
                2275,
                4641,
                2429,
                1265,
                4725,
                472,
                2811,
                2085,
                3002,
                4595,
                4792,
                3267,
                1927,
                2200,
                4708,
                4593,
                525,
                1546,
                4504,
                2198,
                4688,
                4732,
                4599,
                2817,
                4571,
                4541,
                3687,
                2312,
                1938,
                4717,
                1692,
                4627,
                1943,
                4665,
                984,
                2244,
                4977,
                558,
                4575,
                4609,
                903,
                3757,
                627,
                64,
                3362,
                4650,
                1596,
                2271,
                2689,
                1113,
                4682,
                751,
                1812,
                2446,
                2668,
                3091,
                2288,
                90,
                2307,
                4705,
                2995,
                4578,
                3129,
                4474,
                3460,
                1147,
                3379,
                292,
                565,
                3093,
                4545,
                4690,
                2328,
                1685,
                2293,
                1697,
                4610,
                2626,
                4626,
                4011,
                4657,
                4760,
                4666,
                1947,
                4530,
                4619,
                4838,
                2444,
                4504,
                2230,
                4717,
                4619,
                1861,
                4649,
                4201,
                4658,
                4641,
                2965,
                4678,
                240,
                4736,
                2881,
                4033,
                4762,
                4653,
                85,
                704,
                3300,
                4650,
                4716,
                650,
                2992,
                3237,
                1167
            ]
        },
        "detections": 500,
        "events": 206652
    }
}