{
    "job_args": {
        "metric_limit": 500,
        "seed": 4043005861
    },
    "job_id": "batch_28_do_500",
    "result": {
        "collections": {
            "crystal": [
                0.6616572831606167,
                0.30714578623480715,
                0.221113277123893,
                0.46861371344572467,
                0.29608964528314036,
                0.246847731585011,
                0.6616572831606164,
                0.6616572831606164,
                0.17781661286878706,
                0.30068559017668595,
                0.3860780074103657,
                0.6616572831606166,
                0.1492815305714401,
                0.4160281371369122,
                0.634908085353468,
                0.05867072587494093,
                0.6616572831606167,
                0.3249500378889672,
                0.6616572831606166,
                0.29223708176639507,
                0.6616572831606167,
                0.48229477416548644,
                0.4103605114272778,
                0.073039,
                0.6616572831606166,
                0.20564571458248104,
                0.6616572831606166,
                0.06863286925647259,
                0.5648084819064457,
                0.30708835351019476,
                0.3835888089098098,
                0.026034757936041302,
                0.6616572831606167,
                0.16435235481027133,
                0.6616572831606166,
                0.22921935877226043,
                0.08523540000000002,
                0.27831289479759114,
                0.6616572831606167,
                0.6616572831606164,
                0.6616572831606167,
                0.32895559725145473,
                0.4492974887300678,
                0.6616572831606167,
                0.41826859453666565,
                0.16654347674554743,
                0.24669230611585852,
                0.4281486485844262,
                0.14613155255737081,
                0.34473917232079687,
                0.011166461785862003,
                0.6616572831606166,
                0.24718316273042898,
                0.2913720460610722,
                0.08249330041674141,
                0.12752434895767195,
                0.2560761909092491,
                0.02378521084064894,
                0.29688594259465906,
                0.08765569999999999,
                0.4865342452964579,
                0.6616572831606164,
                0.1873842192446153,
                0.08582288271804173,
                0.6616572831606166,
                0.4785892151985346,
                0.0876557,
                0.4310501955437671,
                0.6616572831606166,
                0.6616572831606166,
                0.6616572831606166,
                0.06772292305737848,
                0.07524999999999998,
                0.6616572831606164,
                0.3565347971059004,
                0.6616572831606166,
                0.39071035198060505,
                0.42047074455381095,
                0.05236723921679132,
                0.4681016757546182,
                0.4621588827129055,
                0.6616572831606166,
                0.3938334831856368,
                0.40666071444386365,
                0.19738931559079684,
                0.6616572831606167,
                0.6616572831606164,
                0.6616572831606167,
                0.18543527801001877,
                0.6616572831606166,
                0.6616572831606167,
                0.31221045321902974,
                0.6616572831606164,
                0.5210098069524592,
                0.6616572831606167,
                0.3986917906743065,
                0.12597824507773236,
                0.378961011370895,
                0.2895173738762457,
                0.3258271246773623,
                0.1422082942246773,
                0.6616572831606167,
                0.5367720333161353,
                0.6616572831606164,
                0.6616572831606166,
                0.6616572831606166,
                0.6616572831606166,
                0.6616572831606166,
                0.6616572831606167,
                0.5501319834559928,
                0.20700981765343254,
                0.17705144765624298,
                0.6616572831606166,
                0.07461534091246191,
                0.24751453606152046,
                0.3651786233770323,
                0.6616572831606164,
                0.6616572831606167,
                0.6616572831606167,
                0.6616572831606164,
                0.45083689351317446,
                0.15487374820513344,
                0.6616572831606166,
                0.45731169846393227,
                0.6616572831606166,
                0.4755338139176617,
                0.6616572831606167,
                0.43738736360994307,
                0.6094361334247971,
                0.5170416553906665,
                0.6616572831606166,
                0.33899999363552863,
                0.19874307727841778,
                0.22844765886384558,
                0.6616572831606166,
                0.04641743302638346,
                0.6616572831606166,
                0.6616572831606166,
                0.38664419686098983,
                0.6616572831606164,
                0.6616572831606167,
                0.09568415458762147,
                0.6616572831606164,
                0.3788765419649948,
                0.6616572831606164,
                0.6616572831606166,
                0.40178452144032667,
                0.6616572831606166,
                0.048052532439318174,
                0.6616572831606166,
                0.6616572831606166,
                0.11852845615462836,
                0.17827058585448985,
                0.6616572831606164,
                0.22057958305829117,
                0.42023455605499027,
                0.07556000067171631,
                0.03687371165674591,
                0.02518913059912964,
                0.5141127679759033,
                0.6616572831606166,
                0.3262424264734012,
                0.6616572831606167,
                0.21148061643546825,
                0.060785572084116835,
                0.3708014718102981,
                0.30199963963260645,
                0.06214609564768703,
                0.03279993237129064,
                0.2277544645109772,
                0.6616572831606167,
                0.6616572831606167,
                0.6616572831606164,
                0.3846587662122338,
                0.6616572831606166,
                0.6616572831606164,
                0.3015318285422956,
                0.6616572831606164,
                0.6616572831606166,
                0.6616572831606166,
                0.43604860965543374,
                0.6616572831606167,
                0.53670603491211,
                0.6616572831606164,
                0.0847407,
                0.6616572831606164,
                0.6616572831606164,
                0.6616572831606164,
                0.27027565836935147,
                0.6616572831606164,
                0.4629211579215989,
                0.4303913585707148,
                0.6616572831606166,
                0.6591488222865196,
                0.01919138952053301,
                0.46250233991079487,
                0.5406516154713437,
                0.6616572831606164,
                0.13682892688646153,
                0.31109933494185377,
                0.45176777325056305,
                0.1119210580958479,
                0.507684531084407,
                0.6616572831606164,
                0.05680736509090312,
                0.3111501780339547,
                0.6616572831606167,
                0.073039,
                0.5686274835523761,
                0.3982738688083417,
                0.02819835293839157,
                0.6616572831606166,
                0.24583628705210894,
                0.16989133765024492,
                0.6616572831606166,
                0.6616572831606164,
                0.46281347947995627,
                0.6616572831606167,
                0.6319031513898624,
                0.23262541472784948,
                0.22716952422209025,
                0.059227499999999995,
                0.6616572831606164,
                0.6616572831606167,
                0.15795380979094675,
                0.3759982058078718,
                0.29315610945088955,
                0.2659545574871051,
                0.4406272245600405,
                0.0764508977492826,
                0.3275964665603517,
                0.6616572831606167,
                0.5650513718610966,
                0.27858430361236286,
                0.08523539999999999,
                0.2621925785843859,
                0.29941006423481287,
                0.6616572831606166,
                0.6270180808966288,
                0.6616572831606166,
                0.45853506651372655,
                0.6616572831606164,
                0.033398835131100924,
                0.6616572831606166,
                0.04531514606861864,
                0.6616572831606163,
                0.6616572831606167,
                0.4163795504395462,
                0.6616572831606166,
                0.6616572831606167,
                0.2880966654351887,
                0.43594457584880897,
                0.6616572831606166,
                0.5660672274391494,
                0.6616572831606166,
                0.12385604856056141,
                0.6616572831606164,
                0.6616572831606166,
                0.6616572831606164,
                0.15688266204157011,
                0.6616572831606164,
                0.3289683486794041,
                0.6616572831606167,
                0.6616572831606164,
                0.2637954768401525,
                0.6616572831606166,
                0.1861361134981897,
                0.12791340353216474,
                0.54172140749764,
                0.04285376245016259,
                0.40114964249581225,
                0.3272706974670069,
                0.10722029959636427,
                0.019338434444789665,
                0.46037258420576843,
                0.47814518649557963,
                0.6616572831606166,
                0.6616572831606167,
                0.22017775750059143,
                0.4312806402217547,
                0.36372593284082994,
                0.6616572831606166,
                0.6616572831606167,
                0.18812659962530787,
                0.6616572831606166,
                0.163692087763111,
                0.6341266542514603,
                0.4392789264007642,
                0.035975931529904866,
                0.6616572831606164,
                0.5293790920016811,
                0.6616572831606167,
                0.6616572831606167,
                0.22641100577454554,
                0.1898514668919298,
                0.16099665882952383,
                0.6616572831606167,
                0.6616572831606166,
                0.5832494034340453,
                0.4714149172375388,
                0.3717173580075509,
                0.6616572831606164,
                0.4783360172576269,
                0.2413390288611939,
                0.6616572831606166,
                0.6616572831606167,
                0.6616572831606166,
                0.6616572831606166,
                0.6616572831606166,
                0.6616572831606164,
                0.6616572831606164,
                0.6616572831606166,
                0.6616572831606164,
                0.17385921610503258,
                0.06689422207816803,
                0.6616572831606164,
                0.6616572831606167,
                0.42766029725813676,
                0.4183694454093306,
                0.6616572831606167,
                0.3433650831010265,
                0.6607192454019012,
                0.6616572831606166,
                0.321165366969383,
                0.36162546984792143,
                0.3782830158701953,
                0.2999687079481128,
                0.073039,
                0.49218364661247443,
                0.6616572831606166,
                0.210177016454466,
                0.6616572831606167,
                0.6616572831606166,
                0.21589896638195202,
                0.014626066462440468,
                0.4176345657136782,
                0.5889559462851075,
                0.06873109752565693,
                0.20172279577761187,
                0.08676195251344632,
                0.5657198213206012,
                0.6616572831606167,
                0.36273390913053694,
                0.3089299111605284,
                0.6616572831606164,
                0.44143342726751156,
                0.6429658266575475,
                0.6616572831606166,
                0.4875420209029371,
                0.6616572831606167,
                0.6616572831606166,
                0.6616572831606167,
                0.6616572831606167,
                0.6616572831606164,
                0.4464529826193672,
                0.0852354,
                0.6616572831606167,
                0.6616572831606166,
                0.4540944353655333,
                0.6616572831606167,
                0.3461299145954165,
                0.2879941465630887,
                0.5616570894308984,
                0.6616572831606167,
                0.6616572831606164,
                0.6616572831606167,
                0.28681002216168794,
                0.6616572831606166,
                0.4860099019239915,
                0.4253387649270852,
                0.17228207336573798,
                0.6616572831606167,
                0.06771302553239707,
                0.6616572831606167,
                0.4565613264880282,
                0.6616572831606164,
                0.6616572831606167,
                0.6616572831606166,
                0.6616572831606166,
                0.6616572831606167,
                0.24581486699005567,
                0.6616572831606166,
                0.6616572831606166,
                0.6616572831606166,
                0.6616572831606167,
                0.10618573467224446,
                0.6616572831606167,
                0.23349870517065682,
                0.4576255668873342,
                0.3938834595510605,
                0.46570175216524445,
                0.6616572831606166,
                0.6616572831606164,
                0.3379076234596802,
                0.6616572831606167,
                0.6616572831606166,
                0.6616572831606167,
                0.1814120637865424,
                0.03733227769301095,
                0.21778618020857082,
                0.6616572831606163,
                0.059170427684309246,
                0.6616572831606164,
                0.47929990426129027,
                0.07525,
                0.2755975905609468,
                0.25644714865498863,
                0.6616572831606164,
                0.08815443776362242,
                0.19727780555123037,
                0.6616572831606167,
                0.4221808082585077,
                0.15232553493160306,
                0.5508239825265622,
                0.6616572831606166,
                0.6616572831606164,
                0.07525,
                0.6616572831606166,
                0.6616572831606164,
                0.6027918596112023,
                0.418521249391932,
                0.6616572831606167,
                0.4872681800883377,
                0.4021758118105766,
                0.4073053841388976,
                0.5623195072565468,
                0.4027617007126009,
                0.10350098591310108,
                0.2818575219132416,
                0.14937612344222972,
                0.4335089396840722,
                0.6616572831606166,
                0.3247456474050634,
                0.25019306039691036,
                0.6616572831606166,
                0.0956116722889454,
                0.6616572831606167,
                0.6616572831606167,
                0.4637695949341112,
                0.3650156181440317,
                0.6616572831606164,
                0.28064145326589507,
                0.07226396355080478,
                0.37305322123015827,
                0.23252336605838508,
                0.6616572831606164,
                0.5637616225551757,
                0.12338654086191436,
                0.6616572831606164,
                0.3130348139770405,
                0.21587074983157317,
                0.21340958995696624,
                0.33381771280479344,
                0.2685127167646644,
                0.20524148985562624,
                0.03576797554267752,
                0.6616572831606164,
                0.6616572831606166,
                0.0506590017703753,
                0.6616572831606166,
                0.4199487762118847,
                0.6616572831606164,
                0.4574471505858038,
                0.15722881457258187,
                0.6616572831606166,
                0.18688007705070508,
                0.3301763356783313,
                0.07280685368692218,
                0.45114475079232386,
                0.32212465952638,
                0.18722574185354743,
                0.06716296364442054,
                0.6616572831606164,
                0.05423767973253657,
                0.16283101990977272,
                0.6616572831606166,
                0.23565966410718953,
                0.6616572831606166,
                0.6616572831606167,
                0.6616572831606167,
                0.2976692696220251,
                0.06598010755393668,
                0.4267812009962705,
                0.2635454137850525,
                0.2936422794753015,
                0.6616572831606166,
                0.6616572831606166,
                0.6616572831606166,
                0.48134547725992965,
                0.13470593309179157,
                0.3425092841919325,
                0.45924889411460357,
                0.6616572831606166,
                0.6616572831606166,
                0.02163126286238093,
                0.1438771940723565,
                0.4536070505456482,
                0.6616572831606164,
                0.6616572831606164,
                0.4316436843869467
            ],
            "photocathode": [
                4589,
                2103,
                1584,
                3199,
                2084,
                1669,
                4648,
                4603,
                1255,
                2083,
                2701,
                4673,
                1084,
                2887,
                4368,
                412,
                4607,
                2223,
                4591,
                2017,
                4619,
                3429,
                2854,
                527,
                4651,
                1458,
                4611,
                474,
                3941,
                2203,
                2785,
                152,
                4636,
                1163,
                4536,
                1746,
                627,
                1967,
                4642,
                4789,
                4585,
                2299,
                3143,
                4586,
                2773,
                1138,
                1728,
                2940,
                951,
                2575,
                104,
                4710,
                1761,
                2080,
                603,
                950,
                1816,
                162,
                2131,
                606,
                3357,
                4610,
                1304,
                583,
                4518,
                3300,
                655,
                2972,
                4660,
                4665,
                4543,
                462,
                495,
                4515,
                2510,
                4606,
                2658,
                2928,
                379,
                3264,
                3213,
                4642,
                2752,
                2844,
                1379,
                4750,
                4573,
                4830,
                1247,
                4752,
                4624,
                2305,
                4803,
                3621,
                4523,
                2823,
                910,
                2590,
                2127,
                2288,
                988,
                4583,
                3956,
                4511,
                4575,
                4643,
                4594,
                4571,
                4517,
                3798,
                1488,
                1242,
                4786,
                517,
                1744,
                2524,
                4580,
                4582,
                4724,
                4582,
                3224,
                1066,
                4542,
                3207,
                4545,
                3347,
                4623,
                3138,
                4384,
                3575,
                4614,
                2414,
                1428,
                1604,
                4692,
                321,
                4656,
                4592,
                2613,
                4714,
                4689,
                680,
                4539,
                2642,
                4403,
                4633,
                2848,
                4645,
                308,
                4537,
                4503,
                818,
                1293,
                4678,
                1618,
                2856,
                542,
                258,
                174,
                3586,
                4565,
                2279,
                4622,
                1443,
                403,
                2668,
                2028,
                436,
                203,
                1644,
                4728,
                4550,
                4630,
                2748,
                4609,
                4685,
                2090,
                4593,
                4697,
                4689,
                3049,
                4518,
                3827,
                4624,
                585,
                4588,
                4738,
                4773,
                1861,
                4710,
                3189,
                3036,
                4671,
                4613,
                136,
                3297,
                3802,
                4673,
                965,
                2230,
                3196,
                784,
                3489,
                4728,
                376,
                2204,
                4589,
                526,
                4000,
                2714,
                179,
                4715,
                1795,
                1198,
                4673,
                4731,
                3289,
                4524,
                4383,
                1692,
                1546,
                432,
                4667,
                4752,
                1151,
                2607,
                2073,
                1862,
                3059,
                549,
                2280,
                4540,
                3884,
                1869,
                613,
                1785,
                2077,
                4579,
                4372,
                4532,
                3351,
                4828,
                206,
                4609,
                312,
                4572,
                4605,
                2913,
                4671,
                4493,
                2028,
                3068,
                4507,
                3950,
                4531,
                821,
                4599,
                4619,
                4438,
                1128,
                4709,
                2373,
                4633,
                4534,
                1953,
                4654,
                1312,
                901,
                3863,
                336,
                2862,
                2342,
                768,
                120,
                3179,
                3353,
                4582,
                4678,
                1493,
                2959,
                2529,
                4931,
                4623,
                1267,
                4564,
                1172,
                4496,
                3219,
                235,
                4629,
                3636,
                4647,
                4670,
                1540,
                1356,
                1135,
                4607,
                4643,
                4118,
                3266,
                2472,
                4759,
                3246,
                1627,
                4589,
                4605,
                4595,
                4651,
                4672,
                4769,
                4695,
                4907,
                4666,
                1288,
                431,
                4610,
                4685,
                2906,
                2956,
                4515,
                2413,
                4662,
                4636,
                2270,
                2613,
                2652,
                2091,
                510,
                3432,
                4603,
                1488,
                4712,
                4583,
                1534,
                112,
                2906,
                4088,
                489,
                1488,
                641,
                3933,
                4641,
                2476,
                2167,
                4523,
                3051,
                4469,
                4662,
                3537,
                4603,
                4781,
                4776,
                4534,
                4625,
                3210,
                592,
                4625,
                4570,
                3208,
                4512,
                2496,
                2074,
                3936,
                4587,
                4665,
                4525,
                1867,
                4580,
                3290,
                2953,
                1168,
                4704,
                507,
                4545,
                3226,
                4658,
                4742,
                4630,
                4549,
                4525,
                1690,
                4761,
                4670,
                4644,
                4791,
                728,
                4583,
                1663,
                3231,
                2704,
                3166,
                4614,
                4660,
                2378,
                4595,
                4485,
                4631,
                1312,
                275,
                1587,
                4615,
                413,
                4565,
                3484,
                572,
                1935,
                1802,
                4524,
                624,
                1435,
                4644,
                2980,
                1082,
                3822,
                4653,
                4606,
                561,
                4689,
                4614,
                4149,
                2894,
                4572,
                3350,
                2842,
                2789,
                4069,
                2854,
                733,
                1905,
                990,
                2902,
                4633,
                2362,
                1728,
                4516,
                719,
                4458,
                4659,
                3225,
                2494,
                4735,
                2043,
                524,
                2691,
                1608,
                4539,
                3897,
                836,
                4574,
                2215,
                1547,
                1504,
                2294,
                1871,
                1456,
                245,
                4627,
                4641,
                376,
                4681,
                2895,
                4646,
                3282,
                1141,
                4510,
                1352,
                2307,
                482,
                3126,
                2197,
                1250,
                496,
                4478,
                356,
                1145,
                4504,
                1681,
                4750,
                4718,
                4807,
                2158,
                496,
                2965,
                1899,
                2113,
                4636,
                4574,
                4642,
                3364,
                927,
                2410,
                3248,
                4573,
                4661,
                148,
                972,
                3152,
                4796,
                4755,
                2971
            ]
        },
        "detections": 500,
        "events": 195492
    }
}