{
    "job_args": {
        "metric_limit": 300,
        "seed": 3822282974
    },
    "job_id": "batch_34_do_300",
    "result": {
        "collections": {
            "crystal": [
                0.24151908480561168,
                1.0,
                1.0000000000000002,
                0.14119079805017754,
                0.9999999999999999,
                0.9999999999999999,
                1.0000000000000002,
                0.7649725942465906,
                0.9999999999999998,
                1.0,
                1.0,
                1.0000000000000002,
                0.1948199860221604,
                0.0247227803348824,
                0.6004102671266082,
                1.0,
                1.0,
                0.7194916334722063,
                1.0,
                1.0,
                1.0,
                0.9999999999999999,
                1.0,
                1.0,
                1.0,
                0.7324552485817925,
                0.9999999999999999,
                0.9999999999999999,
                0.6012390454225925,
                0.9999999999999999,
                0.42329959601311845,
                0.9999999999999999,
                0.9999999999999998,
                0.9999999999999999,
                1.0,
                0.4590953440712472,
                0.6082749310365924,
                1.0,
                1.0,
                0.9999999999999999,
                0.5460916876741159,
                1.0,
                1.0,
                0.5270738996145305,
                1.0,
                1.0000000000000002,
                1.0,
                0.9870015438818991,
                0.3573459033885097,
                0.4825289158591819,
                1.0,
                0.6538877772349669,
                1.0,
                0.9999999999999999,
                1.0,
                1.0000000000000002,
                0.9999999999999999,
                1.0,
                1.0,
                1.0,
                1.0,
                1.0,
                1.0,
                0.9999999999999999,
                0.1627212765328636,
                1.0,
                0.3541288819596152,
                1.0,
                0.5771449125875574,
                1.0000000000000002,
                0.3536268942795563,
                1.0,
                0.155222623860367,
                1.0,
                0.381817388229432,
                0.9999999999999999,
                0.31439871036999034,
                0.9999999999999999,
                0.7572401593167354,
                1.0,
                0.9999999999999999,
                1.0,
                0.9999999999999999,
                0.34879185188052353,
                0.6980237845947106,
                1.0,
                1.0,
                0.7496039768131844,
                0.3432990323199456,
                0.05234612305825703,
                0.0714693764511164,
                0.9999999999999998,
                0.8257788198873173,
                0.7133775426271868,
                1.0,
                1.0000000000000002,
                0.6023625852024066,
                1.0,
                1.0,
                1.0,
                1.0,
                0.9999999999999999,
                1.0,
                0.47343250932553294,
                0.9999999999999999,
                1.0,
                1.0,
                1.0,
                0.9999999999999999,
                1.0,
                0.9999999999999999,
                1.0,
                1.0,
                0.36151563070756076,
                1.0,
                1.0000000000000002,
                0.7011243292097044,
                1.0,
                1.0,
                1.0,
                0.4099903836383363,
                0.5194140154074417,
                0.13613500797909017,
                1.0000000000000002,
                0.9999999999999999,
                0.7675697627220573,
                0.47511337563751493,
                0.4992409682077073,
                0.9999999999999999,
                0.3356900105827894,
                0.9999999999999999,
                0.5115842197762122,
                0.9999999999999999,
                1.0,
                0.7050284785587438,
                1.0,
                1.0,
                0.9999999999999999,
                0.7774552340673294,
                0.9999999999999999,
                1.0,
                1.0,
                0.9999999999999999,
                0.9999999999999999,
                1.0,
                0.9999999999999999,
                1.0,
                0.37542176778351977,
                1.0,
                0.4181549729896777,
                0.6233216813533854,
                0.5350490643558384,
                0.6727811281869631,
                1.0,
                0.9999999999999998,
                1.0,
                0.43675560877159536,
                1.0,
                0.5051988812965904,
                0.7953804116317432,
                1.0000000000000002,
                0.7525889365910853,
                1.0,
                0.339752984360706,
                1.0,
                0.18414375862562693,
                0.7811147647827479,
                0.9999999999999999,
                0.4132095610376456,
                0.9999999999999999,
                1.0,
                0.6155445445700534,
                1.0,
                1.0,
                0.9999999999999999,
                0.7655967691206353,
                0.633474869464458,
                0.38459863415638673,
                0.5403960788046881,
                1.0,
                0.45578386150954886,
                0.4247527896402127,
                1.0000000000000002,
                1.0,
                1.0000000000000002,
                1.0,
                0.4974594306590704,
                0.9999999999999999,
                1.0,
                0.5551429274002601,
                1.0,
                0.7494089445719664,
                1.0,
                0.4616666091494629,
                0.4162516194203764,
                0.5549555255781831,
                0.490202165784148,
                0.9999999999999998,
                1.0,
                0.01195309478084161,
                0.5644563237262851,
                1.0,
                0.9999999999999999,
                1.0,
                0.9999999999999999,
                0.7807470202417052,
                0.6387242510498246,
                0.1149227090633721,
                1.0,
                0.13102663724023667,
                0.5237246690213908,
                1.0,
                0.7933194355621555,
                1.0,
                1.0000000000000002,
                0.5650963285500321,
                0.3449791936884395,
                1.0000000000000002,
                0.13795506127161739,
                0.7276841120671079,
                0.9999999999999998,
                0.7279803892379606,
                0.4771126602310194,
                0.046508453742606704,
                1.0,
                0.7748194364503963,
                1.0,
                0.6255242403798852,
                1.0,
                0.9999999999999999,
                1.0,
                0.14634679029480224,
                0.47382641838557604,
                0.26413577463906585,
                0.6078244588615218,
                0.490700279394519,
                0.3114187587097603,
                1.0000000000000002,
                0.8132059994144528,
                0.9999999999999999,
                0.43731574343131346,
                0.3835926494048517,
                0.6881745255239871,
                1.0,
                0.37436959171849776,
                1.0000000000000002,
                0.9999999999999999,
                1.0,
                0.9999999999999998,
                1.0,
                0.6440469383227312,
                1.0,
                0.9999999999999999,
                1.0,
                0.9999999999999999,
                1.0,
                0.7496463647316449,
                1.0000000000000002,
                0.9999999999999998,
                1.0,
                0.3769357519230888,
                0.7130336635654239,
                0.5672034101067567,
                0.9999999999999999,
                0.5362432761566434,
                0.4683972028752985,
                0.9999999999999999,
                0.12105368330619315,
                0.4366191457716592,
                0.3314420420515962,
                0.6371478750715701,
                0.9999999999999999,
                1.0,
                0.9999999999999998,
                0.5652326537028499,
                1.0,
                1.0,
                0.15768848253302736,
                0.012764622484333854,
                0.47230892481062076,
                1.0,
                0.13315025759367993,
                0.9999999999999999,
                0.13547110273357255,
                1.0,
                1.0,
                0.15881259269180092,
                0.4959796198411113,
                1.0,
                1.0,
                1.0,
                1.0,
                0.9999999999999999,
                0.6771233278268503,
                0.6544748164306361,
                1.0,
                1.0,
                0.5649646627732415,
                0.025236479183285088,
                1.0
            ],
            "photocathode": [
                1823,
                7374,
                7257,
                987,
                7096,
                7262,
                7341,
                5597,
                7160,
                7296,
                7142,
                7354,
                1454,
                153,
                4198,
                7139,
                7145,
                5194,
                7249,
                7176,
                7282,
                7285,
                7260,
                7281,
                7105,
                5194,
                7119,
                7152,
                4221,
                7437,
                2989,
                7177,
                7343,
                7218,
                7258,
                3321,
                4401,
                7194,
                7312,
                7216,
                3967,
                7403,
                7355,
                3757,
                7335,
                7214,
                7167,
                7099,
                2683,
                3517,
                7334,
                4711,
                7340,
                7316,
                7245,
                7372,
                7236,
                7369,
                7301,
                7146,
                7124,
                7241,
                7335,
                7275,
                1182,
                7021,
                2502,
                7288,
                4116,
                7198,
                2597,
                7397,
                1159,
                7062,
                2735,
                7280,
                2293,
                7157,
                5470,
                7354,
                7107,
                7211,
                7385,
                2468,
                5087,
                7167,
                7186,
                5421,
                2462,
                391,
                531,
                7157,
                6086,
                5064,
                7278,
                7260,
                4405,
                7233,
                7304,
                7262,
                7209,
                7284,
                7017,
                3300,
                7350,
                7241,
                7088,
                7177,
                7145,
                7357,
                7017,
                7107,
                7158,
                2663,
                7241,
                7088,
                5082,
                7237,
                7348,
                7280,
                2941,
                3784,
                952,
                7190,
                7408,
                5570,
                3394,
                3463,
                7208,
                2358,
                7161,
                3737,
                7226,
                7064,
                5067,
                7122,
                7086,
                7308,
                5720,
                7275,
                7358,
                7076,
                7363,
                7221,
                7213,
                7054,
                7261,
                2700,
                7224,
                2946,
                4462,
                3926,
                4761,
                7350,
                7216,
                7203,
                3233,
                7193,
                3650,
                5671,
                7365,
                5312,
                7295,
                2471,
                7280,
                1248,
                5700,
                7160,
                2908,
                7166,
                7101,
                4408,
                7255,
                7368,
                7190,
                5483,
                4768,
                2735,
                3893,
                7245,
                3271,
                3065,
                7383,
                7194,
                7258,
                7112,
                3605,
                7207,
                7222,
                3978,
                7283,
                5595,
                7191,
                3261,
                3004,
                4055,
                3433,
                7194,
                7151,
                77,
                4179,
                7322,
                7281,
                7331,
                7119,
                5573,
                4545,
                850,
                7066,
                953,
                3761,
                7368,
                5594,
                7136,
                7085,
                4174,
                2456,
                7261,
                1012,
                5245,
                7238,
                5461,
                3426,
                315,
                7353,
                5601,
                7201,
                4543,
                7237,
                7146,
                7272,
                1101,
                3390,
                1939,
                4326,
                3541,
                2294,
                7166,
                5765,
                7231,
                3128,
                2865,
                4940,
                7157,
                2648,
                7215,
                7275,
                7386,
                7199,
                7324,
                4754,
                7110,
                7364,
                7298,
                7317,
                7295,
                5605,
                7196,
                7170,
                7403,
                2683,
                5072,
                4154,
                7246,
                3779,
                3436,
                7090,
                828,
                3146,
                2405,
                4696,
                7108,
                7331,
                7177,
                4056,
                7183,
                7296,
                1194,
                79,
                3340,
                7216,
                994,
                7078,
                1035,
                7178,
                7240,
                1146,
                3660,
                7167,
                7141,
                7065,
                7358,
                7381,
                4931,
                4622,
                7318,
                7167,
                4080,
                173,
                7093
            ]
        },
        "detections": 300,
        "events": 369
    }
}