{
    "job_args": {
        "metric_limit": 500,
        "seed": 2521134224
    },
    "job_id": "batch_117_do_500",
    "result": {
        "collections": {
            "crystal": [
                0.06489993450334897,
                0.04664029897499479,
                0.08765536652732252,
                0.19119727617604743,
                0.0752500512942385,
                0.5696973581252411,
                0.03253756295930477,
                0.07303864780707002,
                1.0636549103809432,
                1.7702147165148296,
                0.07303879685258864,
                0.5902641864028506,
                0.07525040276865208,
                0.39978796411029754,
                0.3824767035697869,
                0.5096747765161407,
                0.07524992551813314,
                0.014966653414144484,
                0.07524988627805448,
                0.5696973581252411,
                0.5696973581252411,
                0.5696973581252411,
                0.07303916306688082,
                0.48957567640770205,
                0.5948193771383561,
                0.0752494618594377,
                0.5696973581252411,
                0.7823580280865708,
                1.0636549103809434,
                0.5972974648348895,
                0.493066005704259,
                0.5696973581252411,
                0.12208005092197516,
                0.5696973581252412,
                0.27178795212733386,
                0.18954973239843742,
                0.0730391992100257,
                0.24234460476327793,
                0.5696973581252411,
                0.08523547000729874,
                0.08523551697508325,
                0.04500689464579266,
                0.23747630921076257,
                0.07524984756636685,
                0.5696973581252411,
                0.07525015362637887,
                0.0752500203567899,
                0.1184829046142003,
                0.7813737612263716,
                0.08523513028494775,
                0.8314172317272333,
                0.569697358125241,
                0.505326071865048,
                0.0876556598215599,
                0.07303881747407553,
                0.5125768444960356,
                0.569697358125241,
                1.4471590303840929,
                0.6685713296197686,
                0.6211960960844186,
                0.012656300717564335,
                1.0636549103809436,
                0.44607356827778566,
                0.0730388452929579,
                0.012656313745099164,
                0.17717086146726282,
                1.0636549103809434,
                0.07303894703662928,
                0.1827594408900271,
                0.569697358125241,
                0.04664034777725901,
                0.5696973581252411,
                0.04664030134542273,
                0.5696973581252411,
                0.5696973581252411,
                0.4382084541768628,
                0.14071758250253044,
                0.4170581178826557,
                1.0636549103809432,
                0.07303927991292514,
                0.16496470595078805,
                0.012656285270157542,
                0.08765599002433903,
                0.06111760355671231,
                0.0730389734956671,
                0.0876558995964822,
                0.1184229130052931,
                0.07303918109891065,
                0.3464282055484713,
                0.30765303252788595,
                0.07524976136985001,
                1.0636549103809434,
                0.08753382598747643,
                0.22934502394236267,
                0.07525025965228546,
                0.07524968574975993,
                0.5136600519264884,
                0.8370430733034415,
                0.26792591642261043,
                0.07303909171402287,
                0.08474079286523771,
                0.52489194319263,
                0.044732566505995434,
                0.009215690656063792,
                1.0636549103809434,
                0.569697358125241,
                0.08523564064214345,
                1.0636549103809434,
                0.08523566056997912,
                0.5696973581252411,
                0.11243283318378205,
                0.3613594166385079,
                0.5696973581252412,
                0.5696973581252412,
                0.08523512498648694,
                0.22616356423282205,
                0.5696973581252411,
                0.38575532254854594,
                0.07525010744795049,
                0.07524958776798278,
                0.34173172841445,
                0.08765587056865048,
                0.0370500095457117,
                0.29637362641920645,
                0.35537607636718327,
                0.5696973581252411,
                0.5988454055965156,
                0.23935313916804973,
                0.07525012123529624,
                0.23857195628557348,
                1.0636549103809434,
                0.07524988119321627,
                0.5696973581252411,
                0.014791355875488854,
                0.28253082748843683,
                0.009215714790262165,
                0.07524981398265582,
                0.5340402113590862,
                0.36189342967654764,
                0.07303876988542103,
                0.5696973581252411,
                0.196661174718177,
                0.07303874873302953,
                0.07303888043352874,
                0.429194402233495,
                0.5696973581252411,
                0.27574391051397795,
                0.04694361510552867,
                1.0636549103809434,
                0.17765549417783455,
                0.08523513101806991,
                0.07525002681499432,
                0.569697358125241,
                0.30011399827081886,
                0.05315114201600476,
                0.5535582193098337,
                0.38281614692867133,
                0.07524974196975248,
                0.07524996237861405,
                0.07303866071550522,
                0.569697358125241,
                0.040801990231205475,
                0.827578626430417,
                0.2876052189232773,
                0.171139767516223,
                0.08205288247930081,
                0.0752500747605997,
                0.04664050668739694,
                0.07524988752278859,
                0.0752504709120617,
                0.07303897194718156,
                0.07524977448768924,
                0.4208261786274132,
                0.4112990657535732,
                0.05692143886698986,
                0.630114724727618,
                0.5696973581252411,
                0.5696973581252411,
                0.0752498081695073,
                0.5696973581252411,
                1.0636549103809436,
                0.07303920424723467,
                0.07525039991165358,
                0.8127468908132994,
                0.377690645067718,
                0.07524998548570898,
                0.07525008689085372,
                0.8485023520647317,
                0.5696973581252411,
                0.6570857147687477,
                0.18142149456240775,
                0.5696973581252412,
                1.0636549103809432,
                0.5696973581252411,
                0.8422463020192438,
                1.0636549103809434,
                0.17270885632404911,
                0.07525015984001565,
                0.07524995215581817,
                0.07525012501995752,
                0.07525014552116127,
                0.10460741258141598,
                0.11485476973840603,
                0.07303951837962795,
                0.5050425100319571,
                0.07525,
                0.5696973581252411,
                0.1428239540027243,
                0.6668232336740972,
                0.6980931336789624,
                0.042956050842707386,
                0.07303850425849881,
                0.5048579024317534,
                0.07303916732647814,
                0.5299974275526897,
                0.0852356624345415,
                0.07303908320140223,
                0.07525017827869936,
                0.36715296731364533,
                0.26676138535103366,
                0.51099891,
                1.0636549103809432,
                0.07525018215194629,
                0.569697358125241,
                0.07524994485657487,
                0.07524999999999998,
                0.5696973581252411,
                0.08474124239098599,
                0.07303891630591967,
                0.07524983669164279,
                1.0636549103809434,
                1.0636549103809434,
                0.07303913677135129,
                0.7437413320039985,
                0.6478599094534958,
                0.5696973581252411,
                0.08580100000000002,
                0.37950452470448437,
                0.5696973581252411,
                0.07524988450107398,
                0.0752502319507747,
                0.06630397765055984,
                0.5696973581252411,
                0.7180395012275278,
                0.5696973581252412,
                0.5450307859411537,
                0.5696973581252411,
                0.07303916085879826,
                0.07303878913767475,
                1.0636549103809434,
                1.0636549103809434,
                0.569697358125241,
                0.07525010613878719,
                0.27947037470816016,
                0.5696973581252411,
                0.20620412120650816,
                0.07524975444187215,
                0.07525018064035568,
                0.07015699583078763,
                0.2312863395128339,
                0.46944961796504797,
                0.08474066808939501,
                0.507865506610836,
                0.6984642247279643,
                0.569697358125241,
                0.5696973581252411,
                0.031203791711227336,
                0.07471474544044282,
                0.06840741268200995,
                1.0636549103809436,
                1.0636549103809432,
                0.07524989312715613,
                0.03332748172643529,
                0.07303916206120034,
                0.07303859441603272,
                0.5696973581252411,
                0.08523524796831643,
                0.4200300745466233,
                0.07525018809154728,
                0.07303901264579933,
                0.04664027764541937,
                0.07525020866310267,
                0.07525011365468605,
                0.21337619371308758,
                0.08523554895792519,
                1.0636549103809434,
                0.8196160331364116,
                0.07303889206592995,
                0.07524991126337041,
                0.07303922845962549,
                0.2867144898011569,
                0.1068811178871014,
                0.31773902484545635,
                0.08523567317468535,
                0.08820259047744615,
                0.07524952976379157,
                0.569697358125241,
                0.07303910335323381,
                0.07303888148511561,
                1.1015734722190387,
                0.07303884315480179,
                0.0752502501395962,
                0.07303893511245356,
                0.04664037585128941,
                0.21539783862484507,
                0.18555177728489647,
                0.07524985229232921,
                0.5696973581252412,
                0.07525031922994944,
                0.6789890894622992,
                0.073039,
                0.5696973581252411,
                1.0636549103809434,
                0.6328384789711488,
                0.07303877996781324,
                0.03327561066724693,
                0.3318719329538486,
                0.5696973581252412,
                0.07524978435665712,
                0.19770170862736847,
                1.0636549103809432,
                1.0636549103809434,
                0.07525015044211461,
                0.14396002076878445,
                0.2959984321239994,
                0.22002093374203074,
                0.17193985563703956,
                0.04442944819913198,
                0.19371697327592385,
                0.07525022921588705,
                1.0636549103809434,
                0.19573210516924938,
                0.5696973581252411,
                0.7965139006230673,
                0.09676672269418612,
                1.0636549103809434,
                0.7225744141799366,
                1.0636549103809432,
                0.07524946227397214,
                0.07525026468929753,
                0.07525008306904143,
                0.5696973581252411,
                0.05613128316656052,
                0.7811169900713036,
                0.16033400855627733,
                0.8080216693996225,
                0.6773218668387804,
                0.260757890204213,
                0.07525008704035277,
                0.07525018497203187,
                0.07303890600676188,
                0.25519873290447104,
                0.22228896486493657,
                0.5696973581252411,
                1.0636549103809434,
                0.7140244544192292,
                0.5696973581252411,
                0.4649829133750613,
                0.16640330660062225,
                0.396267529788321,
                0.05294142990414813,
                0.07524976089291953,
                0.0752498361200152,
                1.0636549103809434,
                0.19349777132953605,
                0.08753394689857817,
                0.6216560380215308,
                0.5696973581252411,
                0.07525,
                0.47104464653343003,
                0.8321169664540735,
                0.5696973581252411,
                0.5696973581252411,
                0.5696973581252412,
                0.07524982065816113,
                0.08523583646643099,
                0.07303888627751565,
                0.07525,
                0.3805611162797703,
                0.0852355191486499,
                0.5696973581252411,
                0.07525014998245387,
                0.39557667458344353,
                0.7656090599722094,
                0.34606990047963193,
                0.0752497546369974,
                0.04664050000000001,
                0.4714616344161069,
                0.07303897367808553,
                0.5696973581252412,
                1.0636549103809434,
                0.08580064205265557,
                0.5696973581252411,
                1.0636549103809434,
                0.04951529935708643,
                0.08523599572372301,
                0.1654668116087668,
                0.0752500824734258,
                1.0636549103809434,
                0.712714143185164,
                0.08523509069114445,
                0.3730559183645459,
                0.5696973581252411,
                0.14356524814291072,
                0.39760538345526764,
                0.5696973581252411,
                0.07525001888387334,
                0.4616259188661317,
                0.5696973581252411,
                0.07525015003037025,
                0.5696973581252411,
                0.5696973581252411,
                0.08523549907523796,
                0.07303921637539748,
                0.07303876741018778,
                0.07525003056394508,
                0.4627018981211908,
                0.41706647582571166,
                0.2848245988630923,
                0.08523557430678713,
                1.0636549103809434,
                0.26775911986213086,
                0.38792481574367815,
                0.5696973581252412,
                0.5696973581252411,
                0.014059516961663632,
                0.5199608629163432,
                0.07525000835032805,
                0.5696973581252411,
                0.5696973581252411,
                0.569697358125241,
                0.08765567265103497,
                0.1451065773463569,
                1.0636549103809432,
                0.569697358125241,
                0.4980966961762966,
                0.005515607511290321,
                0.5696973581252412,
                0.07303888570574243,
                0.569697358125241,
                0.5924819030977366,
                0.073039,
                1.4939432078454087,
                0.07303875213815629,
                0.6011850064557641,
                0.19211794368532426,
                0.5696973581252411,
                0.09749824491145975,
                0.5127612179222433,
                0.05309560411719622,
                0.07524996184690595,
                0.5696973581252411,
                0.6394619129952659,
                0.07525001161128546,
                0.08523539999999999,
                0.8069621025696998,
                1.0636549103809434,
                1.0636549103809436,
                1.0636549103809434,
                0.07303888110491344,
                0.3361872765812237,
                0.3151608872473125,
                1.0636549103809434,
                0.5466257954324306,
                0.18690488703071073,
                0.07525007478637474,
                0.3670410000579838,
                0.551434329944624,
                0.07525024581231948,
                1.0636549103809432,
                0.22956337180063247,
                0.04941266497215019,
                1.7702147165148299,
                0.0525039,
                0.5696973581252412,
                0.07303875246706142,
                0.07829731566723844,
                0.5696973581252411,
                0.07524996240126548,
                1.0636549103809434,
                0.04473239403233907,
                0.07303886300836489,
                0.5696973581252411,
                0.3264511000422151,
                0.0693862928520018,
                0.7291827735338685,
                1.0972931273115238,
                1.0636549103809434,
                0.19673655856247074,
                0.5696973581252411,
                0.012656254933427823,
                0.569697358125241,
                0.5696973581252411,
                0.5696973581252411,
                0.08523560708842934,
                0.08765593531586956,
                0.08523556535922466,
                0.6530608895895592,
                0.07525014639044586,
                1.0636549103809436
            ],
            "photocathode": [
                434,
                332,
                595,
                1366,
                513,
                4001,
                223,
                544,
                7426,
                12357,
                541,
                4132,
                534,
                2811,
                2714,
                3541,
                499,
                110,
                546,
                3953,
                4041,
                3933,
                518,
                3488,
                4298,
                494,
                4122,
                5495,
                7237,
                4233,
                3433,
                3937,
                848,
                3963,
                1977,
                1362,
                501,
                1694,
                3951,
                583,
                606,
                293,
                1628,
                491,
                3971,
                517,
                523,
                805,
                5547,
                598,
                5901,
                3922,
                3526,
                606,
                560,
                3469,
                4025,
                10118,
                4733,
                4366,
                103,
                7362,
                3207,
                503,
                104,
                1219,
                7632,
                505,
                1278,
                3973,
                344,
                4000,
                306,
                3931,
                3934,
                2973,
                943,
                2925,
                7426,
                516,
                1178,
                87,
                601,
                407,
                541,
                622,
                801,
                484,
                2426,
                2196,
                522,
                7401,
                609,
                1643,
                516,
                566,
                3599,
                5830,
                1906,
                520,
                596,
                3637,
                302,
                52,
                7441,
                3980,
                605,
                7432,
                626,
                4054,
                765,
                2627,
                4102,
                4104,
                570,
                1637,
                3989,
                2760,
                513,
                541,
                2437,
                619,
                280,
                2091,
                2544,
                3999,
                4310,
                1660,
                511,
                1732,
                7386,
                502,
                4024,
                92,
                1899,
                55,
                516,
                3741,
                2454,
                518,
                3998,
                1412,
                564,
                498,
                2987,
                4003,
                1982,
                276,
                7542,
                1235,
                571,
                504,
                4056,
                2114,
                357,
                3965,
                2623,
                581,
                534,
                551,
                3868,
                261,
                5930,
                2068,
                1252,
                586,
                482,
                324,
                550,
                500,
                508,
                531,
                3090,
                2880,
                419,
                4241,
                3971,
                3934,
                528,
                3919,
                7596,
                497,
                536,
                5607,
                2673,
                510,
                521,
                5861,
                4046,
                4544,
                1288,
                3901,
                7492,
                3923,
                6087,
                7691,
                1303,
                554,
                477,
                512,
                532,
                733,
                847,
                496,
                3682,
                553,
                3987,
                1007,
                4622,
                4982,
                305,
                517,
                3517,
                546,
                3794,
                606,
                520,
                521,
                2590,
                1820,
                3658,
                7416,
                538,
                3926,
                506,
                563,
                3905,
                589,
                530,
                504,
                7553,
                7313,
                511,
                5244,
                4581,
                4015,
                620,
                2647,
                4018,
                530,
                569,
                482,
                4074,
                5175,
                4013,
                3868,
                4034,
                506,
                496,
                7731,
                7257,
                4104,
                503,
                2027,
                4041,
                1412,
                510,
                527,
                503,
                1695,
                3252,
                608,
                3695,
                4832,
                4062,
                3934,
                202,
                535,
                482,
                7547,
                7709,
                488,
                224,
                536,
                496,
                3911,
                565,
                2932,
                503,
                461,
                320,
                519,
                482,
                1552,
                596,
                7239,
                5635,
                516,
                558,
                499,
                1968,
                745,
                2249,
                609,
                594,
                545,
                4069,
                501,
                468,
                7591,
                498,
                560,
                526,
                350,
                1497,
                1327,
                535,
                4027,
                526,
                4683,
                501,
                3953,
                7638,
                4450,
                512,
                243,
                2367,
                3940,
                502,
                1429,
                7404,
                7407,
                526,
                949,
                2114,
                1561,
                1215,
                296,
                1363,
                501,
                7456,
                1405,
                4025,
                5608,
                696,
                7710,
                5018,
                7620,
                564,
                485,
                484,
                4113,
                405,
                5565,
                1106,
                5851,
                4770,
                1784,
                504,
                541,
                530,
                1848,
                1607,
                3954,
                7496,
                4914,
                3866,
                3162,
                1207,
                2836,
                396,
                538,
                509,
                7401,
                1324,
                612,
                4306,
                4111,
                479,
                3318,
                5986,
                3870,
                4121,
                3957,
                509,
                619,
                463,
                541,
                2687,
                623,
                3979,
                499,
                2798,
                5519,
                2352,
                503,
                315,
                3321,
                515,
                3868,
                7626,
                612,
                3901,
                7575,
                360,
                502,
                1139,
                517,
                7597,
                4812,
                607,
                2649,
                4082,
                971,
                2878,
                4003,
                547,
                3297,
                4198,
                516,
                4029,
                3930,
                548,
                529,
                520,
                512,
                3209,
                3114,
                1963,
                625,
                7433,
                1943,
                2652,
                3926,
                4040,
                96,
                3589,
                511,
                4019,
                4012,
                4075,
                572,
                1023,
                7098,
                3940,
                3630,
                40,
                3947,
                512,
                3980,
                4351,
                496,
                10429,
                499,
                4197,
                1288,
                4043,
                687,
                3525,
                412,
                508,
                3984,
                4398,
                520,
                577,
                5584,
                7438,
                7381,
                7627,
                508,
                2362,
                2244,
                7346,
                3688,
                1353,
                490,
                2635,
                3708,
                552,
                7270,
                1584,
                329,
                12516,
                351,
                3878,
                485,
                536,
                4022,
                497,
                7447,
                286,
                492,
                3992,
                2351,
                497,
                5186,
                7548,
                7397,
                1410,
                3940,
                96,
                3929,
                3916,
                3828,
                594,
                632,
                611,
                4708,
                521,
                7435
            ]
        },
        "detections": 500,
        "events": 35476
    }
}