{
    "job_args": {
        "metric_limit": 500,
        "seed": 2791471142
    },
    "job_id": "batch_79_do_500",
    "result": {
        "collections": {
            "crystal": [
                0.024044728022577178,
                0.2329781963146133,
                0.07524988744409844,
                0.5696973581252411,
                1.0636549103809436,
                0.08474099693122882,
                0.5696973581252411,
                0.07303895891061944,
                0.004751788572097682,
                0.5696973581252411,
                0.5696973581252411,
                0.07524982568162679,
                0.3510116947893941,
                0.07524983052391354,
                0.3305608707905303,
                0.0847406119035845,
                0.08523521150211147,
                0.07525015381519326,
                0.30007680304175166,
                0.07303907345926151,
                0.5696973581252411,
                1.0636549103809434,
                0.07525049528735539,
                0.7181218745375351,
                0.5696973581252411,
                0.40505270816483485,
                0.0752499513263907,
                0.07303885840669191,
                0.5696973581252411,
                0.08820287757533823,
                0.11393107797299112,
                0.21894896768059618,
                0.2454635947185037,
                0.3479417323411278,
                1.0636549103809434,
                0.17579639073653708,
                0.0939112926037296,
                0.7734376900190167,
                0.14781085595857044,
                0.08523539999999999,
                0.37198981814467075,
                1.0636549103809434,
                0.4120170390483078,
                0.45367344844920365,
                0.07303893551509451,
                0.5696973581252411,
                0.5696973581252411,
                0.07524985700543002,
                0.08523532255530457,
                0.07303902251267835,
                0.8608616435112821,
                0.11583496767763118,
                0.5696973581252411,
                0.07524980841930663,
                0.569697358125241,
                0.4678477607818882,
                0.5696973581252411,
                0.07524996200329492,
                0.5696973581252412,
                0.44079716049828915,
                0.08523553701886558,
                0.07524992089162427,
                1.0636549103809434,
                0.16894846823436427,
                0.10818370211468582,
                1.0636549103809436,
                0.4128865330552935,
                0.019135127306123163,
                0.29534872485260993,
                0.04221984036834159,
                0.569697358125241,
                0.1597874985005182,
                1.0636549103809432,
                0.23316515368566412,
                0.18084642936126621,
                0.5494840669634934,
                0.7852624001819878,
                0.5696973581252411,
                0.012656319494736482,
                0.07303847308451272,
                0.07303904202686722,
                0.4899903186501767,
                0.3053622530555905,
                0.26180009114071506,
                0.24310992129642173,
                0.01565288461924763,
                0.6924431682592664,
                0.07524999999999998,
                0.5696973581252411,
                0.6926378033771694,
                0.04295596985633263,
                0.5696973581252411,
                0.5696973581252412,
                0.5696973581252411,
                0.28391027834134863,
                0.37552241017395016,
                0.8420866654626661,
                0.08070305102412101,
                0.07303887426120545,
                0.07525016062829973,
                0.10434600089738137,
                0.0730388598299383,
                0.07524973724926101,
                0.08474090243067606,
                0.07525023664925926,
                0.5696973581252412,
                0.16554396169364582,
                0.759212532225607,
                0.07525007235888817,
                1.0636549103809436,
                1.0636549103809434,
                1.0636549103809434,
                0.5696973581252412,
                1.0636549103809436,
                0.7812909172058727,
                0.07303880043541294,
                0.5696973581252411,
                0.35279746610294016,
                0.5696973581252411,
                0.07303942093398803,
                0.0752501746816088,
                0.5696973581252411,
                0.06664922595800173,
                0.4392239968249855,
                0.5696973581252412,
                0.46605471443764723,
                1.0636549103809434,
                0.5696973581252411,
                0.16094623714828243,
                0.5696973581252411,
                0.569697358125241,
                0.4675712359341401,
                0.7091324309672293,
                0.012947831314079838,
                0.5483607626902622,
                0.07525014988467311,
                0.569697358125241,
                1.0636549103809434,
                0.1003795997170014,
                0.08523531616553691,
                0.012297664235477066,
                1.0636549103809434,
                0.11003063040455292,
                0.35086106296416286,
                0.5532664974206453,
                0.25556927910446686,
                0.08090395667430453,
                1.0636549103809432,
                0.11951088169250118,
                0.01265630462570821,
                0.5696973581252411,
                0.07303908877908208,
                0.2353208196437761,
                0.780791950682712,
                0.5696973581252411,
                0.06926044715100299,
                0.3243623652112636,
                0.44936840959337027,
                0.07524977255555423,
                0.07303924131166767,
                0.07525004742218047,
                0.4115704091299207,
                0.5696973581252411,
                0.07303891906115945,
                0.6760369026109607,
                0.07303920484585011,
                0.1642512588942956,
                0.014815674399085182,
                0.1002750694625718,
                0.0752498628888028,
                0.5696973581252412,
                0.21801602898658007,
                0.8150155353642516,
                0.49406723961664684,
                0.07524995606233169,
                0.012656253105458783,
                0.2700538808465216,
                1.0636549103809434,
                1.0636549103809434,
                0.5696973581252411,
                0.49679589069334207,
                0.07524989440602985,
                0.07524998431550166,
                0.5696973581252411,
                0.08523550737274264,
                0.073039,
                1.0636549103809436,
                0.07525005936265658,
                0.0852351849449714,
                0.41627006881212864,
                0.3945125481847491,
                0.45640296708610606,
                0.5696973581252412,
                0.3727451754664191,
                0.07524973928087048,
                0.07525015840813279,
                0.07524998009603229,
                1.0636549103809434,
                0.04742149983117483,
                0.5407331705102049,
                0.15710997359045908,
                0.4341255665433059,
                0.07303911413804781,
                0.1424230209322862,
                0.5696973581252412,
                0.569697358125241,
                0.07303894952776185,
                0.5696973581252411,
                0.02402460136363198,
                0.07303904713136619,
                0.40034163680678236,
                0.07524984478277193,
                0.05586978206755422,
                0.2965110167877382,
                0.07524948574546045,
                0.5696973581252411,
                1.0636549103809434,
                0.5696973581252411,
                0.07525007716389928,
                0.07303878275685055,
                0.3838811957404051,
                0.43323975284240107,
                0.5493221445032557,
                0.07525015764122775,
                1.0636549103809434,
                0.569697358125241,
                0.1541800538776822,
                0.12815554017487593,
                1.0636549103809436,
                0.5696973581252411,
                0.33963800743357453,
                0.11930626879465739,
                0.586994723721269,
                0.08523544385977488,
                0.5696973581252411,
                0.07303900736015745,
                0.08523549275676169,
                0.3219154668628659,
                0.23223625488916988,
                0.569697358125241,
                0.0852356895605507,
                0.5696973581252411,
                0.5696973581252411,
                0.46034371119738626,
                0.080930065035417,
                0.2517580717485456,
                0.08523542397844022,
                0.07303964901855155,
                0.5696973581252411,
                0.07524981211243628,
                0.2974322757032959,
                0.07303921035647386,
                0.24231941006868826,
                0.0852354820846451,
                0.3258010562259812,
                0.18974073059912466,
                0.046672592726636375,
                0.8817434926679815,
                0.07524995322938399,
                0.08523539999999999,
                0.07524996015367327,
                0.4508736703111039,
                0.5696973581252411,
                1.4943506089072156,
                0.07525,
                0.056625977418317305,
                0.07303908593312275,
                0.07525020577587907,
                0.07303898429180844,
                0.3054210008268813,
                1.0636549103809434,
                0.0752501560710108,
                0.07524969335823768,
                0.07303883712602648,
                0.2267264487578896,
                0.10263568356559571,
                0.5696973581252412,
                0.15266396717270872,
                0.7869260714849493,
                0.07303921015984474,
                0.29879792406602446,
                0.3264603513325731,
                0.48874738360738335,
                0.042095798733058076,
                0.07525020845841256,
                0.28342896463087885,
                0.4378930677171321,
                0.3737794343859905,
                0.6486481928977825,
                0.4291256965701149,
                0.07303884464171533,
                0.6728456221920049,
                0.5696973581252412,
                0.2296540441652889,
                0.30737294845995855,
                0.07524999999999998,
                0.7866580845039224,
                0.569697358125241,
                1.0636549103809434,
                0.5696973581252411,
                0.22819188273450305,
                0.18689192391996168,
                0.29565193755749886,
                0.07525025378162384,
                0.03280251666272039,
                0.740243472685247,
                1.0636549103809434,
                0.07303914345515365,
                0.20129792625091264,
                0.07525023532624775,
                0.5696973581252411,
                0.0852354,
                0.5696973581252411,
                0.07525002445466494,
                0.35067086939154835,
                0.3379956176018003,
                0.11729366353059283,
                0.5696973581252412,
                0.315908814931105,
                0.5696973581252411,
                0.012656274536583278,
                0.07524974103215708,
                0.07303924298002634,
                0.5696973581252412,
                0.0847405859506298,
                0.15152594458566937,
                0.08523560367582672,
                0.07525030742774338,
                0.07303917766579031,
                0.22123071456296206,
                0.07524973699698341,
                0.010445308866727312,
                0.2604235299057464,
                0.569697358125241,
                0.3042596695807762,
                0.5696973581252411,
                0.12143320887644495,
                1.0847965870013414,
                0.5696973581252411,
                0.11904609844519946,
                0.5696973581252411,
                0.5696973581252411,
                0.22015461055759405,
                0.4066150030123531,
                1.0636549103809434,
                0.5217652111884172,
                0.2487232496367058,
                0.5696973581252411,
                0.07525012625420995,
                0.43126646226100696,
                0.07525,
                1.0636549103809434,
                0.5696973581252411,
                0.08523564899985325,
                0.569697358125241,
                0.07303879301787924,
                0.2694135271790109,
                1.0636549103809434,
                0.04694333615798514,
                0.07303895450458227,
                0.5696973581252411,
                1.1167558031423102,
                0.3032820431962331,
                0.4369006328272102,
                0.12685922944063327,
                0.5481774116815051,
                0.15563466048711963,
                0.5822744823943937,
                0.3787613606779678,
                0.22915260091421044,
                0.07524951146854014,
                1.0636549103809432,
                0.19679826510364096,
                0.16748775970865665,
                0.0752499032288301,
                0.3562948952428783,
                0.6387345932611261,
                0.012656250269739613,
                0.07303881464316443,
                0.08523545878301325,
                0.42519821738072555,
                0.569697358125241,
                0.2992701003184842,
                1.0636549103809436,
                0.07524977981167574,
                0.07525,
                0.40453627235299305,
                0.5696973581252411,
                0.04002073496152997,
                0.35603007426051525,
                0.07303925347399325,
                0.06459871509723569,
                0.07524974556430435,
                0.0852351273969239,
                0.07524998300068735,
                0.4501304620489811,
                1.0636549103809434,
                0.325863746329185,
                0.07525012310995685,
                0.51099891,
                0.3758429211966143,
                0.5696973581252411,
                0.053123368747441835,
                0.0752501037507056,
                0.08474052334567181,
                0.5696973581252411,
                0.426569878897304,
                0.1381531109113464,
                0.678430035532791,
                0.5696973581252412,
                0.34835299996031943,
                0.07303885432215829,
                0.17895118784675756,
                1.0636549103809434,
                0.04664010904719382,
                0.0847408816017312,
                0.569697358125241,
                1.1320971385777776,
                0.569697358125241,
                1.0636549103809434,
                0.07524998701439398,
                0.16700785980415694,
                0.08474075880069708,
                0.08523535889123338,
                0.07524998070211747,
                0.0432914444007699,
                0.8013510017949969,
                0.8339994501637835,
                0.5696973581252411,
                0.075250196382708,
                1.0636549103809434,
                0.5696973581252411,
                0.5696973581252411,
                0.07524982035769101,
                0.08523575628399016,
                0.06846201704043506,
                0.053996273255594016,
                0.5696973581252411,
                0.08523592906028182,
                0.07303918559416822,
                0.6313480909312839,
                0.4408576505834003,
                0.07524998630340037,
                0.5696973581252412,
                1.0636549103809434,
                0.8128645491717513,
                0.4007313334688717,
                1.5470655993808955,
                0.699121100361429,
                0.06187802984588409,
                0.08438850491886722,
                0.07525012633252397,
                0.28030318854665714,
                0.5696973581252411,
                0.447259362503285,
                0.2317684218052934,
                0.07525059010378338,
                0.569697358125241,
                0.07525015323977134,
                0.6349946624194811,
                0.20371312731095453,
                0.05894750804871085,
                0.07303925322803731,
                0.07303891783775247,
                0.5696973581252411,
                0.3573133077267371,
                0.39014970060122395,
                0.07525004677313318,
                1.5154800893988163,
                1.0636549103809434,
                0.07525000626321199,
                0.07303875147259346,
                1.0636549103809434,
                0.6510398124734922,
                1.0353484103809434,
                0.07303881364896869,
                0.08523565225516937,
                0.5696973581252411,
                0.20652804574182435,
                0.07525020488743056,
                0.5696973581252411,
                0.0852352323940768,
                1.0636549103809436,
                0.2045729680116969,
                0.29215214465002615,
                1.0636549103809434,
                0.0752500200711784,
                0.6496578912061894,
                1.0636549103809436,
                0.5696973581252411,
                0.07303894247188895,
                0.08523516467364226,
                0.07525002467465725,
                0.0752501167362513,
                0.10415252030882095,
                0.4128027607458582,
                1.0636549103809434,
                0.13022539640955708,
                0.07524990588974709,
                0.2610905161096055
            ],
            "photocathode": [
                175,
                1608,
                498,
                4038,
                7446,
                609,
                3827,
                525,
                31,
                4179,
                4088,
                540,
                2445,
                507,
                2367,
                585,
                618,
                543,
                2189,
                508,
                3931,
                7233,
                486,
                5023,
                4024,
                2762,
                534,
                507,
                3873,
                596,
                817,
                1494,
                1775,
                2430,
                7372,
                1319,
                636,
                5365,
                996,
                567,
                2632,
                7318,
                2945,
                3170,
                504,
                4127,
                3942,
                484,
                584,
                510,
                6077,
                778,
                3946,
                531,
                3954,
                3263,
                3904,
                524,
                3892,
                3064,
                562,
                527,
                7452,
                1171,
                741,
                7683,
                2950,
                140,
                2098,
                299,
                3964,
                1077,
                7436,
                1585,
                1308,
                3804,
                5454,
                4014,
                82,
                496,
                502,
                3450,
                2097,
                1804,
                1663,
                107,
                4856,
                521,
                4086,
                4839,
                306,
                4024,
                3996,
                4008,
                2041,
                2585,
                5860,
                620,
                525,
                523,
                780,
                457,
                505,
                634,
                515,
                3960,
                1272,
                5302,
                502,
                7478,
                7400,
                7754,
                4052,
                7585,
                5466,
                502,
                3979,
                2498,
                3918,
                553,
                494,
                4124,
                454,
                3140,
                3917,
                3174,
                7553,
                3998,
                1156,
                3990,
                3950,
                3260,
                5031,
                92,
                3815,
                533,
                3895,
                7509,
                697,
                564,
                83,
                7546,
                741,
                2479,
                3978,
                1730,
                566,
                7744,
                879,
                78,
                3910,
                510,
                1673,
                5463,
                3922,
                525,
                2204,
                3061,
                511,
                498,
                541,
                2863,
                3964,
                493,
                4638,
                535,
                1114,
                104,
                720,
                506,
                4052,
                1441,
                5804,
                3577,
                516,
                86,
                1892,
                7352,
                7507,
                4007,
                3555,
                480,
                498,
                3860,
                524,
                513,
                7364,
                527,
                577,
                2958,
                2921,
                3158,
                3910,
                2591,
                499,
                529,
                498,
                7458,
                334,
                3843,
                1109,
                2943,
                520,
                982,
                3791,
                4045,
                503,
                4050,
                167,
                516,
                2821,
                552,
                406,
                2088,
                503,
                4018,
                7246,
                3996,
                552,
                491,
                2754,
                3059,
                3972,
                513,
                7379,
                4038,
                1125,
                946,
                7275,
                3918,
                2435,
                871,
                4141,
                580,
                4013,
                495,
                557,
                2278,
                1631,
                4116,
                581,
                4066,
                4019,
                3243,
                570,
                1760,
                618,
                484,
                4162,
                476,
                1993,
                485,
                1730,
                641,
                2234,
                1286,
                347,
                6334,
                540,
                593,
                498,
                3351,
                3951,
                10445,
                571,
                403,
                569,
                552,
                493,
                2070,
                7488,
                506,
                549,
                506,
                1578,
                752,
                4013,
                1060,
                5477,
                481,
                2107,
                2350,
                3517,
                295,
                536,
                1950,
                3049,
                2532,
                4486,
                3109,
                526,
                4766,
                4013,
                1558,
                2186,
                500,
                5540,
                4101,
                7599,
                3822,
                1576,
                1329,
                2046,
                504,
                239,
                5097,
                7274,
                509,
                1462,
                526,
                4036,
                603,
                3982,
                486,
                2378,
                2448,
                810,
                3925,
                2217,
                4042,
                80,
                564,
                535,
                3974,
                575,
                1078,
                586,
                484,
                521,
                1545,
                507,
                76,
                1868,
                4066,
                2148,
                3948,
                916,
                7426,
                4035,
                862,
                3963,
                3994,
                1555,
                2890,
                7649,
                3678,
                1799,
                4034,
                524,
                2972,
                496,
                7318,
                3926,
                546,
                4012,
                507,
                1820,
                7656,
                345,
                523,
                3988,
                7838,
                2048,
                3071,
                868,
                3813,
                1092,
                4143,
                2665,
                1562,
                521,
                7612,
                1400,
                1167,
                532,
                2484,
                4465,
                82,
                481,
                542,
                3026,
                4242,
                2168,
                7698,
                533,
                526,
                2777,
                3942,
                265,
                2446,
                481,
                463,
                489,
                624,
                487,
                3196,
                7449,
                2241,
                509,
                3619,
                2647,
                3839,
                324,
                551,
                631,
                4034,
                2905,
                947,
                4590,
                4012,
                2522,
                496,
                1261,
                7355,
                274,
                584,
                3991,
                8045,
                4121,
                7275,
                483,
                1200,
                615,
                600,
                495,
                350,
                5622,
                5819,
                3937,
                556,
                7459,
                3959,
                4020,
                529,
                571,
                490,
                372,
                3977,
                590,
                507,
                4496,
                3068,
                542,
                4039,
                7541,
                5664,
                2998,
                11027,
                4980,
                482,
                565,
                532,
                2016,
                4006,
                3071,
                1564,
                519,
                3924,
                527,
                4512,
                1426,
                419,
                544,
                518,
                3902,
                2565,
                2754,
                514,
                10598,
                7544,
                542,
                509,
                7497,
                4564,
                7307,
                495,
                608,
                4107,
                1421,
                500,
                4035,
                613,
                7419,
                1443,
                2038,
                7359,
                466,
                4475,
                7545,
                3889,
                511,
                587,
                522,
                525,
                751,
                2797,
                7388,
                882,
                540,
                1860
            ]
        },
        "detections": 500,
        "events": 35378
    }
}