{
    "job_args": {
        "metric_limit": 500,
        "seed": 2835005213
    },
    "job_id": "batch_11_do_500",
    "result": {
        "collections": {
            "crystal": [
                0.6602369014182158,
                0.5696973581252411,
                0.044732453239729957,
                1.0636549103809434,
                0.5696973581252411,
                0.0847407,
                0.11018608913040041,
                0.5696973581252411,
                0.22809643130507043,
                0.17842782292642945,
                0.4818969778420955,
                0.04694366345767152,
                0.07525009852244952,
                0.12349594648759021,
                0.07524987998947848,
                0.5696973581252412,
                0.1455035279637929,
                0.08765550463274414,
                1.0636549103809432,
                0.032340082799960805,
                0.008834895811641595,
                1.0636549103809432,
                0.11150078035744676,
                0.07524980748669419,
                1.0636549103809436,
                0.07303912810397557,
                1.0636549103809434,
                0.8533542572918706,
                0.07524974938058789,
                1.0636549103809434,
                0.07525024472236427,
                0.07303910454579422,
                0.12730601778319367,
                0.07525004441447834,
                0.08523558674980158,
                0.07476468330065705,
                0.5696973581252411,
                0.17225528855004657,
                1.0636549103809434,
                0.39061621543985686,
                0.04025503825804311,
                0.07303909788287574,
                0.07525014791326815,
                0.012656300000000002,
                0.5587757358545438,
                0.07525054204873821,
                1.0636549103809434,
                0.08753425072695278,
                0.0752498949659034,
                0.07303907686102876,
                0.25835645117859896,
                1.0071328032111742,
                0.5696973581252412,
                0.43152515015021786,
                0.5696973581252411,
                0.199831672697871,
                0.08455385910655026,
                0.07524982255504083,
                0.07524995275295068,
                1.0636549103809434,
                0.08753393278245158,
                0.07524989840568225,
                0.08886641442308262,
                0.4828486279103985,
                0.4435289055850341,
                0.25431287842773653,
                0.5851425578226305,
                0.5696973581252411,
                0.5696973581252411,
                0.07525021506129675,
                0.35909352828358576,
                0.0752502291425105,
                0.5696973581252411,
                0.07524990075576239,
                0.071688697262735,
                0.07525003746444134,
                0.07524974139136037,
                0.05448326574493999,
                0.0876558178228495,
                0.07524974122158817,
                0.07303901878648053,
                1.0636549103809434,
                0.07303874647054082,
                0.07524957614194006,
                0.5696973581252412,
                0.07303869934001855,
                0.6372862591452337,
                0.12321685394407682,
                0.07303894090216091,
                1.0636549103809434,
                0.5696973581252411,
                0.5469190999241601,
                0.07303885414915581,
                0.37036158690560544,
                0.07303882949741303,
                0.6414182161326734,
                0.5696973581252412,
                0.07525004808253252,
                0.0752505835193836,
                0.13992897157671916,
                0.08474059889253947,
                1.0636549103809434,
                0.17518815745880534,
                0.3779735829205855,
                0.8697431505978863,
                0.01503278194297109,
                0.1441508730366566,
                0.056928716511573205,
                1.0636549103809434,
                0.07524985002474163,
                0.2846532375712792,
                1.7702147165148296,
                0.07525022512473413,
                0.07525024715191006,
                0.07303878507856906,
                0.5696973581252411,
                0.5696973581252411,
                0.6395379368781786,
                0.0752498395600533,
                0.5696973581252411,
                0.07524979658307769,
                0.07525011591808471,
                0.5696973581252411,
                0.12817689539430993,
                0.5696973581252411,
                0.012627502098984727,
                0.046640499999999994,
                1.0636549103809434,
                0.08523534871599969,
                0.07525043842566062,
                0.0730389737127646,
                0.08820216557662747,
                0.073039,
                1.0744662932856652,
                0.04694327098508565,
                0.08820261138708953,
                0.44811895611556996,
                0.3615697769072532,
                0.17097306321123773,
                1.0636549103809434,
                0.07303912527053288,
                0.3688733518611761,
                0.07303884959357061,
                0.07524997921222723,
                0.2697988792560436,
                0.3196763519072893,
                0.08523502859564223,
                0.14103669255260368,
                0.7685975885046206,
                0.015849297124330586,
                0.015759353899830415,
                0.08523534400911004,
                0.08523567968483711,
                0.5696973581252411,
                0.08523490660849262,
                1.196343748544228,
                0.07525041360003884,
                0.4235070102640217,
                0.07524995114407707,
                0.5696973581252411,
                0.08474011105993025,
                0.17464921312799755,
                1.0636549103809434,
                0.0852354685877301,
                0.08523519529110316,
                0.3052363434041676,
                0.5696973581252411,
                1.0636549103809434,
                0.3443606678012079,
                0.283760729707668,
                0.5696973581252411,
                0.5696973581252412,
                0.5696973581252411,
                0.0852354642718108,
                0.07303924744261808,
                0.1716600701281798,
                0.2527946156506357,
                1.0636549103809434,
                0.5696973581252411,
                0.23350527720327727,
                0.5696973581252411,
                0.10715472343217503,
                0.3438277990314217,
                0.0469435,
                1.0636549103809436,
                1.0636549103809434,
                0.07525004553075847,
                1.0919771732177501,
                0.014815813234747227,
                0.02283016187894865,
                0.3935011374073425,
                0.5696973581252411,
                0.07303908294192564,
                0.6951206837441584,
                1.168908878798997,
                0.569697358125241,
                0.07524980436089063,
                0.24961032839538022,
                0.08523539999999999,
                0.7693393366065147,
                0.073039,
                0.07524989028810226,
                0.21288685684513434,
                0.08523520702774592,
                0.38966315974663934,
                0.43021439510924686,
                0.08523511659072164,
                0.43145028990358647,
                0.04694337169984453,
                0.6820571468764897,
                0.5696973581252411,
                0.14222867906631165,
                0.558836799843512,
                0.5080171906467046,
                0.6092986330437515,
                0.5370688012725223,
                0.5696973581252411,
                1.0636549103809432,
                0.4100350950995361,
                1.0636549103809434,
                1.0636549103809434,
                0.024643625821391752,
                0.1734552301978343,
                0.500712704813477,
                0.4449740627462187,
                0.23932454695383884,
                0.5696973581252411,
                1.0636549103809434,
                0.21614421442381498,
                1.6448367950909424,
                0.07303882292081662,
                0.7008323432820311,
                0.1228614548602023,
                0.5407135070602969,
                0.5696973581252411,
                0.5696973581252411,
                0.07524991496475886,
                0.6759393717152324,
                0.1686374706081522,
                0.07253063266024912,
                0.5696973581252411,
                0.26244180616400736,
                0.2710748044710551,
                0.8059414679967845,
                0.9049952015556159,
                0.08474098317839752,
                0.4555255430610454,
                0.5696973581252411,
                0.11100349082820214,
                1.0636549103809436,
                0.07303915065809263,
                0.08474096543635282,
                0.07525011908969406,
                0.5696973581252412,
                0.07524999530274053,
                0.5696973581252411,
                0.04694347705457337,
                1.0636549103809434,
                0.5696973581252412,
                0.36834357408962304,
                0.43795596587760444,
                0.21216708509081178,
                0.5696973581252411,
                0.26358985077575947,
                0.23941877703870507,
                0.012656341951229682,
                0.07525044251033261,
                0.07303899999999999,
                0.8259234242723337,
                0.07303925189988751,
                0.1307593220203067,
                0.6029558090661239,
                0.19127824705600044,
                0.10629157920713835,
                0.08474063759242514,
                1.0636549103809436,
                0.5696973581252411,
                0.44764514547822937,
                0.2886442089234821,
                0.07524975540100737,
                0.10080565831045496,
                1.0636549103809434,
                0.6097412197798793,
                0.07524994701068786,
                0.0847407,
                0.1769946020418558,
                0.15427944964596246,
                0.5696973581252411,
                0.08765569015815537,
                0.08474034795716373,
                0.5696973581252411,
                0.569697358125241,
                0.06303956284219087,
                0.43517682571586624,
                0.5696973581252411,
                0.07303874507048841,
                0.5696973581252412,
                0.5116013994821041,
                1.0636549103809434,
                0.08523559131306813,
                0.2605663798365021,
                0.5696973581252411,
                0.08569500996377778,
                0.07303881903128681,
                0.5607138341663676,
                0.5696973581252411,
                0.5696973581252409,
                0.5696973581252411,
                0.07303876933430734,
                0.06724402339844304,
                0.33942515560265546,
                0.09239364011117823,
                0.04442936243642007,
                1.0636549103809436,
                0.07525031198774464,
                0.8720574805554615,
                0.12456559076479208,
                0.5696973581252411,
                0.07303916232781128,
                0.013013975905521275,
                0.07524999523480103,
                0.07524981089438666,
                0.30889876244115083,
                0.1335911281041857,
                0.09061147789963253,
                0.07303893290762457,
                0.5696973581252411,
                0.5696973581252411,
                0.5696973581252411,
                0.30918727119768863,
                0.08765566528551774,
                0.17048150567359377,
                0.07524986423442409,
                0.08523538440288952,
                0.3263410981547544,
                0.5279969394212867,
                0.07525,
                1.0636549103809432,
                0.07524983495867604,
                0.0786205778464458,
                0.5873943879067146,
                0.012656305010207702,
                0.5696973581252411,
                0.07303922533900724,
                0.07303937745165051,
                0.04205602009622067,
                0.07525009190223893,
                0.12939693012518427,
                0.0752499245519581,
                0.7795175107396417,
                0.0350664666996776,
                0.44821734331039176,
                0.5696973581252411,
                0.4133769580830824,
                0.05113822924244551,
                0.07524983982158256,
                0.5696973581252411,
                0.05735329304241432,
                0.34621170700100334,
                0.07303894921075407,
                0.197454933291274,
                0.07524994949481749,
                0.8022128894762877,
                0.07303891022096765,
                1.0636549103809436,
                0.5696973581252411,
                0.3125219967138195,
                0.7046930954982213,
                0.073039,
                0.01805411528993428,
                0.36561036062269814,
                0.7629885987894308,
                0.569697358125241,
                0.07525015622882289,
                0.2537281218211164,
                0.07011483506893473,
                0.5696973581252412,
                0.14230892698504993,
                0.2058393387530527,
                0.07525005145520539,
                0.6353825691429963,
                0.4183750281545222,
                0.07303897729943629,
                0.012604840833074577,
                0.07524997931634055,
                0.7657565283872119,
                0.3147632277884943,
                1.0636549103809434,
                0.36773911390503994,
                0.7776886927906466,
                0.569697358125241,
                0.5696973581252411,
                0.5058450697119261,
                0.07303924865378855,
                0.07524997062048938,
                0.07303918989107779,
                0.07303875486240409,
                0.5696973581252411,
                0.5696973581252411,
                0.6896743897304838,
                0.7987451136599832,
                0.2442490346591439,
                0.1846819960191184,
                1.0636549103809434,
                0.5696973581252411,
                0.07303899999999999,
                0.6318708633521564,
                0.08523550770100445,
                0.07524976743453875,
                0.07524982421092886,
                0.07303911368347846,
                0.5696973581252411,
                0.3163065343514925,
                0.2734518801442339,
                0.044429746561013395,
                0.21801802880194693,
                1.0353484103809434,
                1.0636549103809434,
                0.06062703835501844,
                0.2715596688807761,
                0.35528015746154884,
                1.0636549103809432,
                0.5696973581252412,
                1.0636549103809434,
                0.569697358125241,
                0.5696973581252411,
                0.2632198974348396,
                0.09341901305669373,
                0.28523492912912435,
                0.20160023972868907,
                0.18432830064110045,
                0.07525000141242065,
                0.07303863204554206,
                0.16476134667069406,
                1.7702147165148296,
                0.04535182623756973,
                0.33798395815985494,
                0.0730384036373623,
                0.0752501455668622,
                0.5696973581252411,
                0.07303914370655175,
                0.5696973581252411,
                0.5696973581252411,
                0.5696973581252412,
                0.0752497710429224,
                0.07525004731608942,
                1.0636549103809434,
                0.47095640294108726,
                0.07524992314300098,
                0.5696973581252412,
                0.0752499823052362,
                0.052941079496680706,
                0.08523509701902635,
                0.5696973581252411,
                0.31643201734579696,
                0.07524983626107148,
                0.5696973581252411,
                0.08523544355952009,
                0.07303897486886982,
                0.6905234813844143,
                0.5696973581252411,
                0.07524982395102824,
                0.4180249642512315,
                0.29840559158853963,
                0.3731365570183288,
                0.5696973581252411,
                0.07303885681444751,
                0.47269746833451876,
                0.073039,
                0.07303906170700827,
                0.06891030285676318,
                1.0636549103809434,
                0.08765523981539972,
                0.3820951351061731,
                0.6204771275769401,
                0.03840978317208317,
                0.075250134769129,
                0.104955194484117,
                0.5696973581252411,
                0.2629758722903631,
                0.4263852930277684,
                0.5696973581252411,
                0.6879413731091416,
                0.07303893076467903,
                0.0752499705892865,
                0.5696973581252411,
                0.0126562893254802,
                0.44283745585222634,
                0.22377132297527644,
                0.5696973581252411,
                0.07524996246632937,
                1.0636549103809434,
                0.6830791227125192,
                0.5696973581252412,
                0.08663930684269106,
                0.24419157216584053,
                0.07524974077732766,
                0.5696973581252411,
                0.5896835470972838,
                0.0730391200782848
            ],
            "photocathode": [
                4656,
                4118,
                309,
                7233,
                3982,
                600,
                818,
                4004,
                1587,
                1216,
                3378,
                360,
                519,
                865,
                512,
                3948,
                1007,
                641,
                7460,
                239,
                52,
                7623,
                737,
                498,
                7490,
                506,
                7262,
                6002,
                527,
                7406,
                502,
                499,
                914,
                517,
                587,
                572,
                4006,
                1268,
                7378,
                2801,
                258,
                504,
                557,
                87,
                3991,
                506,
                7512,
                569,
                568,
                498,
                1862,
                7024,
                3965,
                3095,
                4282,
                1415,
                579,
                557,
                497,
                7440,
                596,
                542,
                640,
                3348,
                3202,
                1697,
                4033,
                4004,
                3918,
                483,
                2474,
                529,
                3984,
                546,
                526,
                568,
                503,
                383,
                550,
                517,
                547,
                7357,
                486,
                542,
                4042,
                508,
                4522,
                884,
                484,
                7248,
                3991,
                3840,
                511,
                2596,
                465,
                4678,
                3985,
                500,
                541,
                996,
                592,
                7302,
                1249,
                2724,
                6373,
                106,
                995,
                412,
                7311,
                518,
                1980,
                12529,
                522,
                545,
                495,
                3873,
                4095,
                4380,
                553,
                4004,
                526,
                526,
                4073,
                951,
                3909,
                72,
                316,
                7364,
                623,
                527,
                473,
                651,
                516,
                7418,
                342,
                617,
                3252,
                2509,
                1220,
                7458,
                480,
                2488,
                449,
                488,
                1946,
                2187,
                555,
                958,
                5340,
                104,
                114,
                574,
                575,
                3860,
                615,
                8196,
                495,
                2985,
                492,
                3856,
                616,
                1227,
                7409,
                579,
                627,
                2150,
                3979,
                7317,
                2495,
                1882,
                4040,
                3942,
                4030,
                622,
                489,
                1169,
                1748,
                7613,
                3987,
                1674,
                3964,
                787,
                2441,
                305,
                7466,
                7658,
                503,
                7841,
                99,
                176,
                2736,
                4059,
                514,
                4703,
                7976,
                3940,
                511,
                1746,
                596,
                5372,
                452,
                516,
                1514,
                596,
                2796,
                3077,
                606,
                3029,
                364,
                4995,
                4032,
                991,
                3816,
                3652,
                4305,
                3819,
                4115,
                7580,
                2828,
                7443,
                7524,
                176,
                1205,
                3499,
                3158,
                1666,
                3863,
                7576,
                1488,
                11859,
                548,
                4998,
                842,
                3849,
                4011,
                4013,
                509,
                4679,
                1229,
                477,
                3977,
                1920,
                1957,
                5675,
                6322,
                573,
                3134,
                3968,
                796,
                7550,
                494,
                577,
                533,
                4028,
                510,
                4003,
                299,
                7361,
                3988,
                2572,
                3193,
                1498,
                4011,
                1866,
                1671,
                90,
                492,
                490,
                5752,
                497,
                982,
                4332,
                1303,
                738,
                566,
                7519,
                3953,
                3173,
                2015,
                478,
                736,
                7694,
                4298,
                502,
                589,
                1337,
                1082,
                3932,
                616,
                572,
                3857,
                4068,
                422,
                3116,
                4006,
                561,
                4254,
                3528,
                7614,
                590,
                1874,
                3953,
                606,
                518,
                4031,
                4016,
                3949,
                3847,
                545,
                506,
                2352,
                645,
                327,
                7307,
                535,
                6080,
                896,
                4022,
                541,
                97,
                579,
                509,
                2159,
                958,
                645,
                525,
                4134,
                3991,
                3988,
                2221,
                650,
                1163,
                510,
                572,
                2368,
                3821,
                540,
                7480,
                463,
                569,
                4173,
                88,
                3919,
                496,
                461,
                323,
                517,
                943,
                547,
                5373,
                228,
                3100,
                4083,
                3002,
                382,
                480,
                4078,
                377,
                2520,
                464,
                1380,
                495,
                5692,
                467,
                7484,
                3950,
                2178,
                4826,
                552,
                111,
                2541,
                5354,
                3966,
                524,
                1738,
                517,
                4010,
                1021,
                1518,
                502,
                4483,
                2924,
                518,
                90,
                537,
                5488,
                2266,
                7316,
                2634,
                5652,
                4127,
                3930,
                3600,
                515,
                522,
                505,
                502,
                4034,
                3875,
                4799,
                5676,
                1658,
                1316,
                7310,
                4018,
                565,
                4557,
                581,
                532,
                511,
                483,
                4076,
                2281,
                1920,
                287,
                1501,
                7228,
                7472,
                441,
                1941,
                2452,
                7617,
                4021,
                7555,
                4005,
                4051,
                1888,
                660,
                2006,
                1423,
                1301,
                527,
                481,
                1060,
                12232,
                312,
                2463,
                454,
                541,
                4098,
                501,
                3966,
                3993,
                3958,
                504,
                504,
                7406,
                3301,
                556,
                3969,
                527,
                350,
                586,
                4090,
                2180,
                540,
                3970,
                601,
                527,
                4933,
                3965,
                528,
                3007,
                2047,
                2584,
                3913,
                485,
                3291,
                506,
                522,
                528,
                7384,
                653,
                2744,
                4351,
                251,
                550,
                738,
                3939,
                1867,
                2956,
                3973,
                4844,
                499,
                526,
                4018,
                74,
                3047,
                1527,
                4168,
                564,
                7414,
                4749,
                3956,
                587,
                1726,
                506,
                3951,
                4206,
                517
            ]
        },
        "detections": 500,
        "events": 37297
    }
}