{
    "job_args": {
        "metric_limit": 500,
        "seed": 2714062093
    },
    "job_id": "batch_130_do_500",
    "result": {
        "collections": {
            "crystal": [
                0.0847407801720608,
                0.08765601590241359,
                1.0636549103809434,
                0.07303917297697153,
                0.5696973581252411,
                0.3668974637945964,
                0.569697358125241,
                0.5696973581252411,
                0.2945554903834593,
                0.562204371609642,
                0.5696973581252411,
                0.10767267022810116,
                1.0636549103809436,
                0.07303883069481365,
                0.5696973581252412,
                1.0636549103809434,
                0.14269753916180097,
                0.0730389092686049,
                1.0636549103809434,
                0.7485509799904972,
                0.3964101933455226,
                0.07303901280649826,
                0.5696973581252412,
                0.24465293137692326,
                0.06279385840292306,
                0.09035871533505624,
                0.5696973581252412,
                1.0636549103809436,
                0.0752497899131101,
                0.28008052495024693,
                0.07525005566353002,
                0.08523530483572717,
                0.45602131465405993,
                0.31525850509178577,
                1.0636549103809434,
                0.073039,
                0.10483059448336846,
                0.6424831206959152,
                0.5696973581252411,
                1.0636549103809434,
                0.0847406427931219,
                0.31587221539132837,
                0.0752500283246694,
                0.6439179276349597,
                0.07524976995035196,
                0.36347112401014087,
                1.0636549103809432,
                0.5696973581252411,
                0.569697358125241,
                0.5696973581252411,
                0.5747615721823822,
                0.28005358194298663,
                0.8865898630863307,
                1.0636549103809434,
                0.08523543969512815,
                0.19217900625188425,
                0.3088257581257914,
                0.7023076003190258,
                0.7615757681536235,
                0.07525015048548589,
                0.5696973581252411,
                0.46681702766430877,
                0.3522555454523585,
                0.4070133632762309,
                0.5696973581252411,
                1.0636549103809434,
                0.5696973581252411,
                0.49956053475174633,
                0.07524994387009552,
                0.08523561035360436,
                1.0636549103809434,
                0.07303923119682032,
                1.0636549103809434,
                0.16350559636535925,
                0.42079712403459646,
                0.21378785750035473,
                0.09279923451656873,
                0.07303904151565083,
                0.0847407,
                0.5743257686497018,
                1.0636549103809434,
                0.569697358125241,
                0.0730391528352126,
                0.012656298924529122,
                0.11243534503741934,
                0.08523559430054926,
                0.7148840602483937,
                0.07303912369361021,
                0.08753374588837261,
                0.27782718785580407,
                0.0847407,
                0.07303922647490937,
                0.08474060188468518,
                0.5696973581252411,
                0.5696973581252411,
                0.8517342288581117,
                0.01906858404382561,
                0.4239158365525966,
                0.20069235348074277,
                0.085235557836399,
                0.03391113656109131,
                0.5101726816641958,
                0.07525002369295797,
                0.07525047566952558,
                0.07524999999999997,
                0.5696973581252412,
                1.0636549103809434,
                0.07303875140383444,
                0.22820546756233653,
                0.05927577836469873,
                0.08474066017181967,
                0.722336177505901,
                0.08523519990946507,
                0.0852351566642338,
                0.0420973502557096,
                0.6651028010835542,
                0.5696973581252411,
                0.5696973581252411,
                0.07303941184716109,
                0.01478896045169395,
                0.5156029765501379,
                0.5696973581252411,
                0.38905255138930533,
                1.0636549103809434,
                0.335918455426618,
                0.04295522544345901,
                0.0752500990205001,
                0.15946633390346854,
                1.0636549103809434,
                0.39524903390980604,
                0.5696973581252411,
                0.07524989227916742,
                0.08765576374688462,
                0.3171700660402358,
                0.040649821319468926,
                0.07303920131915179,
                0.07303883297117797,
                1.0636549103809436,
                0.2318620714210641,
                0.29067059702028275,
                0.22304389215299072,
                0.07461273143470326,
                0.4333364942605845,
                0.18327870008353073,
                0.5696973581252411,
                0.7052178378554419,
                0.32510770290269203,
                0.5696973581252412,
                0.5696973581252411,
                0.06564567673786034,
                0.5641814931830783,
                0.07303894377860332,
                1.0636549103809434,
                0.5696973581252411,
                0.10984470190449924,
                1.0636549103809434,
                0.5696973581252411,
                0.08523547815324285,
                0.08753409744459124,
                0.556238136217324,
                0.6187221979852358,
                0.08523545043686107,
                0.0852352596180154,
                0.5696973581252411,
                0.6497359436381924,
                0.38660681165581623,
                0.34178449377098424,
                0.08523574052854747,
                0.26335975891626395,
                0.5696973581252411,
                0.010550993289411573,
                0.21115048428882938,
                0.3508238064148598,
                0.07524999999999998,
                0.5696973581252414,
                0.07524985411118879,
                0.3932114202303191,
                0.5696973581252412,
                0.1940923980722845,
                1.0636549103809434,
                0.5696973581252411,
                0.07303875173577258,
                0.07525,
                0.08523514451879341,
                1.0636549103809434,
                1.0636549103809436,
                0.5696973581252412,
                0.08984124760222356,
                0.5696973581252411,
                0.08523568742752935,
                0.738551617977778,
                0.5696973581252411,
                0.07303918635536445,
                0.04074498336496475,
                0.0852354983544727,
                0.30461592681158034,
                0.5696973581252411,
                1.7702147165148296,
                0.07303887819162874,
                0.38447260553957563,
                0.5696973581252411,
                0.5696973581252411,
                0.07525013826809392,
                0.37461616243189666,
                0.569697358125241,
                0.5696973581252412,
                0.5696973581252411,
                0.07303878833830893,
                0.06828631275001729,
                0.5696973581252411,
                0.5696973581252412,
                0.09316760669336621,
                0.5930645324705484,
                0.5696973581252411,
                0.07303835846880793,
                0.07524998617141639,
                0.0752501755925451,
                0.3672249630444224,
                0.07525008055219662,
                0.0752500447505216,
                0.3658973136535848,
                0.5696973581252411,
                0.0752500382284892,
                0.08523567421942231,
                1.0636549103809434,
                0.073039,
                0.07524997025894538,
                0.0730392025650418,
                0.5696973581252411,
                0.6449474421067447,
                0.05418023348472367,
                0.9362757249606564,
                0.07525015970627058,
                0.15286948166296827,
                0.0413535874873896,
                0.34494092612150096,
                0.5696973581252411,
                0.488730158118065,
                0.28330959088154284,
                0.16642043287668556,
                0.5696973581252411,
                0.07303883291687996,
                0.08474052641373656,
                0.3377128043349105,
                0.024172810451348555,
                1.0636549103809434,
                0.04473275380107438,
                0.5045796539936468,
                0.569697358125241,
                0.08765545983226294,
                0.06505001800697148,
                0.08474085708671429,
                0.5696973581252411,
                0.5696973581252411,
                0.5194362114217478,
                0.05904602743774441,
                0.34352347622538615,
                0.5696973581252412,
                0.569697358125241,
                0.5696973581252411,
                0.08820265835267138,
                0.18724788128608932,
                0.8969311876580759,
                0.5696973581252411,
                0.3590130444509738,
                0.20353566227355385,
                0.07525019910799227,
                0.07525017843573882,
                0.07525008718701912,
                0.07303885288086018,
                0.2839542762243291,
                0.5696973581252411,
                0.5696973581252411,
                0.569697358125241,
                0.7991022222169265,
                0.5696973581252412,
                0.7098043574922895,
                0.07525013647123865,
                0.3882741757499051,
                0.017153031602091584,
                0.08523561015983651,
                0.07303888586532031,
                1.0636549103809434,
                0.07525026240470387,
                0.49991154625728534,
                0.5696973581252411,
                0.5696973581252411,
                0.06726630798169841,
                0.2182736696766202,
                0.07525000000000001,
                0.7227194116605471,
                0.5696973581252411,
                0.5696973581252411,
                0.5263547435401624,
                0.5696973581252411,
                0.072419442913539,
                0.4976537224870915,
                0.15189547314280838,
                0.569697358125241,
                0.31309345662857896,
                0.5696973581252411,
                0.06335318609391838,
                0.06586974062038206,
                0.07524996867055864,
                0.24157833390435007,
                0.08523555898840482,
                0.33119970566955914,
                0.3527540466946072,
                0.08374353479960553,
                0.5696973581252411,
                0.6560835988549854,
                0.07303921863605255,
                0.07525009978547567,
                0.08765580553946617,
                0.6410473080277683,
                0.07524972354543369,
                0.8379306341249225,
                0.07524982118862764,
                1.7702147165148299,
                0.6500826146000391,
                0.07524954129235552,
                0.08474059388449938,
                0.8470747289894622,
                0.569697358125241,
                1.0636549103809436,
                0.7178144140820479,
                0.5696973581252411,
                0.1458582689500305,
                0.3976862192103165,
                0.5696973581252411,
                0.10610888751987382,
                0.4007803894628276,
                0.21944736494159348,
                0.8407910030433641,
                0.08523517654488674,
                0.22272774381294433,
                0.04938520144227643,
                0.07524998317256217,
                0.31619690090394276,
                0.6934959139972783,
                0.5696973581252411,
                0.23627675024232045,
                0.23067248119990996,
                0.7797996330817336,
                1.0636549103809434,
                0.02670887486081408,
                0.1482742631857501,
                0.7746432796764217,
                0.039740667095591875,
                1.0636549103809434,
                0.5696973581252411,
                0.5696973581252411,
                0.5696973581252411,
                0.07303904296622181,
                0.5696973581252411,
                0.01265633952690326,
                0.24650279371406636,
                0.295679127441181,
                1.1293513328475766,
                0.07524993434086996,
                0.6861558550411058,
                0.07524975526642604,
                0.07303945858488922,
                0.07303925512550813,
                1.0636549103809434,
                0.10161863628212653,
                0.5671092291031615,
                0.07303904080345962,
                0.5696973581252411,
                0.07525014673513558,
                0.04301338590586854,
                0.07303901568146001,
                0.3401735632205034,
                1.0636549103809432,
                0.569697358125241,
                0.19871070518904083,
                0.012627526801322717,
                0.5696973581252411,
                0.07524975925091748,
                0.7042881623149624,
                1.0636549103809434,
                0.20903452352318969,
                0.07094089504928108,
                0.026422314485931908,
                0.5696973581252411,
                0.5942383983325993,
                1.0636549103809434,
                0.5696973581252411,
                0.5696973581252411,
                0.08474053284277605,
                0.5696973581252411,
                1.7702147165148299,
                0.7038768734410752,
                0.07303897041696603,
                0.038455856533712085,
                1.0636549103809434,
                0.18144734133966628,
                0.18746348526125647,
                0.2349098238485529,
                0.5696973581252411,
                0.07525021331246703,
                0.645999363471568,
                0.42055934909910997,
                0.021433126158575677,
                0.07303888382615512,
                0.07525024141037157,
                0.15763032140986796,
                0.5696973581252412,
                0.4445597332261041,
                0.08523564727216648,
                0.0419205614838547,
                0.0752498793753945,
                0.037511504105221416,
                0.07303891269081635,
                0.7198793829696608,
                0.08523531440380813,
                1.0636549103809432,
                0.3833819775078308,
                1.0636549103809434,
                0.0469435,
                0.07525049236102963,
                1.0636549103809434,
                0.07524978275148105,
                0.7812256084986523,
                0.8235897088264604,
                1.0636549103809434,
                0.5696973581252412,
                0.08820234989499076,
                0.5696973581252411,
                0.7818955380920798,
                0.27622919734416124,
                0.2650820238920397,
                0.6917310306401503,
                0.0752502601521418,
                0.05478307797749109,
                0.4705067653472148,
                1.0636549103809434,
                0.47003421728663375,
                0.20094347712051916,
                0.14387449310569586,
                0.5696973581252412,
                0.5696973581252411,
                0.022177170510625954,
                0.5696973581252411,
                0.3182787745777354,
                0.3068014950163884,
                0.5696973581252411,
                0.07005950034723983,
                0.07524983212467498,
                0.5696973581252411,
                0.07303912419246596,
                0.07365444941209726,
                0.5636352458978113,
                0.07525011650204948,
                0.07170670018941416,
                0.8340167168238095,
                0.024574940189881933,
                0.07303910874157768,
                0.5696973581252411,
                0.028346333753785275,
                0.17369521355213946,
                0.7927742789867229,
                0.5696973581252411,
                0.15491843098720787,
                0.5973801340461528,
                0.07525,
                0.586332317537911,
                0.5696973581252411,
                0.8129547477371679,
                1.390233276960406,
                0.5696973581252411,
                0.07525012975523535,
                1.0636549103809434,
                0.07525032030478788,
                0.42727531213899245,
                0.43576715643654823,
                0.5696973581252411,
                0.5696973581252412,
                0.07525019202608157,
                0.07525010926045056,
                0.08474057799938488,
                1.0636549103809434,
                0.5696973581252411,
                0.2515267222770113,
                0.07525048580288385,
                0.31628350938418764,
                0.273909946679911,
                0.8093691881185784,
                0.11181885028341859,
                0.569697358125241,
                0.04473267196818519,
                0.014118594034011278,
                0.07524978463390117,
                1.0636549103809434,
                0.2109022233640863,
                0.40437523095745065,
                0.8312225252867573,
                0.28737347182948314,
                0.7979370795550234,
                0.07303889112787562
            ],
            "photocathode": [
                645,
                573,
                7601,
                503,
                4128,
                2689,
                4026,
                3989,
                2051,
                3738,
                3887,
                817,
                7392,
                508,
                3965,
                7182,
                976,
                555,
                7466,
                5140,
                2745,
                512,
                3919,
                1735,
                416,
                609,
                3782,
                7536,
                562,
                1988,
                516,
                604,
                3221,
                2252,
                7337,
                510,
                736,
                4409,
                4034,
                7435,
                603,
                2228,
                542,
                4616,
                550,
                2531,
                7478,
                3913,
                3910,
                3823,
                4001,
                2081,
                6201,
                7516,
                553,
                1294,
                2128,
                4864,
                5517,
                521,
                3864,
                3281,
                2503,
                2841,
                3917,
                7320,
                4059,
                3387,
                547,
                624,
                7379,
                530,
                7488,
                1135,
                2913,
                1504,
                677,
                516,
                571,
                3971,
                7435,
                3856,
                517,
                87,
                770,
                575,
                5066,
                547,
                632,
                1949,
                614,
                486,
                602,
                3908,
                3884,
                5955,
                137,
                2988,
                1525,
                597,
                239,
                3589,
                499,
                509,
                522,
                3967,
                7408,
                470,
                1590,
                389,
                593,
                5158,
                565,
                591,
                337,
                4728,
                3928,
                4024,
                505,
                92,
                3594,
                3938,
                2748,
                7510,
                2354,
                300,
                510,
                1117,
                7451,
                2765,
                4153,
                552,
                560,
                2169,
                306,
                507,
                469,
                7344,
                1643,
                2053,
                1555,
                497,
                2998,
                1229,
                4002,
                5082,
                2224,
                4009,
                4011,
                442,
                3935,
                492,
                7337,
                4068,
                750,
                7430,
                3914,
                580,
                603,
                4051,
                4484,
                587,
                602,
                3919,
                4475,
                2620,
                2360,
                641,
                1836,
                4070,
                87,
                1495,
                2478,
                512,
                4016,
                473,
                2840,
                3951,
                1366,
                7443,
                4086,
                521,
                561,
                605,
                7446,
                7530,
                3948,
                602,
                3976,
                573,
                5120,
                4056,
                464,
                301,
                617,
                2221,
                4024,
                12167,
                531,
                2679,
                3888,
                3971,
                498,
                2615,
                4034,
                3918,
                4064,
                510,
                429,
                3853,
                3975,
                664,
                4066,
                4001,
                535,
                484,
                517,
                2577,
                504,
                515,
                2560,
                3914,
                531,
                615,
                7332,
                528,
                500,
                496,
                4028,
                4402,
                354,
                6689,
                528,
                1130,
                297,
                2447,
                3826,
                3416,
                2014,
                1201,
                3956,
                472,
                602,
                2369,
                175,
                7354,
                300,
                3601,
                3928,
                635,
                486,
                609,
                4040,
                3992,
                3791,
                451,
                2385,
                4029,
                3921,
                4005,
                627,
                1315,
                6288,
                3907,
                2479,
                1474,
                565,
                527,
                563,
                519,
                1961,
                4037,
                4075,
                3962,
                5739,
                4077,
                4969,
                540,
                2751,
                128,
                609,
                519,
                7424,
                533,
                3509,
                4064,
                4025,
                500,
                1502,
                544,
                5052,
                4219,
                3965,
                3870,
                3942,
                486,
                3527,
                1078,
                3912,
                2222,
                4005,
                454,
                424,
                544,
                1792,
                585,
                2379,
                2476,
                600,
                4049,
                4637,
                524,
                544,
                645,
                4410,
                494,
                5850,
                515,
                12451,
                4521,
                505,
                562,
                5993,
                3903,
                7516,
                4993,
                3955,
                1010,
                2813,
                3945,
                750,
                2866,
                1469,
                5972,
                622,
                1578,
                343,
                520,
                2162,
                4960,
                3846,
                1546,
                1647,
                5404,
                7501,
                187,
                1081,
                5460,
                283,
                7477,
                3945,
                4058,
                4017,
                500,
                3949,
                85,
                1661,
                2048,
                8037,
                520,
                4790,
                508,
                518,
                500,
                7510,
                707,
                4023,
                499,
                3916,
                544,
                310,
                545,
                2429,
                7624,
                3949,
                1417,
                84,
                4110,
                500,
                4878,
                7400,
                1436,
                461,
                178,
                4052,
                4106,
                7397,
                4167,
                3988,
                579,
                4089,
                12747,
                4908,
                514,
                276,
                7662,
                1276,
                1315,
                1694,
                4018,
                506,
                4586,
                2993,
                137,
                507,
                494,
                1114,
                3923,
                3146,
                596,
                270,
                470,
                266,
                502,
                5152,
                592,
                7450,
                2721,
                7356,
                334,
                529,
                7352,
                513,
                5525,
                5786,
                7567,
                3985,
                635,
                3971,
                5562,
                1994,
                1828,
                5020,
                497,
                410,
                3327,
                7435,
                3298,
                1379,
                1017,
                3970,
                4024,
                148,
                3991,
                2110,
                2222,
                3894,
                471,
                519,
                3962,
                503,
                517,
                3838,
                512,
                574,
                5990,
                196,
                530,
                4035,
                201,
                1216,
                5519,
                3991,
                1072,
                4244,
                470,
                4240,
                3974,
                5596,
                9824,
                3939,
                521,
                7580,
                490,
                3016,
                2954,
                4057,
                4059,
                503,
                509,
                570,
                7513,
                3957,
                1763,
                504,
                2308,
                1952,
                5701,
                840,
                4048,
                298,
                107,
                523,
                7194,
                1416,
                2798,
                5776,
                1958,
                5640,
                540
            ]
        },
        "detections": 500,
        "events": 36356
    }
}