{
    "job_args": {
        "metric_limit": 500,
        "seed": 2092713991
    },
    "job_id": "batch_127_do_500",
    "result": {
        "collections": {
            "crystal": [
                0.47185965889536874,
                0.03647312743098263,
                1.1732266212015403,
                0.3529606920003036,
                0.2443437051560339,
                0.4992565787544825,
                1.3324980931528796,
                1.3324980931528798,
                1.0485539527968553,
                0.7158665919075177,
                0.07525,
                0.2999449220451383,
                0.968648762103403,
                1.1732266212015405,
                0.39951013703392735,
                0.5722715052602472,
                0.27805712405888305,
                0.3425110716605762,
                1.1732266212015403,
                0.7862155009291383,
                0.10959025748937744,
                0.5312259401805154,
                0.7104865504159237,
                0.5447608451634517,
                1.1732266212015408,
                0.07525,
                0.9191885436027706,
                1.1732266212015405,
                0.073039,
                1.3324980931528798,
                0.18530347700937788,
                1.33249809315288,
                0.9353905113497133,
                0.5271997069607096,
                1.1732266212015408,
                0.22320343606467968,
                1.3324980931528798,
                0.04152526228190995,
                0.7748723058128107,
                1.33249809315288,
                0.07525,
                0.072077486951308,
                0.6306942038166645,
                0.3748668892757576,
                0.8268928367136281,
                0.11754923256440186,
                1.1732266212015403,
                0.3398279313947923,
                1.1732266212015405,
                0.6967981973740422,
                0.4152685629572445,
                0.7834023457872631,
                1.1732266212015405,
                1.3324980931528796,
                0.5473350975335655,
                0.3802617569367899,
                1.0212527146715964,
                1.3324980931528798,
                0.6212413251375966,
                1.3324980931528798,
                0.8582196078814625,
                0.29342743771841956,
                1.1179112167335976,
                1.1732266212015408,
                0.5656059140495788,
                1.1732266212015405,
                0.8915636642755719,
                0.9194766826941465,
                0.40879297924202285,
                0.2264277444603941,
                1.3324980931528798,
                0.20130263260665407,
                0.11730845345296316,
                0.829161457602537,
                1.3038885931528799,
                1.1732266212015408,
                0.42853985312551346,
                0.4136326577859738,
                1.1732266212015405,
                1.33249809315288,
                0.15382055220975677,
                1.3324980931528798,
                0.4691823407325447,
                0.45467799383590957,
                0.9630814527174888,
                0.9483731763744594,
                0.8551233914141373,
                1.3324980931528798,
                1.3324980931528798,
                0.9427839025070908,
                1.0049292380316632,
                0.1201994074663886,
                0.07524999999999998,
                0.5300988471836812,
                1.1732266212015408,
                1.3324980931528796,
                0.5134027082977353,
                0.08523539999999999,
                0.6920210727425227,
                0.12646672793686964,
                0.6072907046892448,
                0.7375086795408757,
                0.6037514529313929,
                0.1719721468033049,
                1.3324980931528796,
                0.7673780755855526,
                1.33249809315288,
                0.2007609172417481,
                0.031669921750652974,
                1.3324980931528798,
                0.06997220012763683,
                0.8318483859267055,
                1.1732266212015408,
                0.27618903311985776,
                1.1732266212015405,
                1.1732266212015408,
                0.13255400738678652,
                0.2211915659244936,
                0.908027787559341,
                0.08523539999999999,
                0.3008434231964997,
                0.36578389978841186,
                0.5430405903017039,
                0.45729173800362305,
                0.8337360159534085,
                0.6044636680362268,
                0.9406409236052864,
                0.552232524919527,
                0.08691110515455452,
                0.5425727063284547,
                1.1732266212015408,
                0.008520037144952308,
                0.5969442332200187,
                1.1732266212015405,
                0.8973986842473898,
                0.5092337720316109,
                0.07525,
                0.07513631344417258,
                0.3886608988758541,
                0.6353107228173979,
                0.6549462716007127,
                1.1732266212015405,
                1.1732266212015405,
                0.12153202963164843,
                0.8300427427887073,
                0.18490228865441266,
                0.5346317058344686,
                0.22970212677724758,
                0.7373657013719223,
                0.5962385050995471,
                1.1732266212015403,
                0.5080127621392497,
                0.5516238225570155,
                1.33249809315288,
                1.3324980931528796,
                0.31075915865618087,
                0.5742191696009835,
                0.0552142145029233,
                0.36516956178054394,
                1.1732266212015405,
                1.3324980931528796,
                0.883215924536107,
                1.1732266212015405,
                0.29264285900655884,
                0.29622422272314797,
                1.1732266212015403,
                0.4677178871670105,
                0.16650664567589968,
                0.21796793407272377,
                0.7524234854085018,
                0.22812679596160856,
                1.1732266212015405,
                0.5875778866037736,
                0.5094215964657407,
                0.1878573874752434,
                1.3324980931528798,
                0.7503115414942132,
                0.5416256297475076,
                0.9316874878046515,
                1.1732266212015405,
                0.26300522414358574,
                0.6370456819945443,
                1.1732266212015405,
                1.33249809315288,
                0.09301423773718104,
                0.19769293185559073,
                0.6169924117506711,
                0.24044420464085958,
                0.7473700784820628,
                1.1732266212015405,
                0.5651568577955552,
                1.078089355429191,
                0.8011111916157939,
                1.1732266212015408,
                0.4571063547342881,
                1.0557003145882566,
                0.15820565933885344,
                0.21459587791398144,
                0.11033377341873396,
                0.39230203618067505,
                0.1353194893909494,
                1.3324980931528798,
                0.3883228345371542,
                0.7164658485765752,
                1.3324980931528798,
                0.3759968340875586,
                1.1732266212015405,
                0.19358133549603146,
                1.1732266212015408,
                1.3324980931528798,
                0.751301122781967,
                1.1732266212015405,
                0.6943092622297278,
                0.10285970397546729,
                0.37891940465807206,
                1.1732266212015403,
                0.48379406142551873,
                0.07303899999999999,
                1.3324980931528798,
                0.6721585877115759,
                1.1732266212015405,
                1.3324980931528798,
                0.6699604179635493,
                0.4943772312215126,
                0.11924217339699439,
                1.1852721339076717,
                1.3324980931528798,
                1.1732266212015405,
                1.3324980931528798,
                0.4673157493312806,
                0.23502754329832004,
                1.1732266212015405,
                0.9415428299576892,
                0.9118413182079379,
                0.41683247735756124,
                0.5822591068459606,
                0.49762824882705864,
                0.18710698622787592,
                1.1732266212015405,
                1.1732266212015405,
                0.2408537655872678,
                0.8746203294351508,
                0.636854417278282,
                1.3324980931528798,
                1.33249809315288,
                0.2959496654185006,
                0.8008715956537087,
                0.5982446439740347,
                1.1732266212015403,
                0.9126951246698229,
                1.0088941722582976,
                0.47864697662601996,
                0.14567156044122287,
                1.1732266212015403,
                0.23934796647486556,
                1.1732266212015405,
                0.6684738509049175,
                0.9907461074542704,
                0.6042317051027543,
                1.3324980931528798,
                0.07525,
                0.08292521719857249,
                1.17322662120154,
                1.3324980931528798,
                1.1732266212015403,
                0.5780286790027487,
                0.8056121268799199,
                0.3615357102867877,
                1.3324980931528794,
                0.9820271725805565,
                0.6309843678890706,
                1.1732266212015408,
                1.3324980931528798,
                0.6106104698832353,
                0.16211644738451225,
                0.8308838469585191,
                0.6330703061476779,
                0.32874794420316994,
                0.17824221182728328,
                0.7802850066982209,
                1.33249809315288,
                0.7837678240833781,
                0.47603980146245367,
                0.7051979251987469,
                0.3951833776742029,
                0.4673817083165558,
                0.6464602253374467,
                0.8122481748393664,
                1.1732266212015405,
                0.07524999999999998,
                0.7300813589226846,
                0.29971395097327413,
                0.0569289,
                0.31662390635842075,
                1.1732266212015405,
                0.7605542966094238,
                1.1732266212015405,
                1.1732266212015405,
                1.1147897069936628,
                0.46619859482336323,
                0.027493847713265573,
                0.7605591769905473,
                0.9558482662213624,
                0.1574892840946034,
                1.0943577037741967,
                0.3570588812424174,
                0.981451970006164,
                1.1732266212015405,
                1.1027009872517088,
                1.1732266212015408,
                0.5274179914329725,
                0.9456961061014494,
                0.025562544235212536,
                1.1732266212015405,
                0.16510486411751768,
                0.1495832285125136,
                0.3388861632298665,
                0.8353099221966535,
                0.23702176443235193,
                0.30237912367916764,
                0.9314107331197015,
                1.1079004451816694,
                0.6940315601577356,
                0.060871013480171765,
                0.9863449889645295,
                0.21586092515378918,
                0.07004610378092953,
                1.0260387530233555,
                1.1732266212015405,
                0.06401391092840747,
                1.1732266212015405,
                0.24577151928069263,
                0.21453466459846024,
                0.24228539953684908,
                1.3324980931528798,
                1.1732266212015405,
                0.3870535256014051,
                0.8224261418511017,
                0.3362334504973764,
                0.830589153631396,
                0.30072116247268116,
                0.6766647937541719,
                0.15765403214378684,
                0.5202443172283936,
                1.0066108231688742,
                1.3324980931528798,
                1.1073632462559722,
                0.6735558042174037,
                1.1732266212015403,
                0.6885672948528776,
                0.04085686206399375,
                1.3324980931528798,
                0.5608943437265217,
                0.011341712302901152,
                0.7006633122636573,
                0.8812083486872979,
                0.41681496415778535,
                0.4163214359159602,
                0.9604723868327132,
                0.7051108999414558,
                1.1012993845678225,
                0.41777701291147573,
                0.24152132236415672,
                1.1732266212015405,
                1.3324980931528798,
                0.9187051287331494,
                0.019421037346503134,
                1.0079480833714132,
                0.9170778315896034,
                1.1732266212015405,
                0.08695070276601613,
                1.3324980931528798,
                1.1732266212015408,
                0.31907481942638727,
                0.9060727060246113,
                0.5657487787386933,
                0.47917958633030033,
                0.2660092954220878,
                1.1732266212015405,
                0.45593344757706855,
                1.1732266212015403,
                1.3324980931528798,
                0.48469367237062244,
                0.6434350229376452,
                1.0537770979702379,
                0.13909451082913796,
                0.5761643284601221,
                0.6360751680654553,
                0.8417119910269311,
                1.0259737948899057,
                1.0270352498002813,
                0.20978250465203385,
                0.285453180511976,
                1.3324980931528803,
                0.10156925272028516,
                0.9066827353314915,
                0.056928900000000004,
                1.3324980931528798,
                1.1732266212015405,
                0.46016798939710846,
                1.3324980931528796,
                0.14269386447099364,
                1.3324980931528798,
                0.4283716451029149,
                0.19852699156089282,
                0.7003816080368946,
                0.30507840624471966,
                0.6735331901691123,
                0.034475066463360404,
                0.0898963833751407,
                0.2883276883352444,
                0.14798857617269037,
                1.1732266212015405,
                0.22293275967387238,
                0.3932026411051568,
                1.1732266212015405,
                1.3324980931528798,
                1.1732266212015405,
                1.1732266212015405,
                1.1732266212015405,
                1.1732266212015405,
                0.073039,
                0.308150401062917,
                0.6817336681535163,
                0.31675682559048746,
                0.516951043550284,
                1.1732266212015405,
                1.1732266212015405,
                1.1732266212015405,
                0.8286959479872842,
                0.7837314920928347,
                0.8375119450592471,
                1.3324980931528798,
                0.25442656567331046,
                1.0169730358716893,
                0.6346236252064583,
                1.1732266212015405,
                0.8150403671682949,
                0.47255107125334495,
                0.07524999999999998,
                0.416051045334063,
                0.9461873902110738,
                1.3324980931528798,
                1.173226621201541,
                0.14022246316150855,
                1.3324980931528798,
                0.135839284166257,
                0.43805398340779494,
                1.0747313729038597,
                0.05565028041136011,
                0.24501504236870986,
                0.95940759386885,
                1.1732266212015405,
                0.6163084732223476,
                0.7287168192985122,
                0.5777513442202157,
                1.1688332514472035,
                0.12194352474729331,
                0.3583647379380262,
                0.7844189988389376,
                0.5369330752399674,
                0.6951376213079609,
                1.1732266212015405,
                0.16230246236935764,
                0.5102362686449791,
                0.942968863513975,
                0.2644851594184803,
                0.9322037217837889,
                0.48947965576459396,
                0.561068099012,
                0.685489113237719,
                0.4155678858288925,
                0.5687297583582832,
                1.1732266212015405,
                0.9748973420944758,
                1.3324980931528798,
                0.9261093689487842,
                0.9206682720437789,
                1.1732266212015408,
                0.1805391380047577,
                0.40269789646926035,
                0.44566588325959905,
                0.021631617019769456,
                1.3324980931528796,
                0.2668859064262656,
                0.470382343374541,
                1.1732266212015403,
                0.9211301117329401,
                0.1794350701488565,
                0.7048042577257118,
                1.3324980931528796,
                1.0845437334799644,
                0.8351005871559126,
                0.7925948557629071,
                0.6526890561640417,
                1.3324980931528798,
                0.1252529528377398,
                0.17975386928215656,
                0.1624227144180309,
                1.3324980931528798
            ],
            "photocathode": [
                3294,
                249,
                8095,
                2435,
                1723,
                3463,
                9289,
                9441,
                7380,
                5120,
                507,
                2099,
                6708,
                8234,
                2821,
                4148,
                1906,
                2467,
                8182,
                5534,
                754,
                3829,
                5036,
                3874,
                8153,
                482,
                6325,
                8223,
                535,
                9222,
                1216,
                9403,
                6693,
                3688,
                8502,
                1559,
                9293,
                281,
                5527,
                9157,
                526,
                482,
                4404,
                2698,
                5803,
                826,
                8341,
                2374,
                8488,
                4899,
                2973,
                5649,
                8410,
                9369,
                3833,
                2632,
                7541,
                9429,
                4353,
                9501,
                5994,
                2047,
                7860,
                8359,
                4019,
                8182,
                6476,
                6351,
                2894,
                1563,
                9496,
                1414,
                808,
                5863,
                9236,
                8296,
                3198,
                2853,
                8507,
                9172,
                1117,
                9306,
                3270,
                3196,
                6759,
                6689,
                5923,
                9236,
                9424,
                6702,
                7198,
                793,
                483,
                3643,
                8194,
                9367,
                3624,
                564,
                4819,
                914,
                4207,
                5279,
                4212,
                1231,
                9281,
                5419,
                9330,
                1359,
                230,
                9404,
                492,
                5611,
                8242,
                1916,
                8442,
                8295,
                921,
                1549,
                6296,
                634,
                1970,
                2651,
                3780,
                3193,
                5825,
                4195,
                6818,
                3887,
                575,
                3823,
                8135,
                67,
                4266,
                8368,
                6289,
                3607,
                548,
                565,
                2717,
                4494,
                4455,
                8143,
                8333,
                856,
                5807,
                1366,
                3706,
                1557,
                5095,
                4272,
                8399,
                3619,
                3925,
                9242,
                9450,
                2223,
                3993,
                412,
                2594,
                8143,
                9240,
                6066,
                8361,
                2050,
                2068,
                8269,
                3285,
                1150,
                1570,
                5221,
                1593,
                8176,
                4089,
                3542,
                1341,
                9571,
                5237,
                3728,
                6736,
                8148,
                1808,
                4371,
                8273,
                9409,
                687,
                1415,
                4396,
                1701,
                5142,
                8300,
                3952,
                7452,
                5547,
                8241,
                3320,
                7407,
                1173,
                1533,
                782,
                2742,
                991,
                9322,
                2714,
                5195,
                9269,
                2691,
                8337,
                1387,
                8316,
                9410,
                5351,
                8361,
                4901,
                707,
                2790,
                8033,
                3439,
                507,
                9266,
                4703,
                8295,
                9247,
                4836,
                3467,
                836,
                8249,
                9297,
                8329,
                9614,
                3319,
                1631,
                8400,
                6674,
                6391,
                3015,
                4108,
                3474,
                1326,
                8319,
                8335,
                1736,
                6182,
                4422,
                9160,
                9472,
                2042,
                5498,
                4299,
                8224,
                6264,
                6952,
                3342,
                1071,
                8270,
                1568,
                7904,
                4519,
                7020,
                4199,
                9381,
                499,
                580,
                8237,
                9450,
                8292,
                4045,
                5602,
                2477,
                9400,
                6800,
                4576,
                8125,
                9344,
                4202,
                1090,
                5844,
                4472,
                2285,
                1209,
                5571,
                9230,
                5644,
                3297,
                5134,
                2829,
                3478,
                4513,
                5735,
                8230,
                564,
                5283,
                2142,
                373,
                2210,
                7987,
                5366,
                8083,
                8202,
                7907,
                3295,
                211,
                5357,
                6777,
                1090,
                7686,
                2479,
                6893,
                8367,
                7923,
                8223,
                3765,
                6578,
                173,
                8401,
                1120,
                992,
                2317,
                5905,
                1660,
                2171,
                6593,
                7793,
                4959,
                454,
                6797,
                1544,
                479,
                7103,
                8343,
                460,
                8133,
                1758,
                1531,
                1699,
                9351,
                8073,
                2699,
                5778,
                2424,
                5790,
                2070,
                4754,
                1123,
                3584,
                7080,
                9342,
                7803,
                4660,
                8137,
                5060,
                277,
                9464,
                3947,
                78,
                4954,
                6025,
                2756,
                2905,
                6780,
                5055,
                7838,
                2883,
                1775,
                8192,
                9229,
                6651,
                123,
                7131,
                6449,
                8305,
                618,
                9854,
                8205,
                2262,
                6597,
                3960,
                3343,
                1861,
                8020,
                3249,
                8191,
                9308,
                3421,
                4450,
                7433,
                1018,
                4003,
                4629,
                6002,
                7241,
                7261,
                1476,
                1947,
                9393,
                701,
                6414,
                411,
                9348,
                8237,
                3258,
                9196,
                1049,
                9507,
                3088,
                1380,
                4875,
                2154,
                4725,
                263,
                651,
                1940,
                1027,
                8296,
                1668,
                2753,
                8145,
                9269,
                8193,
                8121,
                8151,
                8195,
                514,
                2188,
                4736,
                2202,
                3646,
                8250,
                8275,
                8103,
                5799,
                5759,
                5817,
                9295,
                1785,
                7202,
                4392,
                8083,
                5753,
                3439,
                549,
                3009,
                6784,
                9483,
                8206,
                980,
                9300,
                939,
                3049,
                7530,
                352,
                1774,
                6804,
                8434,
                4414,
                5096,
                4012,
                8125,
                877,
                2382,
                5460,
                3714,
                5011,
                8459,
                1150,
                3557,
                6471,
                1855,
                6726,
                3451,
                3962,
                4977,
                2883,
                4005,
                8590,
                6940,
                9388,
                6441,
                6415,
                8239,
                1206,
                2922,
                3201,
                148,
                9722,
                1885,
                3396,
                8295,
                6470,
                1230,
                4886,
                9392,
                7561,
                5939,
                5624,
                4587,
                9630,
                855,
                1246,
                1084,
                9402
            ]
        },
        "detections": 500,
        "events": 57192
    }
}