{
    "job_args": {
        "metric_limit": 500,
        "seed": 1417509797
    },
    "job_id": "batch_155_do_500",
    "result": {
        "collections": {
            "crystal": [
                1.1732266212015408,
                0.03677512663060356,
                0.5383234035443549,
                0.04727963791822154,
                1.3324980931528803,
                0.7900739726772378,
                1.0963431561931425,
                0.270306792231857,
                0.6059860678372098,
                0.4638378810202589,
                0.07525,
                0.5666492947809678,
                0.4272168480557914,
                1.3324980931528798,
                1.3324980931528796,
                1.3324980931528796,
                0.2110122521646003,
                1.1732266212015405,
                0.4536768482868951,
                1.3324980931528796,
                0.10710509888890421,
                0.23904821896534617,
                0.10093728570219418,
                1.3324980931528796,
                1.1732266212015405,
                0.5722086642547837,
                0.5630704495341355,
                0.06720860880255186,
                0.265458919335932,
                0.11689271532258114,
                0.7965704703299407,
                0.7789627513325295,
                0.6038241596859781,
                0.7556050245188352,
                1.1732266212015405,
                0.028336790309919646,
                1.3324980931528798,
                0.5730686095367686,
                0.3857137832465728,
                0.19586836343529312,
                1.3324980931528798,
                0.6013853702535557,
                0.042481461648304464,
                0.15302782243782787,
                1.0027036710041184,
                0.21346898529609407,
                0.6670134366242021,
                1.1732266212015405,
                0.35536528528778183,
                0.355949992616876,
                0.14014018919672444,
                0.3513553576603895,
                0.7844596072992338,
                0.3572635128782701,
                0.7352328916056133,
                0.07524999999999998,
                0.31679708719041433,
                0.33806622745591963,
                0.8250129788499245,
                1.3324980931528796,
                1.3324980931528798,
                1.1732266212015405,
                0.7212250079134366,
                0.3344949112061759,
                0.1399272454948279,
                0.46712207499608827,
                0.3768091835093551,
                0.07525,
                0.7547725663999181,
                1.3324980931528798,
                0.07487553342300172,
                0.014055491034962175,
                0.04912347311646392,
                0.5441788299399863,
                0.7253307546280644,
                0.5489092275225037,
                0.7220998612518683,
                1.1732266212015403,
                1.0842508155530037,
                1.06491272904437,
                0.3929201670181574,
                0.5574487877615426,
                0.06036890264628608,
                1.3324980931528798,
                0.5405921432312749,
                0.5664855960029427,
                1.1732266212015405,
                1.3324980931528798,
                0.45512635334199314,
                1.3324980931528796,
                0.7679218245920473,
                0.09383352702001974,
                1.3324980931528798,
                0.9900407511394139,
                0.5081947414479137,
                0.9025598105669114,
                1.1732266212015405,
                1.3324980931528798,
                0.08414210381638809,
                1.9746425829875567,
                1.3324980931528798,
                0.5964095831195114,
                0.6607523193896186,
                0.9041963754979745,
                0.1640652331481567,
                1.1732266212015405,
                1.3324980931528798,
                0.5973232586772474,
                0.25974411333018915,
                0.7237233510948823,
                0.1816878084208732,
                0.7588291648482403,
                0.8240663990019023,
                1.1105545597981203,
                0.03464855757769203,
                1.1732266212015405,
                0.720640919833488,
                1.0893372256035236,
                1.3324980931528798,
                1.1732266212015405,
                0.46765587414675164,
                0.31001767970431116,
                0.1687360478205161,
                0.8349263675978851,
                0.4419819551247912,
                0.9520185613495054,
                1.3324980931528798,
                0.48745777020011505,
                1.0483969117514118,
                0.4494005269525784,
                1.0652905584602779,
                0.35442877136168255,
                0.09014346102019899,
                0.21169076859703867,
                0.5679865248091075,
                0.8552437019267785,
                1.1732266212015403,
                1.3324980931528798,
                0.7349339752399525,
                0.5811978372794719,
                0.3870540186333616,
                1.1732266212015403,
                1.3324980931528798,
                1.0222321453947956,
                0.9137801655425478,
                1.3324980931528798,
                0.7477723344389375,
                0.3437707242273551,
                0.3070503682200577,
                0.47615007244165247,
                1.3038885931528799,
                1.1732266212015403,
                1.3324980931528796,
                1.33249809315288,
                0.03946091733130663,
                0.08765570000000002,
                1.3324980931528796,
                1.3324980931528798,
                0.6334790495580118,
                1.1732266212015405,
                0.07524999999999998,
                1.1732266212015405,
                0.15804844881216015,
                1.3324980931528796,
                1.173226621201541,
                0.7517345370975467,
                0.8179612320272074,
                0.21751132716390525,
                0.44497256133270535,
                0.14957874722692677,
                0.7914126004266872,
                0.4227856986829779,
                0.08309210761058927,
                0.6564191385917257,
                1.1732266212015403,
                0.6580205475220465,
                1.3324980931528798,
                0.7383886716097625,
                0.07303899999999999,
                0.5465612855404751,
                1.1732266212015405,
                0.0797570377038539,
                1.0965241373622168,
                0.4417514224338043,
                1.33249809315288,
                1.3324980931528796,
                0.05335786120863072,
                1.0524779273503901,
                1.1732266212015405,
                0.9574222828500083,
                0.8565198154979551,
                0.6442546951526688,
                0.904091413495832,
                0.4842023209800814,
                0.24788998317360533,
                0.6558116463618754,
                1.3324980931528798,
                1.3324980931528798,
                0.3108268128650982,
                1.33249809315288,
                0.29963877308094644,
                1.3324980931528798,
                0.08917978246602176,
                1.1732266212015405,
                1.3324980931528796,
                0.2881774981219789,
                1.0263600402908286,
                1.33249809315288,
                0.38702161537220214,
                1.1732266212015403,
                1.3324980931528798,
                1.1732266212015405,
                0.07303899999999999,
                0.51099891,
                1.1732266212015405,
                0.5109989100000001,
                0.8147450372368068,
                1.002526640564052,
                0.17451112948618422,
                0.4987219874596369,
                0.540253362992252,
                0.17774517630274114,
                1.1732266212015405,
                1.1732266212015405,
                0.2931926298009331,
                0.5128737167189091,
                0.16688856221081805,
                1.3324980931528796,
                0.08273272963484968,
                1.33249809315288,
                1.33249809315288,
                0.671517019803993,
                0.29420413928341704,
                1.3324980931528798,
                0.5053687289775642,
                1.3324980931528798,
                1.3324980931528798,
                0.9431454403283384,
                1.3324980931528798,
                0.5938046250446035,
                0.3757743420867895,
                0.801071576418385,
                1.0856819486457272,
                0.133615076340434,
                0.4937160329165216,
                0.5388660147195915,
                0.5993953214207977,
                0.915613274440515,
                0.7856812034639934,
                1.3324980931528798,
                0.0847407,
                0.07044702256017993,
                0.42890661605677344,
                0.5966016672116649,
                1.3324980931528798,
                0.5112265754767299,
                0.2785979780284036,
                0.30110249563061103,
                0.5833146542651095,
                0.8801361199379072,
                0.4362588693990282,
                0.40985689726456953,
                0.381207717896914,
                1.1732266212015405,
                1.1732266212015405,
                1.3324980931528798,
                1.0859826721898003,
                0.46740084825452977,
                0.09875662901370619,
                0.6164729373874248,
                1.006903307297904,
                1.3324980931528798,
                1.1732266212015403,
                1.0961693335593248,
                0.21665535160359345,
                1.1732266212015405,
                0.0830947541645134,
                0.3771397326845829,
                0.11920213162002191,
                0.4909629134049672,
                0.9042508059065675,
                1.0237723804107053,
                0.02783062264786862,
                0.24225594219312402,
                0.18327938441105454,
                0.7875355572157714,
                0.848966705782764,
                1.2693109426452271,
                0.6215149645855033,
                0.3621009792249725,
                0.2570606572509507,
                1.055330952868677,
                1.3324980931528798,
                1.017820306434544,
                0.06095926119904105,
                1.3324980931528798,
                1.1686075748611466,
                0.41388041061096514,
                0.5754020129892196,
                0.6105958953522007,
                0.020025028927458777,
                0.4176740749038391,
                0.35768843884995294,
                0.6536730734510463,
                0.4060142301810392,
                0.6037976692531032,
                0.5935132141846744,
                1.3324980931528798,
                1.3324980931528798,
                0.4885796369563532,
                1.0845332914203565,
                0.4594099717534117,
                0.318840300095552,
                1.1732266212015405,
                0.30419345053090796,
                0.6779941639895188,
                0.8890268763515319,
                0.2467168689471383,
                1.3324980931528796,
                1.173226621201541,
                0.6094098984538778,
                0.2592530247738699,
                0.05107278334619353,
                0.24833342169902786,
                0.9140568563859148,
                0.6120282534398581,
                0.6965765942177203,
                1.3324980931528798,
                0.9127098100257702,
                1.1732266212015403,
                1.33249809315288,
                0.5932346763396994,
                0.9060444467270383,
                0.11048415833902836,
                0.9463318232339162,
                1.1732266212015405,
                0.732654275877052,
                0.21062199890106723,
                0.0971417664186136,
                0.3947870878876465,
                0.32797690913614336,
                0.3184882936670417,
                0.704303987469012,
                0.3814643935498858,
                0.40506889078404895,
                0.38221067368324774,
                0.11245156468419704,
                0.5646015653835054,
                0.8868608486574703,
                0.8214991831528797,
                0.3113818760824338,
                1.1732266212015405,
                0.5330820146102306,
                0.3996158078325296,
                0.07933692688424626,
                0.42582021125466063,
                1.0293077732672553,
                0.443029984536795,
                0.6823491844339613,
                1.0289335050554098,
                0.9384996048961072,
                0.6243142929946719,
                1.3324980931528798,
                0.9738304334697274,
                1.1732266212015405,
                0.3036671438171905,
                0.6459054625786953,
                1.3324980931528798,
                1.1207213007611838,
                0.2739183561236197,
                1.3324980931528798,
                1.173226621201541,
                0.0981274161700143,
                0.6142176331576468,
                1.33249809315288,
                0.4627991130809488,
                0.8178588403579914,
                0.8723887894744622,
                0.19735312529343518,
                0.7486100421756298,
                0.2352026680002786,
                0.3869872530367937,
                1.1732266212015405,
                0.8446376426020268,
                0.007393240995165029,
                1.33249809315288,
                0.10547009656551193,
                0.66135754450295,
                1.3324980931528796,
                0.2684752286412606,
                1.1732266212015405,
                0.9185516870123526,
                1.3324980931528798,
                0.18465358339586946,
                0.9294970883863614,
                0.6083276141766595,
                0.9587157859572847,
                0.010565432092858984,
                0.5846782336133065,
                0.32844864042871724,
                0.9227718532692901,
                0.5976038316602157,
                1.3324980931528798,
                0.10161705838882984,
                0.7047589071289244,
                0.4749609229724755,
                0.9741511763221592,
                0.9128506799643622,
                0.4415196819300997,
                0.8509655232245119,
                1.3324980931528798,
                0.5503353365026253,
                0.8443312398465778,
                1.1732266212015405,
                0.5449033285552706,
                1.3324980931528798,
                1.1732266212015405,
                0.34105954164996766,
                0.8829926803799105,
                0.8583724436816538,
                1.33249809315288,
                0.6288845762400629,
                0.07525,
                1.33249809315288,
                0.12377580327948298,
                1.3324980931528798,
                1.3324980931528798,
                0.0092461901460541,
                0.7739530943943738,
                0.26018044771450477,
                0.624119648785875,
                1.1732266212015405,
                1.3324980931528798,
                0.5709384505394797,
                1.2615276959756139,
                0.621109336219019,
                0.020739033857805955,
                1.1732266212015405,
                1.1732266212015405,
                0.3301716366485855,
                1.1732266212015405,
                1.1732266212015405,
                1.081734822263391,
                0.7340985209806946,
                0.40505764052461873,
                1.33249809315288,
                0.9959294674677952,
                0.7008181902911887,
                1.0568193776035557,
                0.4813233219396127,
                0.3736578448956589,
                0.6734403644697426,
                1.1732266212015403,
                0.5097232914023254,
                0.39705815696756375,
                0.5175380927801968,
                0.2931221840720406,
                1.1732266212015403,
                1.33249809315288,
                0.300776904020976,
                0.30050707255159825,
                0.5408299660924996,
                1.1732266212015405,
                0.06790430450404861,
                1.3324980931528798,
                1.1732266212015405,
                1.05901067860564,
                1.1732266212015408,
                0.8806195006394575,
                0.043727998759264475,
                0.050871146365326414,
                1.3324980931528798,
                1.1732266212015405,
                1.33249809315288,
                1.33249809315288,
                0.3934841325506053,
                0.6591824652920978,
                1.3324980931528798,
                1.1732266212015408,
                1.1732266212015403,
                0.6516146902653889,
                0.23668311106130802,
                1.3324980931528798,
                1.1732266212015405,
                0.8777375265639492,
                1.1732266212015403,
                0.7674707182936348,
                0.9807463762747172,
                0.7637318686306285,
                0.3448789163480942,
                0.21199908408017415,
                0.8757766839494714,
                1.3324980931528798,
                1.3324980931528803,
                1.015113130483821,
                1.2708912129910421,
                0.38941468689545866,
                0.9405582216764231,
                0.23577900449334277,
                1.1732266212015403
            ],
            "photocathode": [
                8028,
                271,
                3792,
                315,
                9532,
                5552,
                7693,
                1934,
                4323,
                3301,
                563,
                3984,
                2980,
                9493,
                9500,
                9401,
                1549,
                8048,
                3308,
                9306,
                740,
                1718,
                742,
                9342,
                8250,
                4066,
                3975,
                476,
                1840,
                787,
                5488,
                5596,
                4105,
                5427,
                8191,
                196,
                9226,
                4127,
                2742,
                1403,
                9209,
                4263,
                305,
                1109,
                7090,
                1513,
                4671,
                8278,
                2444,
                2400,
                1006,
                2559,
                5568,
                2580,
                5086,
                567,
                2163,
                2369,
                5896,
                9190,
                9253,
                8052,
                5013,
                2285,
                967,
                3217,
                2650,
                514,
                5307,
                9264,
                516,
                74,
                329,
                3865,
                5043,
                4039,
                5141,
                8328,
                7637,
                7634,
                2877,
                3910,
                391,
                9456,
                3811,
                4066,
                8208,
                9396,
                3143,
                9416,
                5389,
                659,
                9482,
                7107,
                3494,
                6245,
                8241,
                9280,
                603,
                13760,
                9343,
                4248,
                4612,
                6233,
                1095,
                8023,
                9572,
                4160,
                1779,
                5137,
                1283,
                5262,
                5803,
                7666,
                236,
                8241,
                5133,
                7741,
                9429,
                8470,
                3220,
                2283,
                1196,
                6023,
                3062,
                6625,
                9350,
                3324,
                7435,
                3130,
                7498,
                2453,
                649,
                1494,
                4026,
                6034,
                8462,
                9078,
                5082,
                4166,
                2717,
                8310,
                9509,
                7365,
                6467,
                9425,
                5139,
                2342,
                2148,
                3381,
                9036,
                8069,
                9237,
                9527,
                307,
                645,
                9212,
                9422,
                4481,
                8168,
                517,
                8174,
                1180,
                9387,
                8207,
                5433,
                5650,
                1571,
                3232,
                1119,
                5525,
                2923,
                538,
                4673,
                8389,
                4563,
                9073,
                5236,
                494,
                3864,
                8188,
                590,
                7572,
                2993,
                9334,
                9418,
                376,
                7228,
                8173,
                7000,
                6062,
                4403,
                6406,
                3496,
                1732,
                4777,
                9438,
                9079,
                2277,
                9438,
                2110,
                9353,
                606,
                8225,
                9416,
                2153,
                7284,
                9408,
                2838,
                8248,
                9384,
                8269,
                515,
                3609,
                8457,
                3527,
                5677,
                7026,
                1256,
                3535,
                3892,
                1264,
                8371,
                8363,
                2043,
                3552,
                1182,
                9204,
                591,
                9377,
                9297,
                4863,
                2100,
                9405,
                3679,
                9478,
                9694,
                6631,
                9286,
                4157,
                2667,
                5528,
                7674,
                980,
                3477,
                3675,
                4267,
                6386,
                5408,
                9440,
                589,
                451,
                2930,
                4136,
                9427,
                3727,
                1946,
                2143,
                4308,
                6057,
                3043,
                2818,
                2635,
                8283,
                8383,
                9400,
                7470,
                3289,
                689,
                4345,
                7156,
                9393,
                8241,
                7740,
                1458,
                8080,
                609,
                2573,
                844,
                3485,
                6453,
                7165,
                185,
                1727,
                1237,
                5497,
                5867,
                9111,
                4452,
                2586,
                1830,
                7447,
                9396,
                7289,
                478,
                9490,
                8131,
                2916,
                3926,
                4300,
                133,
                2993,
                2549,
                4579,
                2855,
                4159,
                4208,
                9359,
                9167,
                3435,
                7608,
                3347,
                2133,
                8140,
                2198,
                4933,
                6261,
                1749,
                9352,
                8197,
                4219,
                1823,
                378,
                1754,
                6373,
                4248,
                4780,
                9357,
                6389,
                8195,
                9109,
                4160,
                6313,
                771,
                6716,
                8257,
                5235,
                1545,
                650,
                2857,
                2216,
                2347,
                4869,
                2681,
                2809,
                2814,
                754,
                3951,
                6155,
                5713,
                2221,
                8078,
                3851,
                2958,
                537,
                2963,
                7395,
                3191,
                4907,
                7122,
                6610,
                4454,
                9525,
                6837,
                8294,
                2136,
                4524,
                9242,
                7912,
                1935,
                9399,
                8104,
                699,
                4293,
                9498,
                3379,
                5825,
                6099,
                1313,
                5207,
                1676,
                2751,
                8478,
                5881,
                53,
                9185,
                735,
                4775,
                9331,
                1864,
                8248,
                6406,
                9332,
                1313,
                6439,
                4221,
                6822,
                86,
                4193,
                2254,
                6312,
                4329,
                9255,
                741,
                4915,
                3292,
                6718,
                6581,
                3113,
                6013,
                9235,
                3954,
                5881,
                8283,
                3759,
                9264,
                8084,
                2423,
                6119,
                6242,
                9370,
                4373,
                500,
                9388,
                844,
                9417,
                9244,
                57,
                5554,
                1737,
                4260,
                8351,
                9415,
                3987,
                8804,
                4317,
                153,
                8332,
                8315,
                2346,
                8094,
                8426,
                7568,
                5047,
                2924,
                9495,
                6980,
                4819,
                7304,
                3455,
                2649,
                4682,
                8375,
                3678,
                2835,
                3501,
                2111,
                8170,
                9264,
                2072,
                2101,
                3822,
                8317,
                479,
                9209,
                8226,
                7601,
                8327,
                6261,
                320,
                359,
                9154,
                8173,
                9435,
                9331,
                2750,
                4607,
                9578,
                8390,
                8174,
                4606,
                1603,
                9251,
                8293,
                6103,
                8259,
                5496,
                6748,
                5349,
                2420,
                1462,
                6152,
                9641,
                9231,
                7173,
                8903,
                2849,
                6438,
                1717,
                8321
            ]
        },
        "detections": 500,
        "events": 57227
    }
}