{
    "job_args": {
        "metric_limit": 500,
        "seed": 1085279907
    },
    "job_id": "batch_49_do_500",
    "result": {
        "collections": {
            "crystal": [
                0.0852354,
                0.7290672343203707,
                1.3324980931528796,
                1.3324980931528796,
                0.1781349604445377,
                0.36962931206302985,
                0.3659784755610031,
                0.6182001007793447,
                0.9135598111724508,
                0.7785500422752273,
                0.0852354,
                1.3324980931528798,
                0.22992561677377366,
                0.5466350196210844,
                1.3324980931528796,
                0.27444355110950885,
                0.21189028481185312,
                0.02479840655306464,
                0.51099891,
                0.30791963370823505,
                1.3324980931528798,
                0.8067375373005188,
                0.2360179788069427,
                1.33249809315288,
                1.0962468629531306,
                0.6023088571652571,
                0.7834157319552355,
                0.9214300690807189,
                1.3324980931528796,
                0.6912934487153504,
                0.16113551838393933,
                0.5716908721784622,
                1.3324980931528798,
                1.3324980931528798,
                0.4515425964524432,
                0.07193954438945194,
                1.3324980931528796,
                0.5199219227419908,
                1.1732266212015405,
                0.10544833157858768,
                1.1732266212015408,
                0.2708858779884785,
                0.7643965794532237,
                1.1732266212015405,
                0.7157103673337857,
                1.1732266212015405,
                0.2970079194255063,
                0.09782925814859178,
                0.7762684452898954,
                0.8888282653856784,
                0.9067556478463605,
                0.11788327969928657,
                0.005486597245935476,
                1.33249809315288,
                1.1732266212015405,
                0.33250286493034664,
                0.7785774168326409,
                0.7016431658905982,
                0.30662024310233826,
                0.2991480294888712,
                0.19004900663377206,
                0.5853045279497076,
                0.45733799434380856,
                0.030196901331865034,
                1.1732266212015405,
                1.1732266212015405,
                0.9980547610013591,
                1.1732266212015405,
                1.1067259546920243,
                1.33249809315288,
                0.5711021082704089,
                0.012147594005242013,
                0.5903698038241564,
                0.14664544295862803,
                0.1808770422975927,
                1.1732266212015403,
                1.3324980931528798,
                1.1732266212015403,
                0.51099891,
                0.6125598028017742,
                1.1732266212015405,
                0.4097819641874078,
                0.6133257916018202,
                0.06898811588227405,
                1.1732266212015405,
                0.7507745212722027,
                0.12492642365380034,
                1.3324980931528796,
                0.8098347719997426,
                0.6063181577703073,
                0.8035848262334604,
                0.9367916528063941,
                0.7133443716620951,
                0.7917870140147378,
                0.187333083532535,
                0.4421134792634216,
                1.1732266212015405,
                1.3324980931528798,
                0.6505665989013202,
                0.6437544923832057,
                0.7832364072056113,
                1.3324980931528798,
                0.6609748041981814,
                1.3324980931528798,
                0.890028468006303,
                1.018353941909063,
                1.173226621201541,
                1.1732266212015405,
                1.3324980931528798,
                1.1732266212015408,
                0.5240909549631831,
                1.33249809315288,
                1.027187902959348,
                0.07926368752656887,
                0.970737969552208,
                0.8013024533835695,
                0.21718233357375935,
                1.1732266212015405,
                0.0416027718218952,
                1.1732266212015405,
                1.173226621201541,
                0.513599598081945,
                0.4719343387159731,
                1.3324980931528796,
                1.1732266212015405,
                0.2192652666922814,
                1.1732266212015405,
                0.21783496635825195,
                1.0891392539126101,
                0.5702557007389447,
                1.3324980931528798,
                0.5465512384864677,
                0.229818183366799,
                0.8159093444709934,
                1.1732266212015405,
                1.1732266212015408,
                0.8331258523568966,
                0.08143875066595405,
                0.40748221713923594,
                0.24520435275335037,
                0.5273882277300835,
                0.4875346607645544,
                0.7124456677271015,
                0.3427842087039569,
                1.3324980931528798,
                0.1571370073720989,
                0.3833377953062096,
                1.1732266212015405,
                0.4123330817908527,
                1.1732266212015405,
                1.1732266212015403,
                0.9767976781540352,
                0.3739614590028651,
                0.5817564654824374,
                0.07117663721337641,
                0.6590638051099872,
                0.13616900847758728,
                0.04082378282102472,
                0.30476300423896174,
                0.6233643068069907,
                1.1732266212015405,
                1.3324980931528798,
                0.6654122069322688,
                1.1732266212015405,
                1.33249809315288,
                0.6678078025440088,
                0.7547723824149776,
                0.5208482289780502,
                0.45049577709544086,
                0.5849091718383983,
                1.1732266212015405,
                0.5079511670543639,
                0.8248238943316964,
                0.46440541370790034,
                0.07134635469748818,
                1.3324980931528798,
                0.9191228508296416,
                0.6931062570444982,
                1.1732266212015405,
                0.27632250185912666,
                0.3294864230828737,
                1.1732266212015405,
                0.021934028412315287,
                1.1732266212015405,
                0.3461558203478764,
                0.17971698634742295,
                0.23930553131913956,
                0.019128635642054137,
                0.6917547581711018,
                1.0575743762795526,
                1.3324980931528803,
                0.4896595918725918,
                0.667350622700866,
                1.1732266212015405,
                0.1665978729580294,
                0.7350821645959966,
                0.23018806728681945,
                0.6894953190653932,
                1.1732266212015405,
                0.04680373309208363,
                1.3324980931528798,
                0.021515153624395156,
                0.1521241207067882,
                1.3324980931528798,
                0.233231104222633,
                0.10528652346799672,
                1.1732266212015405,
                1.33249809315288,
                1.3324980931528798,
                0.742491492520159,
                0.41063626561611966,
                0.40892297155638296,
                0.7669653506118439,
                1.1732266212015405,
                1.33249809315288,
                0.4456287906327103,
                1.33249809315288,
                0.0021452935471757417,
                0.39739204638636316,
                1.3324980931528798,
                0.9417144673760304,
                1.1732266212015405,
                1.1732266212015405,
                1.3324980931528798,
                1.3324980931528798,
                1.3324980931528796,
                0.01295823261759721,
                0.45006348923512374,
                0.058942050834338566,
                0.7148350723412202,
                0.7328094897616688,
                0.7655335457805618,
                1.3324980931528798,
                1.1561203124654391,
                0.3640569819093962,
                0.699843431236709,
                0.639405685775619,
                0.007780181204983805,
                0.07935082344421923,
                0.03993518980277133,
                0.9805061849459009,
                0.6851980408735984,
                0.4253170022845978,
                0.26790996561374,
                0.5599828454333468,
                1.3324980931528798,
                0.8252936876638225,
                0.9617318611366351,
                1.173226621201541,
                1.054886517744865,
                0.5937437007228946,
                0.5449630751260595,
                0.29463580682262125,
                0.3210541780172763,
                1.1732266212015405,
                1.3324980931528798,
                0.2072227615777854,
                0.519909608757706,
                1.3324980931528798,
                0.019822131378546715,
                0.8594007760707181,
                0.559322292327638,
                0.43361056189337877,
                0.9132933831877987,
                1.1732266212015408,
                0.24305848091650264,
                1.1732266212015403,
                0.28537068591793013,
                0.36237960350862664,
                0.3885478999245012,
                0.7273091737036486,
                0.5759336629554493,
                0.810311274866766,
                0.6537632868961277,
                0.24945138909842507,
                0.5976346284461098,
                0.5948866117469538,
                0.51099891,
                0.6093338966720203,
                1.33249809315288,
                0.6308023231171405,
                0.9212746609582603,
                1.1732266212015405,
                0.2266796684984982,
                0.8214991831528797,
                0.7872453891398146,
                0.5450619107807573,
                0.798216530857482,
                0.5647278694497829,
                0.2611372139354352,
                1.1257962881504442,
                0.5632702009336744,
                1.1732266212015408,
                1.3324980931528798,
                1.1669103752094647,
                0.6531652715017393,
                1.1732266212015405,
                1.3324980931528798,
                1.3324980931528798,
                1.1364667394900843,
                0.22824478733275214,
                0.30297873157037336,
                1.3324980931528803,
                0.272606080037027,
                0.2560563064159367,
                0.54448382038145,
                0.31050027315287987,
                0.5590258988135525,
                1.3324980931528796,
                1.0426352169514055,
                0.37532170583177654,
                0.18096974126419285,
                0.46502342138878217,
                0.5234675675149775,
                0.33734031644824425,
                1.0259262609252169,
                1.1732266212015405,
                1.33249809315288,
                0.900048237561451,
                0.7537557926908228,
                1.3324980931528798,
                0.513689553943197,
                0.19821100455729995,
                0.283169992504947,
                1.3324980931528798,
                1.0322333303181257,
                0.5926385232150748,
                0.31164124408374,
                0.26660697826068486,
                0.14535934754542046,
                0.4293318933104646,
                0.1278063641817233,
                1.1732266212015405,
                0.725562490063816,
                0.6804708113109759,
                0.8759548984724881,
                1.1732266212015405,
                0.1587278611465322,
                1.3324980931528798,
                0.02635411586608738,
                1.3324980931528798,
                0.13819646499010932,
                0.30141774509914865,
                0.04052580311891041,
                0.8437420164805627,
                0.4465974873349994,
                1.1732266212015405,
                0.1867244743491988,
                0.5682852737071165,
                0.8747966160086562,
                0.20399754329727263,
                1.0189110263069627,
                0.6077209443388898,
                1.3324980931528794,
                0.6482428832877867,
                1.0834586526267092,
                1.3324980931528798,
                0.4630881396936654,
                0.073039,
                0.04442950000000001,
                0.15484759936833892,
                1.1732266212015403,
                0.7494059581294129,
                0.19298023694724808,
                0.8218345815926955,
                0.3744461584406058,
                1.1732266212015405,
                0.3447169799497855,
                0.11889233836114022,
                0.9847530982076771,
                1.1732266212015405,
                0.6795283447480269,
                1.3324980931528798,
                0.2884902003835962,
                1.3324980931528796,
                1.3324980931528798,
                0.9606623098243217,
                0.6496495046269033,
                0.06280945286112902,
                0.8680693405086672,
                1.1732266212015403,
                0.7765954994551557,
                1.1732266212015405,
                1.3324980931528798,
                1.1732266212015405,
                1.1732266212015405,
                1.1732266212015405,
                0.5773971663779351,
                0.7971355317329007,
                0.1590377120403128,
                0.717599264667235,
                0.29776347600596526,
                0.8224953815509816,
                0.5002525726690861,
                0.55481506551889,
                1.1732266212015408,
                0.370121199072482,
                0.5781677854514169,
                0.17328918470301133,
                0.06557477441459944,
                0.6274613344877823,
                0.8529704900895769,
                1.075070441271153,
                0.5831537404939573,
                0.3691740576181061,
                0.8758885171209141,
                0.001479203500774906,
                0.34630248310740663,
                0.4505829714286248,
                0.05459038222602022,
                0.2600684639582435,
                0.8123627926922747,
                1.0865024203140439,
                0.33982788829692956,
                0.2406900021994153,
                0.3649903718976234,
                1.1732266212015408,
                0.13419789247637906,
                1.0239941909618193,
                1.1732266212015405,
                1.1732266212015403,
                0.40901911957759396,
                1.1732266212015405,
                0.5655182923233841,
                0.8767607147757313,
                0.3545138608526329,
                1.1732266212015408,
                0.5782565004744754,
                0.906614554111915,
                1.33249809315288,
                0.4782498794256544,
                0.5418311665863828,
                0.33110238864643815,
                1.1732266212015405,
                0.2771880476722299,
                1.1732266212015405,
                1.3324980931528791,
                0.3213684764965764,
                1.3324980931528803,
                0.791103308726705,
                0.751181225408939,
                0.9227176791410718,
                0.2437557044681864,
                0.4936610661600085,
                0.42828281328738754,
                1.3324980931528798,
                1.3324980931528803,
                0.5385359449955165,
                1.1732266212015408,
                0.8279266614660187,
                0.256138174739888,
                0.0876557,
                0.4005217208947468,
                0.8492385020783919,
                1.3324980931528798,
                1.3324980931528798,
                1.1732266212015405,
                0.5737808669297944,
                0.2717050606253137,
                0.5252029122403008,
                1.3324980931528798,
                0.397696396626524,
                0.8843556010367017,
                0.3809783376272562,
                1.3324980931528796,
                1.1732266212015403,
                0.794783471758033,
                1.1732266212015405,
                0.2700464240652232,
                0.7039298150930734,
                1.1732266212015408,
                1.1732266212015405,
                0.3890768016869586,
                0.3679042357649927,
                0.0015349548047312034,
                0.45148218100990867,
                1.1732266212015405,
                0.8214991831528798,
                0.9850059178129775,
                1.1732266212015405,
                1.33249809315288,
                0.9889949510511299,
                0.3623388807695177,
                1.3038885931528796,
                1.1732266212015408,
                0.42795100613857245,
                1.1732266212015405,
                0.17066309058730997,
                1.112568184446163,
                0.4486379554274341,
                1.33249809315288,
                1.0323268935628884,
                1.3324980931528798,
                0.5207022835674607,
                0.6314480038268411,
                0.51099891,
                0.07525,
                0.3617887127051037,
                0.6444489414635284,
                0.38195569711956134
            ],
            "photocathode": [
                619,
                5053,
                9292,
                9457,
                1221,
                2551,
                2518,
                4311,
                6343,
                5415,
                617,
                9261,
                1536,
                3730,
                9490,
                2012,
                1506,
                168,
                3508,
                2176,
                9295,
                5494,
                1736,
                9186,
                7624,
                4097,
                5391,
                6465,
                9701,
                5087,
                1134,
                4200,
                9781,
                9197,
                3159,
                465,
                9276,
                3802,
                8109,
                716,
                8201,
                1930,
                5464,
                8222,
                4942,
                8210,
                2142,
                676,
                5494,
                6285,
                6235,
                865,
                29,
                9274,
                8401,
                2385,
                5477,
                5030,
                2204,
                2161,
                1299,
                4285,
                3156,
                212,
                8237,
                8215,
                6943,
                8181,
                7718,
                9446,
                4023,
                85,
                4163,
                1089,
                1303,
                8180,
                9199,
                8246,
                3602,
                4264,
                8256,
                2823,
                4290,
                511,
                8414,
                5362,
                906,
                9301,
                5741,
                4333,
                5540,
                6505,
                5005,
                5608,
                1286,
                3030,
                8128,
                9256,
                4617,
                4597,
                5564,
                9241,
                4685,
                9049,
                6328,
                6982,
                8098,
                8194,
                9406,
                8125,
                3767,
                9369,
                7331,
                580,
                6858,
                5558,
                1546,
                8241,
                296,
                8159,
                8187,
                3665,
                3356,
                9193,
                7962,
                1646,
                8418,
                1539,
                7573,
                3918,
                9483,
                3736,
                1598,
                5644,
                8252,
                8377,
                5776,
                597,
                2735,
                1746,
                3674,
                3438,
                4990,
                2393,
                9437,
                1177,
                2698,
                8230,
                2953,
                8337,
                8128,
                6873,
                2550,
                4176,
                481,
                4638,
                953,
                292,
                2079,
                4361,
                8328,
                9190,
                4695,
                8264,
                9442,
                4953,
                5301,
                3724,
                3134,
                4059,
                8098,
                3813,
                5928,
                3230,
                526,
                9477,
                6387,
                5068,
                8094,
                1890,
                2358,
                8324,
                152,
                8426,
                2406,
                1250,
                1668,
                128,
                4969,
                7353,
                9324,
                3550,
                4600,
                8257,
                1162,
                5120,
                1602,
                4706,
                7948,
                325,
                9203,
                161,
                1065,
                9474,
                1658,
                758,
                8024,
                9369,
                9347,
                5146,
                2904,
                2752,
                5573,
                7951,
                9704,
                3157,
                9230,
                14,
                2763,
                9362,
                6547,
                8263,
                8286,
                9333,
                9346,
                9382,
                83,
                3127,
                376,
                4999,
                5386,
                5361,
                9438,
                8023,
                2550,
                4937,
                4555,
                45,
                611,
                285,
                7052,
                4788,
                2942,
                1816,
                3869,
                9121,
                5682,
                6585,
                8264,
                7320,
                4227,
                3881,
                2142,
                2305,
                8303,
                9387,
                1407,
                3643,
                9433,
                137,
                6231,
                4011,
                3048,
                6448,
                8376,
                1669,
                8435,
                2000,
                2505,
                2779,
                4977,
                3952,
                5617,
                4654,
                1765,
                4297,
                4143,
                3613,
                4308,
                9453,
                4458,
                6408,
                8217,
                1477,
                5858,
                5718,
                3899,
                5563,
                4010,
                1867,
                7837,
                4027,
                8149,
                9610,
                8216,
                4438,
                8273,
                9365,
                9245,
                7916,
                1636,
                2126,
                9348,
                1935,
                1700,
                3829,
                2161,
                3985,
                9367,
                7135,
                2559,
                1208,
                3284,
                3764,
                2359,
                7134,
                8306,
                9231,
                6303,
                5318,
                9279,
                3630,
                1398,
                2044,
                9365,
                7270,
                4255,
                2202,
                1900,
                1008,
                3076,
                877,
                8359,
                4999,
                4843,
                6248,
                8155,
                1154,
                9268,
                178,
                9271,
                978,
                2086,
                297,
                5954,
                3124,
                8121,
                1286,
                3959,
                6227,
                1463,
                7225,
                4214,
                9190,
                4512,
                7575,
                9200,
                3202,
                538,
                298,
                1093,
                8230,
                5202,
                1317,
                5933,
                2734,
                8169,
                2407,
                901,
                6919,
                7997,
                4832,
                9393,
                2047,
                9339,
                9302,
                6900,
                4525,
                454,
                6014,
                8426,
                5349,
                8163,
                9268,
                8469,
                7951,
                8210,
                4050,
                5558,
                1138,
                5136,
                2034,
                5990,
                3573,
                3898,
                8151,
                2750,
                3979,
                1210,
                423,
                4440,
                5980,
                7477,
                4102,
                2581,
                6171,
                7,
                2414,
                3219,
                357,
                1853,
                5733,
                7815,
                2452,
                1696,
                2585,
                8430,
                915,
                7158,
                7938,
                8208,
                2935,
                8082,
                3926,
                6053,
                2530,
                8171,
                4161,
                6177,
                9313,
                3461,
                3854,
                2292,
                8129,
                1948,
                7972,
                9504,
                2202,
                9239,
                5639,
                5229,
                6283,
                1735,
                3619,
                2968,
                9194,
                9480,
                3678,
                8336,
                5859,
                1767,
                623,
                2759,
                5822,
                9467,
                9459,
                8566,
                3989,
                1976,
                3689,
                9365,
                2658,
                6224,
                2703,
                9371,
                8090,
                5698,
                8167,
                1961,
                4933,
                8219,
                8285,
                2824,
                2602,
                6,
                3076,
                8332,
                5710,
                7114,
                8417,
                9438,
                6870,
                2611,
                9490,
                8186,
                3050,
                8598,
                1251,
                7898,
                3224,
                9392,
                7259,
                9214,
                3672,
                4452,
                3658,
                605,
                2603,
                4502,
                2693
            ]
        },
        "detections": 500,
        "events": 57826
    }
}