{
    "job_args": {
        "metric_limit": 500,
        "seed": 4138159946
    },
    "job_id": "batch_10_do_500",
    "result": {
        "collections": {
            "crystal": [
                0.4186912254907422,
                0.5056872539594699,
                0.12057592400580208,
                0.6616572831606166,
                0.27268157818291316,
                0.6616572831606164,
                0.6616572831606163,
                0.6616572831606164,
                0.6616572831606164,
                0.6616572831606166,
                0.30116324888423424,
                0.03181881902682661,
                0.07524999999999998,
                0.03181881993369683,
                0.07303899999999999,
                0.023392838663797932,
                0.1357638156002276,
                0.6616572831606166,
                0.6616572831606166,
                0.48736918131216495,
                0.05954586861561261,
                0.6616572831606166,
                0.6616572831606166,
                0.6616572831606166,
                0.6616572831606166,
                0.00770739330151876,
                0.2773748720742641,
                0.6616572831606164,
                0.041469216761792715,
                0.04078694334202536,
                0.6616572831606166,
                0.6616572831606167,
                0.4297046301680374,
                0.6616572831606167,
                0.28197931701250656,
                0.6616572831606167,
                0.14405936071069725,
                0.203799097140136,
                0.6616572831606167,
                0.19003942220596032,
                0.6616572831606167,
                0.1831462693982494,
                0.15934553988196581,
                0.6616572831606166,
                0.6616572831606166,
                0.6616572831606166,
                0.18128183438745757,
                0.07525,
                0.6616572831606166,
                0.03724477109401976,
                0.6616572831606166,
                0.2629097971010994,
                0.5593171625506729,
                0.6616572831606166,
                0.11395474479612301,
                0.6616572831606166,
                0.09532544667008158,
                0.03181865835174018,
                0.4209230776607074,
                0.6616572831606166,
                0.2210129042514391,
                0.09175018806349428,
                0.03220556290810739,
                0.0876557,
                0.6616572831606166,
                0.06741841611252086,
                0.45001100493269164,
                0.03181849914804093,
                0.5802580459463719,
                0.22000471550725748,
                0.2973990508761974,
                0.21345223136040398,
                0.07317452898093318,
                0.1501153243402843,
                0.07572082293191856,
                0.38530269521347316,
                0.4355017518661737,
                0.4281231786073938,
                0.0876557,
                0.1997867911675898,
                0.368943437596854,
                0.6616572831606164,
                0.44782819707362287,
                0.30156839546525616,
                0.6616572831606164,
                0.5127370600198822,
                0.6616572831606166,
                0.6616572831606166,
                0.6616572831606166,
                0.41043979305477424,
                0.12682211125152962,
                0.0148158,
                0.6616572831606166,
                0.6616572831606164,
                0.45841903894482255,
                0.032205654337519526,
                0.6616572831606167,
                0.6616572831606164,
                0.07525,
                0.07524999999999998,
                0.14738705093942353,
                0.37713518238690474,
                0.6616572831606166,
                0.029222156798811127,
                0.6616572831606167,
                0.6616572831606166,
                0.031818852375871995,
                0.21030901595590884,
                0.4409651867151874,
                0.6616572831606166,
                0.2518833116253618,
                0.6616572831606163,
                0.08306087461333678,
                0.6616572831606166,
                0.6616572831606166,
                0.6616572831606167,
                0.6616572831606166,
                0.6616572831606163,
                0.6616572831606166,
                0.03181852231529306,
                0.09942506422223464,
                0.07525,
                0.6616572831606166,
                0.46199082100241584,
                0.22422223811068048,
                0.6616572831606164,
                0.44355905798500517,
                0.6616572831606166,
                0.19315679439751976,
                0.03181878352357694,
                0.07519794345991863,
                0.3923714980026115,
                0.25564463869552523,
                0.07626950570775014,
                0.11907248142783289,
                0.4052126993226579,
                0.6616572831606164,
                0.07312868437326167,
                0.6616572831606167,
                0.11037024677280538,
                0.20318006841763808,
                0.0318186575941416,
                0.5121179972882638,
                0.6616572831606164,
                0.2229190236664585,
                0.6616572831606166,
                0.4085041118336522,
                0.6616572831606166,
                0.18786197427564097,
                0.6616572831606166,
                0.6616572831606166,
                0.07303899999999999,
                0.03726063893572365,
                0.6616572831606164,
                0.03181889117801707,
                0.6616572831606166,
                0.31491027689416673,
                0.03639183251781323,
                0.6616572831606166,
                0.031818621469685754,
                0.3822755598672293,
                0.3550993587107642,
                0.3338483094144672,
                0.6616572831606164,
                0.1006908464635714,
                0.6616572831606164,
                0.032205579214210536,
                0.447722787867811,
                0.34170347160091896,
                0.6616572831606166,
                0.6616572831606166,
                0.6616572831606166,
                0.6616572831606166,
                0.6616572831606167,
                0.6616572831606166,
                0.6616572831606164,
                0.3630219432417448,
                0.2020734377010267,
                0.6616572831606166,
                0.6616572831606166,
                0.2997326340055366,
                0.24609361952488165,
                0.04094262526338366,
                0.2870406361828171,
                0.6616572831606166,
                0.049734879583380076,
                0.6616572831606166,
                0.31750206585658225,
                0.18242685544211001,
                0.24623839852422047,
                0.016685435599391396,
                0.6616572831606164,
                0.6616572831606166,
                0.3415111465750801,
                0.4316451873964085,
                0.6616572831606166,
                0.07525,
                0.6616572831606167,
                0.13937414959895653,
                0.17898288916900823,
                0.6616572831606166,
                0.23969230587606039,
                0.6616572831606166,
                0.10653145017995183,
                0.4240420968819327,
                0.25902322672183703,
                0.05491311030074064,
                0.23652618093095643,
                0.05057681008810211,
                0.6616572831606166,
                0.6616572831606167,
                0.06808948302646188,
                0.6616572831606164,
                0.6616572831606167,
                0.43259027717477394,
                0.6616572831606166,
                0.5192804822558756,
                0.017173595249665108,
                0.5050120092962332,
                0.30812449775619766,
                0.40163106335261806,
                0.18788785661765467,
                0.4213798792493522,
                0.6616572831606166,
                0.4051299473315461,
                0.40993621105058253,
                0.4639135465476435,
                0.032205733910362674,
                0.03452419091903003,
                0.1546452217601686,
                0.6616572831606167,
                0.6616572831606166,
                0.5837678449922531,
                0.4270933922282946,
                0.21104448662660935,
                0.6616572831606166,
                0.6616572831606167,
                0.6616572831606164,
                0.6616572831606166,
                0.06777731547991518,
                0.032205671787709875,
                0.6616572831606167,
                0.40452082947770196,
                0.44110159784368763,
                0.6616572831606167,
                0.2687884077243744,
                0.6616572831606166,
                0.6616572831606164,
                0.49798530109180017,
                0.47235298466885733,
                0.032205378979577995,
                0.3136639051569484,
                0.15900600812443344,
                0.6616572831606166,
                0.4460281397098689,
                0.46029550908966455,
                0.6616572831606167,
                0.0847407,
                0.6616572831606167,
                0.1454756710412148,
                0.37635467738051026,
                0.6616572831606164,
                0.27897271395931256,
                0.14803818752657505,
                0.6616572831606167,
                0.3366328130542728,
                0.21252283168173644,
                0.21895266830284132,
                0.26980909024482724,
                0.6616572831606164,
                0.2643881186642636,
                0.6616572831606166,
                0.42532801456866165,
                0.6616572831606164,
                0.6616572831606167,
                0.02422078831621277,
                0.44809416132693985,
                0.21753742623463268,
                0.22389211294097197,
                0.12454420930758793,
                0.38817077399208266,
                0.6616572831606167,
                0.6616572831606164,
                0.6616572831606167,
                0.1959561779730667,
                0.0004457195035256212,
                0.07508586837538722,
                0.6616572831606164,
                0.6616572831606166,
                0.07524999999999998,
                0.03181858327243419,
                0.030158182049492978,
                0.4127118314221184,
                0.07977378746497171,
                0.6616572831606164,
                0.30558515280714266,
                0.6616572831606166,
                0.4398897858237336,
                0.0542440096276523,
                0.19376791372776608,
                0.44828100339773275,
                0.6616572831606167,
                0.6616572831606167,
                0.36271784819492614,
                0.423465485332538,
                0.6616572831606166,
                0.6616572831606166,
                0.03220555540908701,
                0.18903207142496647,
                0.48241902219371835,
                0.16368122002212387,
                0.1772556822084702,
                0.41879096242887087,
                0.6616572831606163,
                0.4065142077114864,
                0.38535718993047574,
                0.2493813060056213,
                0.30447647057748317,
                0.2102045924534669,
                0.3242701711150375,
                0.6616572831606166,
                0.5768779018451025,
                0.09591163207316822,
                0.6616572831606166,
                0.3996528682613902,
                0.2722626755573698,
                0.39393680018950306,
                0.16867180531680553,
                0.6616572831606164,
                0.6616572831606167,
                0.027337367323300943,
                0.43509952666141544,
                0.11154132339059925,
                0.07570659378639466,
                0.6616572831606166,
                0.41547639341059295,
                0.3978946392707052,
                0.6616572831606166,
                0.6616572831606164,
                0.05808283558026129,
                0.6616572831606167,
                0.30278641719864846,
                0.6616572831606166,
                0.6616572831606166,
                0.6616572831606167,
                0.6616572831606167,
                0.6616572831606166,
                0.6616572831606167,
                0.03220544659180648,
                0.6616572831606166,
                0.46301652768804163,
                0.6616572831606166,
                0.1589759113136136,
                0.032205761357626365,
                0.2075198470008015,
                0.4650293672441952,
                0.09307648716325626,
                0.6616572831606167,
                0.15851211752030492,
                0.6616572831606167,
                0.03220576915951014,
                0.07525000000000001,
                0.26238227170832834,
                0.28321903469932286,
                0.6616572831606164,
                0.26361364930123676,
                0.03181871920878616,
                0.11427494630208335,
                0.6616572831606166,
                0.6616572831606166,
                0.6616572831606166,
                0.056151937704033594,
                0.03181892836892736,
                0.6616572831606167,
                0.6616572831606166,
                0.6616572831606166,
                0.6616572831606164,
                0.46728405758305125,
                0.07525,
                0.6616572831606166,
                0.09266483137381744,
                0.6616572831606166,
                0.0876557,
                0.6616572831606166,
                0.6616572831606164,
                0.31927921035223683,
                0.3112581086805275,
                0.6616572831606166,
                0.08404957655415601,
                0.6616572831606167,
                0.6616572831606167,
                0.6616572831606166,
                0.03681896971828846,
                0.6616572831606164,
                0.19814355629088684,
                0.6616572831606167,
                0.10168299768360112,
                0.10334945803825232,
                0.6616572831606167,
                0.6616572831606164,
                0.3768891459561822,
                0.6616572831606164,
                0.5057163815143714,
                0.6616572831606164,
                0.6616572831606167,
                0.4481605445993747,
                0.6616572831606166,
                0.4543619228564516,
                0.6616572831606167,
                0.6616572831606167,
                0.1669939443143972,
                0.08523539999999999,
                0.023470884646317074,
                0.11016019716404911,
                0.19664881531011946,
                0.07525,
                0.42296541279628674,
                0.4658976870309862,
                0.6616572831606164,
                0.4297503955775346,
                0.6616572831606164,
                0.6616572831606164,
                0.6616572831606166,
                0.22758161626815743,
                0.03181866104047623,
                0.06966285473757994,
                0.6616572831606166,
                0.6616572831606166,
                0.26229030955935045,
                0.6616572831606166,
                0.5086927431233487,
                0.23344872331118272,
                0.6616572831606164,
                0.5320907431479953,
                0.03220544954860306,
                0.5254761745418981,
                0.29852036653155994,
                0.6616572831606166,
                0.6616572831606164,
                0.433693315262516,
                0.6616572831606167,
                0.6616572831606166,
                0.6616572831606166,
                0.4406862515865051,
                0.3518250641994708,
                0.6616572831606166,
                0.47442656349787815,
                0.6616572831606166,
                0.6616572831606164,
                0.2653046513459027,
                0.2251657636268617,
                0.283305418235424,
                0.15602404038759105,
                0.22983927591518016,
                0.4091715060627855,
                0.03141863299637199,
                0.43965882581574367,
                0.5700581829810071,
                0.03639217809758965,
                0.15971968387548785,
                0.08206882844707053,
                0.07524999999999998,
                0.5494429026178276,
                0.309545425386006,
                0.6616572831606164,
                0.6616572831606166,
                0.6616572831606167,
                0.20303571541350068,
                0.1890281324582524,
                0.6616572831606164,
                0.6616572831606167,
                0.182115045682525,
                0.04105974227260851,
                0.19239896025973863,
                0.4269110133901477,
                0.4153562781593092,
                0.5387283918473691,
                0.5047262763042842,
                0.4540323302117824,
                0.23716272768069957,
                0.6616572831606164,
                0.24312588611384098,
                0.6616572831606166,
                0.28405079403520617,
                0.03220548115953815,
                0.03213479129715714,
                0.6616572831606164,
                0.6616572831606166,
                0.39902040308529624,
                0.08523539999999999,
                0.6616572831606167,
                0.6616572831606166,
                0.05385792913423304,
                0.3027428562960422,
                0.03181877333981563,
                0.40099417853472574,
                0.6616572831606166,
                0.43488694128795535,
                0.05961302916178429,
                0.4838984894356473
            ],
            "photocathode": [
                2899,
                3555,
                879,
                4595,
                1973,
                4685,
                4705,
                4762,
                4614,
                4719,
                2186,
                238,
                515,
                196,
                525,
                170,
                1028,
                4600,
                4652,
                3355,
                415,
                4710,
                4560,
                4565,
                4524,
                47,
                1972,
                4710,
                280,
                282,
                4606,
                4554,
                3055,
                4668,
                1883,
                4654,
                937,
                1336,
                4618,
                1345,
                4558,
                1259,
                1103,
                4540,
                4594,
                4718,
                1192,
                537,
                4552,
                221,
                4645,
                1874,
                3997,
                4622,
                810,
                4673,
                599,
                210,
                2867,
                4684,
                1545,
                638,
                205,
                607,
                4571,
                501,
                3169,
                222,
                3958,
                1533,
                2096,
                1497,
                556,
                1065,
                504,
                2770,
                3116,
                2958,
                636,
                1423,
                2617,
                4586,
                3079,
                2106,
                4669,
                3632,
                4586,
                4727,
                4793,
                2827,
                895,
                107,
                4681,
                4576,
                3194,
                221,
                4578,
                4656,
                539,
                504,
                1127,
                2596,
                4627,
                188,
                4608,
                4625,
                230,
                1503,
                3024,
                4512,
                1744,
                4681,
                540,
                4692,
                4602,
                4546,
                4473,
                4675,
                4631,
                254,
                694,
                460,
                4557,
                3341,
                1576,
                4683,
                3164,
                4609,
                1310,
                235,
                521,
                2641,
                1824,
                530,
                828,
                2918,
                4623,
                531,
                4550,
                785,
                1437,
                199,
                3571,
                4503,
                1610,
                4757,
                2903,
                4714,
                1293,
                4800,
                4674,
                497,
                262,
                4717,
                233,
                4724,
                2106,
                235,
                4793,
                240,
                2681,
                2550,
                2341,
                4628,
                768,
                4699,
                232,
                3105,
                2447,
                4729,
                4606,
                4765,
                4590,
                4647,
                4734,
                4766,
                2430,
                1442,
                4745,
                4668,
                2103,
                1716,
                264,
                2054,
                4830,
                338,
                4578,
                2200,
                1299,
                1737,
                138,
                4540,
                4499,
                2366,
                3022,
                4606,
                545,
                4692,
                1004,
                1259,
                4671,
                1696,
                4550,
                732,
                3039,
                1755,
                363,
                1672,
                366,
                4779,
                4573,
                478,
                4666,
                4578,
                3043,
                4542,
                3731,
                122,
                3537,
                2148,
                2779,
                1294,
                2932,
                4690,
                2771,
                2939,
                3318,
                208,
                227,
                1155,
                4618,
                4628,
                4137,
                2980,
                1482,
                4674,
                4778,
                4579,
                4616,
                477,
                202,
                4526,
                2885,
                3038,
                4728,
                1948,
                4609,
                4624,
                3549,
                3269,
                223,
                2174,
                1144,
                4773,
                3076,
                3204,
                4678,
                578,
                4658,
                988,
                2650,
                4708,
                1864,
                1038,
                4556,
                2396,
                1462,
                1537,
                1921,
                4623,
                1931,
                4701,
                2902,
                4664,
                4653,
                182,
                3178,
                1495,
                1488,
                880,
                2757,
                4633,
                4591,
                4571,
                1386,
                1,
                514,
                4726,
                4578,
                538,
                223,
                225,
                2830,
                551,
                4722,
                2076,
                4621,
                3045,
                401,
                1315,
                3179,
                4684,
                4713,
                2493,
                2959,
                4610,
                4620,
                215,
                1333,
                3356,
                1163,
                1248,
                3068,
                4749,
                2889,
                2652,
                1716,
                2122,
                1527,
                2366,
                4536,
                4101,
                667,
                4608,
                2855,
                1873,
                2795,
                1136,
                4634,
                4591,
                177,
                3059,
                826,
                504,
                4684,
                2899,
                2824,
                4688,
                4517,
                439,
                4555,
                1999,
                4557,
                4646,
                4576,
                4654,
                4457,
                4541,
                232,
                4580,
                3278,
                4683,
                1179,
                221,
                1379,
                3302,
                616,
                4669,
                1113,
                4632,
                232,
                506,
                1870,
                1984,
                4695,
                1848,
                210,
                794,
                4612,
                4546,
                4717,
                384,
                206,
                4737,
                4597,
                4685,
                4743,
                3277,
                538,
                4564,
                577,
                4508,
                566,
                4547,
                4576,
                2221,
                2109,
                4667,
                620,
                4687,
                4624,
                4706,
                272,
                4577,
                1361,
                4624,
                749,
                802,
                4489,
                4618,
                2651,
                4596,
                3614,
                4729,
                4466,
                3125,
                4573,
                3178,
                4580,
                4739,
                1184,
                632,
                169,
                776,
                1469,
                531,
                2998,
                3169,
                4519,
                3097,
                4718,
                4657,
                4698,
                1554,
                224,
                492,
                4675,
                4668,
                1916,
                4607,
                3623,
                1627,
                4605,
                3746,
                246,
                3670,
                2095,
                4643,
                4689,
                3145,
                4618,
                4557,
                4727,
                3089,
                2491,
                4687,
                3380,
                4632,
                4624,
                1820,
                1635,
                2020,
                1040,
                1699,
                2990,
                215,
                3165,
                3981,
                257,
                1122,
                578,
                470,
                3846,
                2196,
                4770,
                4715,
                4728,
                1438,
                1320,
                4559,
                4617,
                1238,
                308,
                1300,
                2968,
                2896,
                3762,
                3559,
                3174,
                1773,
                4689,
                1647,
                4647,
                2051,
                226,
                215,
                4602,
                4616,
                2795,
                575,
                4586,
                4789,
                352,
                2171,
                230,
                2726,
                4639,
                3043,
                404,
                3408
            ]
        },
        "detections": 500,
        "events": 115934
    }
}