{
    "job_args": {
        "metric_limit": 500,
        "seed": 2547924460
    },
    "job_id": "batch_16_do_500",
    "result": {
        "collections": {
            "crystal": [
                0.43508400608322506,
                0.20929601964129652,
                0.6616572831606166,
                0.034873148345884515,
                0.2110460314617856,
                0.6616572831606166,
                0.6616572831606166,
                0.6616572831606166,
                0.3268631119701352,
                0.4422108439420362,
                0.30212827027831757,
                0.21751840517345417,
                0.24631172856314143,
                0.6616572831606166,
                0.1950921829438693,
                0.31157590557265624,
                0.4023047838049897,
                0.2070636258780989,
                0.4661926039755934,
                0.44849721345077354,
                0.13465265944477173,
                0.5139043366870304,
                0.42263069308090434,
                0.06817149847968351,
                0.29629591832789914,
                0.6616572831606166,
                0.2352196692453714,
                0.6616572831606166,
                0.28711310481246805,
                0.38323743616834804,
                0.11793980192566145,
                0.6616572831606166,
                0.6616572831606167,
                0.35723816340299697,
                0.16722084049892566,
                0.060432749465026414,
                0.6616572831606167,
                0.09115213942601763,
                0.1570716021550129,
                0.4621396849689631,
                0.42361732451418055,
                0.5381051890678158,
                0.42352920511325437,
                0.0847407,
                0.6616572831606167,
                0.6616572831606167,
                0.6616572831606166,
                0.16564337536526397,
                0.6616572831606166,
                0.40803819409127967,
                0.47914428719721164,
                0.6616572831606166,
                0.6616572831606167,
                0.262712730531062,
                0.6616572831606164,
                0.10617692509112264,
                0.052605293868688396,
                0.6616572831606166,
                0.6616572831606166,
                0.6616572831606164,
                0.6616572831606166,
                0.22587615214599277,
                0.19607705434353853,
                0.27489297896469045,
                0.6616572831606164,
                0.2490471243352141,
                0.03220546340901719,
                0.2781880184810901,
                0.6616572831606164,
                0.6616572831606164,
                0.45069038886768886,
                0.25254410404160854,
                0.07878354162220003,
                0.6616572831606163,
                0.18440001336065814,
                0.4263609736777626,
                0.07303899999999998,
                0.16271020295581085,
                0.03181863810505136,
                0.6616572831606166,
                0.17301696293428187,
                0.28932712696818935,
                0.4168851301023656,
                0.2986857335076135,
                0.6616572831606167,
                0.47023394186022677,
                0.6616572831606164,
                0.2367949157539564,
                0.25477085872893157,
                0.4412381982249689,
                0.6616572831606164,
                0.0322056078736936,
                0.6616572831606166,
                0.6616572831606164,
                0.6616572831606164,
                0.3809509439084282,
                0.09748776878458643,
                0.08173377420549499,
                0.23944290822996284,
                0.6616572831606167,
                0.6616572831606164,
                0.6616572831606167,
                0.6616572831606166,
                0.6616572831606167,
                0.6616572831606167,
                0.25081923742272505,
                0.6616572831606166,
                0.44676912833862503,
                0.6616572831606164,
                0.36298651121488346,
                0.49521072856292747,
                0.03220554554843593,
                0.6616572831606166,
                0.506180413984352,
                0.6616572831606166,
                0.2651490058779006,
                0.6616572831606164,
                0.6616572831606166,
                0.44530137536633124,
                0.6616572831606164,
                0.10631417376547146,
                0.17849981189784597,
                0.032205714478277137,
                0.4706342096777726,
                0.4420117204409674,
                0.26599742243513586,
                0.4542258368083233,
                0.40732589966888183,
                0.4378364313633243,
                0.6616572831606166,
                0.1139875488887433,
                0.07303899999999999,
                0.037461597807359935,
                0.19415134397447045,
                0.24676276836337052,
                0.6616572831606164,
                0.26534567262213754,
                0.303777747654177,
                0.22201368493366339,
                0.6616572831606166,
                0.19977641863885187,
                0.6616572831606166,
                0.6616572831606167,
                0.6616572831606164,
                0.43297730167987825,
                0.12994326193833927,
                0.45983252486754844,
                0.12440631708978789,
                0.6616572831606167,
                0.6616572831606164,
                0.6616572831606167,
                0.03220576405469738,
                0.28190602182238217,
                0.3500289040427232,
                0.37317591224261193,
                0.2121367510267791,
                0.6616572831606166,
                0.04664049999999998,
                0.293330888256313,
                0.03181889864337167,
                0.1012695440517204,
                0.1669405499861863,
                0.34578169885317556,
                0.6616572831606166,
                0.6616572831606166,
                0.5467162910340502,
                0.6616572831606166,
                0.05495329824023743,
                0.42478147187035886,
                0.2523792477480026,
                0.22076996198874563,
                0.6616572831606164,
                0.21928880374264914,
                0.6616572831606167,
                0.08700466167779985,
                0.269496897025482,
                0.4146796575787644,
                0.09002080441602311,
                0.4619906226208559,
                0.6616572831606166,
                0.2953208115814421,
                0.3791950814862828,
                0.03220580268158693,
                0.12106403352098176,
                0.6616572831606166,
                0.32853764119794254,
                0.6616572831606166,
                0.6616572831606166,
                0.16578731642131267,
                0.6616572831606166,
                0.24984102460061886,
                0.20478701976226205,
                0.2401599717795946,
                0.6616572831606167,
                0.07525000000000001,
                0.03181854664668062,
                0.12039368406375317,
                0.30669514889022337,
                0.09508727494799674,
                0.2027585677028379,
                0.12223028244365071,
                0.42520332029259883,
                0.6616572831606164,
                0.4427434298367165,
                0.09056880342740614,
                0.6616572831606166,
                0.45682410980138216,
                0.38826698077105304,
                0.1410665185488561,
                0.07525,
                0.5348433877449065,
                0.418914515902556,
                0.3173477915945112,
                0.6616572831606166,
                0.3775935564307112,
                0.6616572831606166,
                0.19339386240594153,
                0.6616572831606166,
                0.37283405314497436,
                0.30645737249607496,
                0.073039,
                0.6616572831606167,
                0.36724646133331695,
                0.07524999999999998,
                0.3795515561766803,
                0.39877392416533836,
                0.6616572831606166,
                0.09592104677248112,
                0.031818470977842836,
                0.41569471438616734,
                0.19862532105208208,
                0.41688999840196395,
                0.15961612947237677,
                0.385845172920736,
                0.5044527325815901,
                0.6616572831606167,
                0.24590038258550717,
                0.6616572831606164,
                0.6616572831606167,
                0.25383887123731125,
                0.07303899999999999,
                0.6616572831606167,
                0.6616572831606166,
                0.307038606646737,
                0.2728336201043575,
                0.03220556135804959,
                0.6616572831606166,
                0.6616572831606166,
                0.6616572831606166,
                0.03181847384132079,
                0.6616572831606168,
                0.6616572831606164,
                0.036392288132124966,
                0.6616572831606167,
                0.07525,
                0.5387706268053292,
                0.6616572831606164,
                0.191258500697906,
                0.2266020746185232,
                0.6616572831606166,
                0.2343532779153315,
                0.6616572831606166,
                0.6616572831606166,
                0.6616572831606166,
                0.03220556975847686,
                0.6616572831606167,
                0.6616572831606166,
                0.03181870453507109,
                0.31803746363093544,
                0.34211954778124465,
                0.12895780157672498,
                0.6616572831606166,
                0.3817155289247768,
                0.6616572831606167,
                0.20398259115939713,
                0.027463335988292654,
                0.03220559286570474,
                0.6616572831606166,
                0.6616572831606166,
                0.08609040009062494,
                0.23210751774410343,
                0.6616572831606166,
                0.6616572831606166,
                0.6616572831606164,
                0.2918018871858474,
                0.6616572831606166,
                0.6616572831606164,
                0.6616572831606166,
                0.6616572831606167,
                0.05555439660797551,
                0.1558155796241728,
                0.6616572831606167,
                0.6616572831606167,
                0.23869114157798413,
                0.6616572831606166,
                0.28026451416200865,
                0.49528837729554875,
                0.07830045044025702,
                0.05254965483188556,
                0.6616572831606163,
                0.17545854407415395,
                0.4347126353935653,
                0.6616572831606166,
                0.46000245812312823,
                0.03181846005201344,
                0.07525,
                0.032205410699225334,
                0.13961570291780112,
                0.6616572831606164,
                0.6616572831606167,
                0.19631468990835862,
                0.3217414564424621,
                0.24899490635315064,
                0.4899026481869717,
                0.6616572831606167,
                0.6616572831606166,
                0.008085610058511404,
                0.4186158727203466,
                0.032205545378477064,
                0.6616572831606167,
                0.17187322773746322,
                0.6616572831606166,
                0.6616572831606166,
                0.21724910455803165,
                0.36468490963230477,
                0.6616572831606164,
                0.6616572831606164,
                0.3543733000007741,
                0.6616572831606166,
                0.6616572831606166,
                0.2923923116659812,
                0.11195438368259504,
                0.07525,
                0.43519996287374507,
                0.6616572831606166,
                0.6616572831606167,
                0.6616572831606167,
                0.008954118727247056,
                0.2023724349538691,
                0.6616572831606166,
                0.5346707920794522,
                0.17763805323439216,
                0.45140705309329293,
                0.6616572831606164,
                0.1489194824327744,
                0.0852354,
                0.28459628761197797,
                0.6616572831606167,
                0.040293107507332615,
                0.03220542651850337,
                0.6616572831606167,
                0.3865561808410507,
                0.25421950830098544,
                0.39310445959401397,
                0.06084399285311486,
                0.2912841410448319,
                0.3370909099749251,
                0.44348038072744655,
                0.16775424794728797,
                0.6616572831606164,
                0.03181888165504118,
                0.6616572831606166,
                0.3588055384411041,
                0.47027615401631484,
                0.6616572831606166,
                0.6616572831606166,
                0.07940487702861976,
                0.024804889875897018,
                0.20448778006025084,
                0.073039,
                0.6616572831606164,
                0.6616572831606167,
                0.6616572831606164,
                0.4194301570133606,
                0.48943540145208897,
                0.5047806909094894,
                0.39311488577767284,
                0.6616572831606166,
                0.3423949635756234,
                0.008479686793014918,
                0.03220536105418829,
                0.6171400941483278,
                0.3283909903951155,
                0.6616572831606167,
                0.32153576554939134,
                0.4456962632848106,
                0.6616572831606167,
                0.47968604890204797,
                0.07062620025714356,
                0.06316252822380512,
                0.6616572831606166,
                0.6616572831606166,
                0.3290593201980636,
                0.22142872945736405,
                0.07525000000000001,
                0.6616572831606167,
                0.6616572831606166,
                0.6616572831606167,
                0.6616572831606164,
                0.3847122787305355,
                0.2707285941113353,
                0.30937831769131413,
                0.13830820222051773,
                0.4303687805436285,
                0.6616572831606167,
                0.6616572831606164,
                0.6616572831606166,
                0.6616572831606167,
                0.4813527845473498,
                0.08474069999999999,
                0.4141431925257386,
                0.6616572831606166,
                0.4431600098198135,
                0.4632705318811915,
                0.6616572831606166,
                0.6616572831606164,
                0.03181856779762354,
                0.21725708330850663,
                0.6616572831606167,
                0.6616572831606166,
                0.44181114519544074,
                0.47911912990776656,
                0.6616572831606166,
                0.07525,
                0.1230850614608331,
                0.6616572831606166,
                0.03220539962102139,
                0.073039,
                0.34528297234115524,
                0.6616572831606167,
                0.1526007339811739,
                0.04684741530187653,
                0.3382057365616325,
                0.05988626196747204,
                0.29839235906263145,
                0.0589245,
                0.3194584669127385,
                0.6616572831606166,
                0.27053378431927594,
                0.14098302724438838,
                0.6616572831606164,
                0.426323725212584,
                0.6616572831606164,
                0.39739523131970694,
                0.17508564253630227,
                0.30622033892205464,
                0.0318185463967309,
                0.03181852811316016,
                0.19874659827359115,
                0.18093581062116637,
                0.4661211873005445,
                0.6616572831606167,
                0.252084147077859,
                0.6616572831606166,
                0.39457714283042633,
                0.0852354,
                0.029038808593872888,
                0.6616572831606167,
                0.031818818853295454,
                0.47412673399526994,
                0.17489328951315775,
                0.6616572831606167,
                0.6616572831606167,
                0.6616572831606167,
                0.3592042524404679,
                0.6616572831606166,
                0.6616572831606166,
                0.03220554220722807,
                0.03220552104153464,
                0.6616572831606166,
                0.012707749139608817,
                0.3165283626015201,
                0.47240746194053873,
                0.4931177622790748,
                0.13253286442690063,
                0.3527005349225696,
                0.07303899999999999,
                0.6616572831606166,
                0.47739828302566495,
                0.27474865804866744,
                0.6616572831606164,
                0.6616572831606164,
                0.041372454042852946,
                0.6616572831606166,
                0.26256812575691396,
                0.6616572831606164,
                0.0026476356516784705,
                0.44258820768100815,
                0.03181879315867558,
                0.45822529377850824,
                0.6616572831606164,
                0.5269224625791247,
                0.27782512377168045,
                0.03220554895494363,
                0.4603636170318607,
                0.6616572831606164,
                0.2724596837036641,
                0.6616572831606166,
                0.2896962003493921,
                0.03639206417048284
            ],
            "photocathode": [
                3077,
                1476,
                4713,
                258,
                1480,
                4489,
                4580,
                4785,
                2179,
                3138,
                2150,
                1491,
                1708,
                4691,
                1361,
                2242,
                2714,
                1428,
                3251,
                3188,
                928,
                3559,
                3032,
                424,
                1969,
                4591,
                1652,
                4479,
                2007,
                2638,
                893,
                4577,
                4570,
                2570,
                1163,
                433,
                4706,
                632,
                1091,
                3265,
                2946,
                3867,
                2852,
                574,
                4731,
                4617,
                4650,
                1163,
                4605,
                2817,
                3344,
                4551,
                4660,
                1778,
                4650,
                705,
                392,
                4710,
                4597,
                4528,
                4827,
                1544,
                1422,
                1869,
                4671,
                1792,
                233,
                1992,
                4681,
                4637,
                3115,
                1838,
                557,
                4636,
                1209,
                3016,
                514,
                1187,
                217,
                4574,
                1225,
                2007,
                3007,
                2105,
                4738,
                3409,
                4683,
                1635,
                1789,
                3147,
                4567,
                227,
                4626,
                4533,
                4803,
                2732,
                691,
                608,
                1687,
                4682,
                4870,
                4657,
                4636,
                4577,
                4574,
                1853,
                4565,
                3129,
                4556,
                2511,
                3320,
                229,
                4643,
                3552,
                4761,
                1897,
                4647,
                4782,
                3175,
                4623,
                770,
                1210,
                240,
                3318,
                3059,
                1901,
                3271,
                2820,
                3037,
                4774,
                798,
                511,
                246,
                1440,
                1653,
                4751,
                1859,
                2083,
                1573,
                4666,
                1451,
                4614,
                4608,
                4819,
                2920,
                904,
                3172,
                845,
                4682,
                4629,
                4624,
                214,
                1945,
                2516,
                2639,
                1485,
                4600,
                320,
                2128,
                215,
                731,
                1209,
                2375,
                4655,
                4647,
                3950,
                4541,
                380,
                2952,
                1665,
                1664,
                4716,
                1543,
                4573,
                573,
                1861,
                2985,
                670,
                3100,
                4674,
                2026,
                2697,
                223,
                832,
                4597,
                2291,
                4732,
                4596,
                1097,
                4589,
                1837,
                1391,
                1666,
                4540,
                499,
                179,
                830,
                2190,
                719,
                1489,
                838,
                2958,
                4721,
                3000,
                660,
                4535,
                3230,
                2814,
                931,
                531,
                3711,
                3028,
                2240,
                4549,
                2694,
                4619,
                1410,
                4620,
                2665,
                2217,
                516,
                4752,
                2597,
                524,
                2643,
                2836,
                4768,
                699,
                208,
                3015,
                1386,
                2890,
                1129,
                2823,
                3458,
                4780,
                1815,
                4560,
                4524,
                1761,
                540,
                4593,
                4802,
                2109,
                1882,
                250,
                4521,
                4653,
                4660,
                233,
                4770,
                4592,
                258,
                4674,
                543,
                3944,
                4718,
                1292,
                1624,
                4769,
                1557,
                4532,
                4599,
                4568,
                213,
                4683,
                4726,
                218,
                2191,
                2377,
                905,
                4637,
                2638,
                4577,
                1427,
                181,
                210,
                4739,
                4639,
                581,
                1580,
                4793,
                4677,
                4706,
                2003,
                4625,
                4584,
                4682,
                4752,
                374,
                1119,
                4650,
                4708,
                1678,
                4619,
                1962,
                3459,
                587,
                393,
                4574,
                1254,
                3078,
                4677,
                3167,
                229,
                491,
                234,
                1017,
                4490,
                4627,
                1360,
                2267,
                1794,
                3381,
                4631,
                4622,
                52,
                2974,
                221,
                4465,
                1192,
                4700,
                4638,
                1570,
                2515,
                4634,
                4556,
                2472,
                4657,
                4641,
                2090,
                736,
                528,
                2964,
                4959,
                4505,
                4677,
                59,
                1416,
                4676,
                3820,
                1240,
                3219,
                4750,
                1050,
                606,
                1949,
                4682,
                288,
                215,
                4692,
                2808,
                1920,
                2680,
                412,
                2063,
                2391,
                3085,
                1171,
                4592,
                238,
                4660,
                2512,
                3322,
                4678,
                4593,
                592,
                173,
                1449,
                512,
                4728,
                4675,
                4610,
                2897,
                3486,
                3559,
                2739,
                4701,
                2410,
                65,
                250,
                4476,
                2364,
                4545,
                2208,
                3068,
                4763,
                3241,
                476,
                432,
                4727,
                4662,
                2321,
                1584,
                539,
                4647,
                4813,
                4681,
                4812,
                2804,
                1862,
                2183,
                987,
                2978,
                4623,
                4515,
                4716,
                4548,
                3335,
                616,
                2924,
                4586,
                3347,
                3210,
                4673,
                4600,
                218,
                1580,
                4606,
                4571,
                3091,
                3471,
                4589,
                540,
                909,
                4520,
                228,
                509,
                2411,
                4600,
                1084,
                318,
                2187,
                412,
                2151,
                397,
                2144,
                4489,
                1852,
                974,
                4657,
                3020,
                4662,
                2800,
                1214,
                2146,
                243,
                203,
                1422,
                1297,
                3167,
                4587,
                1706,
                4470,
                2784,
                606,
                211,
                4484,
                218,
                3327,
                1223,
                4590,
                4568,
                4662,
                2479,
                4835,
                4679,
                217,
                238,
                4452,
                80,
                2236,
                3307,
                3474,
                910,
                2473,
                517,
                4605,
                3327,
                2013,
                4540,
                4521,
                274,
                4625,
                1798,
                4587,
                26,
                3012,
                236,
                3268,
                4551,
                3701,
                2008,
                224,
                3164,
                4632,
                1834,
                4673,
                2071,
                253
            ]
        },
        "detections": 500,
        "events": 114105
    }
}