{
    "job_args": {
        "metric_limit": 500,
        "seed": 641312770
    },
    "job_id": "batch_108_do_500",
    "result": {
        "collections": {
            "crystal": [
                0.5059282000792698,
                0.032205577938166564,
                0.43945803868143496,
                0.34061208869432696,
                0.30873572674298716,
                0.21240005875868823,
                0.272881637724689,
                0.032205396994443684,
                0.08778142856669585,
                0.6616572831606164,
                0.12412393575209002,
                0.06220482349724735,
                0.03639189244963666,
                0.6616572831606164,
                0.6616572831606166,
                0.1085354837528365,
                0.2374983665076411,
                0.6616572831606167,
                0.6616572831606166,
                0.6616572831606167,
                0.6616572831606167,
                0.6616572831606166,
                0.032205848168027205,
                0.6616572831606166,
                0.6616572831606166,
                0.4760758362705512,
                0.6616572831606166,
                0.057099593524983006,
                0.6616572831606166,
                0.6616572831606166,
                0.09597741392182968,
                0.1465686295831643,
                0.48456193512884804,
                0.6616572831606164,
                0.6616572831606167,
                0.6616572831606167,
                0.12756174949160515,
                0.3359021677959125,
                0.13299727072763878,
                0.3275226660583114,
                0.04799394760906506,
                0.09578648091024167,
                0.3539131452401618,
                0.06053879162907344,
                0.10255245662389502,
                0.15739448487551133,
                0.09535918820065759,
                0.6616572831606164,
                0.21968836974837863,
                0.6616572831606166,
                0.6616572831606166,
                0.4543359167373681,
                0.6616572831606166,
                0.6616572831606166,
                0.6616572831606166,
                0.3872705329430779,
                0.13093925784451543,
                0.28659728540140206,
                0.1915281824810601,
                0.44227615447269947,
                0.6616572831606167,
                0.6616572831606164,
                0.3892392552157623,
                0.514436132584533,
                0.29067947223288443,
                0.6616572831606166,
                0.6616572831606166,
                0.3442871197812185,
                0.6616572831606164,
                0.3822335886174964,
                0.6616572831606164,
                0.6616572831606166,
                0.5417822739597682,
                0.03181877423858401,
                0.6616572831606167,
                0.6616572831606164,
                0.08947171308469248,
                0.34558975270670383,
                0.12812176871088385,
                0.12191116282067005,
                0.041245091935519396,
                0.6616572831606166,
                0.15241482008457785,
                0.440515098766048,
                0.6616572831606164,
                0.31228501274239895,
                0.4793150581717446,
                0.6616572831606166,
                0.3210460529220651,
                0.36525469918446535,
                0.3842645700940932,
                0.14699796937313692,
                0.26156508280444446,
                0.6616572831606168,
                0.11016712417973284,
                0.14266660283077204,
                0.2591160319867338,
                0.13708728270320816,
                0.19080955051874035,
                0.032205718656838196,
                0.6616572831606164,
                0.24545342361167463,
                0.6124429677120131,
                0.4181190984733218,
                0.23401345312233046,
                0.5067736035641497,
                0.4219260351562921,
                0.6616572831606167,
                0.6616572831606166,
                0.3968676103990326,
                0.21083376093164985,
                0.6616572831606167,
                0.20483211630510334,
                0.6616572831606167,
                0.24959269748083485,
                0.03181853851702773,
                0.3828867960565418,
                0.15868922425660792,
                0.6616572831606166,
                0.2069303211720915,
                0.6616572831606166,
                0.6616572831606166,
                0.427078672216857,
                0.11866623441576404,
                0.6616572831606166,
                0.6616572831606164,
                0.6616572831606167,
                0.4384648294734837,
                0.468979121641446,
                0.06973385245724298,
                0.21820020661148654,
                0.6616572831606166,
                0.07525000000000001,
                0.4015707161729358,
                0.6616572831606166,
                0.2565704779034744,
                0.4723277405660592,
                0.6616572831606167,
                0.1738376085125034,
                0.05632016056345901,
                0.16271914655994668,
                0.30632411465941045,
                0.36051397824309467,
                0.1167864040916532,
                0.15353505607767484,
                0.18862933523712427,
                0.6616572831606166,
                0.4209811313672652,
                0.43025812472597547,
                0.12184733984964802,
                0.6616572831606166,
                0.21016207761104672,
                0.2881937298729557,
                0.3533498923711309,
                0.6616572831606164,
                0.051871250700261995,
                0.02346234378597651,
                0.045990617844147055,
                0.6616572831606164,
                0.03181862625413879,
                0.6616572831606166,
                0.04382202991312478,
                0.45481425232090145,
                0.03181889415023804,
                0.1587387593403511,
                0.6616572831606166,
                0.6616572831606164,
                0.6616572831606164,
                0.6616572831606164,
                0.06500957326156676,
                0.6616572831606167,
                0.44718393587385497,
                0.1844127865828747,
                0.32603428261670986,
                0.6616572831606164,
                0.26267761294712233,
                0.6616572831606166,
                0.6616572831606166,
                0.04694349999999999,
                0.3577535238414189,
                0.6616572831606164,
                0.6616572831606167,
                0.46040714479136646,
                0.48778352367817723,
                0.6616572831606167,
                0.23922071040087747,
                0.30655524979865967,
                0.07525000000000001,
                0.4777614717102474,
                0.20841744921264854,
                0.6616572831606167,
                0.06770784791445428,
                0.08785479999999998,
                0.6616572831606166,
                0.35515754218887463,
                0.39003652495424895,
                0.6616572831606167,
                0.6616572831606166,
                0.6616572831606167,
                0.6616572831606167,
                0.6616572831606166,
                0.6616572831606166,
                0.6616572831606164,
                0.26738334208167325,
                0.16399212435787663,
                0.26659772428588313,
                0.42059860410306893,
                0.5046527268746468,
                0.18338245035875722,
                0.6616572831606166,
                0.6616572831606166,
                0.6616572831606166,
                0.32480793811810527,
                0.297567238321879,
                0.6616572831606164,
                0.2500002573948661,
                0.6616572831606166,
                0.25728447517140746,
                0.6616572831606166,
                0.6286387831606166,
                0.14465003447024422,
                0.6616572831606167,
                0.6616572831606166,
                0.6616572831606167,
                0.6616572831606167,
                0.5452497238484075,
                0.4293384723437189,
                0.6616572831606167,
                0.542539093539637,
                0.6616572831606166,
                0.6616572831606164,
                0.0318187500194351,
                0.051959030998710604,
                0.03220547614529358,
                0.4288308485411789,
                0.02351045188701193,
                0.318969232700831,
                0.03760487334778282,
                0.6616572831606166,
                0.6616572831606164,
                0.17586609141256204,
                0.6616572831606166,
                0.6616572831606166,
                0.03726034022020116,
                0.46098061496821285,
                0.6616572831606166,
                0.29442798668001635,
                0.039617010901909694,
                0.6616572831606166,
                0.061128604984874046,
                0.447532416782801,
                0.18504597141886434,
                0.6616572831606166,
                0.017922770872320953,
                0.6616572831606164,
                0.6616572831606166,
                0.3679248872296499,
                0.23526150599035803,
                0.0727598975216785,
                0.1762431931935297,
                0.05732783207552333,
                0.6616572831606166,
                0.07303899999999999,
                0.6616572831606166,
                0.46908909947541877,
                0.6616572831606167,
                0.14508541708091865,
                0.0942250903939007,
                0.6616572831606166,
                0.4071879794692439,
                0.10357713311566852,
                0.34492338625213076,
                0.4410276959211281,
                0.6616572831606167,
                0.6616572831606167,
                0.6616572831606167,
                0.1956049709422164,
                0.3244621648009506,
                0.007707336018076143,
                0.5188150541486032,
                0.6616572831606167,
                0.6616572831606166,
                0.3894385091397707,
                0.6616572831606166,
                0.031774527415768174,
                0.0852354,
                0.6616572831606167,
                0.1826011274431214,
                0.2915767459183436,
                0.6616572831606166,
                0.10224327669652868,
                0.05362555467395791,
                0.44088468035183787,
                0.20767571937539683,
                0.0852354,
                0.6616572831606164,
                0.35064527596726774,
                0.4207620875791337,
                0.6616572831606166,
                0.6616572831606166,
                0.40620386780796414,
                0.16335380637189378,
                0.6616572831606167,
                0.38080984088468195,
                0.6616572831606167,
                0.26050924648578366,
                0.20316061521733841,
                0.6616572831606166,
                0.005456239840024524,
                0.6616572831606167,
                0.6616572831606166,
                0.419416171184664,
                0.29915718464768903,
                0.04974689131294563,
                0.007557996074637696,
                0.10506339603344944,
                0.41940371849957037,
                0.6616572831606166,
                0.4597787704949682,
                0.5145695847596674,
                0.6616572831606166,
                0.6616572831606167,
                0.6616572831606166,
                0.6616572831606166,
                0.45502258286908553,
                0.6616572831606167,
                0.6616572831606166,
                0.6616572831606166,
                0.0697750120274009,
                0.16649546608738564,
                0.6616572831606167,
                0.25424798912011637,
                0.2557415629850533,
                0.6616572831606166,
                0.6616572831606167,
                0.22443991371234367,
                0.6616572831606167,
                0.5383503789270876,
                0.6616572831606164,
                0.12372702978853474,
                0.06024221261087988,
                0.47074340014121174,
                0.12000497299615964,
                0.45767504968553546,
                0.48396437675249404,
                0.33174198153727735,
                0.6616572831606167,
                0.6616572831606167,
                0.2454435697503708,
                0.6616572831606166,
                0.49156958431414155,
                0.18860925774837473,
                0.27109910900637424,
                0.09721583723050997,
                0.6616572831606167,
                0.6616572831606166,
                0.39845601439532896,
                0.5239382911665802,
                0.6616572831606166,
                0.05027710367006738,
                0.23449419916027142,
                0.6616572831606166,
                0.6616572831606167,
                0.6616572831606166,
                0.4173189459472141,
                0.42524553081785765,
                0.13656785503319432,
                0.14643618937536235,
                0.15679900741052963,
                0.1091356880988139,
                0.06231852509316449,
                0.6616572831606166,
                0.6616572831606164,
                0.06042645996982632,
                0.024359879200662644,
                0.6616572831606166,
                0.6616572831606166,
                0.4202701485603033,
                0.6616572831606166,
                0.03181893540801098,
                0.26589673751683374,
                0.032162808642291374,
                0.6616572831606167,
                0.6616572831606166,
                0.6616572831606166,
                0.6616572831606166,
                0.03220557608970187,
                0.39869281046929017,
                0.6616572831606167,
                0.6616572831606164,
                0.6616572831606166,
                0.6616572831606167,
                0.6616572831606166,
                0.6616572831606164,
                0.6616572831606164,
                0.6616572831606164,
                0.29112880411560116,
                0.6616572831606167,
                0.6616572831606166,
                0.5723923041684194,
                0.18668502253597624,
                0.6616572831606166,
                0.07524999999999998,
                0.6616572831606166,
                0.07221280078351106,
                0.6616572831606166,
                0.2914456265860941,
                0.18596151739973646,
                0.6616572831606166,
                0.13103684708566787,
                0.18967712691013405,
                0.6616572831606164,
                0.07525,
                0.4649060382317747,
                0.2295311167943213,
                0.282863631560019,
                0.6616572831606167,
                0.6616572831606166,
                0.2821377594978537,
                0.2802583034295755,
                0.6616572831606166,
                0.4529876956507941,
                0.39691729026006684,
                0.07221396297698757,
                0.6616572831606166,
                0.09591990060083666,
                0.4454323382928954,
                0.5339504077548689,
                0.06760812015385198,
                0.3021379281684086,
                0.6256138424541932,
                0.41691329850198394,
                0.22421422231627852,
                0.6616572831606166,
                0.49938516626585394,
                0.6616572831606166,
                0.45722027806234605,
                0.6616572831606166,
                0.6616572831606166,
                0.6616572831606166,
                0.6616572831606167,
                0.6616572831606166,
                0.18275176213729888,
                0.11003879585052533,
                0.4803737725435682,
                0.6330477831606165,
                0.46341898933012693,
                0.1974084109622748,
                0.28393051671029124,
                0.6616572831606166,
                0.48413039868755076,
                0.44106356271143016,
                0.6616572831606167,
                0.03220548624772619,
                0.031818514030591744,
                0.20687958634105302,
                0.12261038291759795,
                0.032205473645747024,
                0.6616572831606166,
                0.23375081200817477,
                0.6616572831606166,
                0.39157816991818295,
                0.44798780436293084,
                0.5099247193715173,
                0.6616572831606164,
                0.33768211751280985,
                0.20196087913373628,
                0.45711589939877695,
                0.6616572831606164,
                0.050233876017928024,
                0.03181890738147073,
                0.6616572831606166,
                0.33641713343000146,
                0.1616682599583012,
                0.6616572831606166,
                0.6616572831606166,
                0.23854613934134197,
                0.38493638040191347,
                0.6616572831606167,
                0.6616572831606164,
                0.6616572831606163,
                0.6616572831606167,
                0.6616572831606167,
                0.16903955673769122,
                0.6616572831606164,
                0.03220546343228556,
                0.19313841946876864,
                0.6616572831606166,
                0.4471899856873835,
                0.6616572831606166,
                0.6616572831606164,
                0.6616572831606164,
                0.1843740670530093,
                0.032205781805606064,
                0.02904209022852594,
                0.08691140714892276,
                0.23521332075549203,
                0.18897376806901356,
                0.1434131823763103,
                0.06662087847798215
            ],
            "photocathode": [
                3389,
                235,
                3237,
                2438,
                2151,
                1432,
                1944,
                221,
                626,
                4589,
                911,
                400,
                275,
                4718,
                4562,
                746,
                1803,
                4641,
                4650,
                4597,
                4605,
                4484,
                216,
                4724,
                4510,
                3267,
                4647,
                388,
                4661,
                4574,
                679,
                1023,
                3363,
                4747,
                4723,
                4633,
                915,
                2409,
                959,
                2346,
                358,
                708,
                2413,
                392,
                728,
                1066,
                673,
                4549,
                1630,
                4639,
                4923,
                3155,
                4584,
                4523,
                4726,
                2635,
                1014,
                2014,
                1328,
                3272,
                4595,
                4704,
                2798,
                3524,
                2018,
                4675,
                4724,
                2387,
                4472,
                2681,
                4570,
                4693,
                3863,
                212,
                4817,
                4577,
                568,
                2455,
                874,
                862,
                260,
                4676,
                1081,
                3017,
                4551,
                2122,
                3485,
                4641,
                2250,
                2619,
                2718,
                1027,
                1915,
                4742,
                764,
                985,
                1770,
                962,
                1404,
                227,
                4703,
                1775,
                4363,
                2901,
                1654,
                3609,
                3011,
                4725,
                4420,
                2683,
                1448,
                4653,
                1383,
                4608,
                1696,
                241,
                2689,
                1142,
                4675,
                1416,
                4656,
                4592,
                2974,
                852,
                4539,
                4666,
                4550,
                3179,
                3307,
                497,
                1568,
                4619,
                520,
                2839,
                4678,
                1847,
                3292,
                4550,
                1223,
                394,
                1135,
                2107,
                2539,
                816,
                1057,
                1323,
                4617,
                3005,
                3042,
                829,
                4643,
                1418,
                2068,
                2529,
                4623,
                368,
                153,
                289,
                4633,
                240,
                4568,
                298,
                3232,
                211,
                1064,
                4590,
                4547,
                4537,
                4554,
                486,
                4678,
                3031,
                1311,
                2337,
                4525,
                1896,
                4484,
                4722,
                342,
                2544,
                4575,
                4722,
                3234,
                3366,
                4539,
                1649,
                2165,
                551,
                3419,
                1476,
                4677,
                443,
                624,
                4678,
                2470,
                2845,
                4748,
                4486,
                4617,
                4673,
                4831,
                4563,
                4671,
                1858,
                1169,
                1838,
                3159,
                3607,
                1260,
                4692,
                4717,
                4788,
                2201,
                2045,
                4584,
                1799,
                4594,
                1814,
                4601,
                4414,
                950,
                4650,
                4503,
                4543,
                4642,
                3810,
                3074,
                4604,
                3798,
                4572,
                4623,
                195,
                376,
                255,
                2964,
                151,
                2189,
                264,
                4539,
                4823,
                1349,
                4586,
                4542,
                266,
                3259,
                4634,
                2064,
                277,
                4643,
                414,
                3113,
                1345,
                4801,
                125,
                4649,
                4806,
                2567,
                1635,
                491,
                1205,
                417,
                4725,
                513,
                4728,
                3333,
                4655,
                1048,
                673,
                4720,
                2848,
                700,
                2366,
                3065,
                4542,
                4736,
                4480,
                1369,
                2296,
                60,
                3700,
                4521,
                4733,
                2645,
                4661,
                212,
                596,
                4703,
                1328,
                2031,
                4541,
                735,
                371,
                3123,
                1430,
                573,
                4489,
                2470,
                3069,
                4619,
                4508,
                2839,
                1200,
                4649,
                2691,
                4472,
                1809,
                1407,
                4602,
                37,
                4518,
                4625,
                2908,
                2078,
                350,
                58,
                773,
                2891,
                4664,
                3216,
                3667,
                4644,
                4634,
                4612,
                4643,
                3290,
                4567,
                4529,
                4690,
                486,
                1177,
                4653,
                1856,
                1801,
                4602,
                4765,
                1605,
                4636,
                3703,
                4706,
                880,
                436,
                3262,
                858,
                3168,
                3481,
                2339,
                4606,
                4746,
                1758,
                4643,
                3382,
                1377,
                1906,
                674,
                4622,
                4610,
                2752,
                3776,
                4716,
                374,
                1627,
                4591,
                4651,
                4616,
                2896,
                2914,
                963,
                1007,
                1099,
                788,
                440,
                4597,
                4505,
                422,
                189,
                4687,
                4710,
                2885,
                4464,
                190,
                1818,
                243,
                4490,
                4551,
                4555,
                4630,
                218,
                2780,
                4580,
                4719,
                4628,
                4637,
                4693,
                4631,
                4732,
                4710,
                2070,
                4621,
                4765,
                4003,
                1340,
                4603,
                541,
                4519,
                534,
                4739,
                2144,
                1283,
                4679,
                1008,
                1282,
                4633,
                508,
                3313,
                1567,
                1980,
                4572,
                4583,
                2076,
                2002,
                4717,
                3222,
                2949,
                490,
                4525,
                657,
                3123,
                3673,
                470,
                2076,
                4282,
                2875,
                1615,
                4609,
                3550,
                4571,
                3237,
                4726,
                4719,
                4663,
                4696,
                4547,
                1239,
                811,
                3273,
                4417,
                3248,
                1395,
                1955,
                4625,
                3359,
                3077,
                4583,
                219,
                234,
                1523,
                817,
                237,
                4776,
                1622,
                4625,
                2702,
                3230,
                3625,
                4869,
                2357,
                1431,
                3147,
                4693,
                323,
                226,
                4672,
                2355,
                1128,
                4685,
                4606,
                1650,
                2713,
                4686,
                4690,
                4722,
                4802,
                4607,
                1175,
                4724,
                242,
                1365,
                4595,
                3126,
                4685,
                4634,
                4732,
                1303,
                256,
                204,
                610,
                1745,
                1343,
                952,
                477
            ]
        },
        "detections": 500,
        "events": 114723
    }
}