{
    "job_args": {
        "metric_limit": 500,
        "seed": 441507880
    },
    "job_id": "batch_49_do_500",
    "result": {
        "collections": {
            "crystal": [
                0.03181856605031174,
                0.2303496223333135,
                0.6616572831606167,
                0.47183504915125923,
                0.03220585521150482,
                0.07524999999999998,
                0.6616572831606164,
                0.6616572831606166,
                0.35201910877868253,
                0.6616572831606167,
                0.07525000000000001,
                0.154341802431761,
                0.6616572831606164,
                0.3982111728702633,
                0.6616572831606166,
                0.036392278763834746,
                0.6616572831606167,
                0.3218610865158028,
                0.08474069999999999,
                0.6616572831606166,
                0.4281986879307397,
                0.6616572831606166,
                0.6616572831606167,
                0.6616572831606167,
                0.02342191551195711,
                0.24649432738574487,
                0.6616572831606167,
                0.6616572831606167,
                0.1868864771703253,
                0.6616572831606167,
                0.046640499999999994,
                0.4714688619005621,
                0.41446521405600617,
                0.24455721058131263,
                0.6616572831606166,
                0.6616572831606164,
                0.6616572831606164,
                0.32951187088310163,
                0.3301700979299974,
                0.36095257150584414,
                0.058636693942764495,
                0.13342150799073027,
                0.3713527574040374,
                0.15853843375096843,
                0.3313240624052136,
                0.03220561503453253,
                0.09484765525888995,
                0.4694906419548076,
                0.6616572831606167,
                0.6616572831606167,
                0.6616572831606166,
                0.2813035717580354,
                0.4215266761222737,
                0.03220546875151051,
                0.6616572831606164,
                0.6616572831606166,
                0.4381286383929816,
                0.40711536182767694,
                0.0847407,
                0.6616572831606166,
                0.4691150131852007,
                0.022618387957520247,
                0.43125665228255106,
                0.6616572831606164,
                0.19321199834688163,
                0.6616572831606166,
                0.41506318728043634,
                0.3207145688962716,
                0.44658170986969636,
                0.25260809598223344,
                0.6616572831606166,
                0.6616572831606164,
                0.6616572831606166,
                0.4678038183658384,
                0.30643333984642235,
                0.47865155285223926,
                0.073039,
                0.6616572831606164,
                0.03220555701204549,
                0.36737735591418663,
                0.33781432624128915,
                0.19300335713560623,
                0.6616572831606166,
                0.043886995384680445,
                0.6616572831606167,
                0.6616572831606166,
                0.25241349359751164,
                0.4573062852519485,
                0.36820512460437704,
                0.35464979902607396,
                0.6616572831606166,
                0.6616572831606164,
                0.30593802180231633,
                0.5181556467218368,
                0.6616572831606166,
                0.07303899999999999,
                0.6616572831606164,
                0.08048486937177579,
                0.6616572831606166,
                0.31345280800500247,
                0.14673549849173928,
                0.48790211894320956,
                0.27089868131859146,
                0.6616572831606167,
                0.0571915,
                0.3032665251498067,
                0.6616572831606167,
                0.4151257190000593,
                0.6616572831606166,
                0.5284513539782256,
                0.07524999999999998,
                0.0852354,
                0.6616572831606166,
                0.6616572831606166,
                0.6616572831606166,
                0.6616572831606164,
                0.43791002194479856,
                0.03220551630994767,
                0.6616572831606166,
                0.5540232901660722,
                0.47970739216889424,
                0.6616572831606166,
                0.06504437349231637,
                0.1942483653172161,
                0.4497632133822085,
                0.36948136673488763,
                0.031818637773337134,
                0.28929194358740173,
                0.3991700531556861,
                0.039989962427971426,
                0.31573768571649213,
                0.2904223846795568,
                0.6616572831606166,
                0.0968128971871377,
                0.6616572831606164,
                0.6616572831606166,
                0.3774811317116908,
                0.6616572831606167,
                0.5374493862161263,
                0.44175714335505795,
                0.30782050230718117,
                0.45690264625225097,
                0.18848128979205878,
                0.6616572831606167,
                0.15550238106299638,
                0.6616572831606164,
                0.5109654404790278,
                0.19908441611643987,
                0.16132291085313,
                0.2541363732707431,
                0.13531517105692234,
                0.03220558141168232,
                0.6616572831606166,
                0.29145418005716306,
                0.4963041090940208,
                0.031818484372894036,
                0.32856453137559827,
                0.6616572831606166,
                0.04239631721106052,
                0.08168443149853871,
                0.21100441435956893,
                0.6616572831606166,
                0.032205745477859746,
                0.6616572831606167,
                0.07524999999999998,
                0.4540340342908505,
                0.6616572831606166,
                0.6616572831606167,
                0.24642100058549293,
                0.6616572831606166,
                0.6616572831606166,
                0.6616572831606166,
                0.6616572831606166,
                0.3944717165323608,
                0.4360644438912758,
                0.6616572831606164,
                0.6616572831606167,
                0.48906055278098143,
                0.1298974981642963,
                0.17240844203835248,
                0.6616572831606166,
                0.20908210837712438,
                0.6616572831606164,
                0.6616572831606166,
                0.2004078904860805,
                0.03631690822617814,
                0.6616572831606166,
                0.6616572831606166,
                0.6616572831606166,
                0.368119388243905,
                0.2867018981287227,
                0.6616572831606166,
                0.03181845090717235,
                0.6616572831606166,
                0.0322057518868947,
                0.03935658628541544,
                0.4382660658638717,
                0.6616572831606166,
                0.44191132024786306,
                0.6616572831606166,
                0.17492797014704117,
                0.21913792638348736,
                0.17848022666184585,
                0.5280892054307837,
                0.6616572831606166,
                0.25906960543785157,
                0.03129789418296278,
                0.6616572831606167,
                0.18055776351295877,
                0.21125243454822348,
                0.03648688625492136,
                0.04362222985889823,
                0.032205502001521134,
                0.6616572831606166,
                0.45692727969034114,
                0.6616572831606166,
                0.6616572831606164,
                0.6616572831606164,
                0.5579290083841152,
                0.07524999999999998,
                0.4604987065139119,
                0.10428275272923593,
                0.07525000000000001,
                0.3013650166006422,
                0.165033235000949,
                0.47311937908696033,
                0.003051775349364561,
                0.10450172011485648,
                0.2845339253775035,
                0.5307098647043049,
                0.03639219466587206,
                0.4759622927233431,
                0.017347514221959015,
                0.6616572831606164,
                0.6616572831606167,
                0.6616572831606166,
                0.6616572831606166,
                0.6616572831606166,
                0.6616572831606167,
                0.6616572831606166,
                0.21013560317091762,
                0.01706280702187335,
                0.6616572831606166,
                0.6616572831606164,
                0.19043664743337685,
                0.6616572831606166,
                0.03220565126116292,
                0.1300162472293278,
                0.14818114729575227,
                0.6616572831606167,
                0.6616572831606166,
                0.6616572831606167,
                0.08523539999999999,
                0.028237632459664822,
                0.29060155949613203,
                0.032205682031931776,
                0.6616572831606166,
                0.6616572831606166,
                0.6616572831606164,
                0.6616572831606166,
                0.6616572831606167,
                0.6616572831606166,
                0.5028151099574454,
                0.6616572831606167,
                0.250578238149869,
                0.2776770206759947,
                0.0322054155281317,
                0.6616572831606164,
                0.6616572831606167,
                0.4900376888384131,
                0.6616572831606164,
                0.46267846268351653,
                0.6616572831606166,
                0.6616572831606167,
                0.6616572831606166,
                0.6616572831606166,
                0.061693495739794435,
                0.18275227901706903,
                0.007339985170430607,
                0.6616572831606167,
                0.6616572831606167,
                0.21891129690621564,
                0.06542301529497618,
                0.6616572831606166,
                0.4866837326389933,
                0.4576478943154276,
                0.0052624392079513305,
                0.0852354,
                0.6616572831606167,
                0.6616572831606166,
                0.6616572831606164,
                0.33745349789566986,
                0.6616572831606166,
                0.42537246101152903,
                0.6616572831606167,
                0.4703853007116009,
                0.39958334752209224,
                0.45147067991690193,
                0.23959112759682905,
                0.04725360799598566,
                0.10919356377912748,
                0.07525,
                0.3151527476958274,
                0.4924329469782831,
                0.14947786322229767,
                0.16295337582138403,
                0.6616572831606166,
                0.6616572831606166,
                0.2178953277290954,
                0.6616572831606167,
                0.6616572831606166,
                0.04423438645792721,
                0.03220535721497511,
                0.032205569630661846,
                0.0847407,
                0.4941400570881196,
                0.16899187722529124,
                0.03220541079160282,
                0.18346085870774353,
                0.0852354,
                0.6616572831606166,
                0.3915218666865828,
                0.44268438764428286,
                0.1395301672302647,
                0.6616572831606166,
                0.25510712096981164,
                0.005951716961248854,
                0.4149412174508912,
                0.6616572831606166,
                0.4846863432384706,
                0.6616572831606164,
                0.5597469308597098,
                0.03112447953569997,
                0.2188532796340495,
                0.20317871085218298,
                0.24966148466869326,
                0.36719584545397715,
                0.11967950000000001,
                0.2997397818878098,
                0.1567277408949831,
                0.03631705975151349,
                0.37297240481185806,
                0.07525,
                0.33377636927436094,
                0.08820239999999999,
                0.031818915138155504,
                0.3363496829469217,
                0.6616572831606167,
                0.341997616109439,
                0.6616572831606167,
                0.6616572831606164,
                0.3488951688152125,
                0.6616572831606166,
                0.03208202248421221,
                0.012333243977176389,
                0.5018335667554612,
                0.6616572831606164,
                0.33370199582562515,
                0.32456653195656937,
                0.6616572831606166,
                0.09324699967991412,
                0.054769728998180126,
                0.6616572831606166,
                0.6616572831606167,
                0.04166062899153375,
                0.6616572831606167,
                0.032205478526484296,
                0.4351719388972777,
                0.03181873044108447,
                0.6616572831606164,
                0.6616572831606166,
                0.12349559385830655,
                0.6616572831606164,
                0.4398616797143594,
                0.028685161845783957,
                0.6616572831606167,
                0.6616572831606167,
                0.0718647326003613,
                0.6616572831606168,
                0.031818578302910266,
                0.6616572831606166,
                0.41502740546280514,
                0.37419109375492093,
                0.5014146485486493,
                0.3866803191725138,
                0.032205794238366586,
                0.6616572831606166,
                0.6616572831606166,
                0.42378633710097247,
                0.6616572831606166,
                0.6616572831606166,
                0.6616572831606167,
                0.028560292070455098,
                0.4482672918055185,
                0.33914968579825083,
                0.6616572831606167,
                0.6616572831606164,
                0.6616572831606166,
                0.03220548318854716,
                0.19485536768423026,
                0.6616572831606166,
                0.6616572831606167,
                0.2805126256635664,
                0.3298999373193086,
                0.6616572831606166,
                0.1401425499141309,
                0.6616572831606164,
                0.6616572831606166,
                0.6616572831606166,
                0.15197642488902752,
                0.37765809430554653,
                0.6616572831606166,
                0.07524999999999998,
                0.6616572831606166,
                0.6616572831606166,
                0.6616572831606166,
                0.04473250000000001,
                0.13785588227115275,
                0.37379952710110553,
                0.6616572831606167,
                0.6616572831606167,
                0.1482824692637014,
                0.17707762927629356,
                0.6616572831606166,
                0.6616572831606166,
                0.6616572831606166,
                0.03181868893307298,
                0.6349648788949811,
                0.2739480689360305,
                0.6616572831606167,
                0.06749307488763012,
                0.313282227713385,
                0.2375169750163086,
                0.6616572831606166,
                0.08523539999999999,
                0.3900673835721984,
                0.6616572831606166,
                0.6616572831606167,
                0.36672606898600113,
                0.2528359894073804,
                0.07525,
                0.6616572831606166,
                0.6616572831606166,
                0.20684144770477653,
                0.4348122524094393,
                0.6616572831606166,
                0.05301547554465624,
                0.24641842531576202,
                0.4858287698119672,
                0.475492485165129,
                0.16313367626648245,
                0.26032579052705207,
                0.6616572831606166,
                0.6616572831606166,
                0.3457982680925615,
                0.6616572831606167,
                0.6616572831606166,
                0.073039,
                0.03181856308635043,
                0.6616572831606167,
                0.6616572831606164,
                0.38358165458093185,
                0.17182501279851245,
                0.2809502787725771,
                0.6616572831606164,
                0.6616572831606166,
                0.5966305253462514,
                0.3586801473604473,
                0.6616572831606166,
                0.6616572831606166,
                0.5851061892905484,
                0.03220567943373873,
                0.21841534837090051,
                0.6616572831606167,
                0.6616572831606166,
                0.032205786034750224,
                0.16043337028783222,
                0.031818675891829566,
                0.3095485946143848,
                0.2779372838260485,
                0.07525,
                0.35136662361641396,
                0.6616572831606167,
                0.4158651889845685,
                0.4294197797074452,
                0.6616572831606166,
                0.4404017885894976,
                0.3907811894504651,
                0.6616572831606164,
                0.47549981865111524,
                0.03181868642628162,
                0.26061872202272396,
                0.5380590435327101,
                0.32021363264935104,
                0.6616572831606166,
                0.073039,
                0.391769345997824,
                0.3234315087236314,
                0.31625655365458555,
                0.6616572831606164
            ],
            "photocathode": [
                224,
                1560,
                4676,
                3362,
                220,
                531,
                4722,
                4751,
                2548,
                4619,
                516,
                1091,
                4633,
                2854,
                4633,
                262,
                4678,
                2284,
                617,
                4611,
                3016,
                4620,
                4636,
                4733,
                180,
                1736,
                4698,
                4728,
                1370,
                4686,
                304,
                3317,
                2856,
                1656,
                4808,
                4712,
                4686,
                2358,
                2193,
                2551,
                417,
                930,
                2696,
                1068,
                2295,
                230,
                628,
                3331,
                4526,
                4590,
                4626,
                1909,
                2995,
                229,
                4637,
                4723,
                3124,
                2727,
                540,
                4615,
                3281,
                148,
                3054,
                4548,
                1388,
                4587,
                2786,
                2215,
                3118,
                1836,
                4576,
                4584,
                4744,
                3219,
                2091,
                3517,
                530,
                4677,
                209,
                2551,
                2381,
                1282,
                4632,
                324,
                4682,
                4762,
                1799,
                3218,
                2537,
                2438,
                4753,
                4523,
                2185,
                3541,
                4557,
                523,
                4647,
                579,
                4611,
                2168,
                1012,
                3509,
                1848,
                4776,
                392,
                2175,
                4423,
                2976,
                4694,
                3712,
                509,
                613,
                4714,
                4750,
                4745,
                4679,
                3045,
                192,
                4765,
                3986,
                3298,
                4713,
                471,
                1354,
                3068,
                2608,
                210,
                2099,
                2781,
                271,
                2285,
                2084,
                4766,
                661,
                4692,
                4615,
                2638,
                4617,
                3733,
                3087,
                2187,
                3255,
                1327,
                4572,
                1078,
                4646,
                3619,
                1463,
                1120,
                1782,
                985,
                225,
                4746,
                2022,
                3592,
                218,
                2333,
                4743,
                284,
                564,
                1557,
                4608,
                225,
                4840,
                517,
                3212,
                4639,
                4716,
                1721,
                4664,
                4638,
                4592,
                4688,
                2676,
                3016,
                4659,
                4679,
                3472,
                910,
                1201,
                4654,
                1533,
                4787,
                4559,
                1410,
                248,
                4572,
                4594,
                4654,
                2612,
                1979,
                4719,
                227,
                4597,
                213,
                261,
                3014,
                4627,
                3135,
                4513,
                1238,
                1583,
                1260,
                3651,
                4664,
                1842,
                229,
                4761,
                1298,
                1461,
                263,
                287,
                208,
                4732,
                3247,
                4719,
                4604,
                4870,
                3923,
                511,
                3181,
                749,
                524,
                2189,
                1166,
                3314,
                18,
                722,
                1957,
                3707,
                276,
                3218,
                113,
                4800,
                4575,
                4533,
                4505,
                4663,
                4620,
                4590,
                1497,
                113,
                4606,
                4491,
                1319,
                4598,
                213,
                874,
                1069,
                4586,
                4654,
                4594,
                564,
                204,
                2108,
                234,
                4787,
                4594,
                4528,
                4751,
                4776,
                4739,
                3534,
                4651,
                1845,
                1974,
                217,
                4637,
                4635,
                3597,
                4589,
                3248,
                4547,
                4614,
                4617,
                4667,
                435,
                1283,
                46,
                4508,
                4593,
                1464,
                462,
                4666,
                3512,
                3230,
                42,
                561,
                4571,
                4701,
                4741,
                2420,
                4693,
                3055,
                4583,
                3270,
                2819,
                3158,
                1683,
                334,
                771,
                516,
                2263,
                3369,
                1060,
                1061,
                4587,
                4577,
                1512,
                4589,
                4692,
                317,
                234,
                217,
                572,
                3477,
                1181,
                219,
                1250,
                591,
                4661,
                2773,
                3251,
                912,
                4543,
                1845,
                39,
                2818,
                4570,
                3436,
                4775,
                3880,
                224,
                1460,
                1420,
                1776,
                2526,
                858,
                2117,
                1124,
                227,
                2590,
                511,
                2289,
                590,
                223,
                2391,
                4613,
                2352,
                4661,
                4573,
                2525,
                4641,
                230,
                89,
                3563,
                4558,
                2399,
                2296,
                4651,
                676,
                348,
                4611,
                4721,
                319,
                4762,
                233,
                3055,
                216,
                4590,
                4503,
                850,
                4550,
                3077,
                222,
                4657,
                4712,
                493,
                4709,
                241,
                4730,
                2983,
                2768,
                3445,
                2801,
                207,
                4583,
                4591,
                2924,
                4595,
                4625,
                4735,
                198,
                3158,
                2392,
                4598,
                4638,
                4577,
                196,
                1320,
                4726,
                4566,
                2053,
                2327,
                4418,
                1005,
                4731,
                4576,
                4645,
                1078,
                2529,
                4495,
                505,
                4691,
                4664,
                4771,
                337,
                1026,
                2562,
                4725,
                4731,
                1005,
                1160,
                4638,
                4576,
                4525,
                213,
                4403,
                1873,
                4612,
                445,
                2261,
                1592,
                4609,
                576,
                2734,
                4618,
                4648,
                2639,
                1760,
                548,
                4537,
                4608,
                1447,
                3040,
                4733,
                331,
                1794,
                3476,
                3406,
                1182,
                1882,
                4718,
                4690,
                2384,
                4796,
                4598,
                493,
                215,
                4637,
                4765,
                2689,
                1266,
                1982,
                4503,
                4650,
                4227,
                2543,
                4752,
                4639,
                4212,
                213,
                1575,
                4611,
                4764,
                235,
                1124,
                236,
                2133,
                1950,
                530,
                2415,
                4813,
                2927,
                2956,
                4612,
                3149,
                2799,
                4745,
                3336,
                218,
                1895,
                3593,
                2326,
                4572,
                521,
                2730,
                2208,
                2206,
                4716
            ]
        },
        "detections": 500,
        "events": 116843
    }
}