{
    "job_args": {
        "metric_limit": 500,
        "seed": 2462291592
    },
    "job_id": "batch_126_do_500",
    "result": {
        "collections": {
            "crystal": [
                0.4114194784714178,
                0.6555581070211605,
                0.05100764733728891,
                0.03440579708545821,
                0.2899034966003353,
                0.6616572831606166,
                0.031818482929528116,
                0.0876557,
                0.6616572831606167,
                0.07524999999999998,
                0.6616572831606167,
                0.6616572831606167,
                0.6616572831606166,
                0.6616572831606164,
                0.3689075285270008,
                0.2210135197946941,
                0.3309411048357349,
                0.0876557,
                0.03181885372499296,
                0.26792901762748167,
                0.6616572831606167,
                0.027089917735240054,
                0.6616572831606166,
                0.14727126044442929,
                0.47332360146221086,
                0.6616572831606164,
                0.03162167867989429,
                0.055174197331517516,
                0.2366572963904944,
                0.6616572831606166,
                0.24143388169393543,
                0.1866719564078201,
                0.4918435538337801,
                0.35921149906591143,
                0.07275683582646407,
                0.11221816535605833,
                0.6616572831606166,
                0.6616572831606167,
                0.06081220401731546,
                0.07524999999999998,
                0.032205443531881824,
                0.6616572831606164,
                0.6616572831606166,
                0.07524999999999998,
                0.23351673602743078,
                0.15402111928495787,
                0.37130142648381015,
                0.6616572831606166,
                0.23300331444198702,
                0.47408094475772433,
                0.46259449163309385,
                0.6616572831606166,
                0.4451990538363719,
                0.03181869057929201,
                0.16701975862753465,
                0.08734754863903005,
                0.6616572831606167,
                0.08523539999999999,
                0.6616572831606164,
                0.03220561369477703,
                0.6616572831606166,
                0.031818460468413155,
                0.6616572831606166,
                0.017207215430333482,
                0.3772685417200106,
                0.03220576097655915,
                0.4809062049663222,
                0.6616572831606164,
                0.6616572831606166,
                0.11235061257331647,
                0.016340858071132062,
                0.38679929291167653,
                0.023921664420744726,
                0.6616572831606166,
                0.6616572831606164,
                0.6616572831606166,
                0.6616572831606167,
                0.2605208659208763,
                0.6616572831606166,
                0.6616572831606167,
                0.6616572831606167,
                0.6616572831606167,
                0.6616572831606166,
                0.041880119805633276,
                0.6616572831606166,
                0.363376915996824,
                0.46468248413389013,
                0.6616572831606167,
                0.2394194417636774,
                0.37254069157846637,
                0.6616572831606166,
                0.29062662257211314,
                0.4217404857648623,
                0.6616572831606166,
                0.07140849391581072,
                0.17171384750473973,
                0.1647861713908013,
                0.6616572831606164,
                0.6616572831606166,
                0.21995048975619455,
                0.19075212967970018,
                0.08523539999999999,
                0.03181887670642271,
                0.33904604145410244,
                0.6616572831606167,
                0.6616572831606164,
                0.1681458616439942,
                0.3048433063269746,
                0.6616572831606166,
                0.6616572831606166,
                0.4998069409722337,
                0.24566050672205103,
                0.6616572831606164,
                0.6616572831606164,
                0.6616572831606166,
                0.43703833484981736,
                0.03220571439361557,
                0.17092268897401827,
                0.6616572831606166,
                0.6616572831606166,
                0.271977712989752,
                0.07524999999999998,
                0.29276415501275915,
                0.11711171267397084,
                0.0028464563033487877,
                0.6616572831606167,
                0.6616572831606166,
                0.3066390923061148,
                0.17637296664456614,
                0.40438096147304803,
                0.6616572831606167,
                0.2924193220011757,
                0.43838417496346554,
                0.22536569455081323,
                0.057625155925947746,
                0.6616572831606164,
                0.15938886821571807,
                0.07816503193101954,
                0.6616572831606167,
                0.0919760985506235,
                0.29070525559070226,
                0.43210999479019435,
                0.48884419026660203,
                0.03181853882229782,
                0.34960715255746355,
                0.3357086594801655,
                0.48320076575049925,
                0.6616572831606167,
                0.6616572831606166,
                0.6616572831606167,
                0.27505281946537463,
                0.3245859117854975,
                0.06421906804269917,
                0.6616572831606164,
                0.11551794869864884,
                0.6616572831606164,
                0.6616572831606164,
                0.6616572831606167,
                0.6616572831606166,
                0.6616572831606167,
                0.6616572831606164,
                0.19831300150135184,
                0.6616572831606167,
                0.09125298142430949,
                0.14546560287434776,
                0.21823069308818785,
                0.08849867006087675,
                0.6616572831606164,
                0.03166238051304624,
                0.4648711139570716,
                0.18823280210812512,
                0.16997720764114127,
                0.4899394609642077,
                0.26658069410286755,
                0.6616572831606166,
                0.4051256330665407,
                0.193310464311354,
                0.6616572831606163,
                0.4531762593120744,
                0.39377907934533407,
                0.6616572831606166,
                0.6616572831606166,
                0.6616572831606166,
                0.6616572831606166,
                0.0322053761510777,
                0.17996348951777047,
                0.03639191778078387,
                0.07000118030121205,
                0.20821996636110357,
                0.1764008986065203,
                0.33964117881039724,
                0.032205432588860744,
                0.6616572831606167,
                0.23055718688419025,
                0.15434892955285784,
                0.5134642288833803,
                0.49351195472147374,
                0.5097070210556701,
                0.6616572831606166,
                0.6616572831606167,
                0.24850431796281308,
                0.032205609755114925,
                0.6168476006574451,
                0.03181865937958288,
                0.0852354,
                0.6616572831606166,
                0.36139613196495446,
                0.4481830865154198,
                0.6616572831606166,
                0.00863512439108247,
                0.553697938529548,
                0.6616572831606166,
                0.6616572831606164,
                0.4616043646743515,
                0.6616572831606166,
                0.6616572831606166,
                0.6616572831606164,
                0.4399842944712713,
                0.6616572831606164,
                0.469558280669222,
                0.6616572831606166,
                0.36335487320636173,
                0.09191233719688607,
                0.07387842684767498,
                0.20965062939311446,
                0.21994187112550656,
                0.2742057013127051,
                0.35511548729007647,
                0.08561101440251484,
                0.5112922441303847,
                0.6616572831606166,
                0.07525,
                0.6616572831606164,
                0.37153039004936506,
                0.6616572831606166,
                0.25479027965621837,
                0.6616572831606166,
                0.2816803707714191,
                0.0372605916111665,
                0.005388780686364725,
                0.0177755968014236,
                0.2641578199176205,
                0.6616572831606167,
                0.02951393448185058,
                0.054828658876246966,
                0.031818868497992175,
                0.337663692107505,
                0.6616572831606166,
                0.6616572831606166,
                0.11258003625965056,
                0.6616572831606166,
                0.03639180124882034,
                0.6616572831606166,
                0.6616572831606166,
                0.6616572831606167,
                0.4350458123516686,
                0.03181861698123868,
                0.38433626242875063,
                0.6616572831606164,
                0.19250382308463154,
                0.1610303807448061,
                0.3244547966374484,
                0.6616572831606167,
                0.6616572831606164,
                0.6616572831606166,
                0.48386111008745236,
                0.14391277752473186,
                0.44508098607128305,
                0.031818626072543384,
                0.031818848794851966,
                0.08523540000000002,
                0.03484271351049933,
                0.6616572831606166,
                0.6616572831606166,
                0.26165575830614973,
                0.23596939795086963,
                0.4971360009421203,
                0.18434426198467369,
                0.6616572831606166,
                0.6616572831606166,
                0.6616572831606167,
                0.07525,
                0.6616572831606166,
                0.03220573494895573,
                0.26091089098146586,
                0.6616572831606166,
                0.6616572831606166,
                0.03181874832851425,
                0.6616572831606166,
                0.03724468140468559,
                0.07303899999999999,
                0.4510464915080225,
                0.07303899999999999,
                0.3240351592179917,
                0.1539460107831735,
                0.1423790068154125,
                0.34108000688075746,
                0.6616572831606167,
                0.116635448531071,
                0.6616572831606167,
                0.20592911650929022,
                0.06027110138600473,
                0.6616572831606167,
                0.3279703678965795,
                0.04482738219467419,
                0.6616572831606166,
                0.5029460744318706,
                0.6616572831606166,
                0.4161617785460674,
                0.06310975350329284,
                0.3149423904651142,
                0.6616572831606167,
                0.44465350136899906,
                0.6616572831606166,
                0.6616572831606166,
                0.16171163050223977,
                0.03220541932506743,
                0.34608497395163634,
                0.21286802193017298,
                0.6616572831606164,
                0.3534492623208822,
                0.3379853631415299,
                0.6616572831606166,
                0.6616572831606164,
                0.6616572831606164,
                0.1408809032581,
                0.0318186264458791,
                0.036316639811620026,
                0.6616572831606166,
                0.12315993283823125,
                0.6616572831606166,
                0.16099134246537317,
                0.44646000663090907,
                0.6616572831606167,
                0.6616572831606166,
                0.6616572831606163,
                0.33916338045983263,
                0.06208502710974569,
                0.39835357940045674,
                0.6616572831606164,
                0.32062918485818115,
                0.6616572831606164,
                0.19690135873953285,
                0.07558625421240839,
                0.6616572831606167,
                0.6616572831606167,
                0.03181879167666278,
                0.3959687185213153,
                0.6616572831606166,
                0.2332053863527408,
                0.17965970714128277,
                0.6616572831606164,
                0.30572259956936587,
                0.4710789166598021,
                0.6616572831606166,
                0.0684126575695172,
                0.4567179917444286,
                0.04664049999999999,
                0.6616572831606167,
                0.6616572831606166,
                0.6616572831606166,
                0.19320569981215488,
                0.6616572831606166,
                0.6616572831606166,
                0.2759279766126702,
                0.6616572831606166,
                0.07524999999999998,
                0.4404861320446147,
                0.048439440200697015,
                0.6616572831606164,
                0.03013294219665863,
                0.6616572831606164,
                0.3013024145763204,
                0.17445572093467462,
                0.6616572831606166,
                0.6616572831606167,
                0.6616572831606164,
                0.6616572831606164,
                0.05637990867138587,
                0.15690368247147418,
                0.010264860061171666,
                0.6616572831606164,
                0.6616572831606167,
                0.2330594267852301,
                0.4705191594684671,
                0.4779840988659195,
                0.6616572831606167,
                0.6616572831606164,
                0.2277203698519287,
                0.466923932262105,
                0.6616572831606166,
                0.1583169168834494,
                0.008865340247904087,
                0.27868434137554876,
                0.6616572831606166,
                0.6616572831606166,
                0.6616572831606164,
                0.2762975935364486,
                0.36836396693363427,
                0.3117598279010524,
                0.6616572831606166,
                0.6616572831606166,
                0.029706434866990816,
                0.3810993468958008,
                0.6616572831606164,
                0.6616572831606166,
                0.6616572831606166,
                0.6616572831606166,
                0.38352888229676757,
                0.08654913040673362,
                0.23577768793132478,
                0.6616572831606164,
                0.6616572831606164,
                0.6616572831606164,
                0.09923585008946623,
                0.3105377843200331,
                0.6616572831606166,
                0.6616572831606164,
                0.6616572831606167,
                0.4095924176936879,
                0.6616572831606167,
                0.28503518621392865,
                0.0847407,
                0.39764221146569584,
                0.16994115302280993,
                0.023101219022147568,
                0.3714289699348064,
                0.6616572831606167,
                0.4453466307736252,
                0.2932544435942846,
                0.125916600916269,
                0.6616572831606166,
                0.06481344538859946,
                0.6616572831606166,
                0.6616572831606166,
                0.11043417810024958,
                0.6616572831606167,
                0.6616572831606167,
                0.17876695684967728,
                0.6616572831606166,
                0.6616572831606167,
                0.6616572831606166,
                0.5015870916602815,
                0.6616572831606166,
                0.032205604707067445,
                0.6616572831606164,
                0.6616572831606164,
                0.6616572831606166,
                0.6616572831606164,
                0.25584236283366485,
                0.4922999800877962,
                0.16060386514533642,
                0.33459267019308614,
                0.06949555082958536,
                0.6616572831606164,
                0.383215595989011,
                0.05293748497873185,
                0.073039,
                0.40297109833497075,
                0.2306176837196871,
                0.07527851405001806,
                0.032205781940215256,
                0.30062361031132995,
                0.6616572831606164,
                0.21108149137690596,
                0.6616572831606167,
                0.6616572831606166,
                0.4131919281517372,
                0.01625730988389562,
                0.6616572831606167,
                0.20630202338377937,
                0.07525,
                0.6616572831606164,
                0.6616572831606167,
                0.10918498371889512,
                0.34142945542634895,
                0.6616572831606167,
                0.6616572831606166,
                0.073039,
                0.27044326819807285,
                0.34601456673226666,
                0.30032527611723714,
                0.21202848518468156,
                0.6616572831606166,
                0.29601545699438936,
                0.43267059789637324,
                0.37368923782996255,
                0.14788365545045037,
                0.6616572831606164,
                0.07525,
                0.6616572831606166,
                0.20928423419670122,
                0.03339025948592589,
                0.6616572831606166,
                0.6616572831606164,
                0.0745692453783805,
                0.4427976958162686,
                0.17256423347281186,
                0.03169829097500243,
                0.3824437848358455
            ],
            "photocathode": [
                2832,
                4554,
                371,
                244,
                2029,
                4602,
                221,
                607,
                4626,
                496,
                4622,
                4521,
                4601,
                4524,
                2537,
                1577,
                2414,
                613,
                249,
                1887,
                4642,
                194,
                4552,
                1061,
                3315,
                4596,
                238,
                385,
                1709,
                4764,
                1729,
                1298,
                3566,
                2506,
                524,
                838,
                4695,
                4741,
                437,
                492,
                227,
                4792,
                4409,
                549,
                1704,
                1085,
                2612,
                4613,
                1618,
                3267,
                3336,
                4690,
                3052,
                200,
                1117,
                623,
                4699,
                571,
                4515,
                203,
                4631,
                231,
                4754,
                132,
                2613,
                230,
                3326,
                4613,
                4647,
                823,
                124,
                2658,
                187,
                4656,
                4514,
                4633,
                4593,
                1877,
                4639,
                4535,
                4634,
                4748,
                4598,
                276,
                4703,
                2607,
                3327,
                4718,
                1629,
                2573,
                4789,
                2083,
                3001,
                4740,
                495,
                1179,
                1167,
                4630,
                4603,
                1590,
                1371,
                587,
                211,
                2418,
                4649,
                4591,
                1139,
                2064,
                4688,
                4700,
                3348,
                1721,
                4722,
                4623,
                4613,
                3084,
                242,
                1212,
                4600,
                4692,
                1914,
                501,
                2040,
                814,
                22,
                4621,
                4616,
                2104,
                1230,
                2870,
                4519,
                2140,
                3197,
                1578,
                416,
                4448,
                1071,
                603,
                4545,
                644,
                2002,
                2979,
                3485,
                221,
                2437,
                2341,
                3313,
                4603,
                4737,
                4526,
                1918,
                2305,
                463,
                4513,
                785,
                4507,
                4552,
                4626,
                4608,
                4624,
                4647,
                1439,
                4629,
                680,
                955,
                1477,
                626,
                4513,
                214,
                3297,
                1376,
                1214,
                3525,
                1883,
                4660,
                2923,
                1362,
                4655,
                3190,
                2729,
                4715,
                4693,
                4480,
                4696,
                235,
                1302,
                259,
                528,
                1474,
                1236,
                2555,
                245,
                4684,
                1660,
                1052,
                3638,
                3391,
                3512,
                4591,
                4741,
                1745,
                235,
                4229,
                217,
                644,
                4950,
                2501,
                3146,
                4643,
                60,
                3904,
                4591,
                4813,
                3202,
                4686,
                4654,
                4675,
                3079,
                4568,
                3268,
                4673,
                2616,
                692,
                511,
                1451,
                1551,
                1916,
                2440,
                615,
                3565,
                4685,
                553,
                4700,
                2718,
                4725,
                1748,
                4601,
                1927,
                241,
                37,
                118,
                1706,
                4546,
                192,
                429,
                223,
                2391,
                4657,
                4628,
                803,
                4623,
                244,
                4535,
                4614,
                4647,
                3147,
                217,
                2665,
                4684,
                1406,
                1133,
                2305,
                4665,
                4585,
                4549,
                3485,
                942,
                3025,
                234,
                205,
                560,
                225,
                4733,
                4547,
                1872,
                1622,
                3432,
                1319,
                4796,
                4568,
                4790,
                500,
                4672,
                195,
                1894,
                4738,
                4642,
                194,
                4678,
                275,
                509,
                3172,
                512,
                2187,
                1052,
                1011,
                2467,
                4701,
                816,
                4684,
                1507,
                448,
                4663,
                2378,
                316,
                4546,
                3451,
                4640,
                2862,
                421,
                2213,
                4735,
                3022,
                4725,
                4742,
                1132,
                236,
                2486,
                1479,
                4573,
                2511,
                2373,
                4644,
                4987,
                4522,
                1047,
                212,
                231,
                4760,
                851,
                4734,
                1145,
                3081,
                4445,
                4731,
                4599,
                2407,
                425,
                2786,
                4839,
                2343,
                4586,
                1416,
                562,
                4590,
                4520,
                193,
                2789,
                4844,
                1692,
                1189,
                4596,
                2203,
                3292,
                4636,
                456,
                3194,
                290,
                4629,
                4526,
                4670,
                1322,
                4613,
                4647,
                1927,
                4554,
                530,
                3030,
                374,
                4616,
                201,
                4588,
                2173,
                1245,
                4524,
                4817,
                4706,
                4675,
                375,
                1086,
                78,
                4748,
                4534,
                1644,
                3363,
                3292,
                4736,
                4488,
                1618,
                3284,
                4606,
                1146,
                69,
                1973,
                4638,
                4750,
                4600,
                1911,
                2585,
                2242,
                4507,
                4626,
                240,
                2727,
                4538,
                4712,
                4729,
                4487,
                2689,
                609,
                1654,
                4700,
                4670,
                4681,
                670,
                2267,
                4643,
                4735,
                4625,
                2840,
                4619,
                1904,
                540,
                2716,
                1200,
                173,
                2645,
                4564,
                3230,
                2088,
                843,
                4585,
                441,
                4551,
                4580,
                802,
                4712,
                4509,
                1291,
                4544,
                4565,
                4757,
                3440,
                4731,
                223,
                4655,
                4596,
                4591,
                4763,
                1767,
                3370,
                1151,
                2264,
                460,
                4672,
                2640,
                386,
                534,
                2844,
                1524,
                510,
                217,
                2103,
                4633,
                1514,
                4669,
                4626,
                2904,
                118,
                4474,
                1408,
                505,
                4681,
                4626,
                744,
                2393,
                4757,
                4613,
                538,
                1894,
                2432,
                2074,
                1407,
                4540,
                2035,
                2943,
                2562,
                1052,
                4624,
                545,
                4617,
                1427,
                251,
                4754,
                4657,
                534,
                3073,
                1244,
                234,
                2700
            ]
        },
        "detections": 500,
        "events": 115675
    }
}