{
    "job_args": {
        "metric_limit": 500,
        "seed": 4095020765
    },
    "job_id": "batch_154_do_500",
    "result": {
        "collections": {
            "crystal": [
                0.5109989100000001,
                0.5109989099999999,
                1.0384778987402765,
                0.978985439683956,
                0.4278305538016488,
                0.28464613230189956,
                0.9915640618040235,
                0.5109989100000001,
                0.3844781246323617,
                0.578672425705746,
                0.6026939003794438,
                1.0358825148173088,
                0.2811095213369405,
                0.51099891,
                0.5109989100000001,
                0.43328719370372365,
                0.16847689385786724,
                1.2745373401794642,
                0.1870064962893042,
                1.1250732053893362,
                0.51099891,
                1.2745373401794635,
                0.15619543297710087,
                0.2167241270505236,
                0.51099891,
                0.48238941,
                0.51099891,
                0.6815112915801572,
                0.4175809304102492,
                0.26017443837617693,
                0.33433981166716137,
                0.19291588745850863,
                0.33823878985975186,
                1.2745373401794637,
                0.51099891,
                0.51099891,
                0.3230948454745794,
                0.4142991618779981,
                0.5829053264406553,
                0.6771244436804202,
                0.4918725252248372,
                0.51099891,
                0.17725789795692617,
                0.51099891,
                0.30437676403033087,
                0.13289547869836504,
                0.32767843992238366,
                0.4397050395792191,
                1.2745373401794637,
                0.5337807470670044,
                0.51099891,
                0.49141656296879177,
                1.2745373401794642,
                0.988239229642765,
                0.51099891,
                0.29343383857468663,
                0.5857982845729843,
                0.9030938415905746,
                1.2745373401794642,
                0.3752711955080482,
                0.51099891,
                0.51099891,
                0.5783705996712012,
                0.08197020902367115,
                0.51099891,
                0.2932327548224801,
                1.274537340179464,
                0.4152907205134874,
                0.51099891,
                0.20824004273142624,
                0.21393120121187345,
                0.24542560797175778,
                0.6073151295460864,
                0.06673136712877241,
                0.51099891,
                0.5109989099999999,
                0.555324503809683,
                0.51099891,
                0.205637147918887,
                0.9714381337544091,
                0.29161200588807606,
                1.2745373401794637,
                0.09484100472856039,
                1.0597829670305803,
                0.07525,
                0.2743446624013439,
                0.4184300714439719,
                0.4022625697767817,
                0.37742462809415256,
                1.274537340179464,
                1.274537340179464,
                0.1774435156030723,
                1.059176373685895,
                0.33474714731180377,
                0.08871161654448462,
                0.29713413438451963,
                1.0370554724328953,
                0.40706469389950706,
                0.2288475791304441,
                0.7053584304193393,
                0.28328876804249276,
                0.5109989100000001,
                0.26472369655856,
                0.51099891,
                0.1840016946453238,
                1.274537340179464,
                0.14093855604710576,
                0.31103731514242156,
                0.48468261973840215,
                0.27831723225409055,
                1.2745373401794642,
                0.51099891,
                0.2969957348070079,
                0.51099891,
                1.274537340179464,
                0.5109989099999999,
                0.7650928112059597,
                1.274537340179464,
                0.2528281438735076,
                0.08761676157204212,
                1.0174250291387192,
                0.5991718918271628,
                0.51099891,
                0.0466405,
                0.1565444751573349,
                0.06589444608480455,
                0.4509768920984371,
                0.5052600906737574,
                0.4107555558725192,
                0.20461771399853268,
                0.37929120572000863,
                0.5109989100000001,
                0.18339195671661335,
                0.5109989099999999,
                0.8174424784545655,
                0.51099891,
                0.2555907353971519,
                0.33373760170860517,
                0.51099891,
                0.5109989099999999,
                0.08053518628172229,
                0.6530584590902484,
                0.6346507289799471,
                0.38632855043783243,
                0.9551797136891079,
                0.856626966846832,
                0.5898935776775553,
                0.8669811243345696,
                0.7518050774613618,
                0.851729958769829,
                0.5109989100000001,
                0.309505971299872,
                0.5109989099999999,
                0.07382306679313516,
                0.2387145206084209,
                0.51099891,
                1.0208432627911839,
                0.47704377246830293,
                0.08479176024390067,
                0.51099891,
                1.274537340179464,
                0.07088726719855154,
                1.274537340179464,
                0.3401649597411493,
                0.8829864800265796,
                0.08628956774033902,
                0.5109989099999999,
                0.07525000000000001,
                0.07303899999999999,
                0.5380540659989691,
                0.5109989099999999,
                0.2409693362382994,
                0.51099891,
                0.7632373042375425,
                0.9633935342263046,
                0.4342781653180089,
                0.3607186995438841,
                0.5109989100000001,
                0.023547873662064733,
                0.33978579938766507,
                1.2745373401794637,
                0.51099891,
                0.5318326676884859,
                0.5580498530669595,
                1.1416046500565782,
                0.51099891,
                0.20345590914053407,
                0.31016263210434336,
                1.2745373401794642,
                1.274537340179464,
                0.51099891,
                0.6257725824082654,
                0.51099891,
                0.4992294559285213,
                0.51099891,
                0.5109989099999999,
                0.51099891,
                0.40302250260129235,
                0.0882024,
                1.2745373401794637,
                1.0975469549798949,
                0.05383025089301502,
                0.04518929319336782,
                0.7657889099062849,
                0.019332178932224275,
                0.44570304607701094,
                0.10261125013814484,
                0.7591138016511776,
                0.952581667288981,
                0.5109989100000001,
                0.3957596872548682,
                0.08291469417417074,
                1.2745373401794644,
                1.0144433031375175,
                0.07524999999999998,
                0.6998352561082903,
                0.51099891,
                0.5618699016750518,
                0.51099891,
                0.4741986062956265,
                0.51099891,
                0.3387027475103147,
                1.274537340179464,
                0.51099891,
                1.274537340179464,
                0.0466405,
                0.9709082223701884,
                0.46957812247833053,
                0.7285537981487071,
                0.51099891,
                0.23197271487194082,
                0.51099891,
                0.51099891,
                0.51099891,
                0.43226670631323016,
                0.18869323620632855,
                1.274537340179464,
                1.274537340179464,
                0.35958986548043026,
                0.761023642392214,
                0.2241627826422521,
                0.5748150296286532,
                0.296303353906418,
                0.07852072319828869,
                0.7308350961855687,
                0.51099891,
                0.021089070450821812,
                0.51099891,
                1.0838471723930774,
                0.4590010873238405,
                0.51099891,
                0.12248419282894829,
                0.06922232641077347,
                0.19290271578236562,
                0.6101993806964603,
                0.3981136205149789,
                1.274537340179464,
                0.8681270632271936,
                0.4039805191364212,
                1.274537340179464,
                0.51099891,
                0.2573356617580834,
                0.001900101305706059,
                0.965583869885681,
                0.51099891,
                1.274537340179464,
                0.5109989100000001,
                0.51099891,
                0.5246034233336341,
                0.51099891,
                1.2222565388387912,
                0.012109171539051056,
                1.274537340179464,
                0.39246912684340407,
                0.06972691480842919,
                0.5578734562014065,
                0.5060639127974192,
                0.5109989100000001,
                0.51099891,
                0.07524999999999998,
                0.46783805077189833,
                0.51099891,
                1.274537340179464,
                0.20840657237804555,
                0.51099891,
                0.2862528955784685,
                0.8135975196254196,
                0.1068003785370536,
                0.049828562091440265,
                0.6190804557119628,
                0.15434096890948876,
                0.51099891,
                0.5109989099999999,
                0.30413497863668804,
                0.17664887255091505,
                0.51099891,
                0.2834442630728728,
                0.12230346418637689,
                1.274537340179464,
                0.5021876441501089,
                0.027517162141483587,
                0.38094548625128954,
                0.1432675575794848,
                0.7108211702977925,
                0.28317578181754455,
                0.5109989099999999,
                0.26875542409257824,
                0.268308746256905,
                1.274537340179464,
                0.11129296220429535,
                0.5109989100000001,
                0.661266569199401,
                0.9053958440779011,
                0.3063128736869452,
                0.03853806247168462,
                1.274537340179464,
                0.8894511786252416,
                0.8719853154383799,
                0.35402403242242514,
                0.35404734080298605,
                0.51099891,
                0.6170496064418132,
                1.2745373401794637,
                0.51099891,
                1.0129317993412519,
                0.5792254730238061,
                0.04469279195226539,
                0.294147251766468,
                0.5109989099999999,
                0.51099891,
                0.3710994151450539,
                0.03766788261916276,
                0.5109989100000001,
                0.734602735696212,
                0.51099891,
                0.46554222300470344,
                0.4281756855660583,
                0.054550663853133896,
                1.274537340179464,
                0.51099891,
                0.51099891,
                0.6748818119697079,
                0.31264932682371255,
                0.5109989099999999,
                0.49056117928897364,
                0.36613402302737885,
                0.467204836703914,
                0.05896956307192158,
                0.28989612562436795,
                0.50437870459044,
                1.274537340179464,
                0.45131075217356037,
                0.36986055015331265,
                0.27433576696781437,
                0.06386584813049256,
                0.4427499379652615,
                0.8090454493612032,
                0.8396004482381052,
                0.6609251545110721,
                0.21674018197837167,
                0.040149396389341785,
                0.9980642200937518,
                0.3197023833226339,
                0.51099891,
                1.14437755284172,
                0.015333064173583155,
                0.5329086068013225,
                0.06494697398726806,
                1.274537340179464,
                0.5109989100000001,
                0.5109989099999999,
                0.40538638220282397,
                1.2745373401794642,
                0.588738355275582,
                0.15755073669240624,
                0.22285337761903448,
                0.51099891,
                0.51099891,
                0.7949018413923667,
                1.2745373401794644,
                0.11177909498179456,
                1.056375280033616,
                1.2745373401794642,
                1.2745373401794637,
                0.42932775130574313,
                0.1484315109169656,
                0.28320849509692925,
                0.7914217270816927,
                0.019999337435505415,
                0.7164394328117827,
                0.3769326676615644,
                0.6016975374215828,
                0.38022239723911266,
                0.41468336963478414,
                0.17567315438023187,
                0.2807472571924504,
                0.51099891,
                0.08474070000000002,
                0.29281525836733924,
                0.51099891,
                1.2745373401794637,
                0.14335522139577733,
                1.0224549311616535,
                1.274537340179464,
                0.07524999999999998,
                1.2745373401794642,
                0.45515819161963617,
                0.5109989100000001,
                0.35556267994335883,
                0.2591171442028104,
                0.0529412,
                0.747026352045876,
                0.63767505743747,
                1.7741046802436482,
                0.4911139867647413,
                1.2745373401794642,
                0.51099891,
                0.5109989099999999,
                0.8856330082214443,
                1.2745373401794642,
                0.5109989100000001,
                0.8484729424005365,
                0.51099891,
                0.51099891,
                0.38748934150816794,
                0.51099891,
                1.16565710544529,
                0.4872248702250755,
                0.11740333142002148,
                0.21470924434472155,
                0.5109989099999999,
                0.04888680529689138,
                0.51099891,
                0.5109989099999999,
                0.51099891,
                0.35124438987735357,
                0.51099891,
                0.23866660415620286,
                0.51099891,
                0.2787031206327293,
                0.51099891,
                0.51099891,
                1.274537340179464,
                0.22075793678280003,
                0.3679473089585441,
                0.21828496578502588,
                1.0467255640579904,
                1.1108059201833795,
                1.274537340179464,
                0.44293984937175823,
                0.51099891,
                0.15345716123593522,
                0.772199448129406,
                0.10362256440773221,
                0.01064399731741894,
                0.4581716106529573,
                0.5109989099999999,
                0.3399127988168265,
                0.4587953112114935,
                1.2745373401794642,
                0.7959909000499487,
                0.07838785729037956,
                0.5109989100000001,
                1.2745373401794642,
                1.274537340179464,
                0.1105803289205474,
                0.51099891,
                0.38838647327055764,
                0.51099891,
                0.5109989099999999,
                1.2745373401794637,
                0.5109989099999999,
                0.9967479990410677,
                1.274537340179464,
                0.5109989100000001,
                0.513144976932774,
                0.51099891,
                0.5109989100000001,
                0.1728399294875782,
                0.24458503937912418,
                0.51099891,
                0.51099891,
                0.51099891,
                0.9032819821621528,
                0.51099891,
                0.749883545014692,
                1.0191254167135888,
                0.5109989100000001,
                0.0798521048775952,
                0.5109989099999999,
                0.5391887394661025,
                1.274537340179464,
                1.2745373401794642,
                0.3214741899006347,
                0.51099891,
                0.38870490052183304,
                0.2634502723409251,
                0.11057577994483125,
                0.18834677750844958,
                0.7241972581900746
            ],
            "photocathode": [
                3667,
                3594,
                7351,
                6835,
                3112,
                2029,
                7122,
                3679,
                2751,
                3986,
                4194,
                7024,
                1971,
                3490,
                3608,
                3013,
                1119,
                9120,
                1397,
                8151,
                3537,
                8813,
                1096,
                1578,
                3670,
                3468,
                3547,
                4836,
                3001,
                1821,
                2372,
                1418,
                2307,
                8903,
                3630,
                3625,
                2280,
                2878,
                4163,
                4820,
                3537,
                3583,
                1249,
                3507,
                2161,
                969,
                2269,
                3073,
                8984,
                3824,
                3473,
                3528,
                8987,
                6956,
                3465,
                2014,
                4317,
                6461,
                8783,
                2634,
                3628,
                3566,
                3991,
                546,
                3573,
                2016,
                8944,
                2946,
                3700,
                1365,
                1508,
                1661,
                4352,
                491,
                3582,
                3567,
                3953,
                3758,
                1470,
                6822,
                1970,
                8848,
                658,
                7351,
                541,
                1952,
                2827,
                2851,
                2676,
                8852,
                8871,
                1228,
                7453,
                2400,
                629,
                2055,
                7320,
                2876,
                1620,
                4966,
                1941,
                3528,
                1893,
                3517,
                1299,
                9094,
                948,
                2206,
                3362,
                1938,
                8713,
                3617,
                2102,
                3622,
                8998,
                3590,
                5396,
                9268,
                1808,
                605,
                7052,
                4234,
                3559,
                368,
                1084,
                466,
                3161,
                3439,
                2980,
                1462,
                2629,
                3623,
                1280,
                3588,
                5691,
                3761,
                1790,
                2425,
                3549,
                3476,
                586,
                4573,
                4436,
                2741,
                6759,
                5975,
                4251,
                6199,
                5384,
                5938,
                3617,
                2195,
                3572,
                504,
                1697,
                3548,
                7316,
                3334,
                607,
                3613,
                8899,
                458,
                9180,
                2313,
                6333,
                618,
                3515,
                538,
                517,
                3772,
                3631,
                1712,
                3643,
                5311,
                6879,
                2907,
                2542,
                3639,
                151,
                2335,
                9013,
                3608,
                3609,
                4000,
                8106,
                3669,
                1397,
                2214,
                8802,
                8854,
                3578,
                4562,
                3623,
                3605,
                3645,
                3551,
                3552,
                2750,
                598,
                8852,
                7770,
                365,
                349,
                5373,
                145,
                3256,
                716,
                5526,
                6836,
                3695,
                2795,
                573,
                9173,
                7137,
                516,
                4879,
                3563,
                3945,
                3654,
                3290,
                3431,
                2307,
                9079,
                3613,
                9096,
                303,
                6799,
                3388,
                5132,
                3610,
                1599,
                3556,
                3601,
                3646,
                2988,
                1348,
                9099,
                8929,
                2498,
                5299,
                1559,
                4057,
                2125,
                522,
                5192,
                3492,
                142,
                3703,
                7651,
                3291,
                3500,
                877,
                437,
                1321,
                4211,
                2790,
                8974,
                6229,
                2835,
                9191,
                3456,
                1772,
                16,
                6823,
                3494,
                9081,
                3591,
                3431,
                3652,
                3621,
                8766,
                86,
                9012,
                2625,
                481,
                3856,
                3575,
                3585,
                3416,
                538,
                3382,
                3608,
                8728,
                1407,
                3503,
                1970,
                5851,
                717,
                353,
                4369,
                1058,
                3654,
                3576,
                2079,
                1268,
                3613,
                1915,
                854,
                8942,
                3474,
                202,
                2725,
                1012,
                4930,
                1926,
                3484,
                1880,
                1846,
                8849,
                762,
                3542,
                4586,
                6412,
                2140,
                267,
                8926,
                6354,
                6323,
                2562,
                2355,
                3546,
                4288,
                8936,
                3558,
                7103,
                3945,
                321,
                1929,
                3624,
                3557,
                2607,
                253,
                3489,
                5113,
                3539,
                3260,
                2952,
                370,
                8840,
                3538,
                3556,
                4797,
                2144,
                3615,
                3483,
                2611,
                3291,
                415,
                1965,
                3445,
                9049,
                3269,
                2565,
                1915,
                430,
                3119,
                5716,
                5879,
                4592,
                1543,
                283,
                6993,
                2295,
                3586,
                8013,
                96,
                3675,
                480,
                9032,
                3428,
                3540,
                2820,
                9024,
                4228,
                1090,
                1550,
                3680,
                3626,
                5550,
                9022,
                757,
                7418,
                8967,
                8848,
                2976,
                1014,
                2025,
                5501,
                150,
                5085,
                2708,
                4349,
                2629,
                2954,
                1227,
                1961,
                3524,
                587,
                1994,
                3622,
                9248,
                980,
                7295,
                9009,
                525,
                9124,
                3180,
                3664,
                2522,
                1796,
                401,
                5215,
                4470,
                12590,
                3377,
                8898,
                3604,
                3525,
                6296,
                8955,
                3616,
                5791,
                3567,
                3562,
                2822,
                3598,
                8186,
                3515,
                777,
                1501,
                3570,
                334,
                3592,
                3554,
                3458,
                2445,
                3550,
                1697,
                3573,
                1975,
                3603,
                3644,
                9098,
                1511,
                2516,
                1557,
                7358,
                7862,
                8633,
                3062,
                3629,
                1094,
                5400,
                699,
                79,
                3165,
                3594,
                2433,
                3245,
                9008,
                5542,
                556,
                3549,
                8768,
                8892,
                734,
                3563,
                2786,
                3618,
                3570,
                8992,
                3599,
                7153,
                8992,
                3595,
                3591,
                3652,
                3552,
                1200,
                1752,
                3614,
                3630,
                3650,
                6510,
                3573,
                5374,
                7190,
                3659,
                561,
                3565,
                3834,
                8769,
                9016,
                2262,
                3522,
                2688,
                1862,
                703,
                1325,
                5026
            ]
        },
        "detections": 500,
        "events": 69662
    }
}