{
    "job_args": {
        "metric_limit": 300,
        "seed": 3429448873
    },
    "job_id": "batch_33_do_300",
    "result": {
        "collections": {
            "crystal": [
                0.51099891,
                0.23752655811467716,
                0.2353931014300703,
                0.018812349010632477,
                0.51099891,
                0.51099891,
                0.18826562000133767,
                0.2318377087475126,
                0.5109989100000001,
                0.1398615270793632,
                0.5109989099999999,
                0.5109989100000001,
                0.5109989100000001,
                0.51099891,
                0.13527310164044679,
                0.3568315414346152,
                0.51099891,
                0.51099891,
                1.2745373401794642,
                0.24985538034251248,
                0.2381672200854207,
                0.374062443904014,
                0.3329977518731606,
                0.51099891,
                0.5533279122343525,
                0.26858434310615603,
                0.3869391967248312,
                0.5109989100000001,
                0.434964647272327,
                0.21719379960395624,
                0.5109989100000001,
                0.4492603641066392,
                0.21070476337770674,
                0.14137376569729945,
                0.5109989100000001,
                1.0596883291253116,
                0.5109989100000001,
                0.5109989100000001,
                0.3085567405709563,
                0.07525000000000001,
                0.2700363228669251,
                0.51099891,
                0.47784450999999994,
                0.22259078503917418,
                1.2745373401794642,
                0.5109989100000001,
                0.5109989099999999,
                0.5109989100000001,
                0.07525,
                0.2896804878291033,
                0.4102304300868339,
                0.442369145307585,
                0.07525,
                0.51099891,
                0.51099891,
                0.31003432917090185,
                0.29242568347151654,
                0.51099891,
                0.51099891,
                0.07113741421275152,
                0.5109989100000001,
                0.2197202687779509,
                0.7842401771607912,
                0.51099891,
                0.07303900000000002,
                0.51099891,
                0.007506247661985477,
                0.51099891,
                0.51099891,
                0.1815311838651618,
                0.06437599389342254,
                0.6279329778400092,
                0.51099891,
                0.5109989099999999,
                0.201936935145927,
                0.5109989100000001,
                0.51099891,
                0.2592837684348503,
                0.062417339373303495,
                0.5109989100000001,
                0.5437161028233698,
                0.07525,
                0.51099891,
                0.7045569260044522,
                0.3327003553893158,
                0.1292072421637343,
                0.2803249107711922,
                0.43051329254737253,
                0.51099891,
                0.1009829893800239,
                0.5109989100000001,
                1.274537340179464,
                0.5109989099999999,
                0.5109989100000001,
                0.059878468252614656,
                0.07525,
                0.1089832182122819,
                0.22490734293583078,
                0.5109989100000001,
                0.32067525646919776,
                1.2745373401794642,
                0.07525000000000001,
                0.51099891,
                0.0852354,
                0.7656358655680102,
                0.6064645716129011,
                0.51099891,
                0.23420890527486773,
                0.5109989099999999,
                1.274537340179464,
                0.51099891,
                0.7146734403420538,
                0.3069100441161797,
                0.0844674046027513,
                0.8123394885196069,
                0.51099891,
                0.86983259767514,
                0.8314254470644372,
                0.5109989099999998,
                0.51099891,
                0.026247490892535703,
                0.5109989099999999,
                0.51099891,
                0.5109989100000001,
                0.3465502648426688,
                0.6181569908361676,
                0.51099891,
                0.5109989100000001,
                0.51099891,
                0.51099891,
                0.5109989099999999,
                0.51099891,
                0.5109989099999999,
                0.5109989100000001,
                0.07495322838257824,
                0.51099891,
                1.274537340179464,
                0.031081363997267495,
                0.32494200904969284,
                0.10461254735293597,
                0.13349195122062826,
                0.2750824731080521,
                0.29974623770745434,
                0.41647214512360836,
                1.274537340179464,
                0.5109989100000001,
                1.0192355229652874,
                0.25188820317231486,
                0.25323530309150166,
                0.3473610897853237,
                0.51099891,
                0.5109989100000001,
                0.5486164388855753,
                0.019447656344584268,
                0.51099891,
                0.5109989099999999,
                0.51099891,
                0.51099891,
                0.51099891,
                0.5158846757173214,
                0.08197998595801032,
                0.16249269498355287,
                0.919199282633813,
                0.21711967334881335,
                0.04486575834201921,
                0.51099891,
                0.51099891,
                1.2745373401794642,
                0.51099891,
                0.51099891,
                0.03763775224691009,
                1.2745373401794637,
                0.51099891,
                0.51099891,
                0.037876964123133725,
                0.291890560799688,
                0.18039905763328,
                0.51099891,
                0.10232091042787608,
                4.426816822870619e-05,
                0.31893101681329056,
                0.5109989100000001,
                1.2745373401794642,
                1.2745373401794637,
                0.17501701141882356,
                0.08494775115263051,
                0.07525,
                0.51099891,
                0.51099891,
                0.6288604753313489,
                0.33726727699094494,
                0.5725752930150042,
                0.25839107699027536,
                0.8582151467930258,
                0.07162707693362297,
                0.26958102947910895,
                0.51099891,
                0.5109989100000001,
                0.5109989100000001,
                0.51099891,
                0.27001764900269987,
                0.5109989099999999,
                0.51099891,
                0.2742922867376726,
                0.10884181333460147,
                0.046272843382722334,
                0.22905305752569952,
                1.274537340179464,
                0.51099891,
                0.5109989100000001,
                0.0876557,
                0.25004625727989305,
                1.274537340179464,
                0.5109989099999999,
                0.51099891,
                0.51099891,
                0.19558023570275174,
                1.2745373401794642,
                0.21833005063907696,
                0.24788797853441985,
                0.5109989100000001,
                0.30628130744809173,
                0.51099891,
                1.0403235998690332,
                0.5109989099999999,
                0.5109989100000001,
                0.5109989099999999,
                0.0469435,
                0.37078985404357817,
                0.5109989100000001,
                0.32855444367175973,
                0.07290657624848752,
                0.05614280335281174,
                0.51099891,
                0.51099891,
                0.51099891,
                0.2673217735545559,
                0.8554380075135002,
                0.03308649070094253,
                0.08263552276141288,
                0.14730592764847616,
                0.5109989100000001,
                0.5853494296698623,
                0.10543489850447023,
                0.5109989100000001,
                0.3301629895433508,
                0.3057433816943417,
                0.51099891,
                0.51099891,
                0.06246811435270992,
                0.51099891,
                0.26024486211470377,
                0.51099891,
                0.18069565950813243,
                0.51099891,
                0.5109989099999999,
                0.6534420723410868,
                0.51099891,
                0.5109989100000001,
                1.274537340179464,
                0.51099891,
                0.3052351517073446,
                0.447716737819956,
                0.4881293721265189,
                0.51099891,
                0.24465788478063194,
                0.5109989100000001,
                0.04493210927884388,
                0.5109989099999999,
                0.51099891,
                0.33522821899929306,
                0.78378610669316,
                0.5109989099999999,
                0.51099891,
                0.51099891,
                0.5109989100000001,
                0.51099891,
                0.51099891,
                0.5109989100000001,
                0.51099891,
                0.1300601093549171,
                1.2745373401794642,
                0.6940239505706981,
                0.51099891,
                0.51099891,
                0.51099891,
                0.3019159716146245,
                0.51099891,
                0.47183033736539215,
                0.51099891,
                0.51099891,
                0.06351106190109523,
                0.38375346333089594,
                0.51099891,
                0.51099891,
                0.13640673501273293,
                1.274537340179464,
                0.51099891,
                0.3127032229572479,
                1.274537340179464
            ]
        },
        "detections": 300,
        "events": 14818
    }
}