{
    "job_args": {
        "metric_limit": 300,
        "seed": 645435046
    },
    "job_id": "batch_62_do_300",
    "result": {
        "collections": {
            "crystal": [
                0.3546464448799621,
                0.32042792149342786,
                0.51099891,
                0.51099891,
                0.3075142648485989,
                0.7656103713124989,
                0.51099891,
                0.073039,
                0.5109989100000001,
                0.51099891,
                0.5109989100000001,
                0.07065533840086771,
                0.23971242637065102,
                0.40942757442265443,
                1.274537340179464,
                0.2291834429050906,
                0.653768665363164,
                0.51099891,
                0.052978034317039326,
                0.2950367261734026,
                0.6384719796536035,
                0.15168943186356157,
                0.5109989099999999,
                0.51099891,
                0.07525,
                1.2745373401794637,
                0.1602466429111173,
                0.51099891,
                0.51099891,
                0.51099891,
                0.1443380000438034,
                0.5642199786420136,
                0.15055006798898035,
                0.4211596702951745,
                0.51099891,
                1.2745373401794637,
                0.4576889650054269,
                0.5695987476593625,
                0.5109989100000001,
                0.728021721836751,
                0.4218560288864367,
                0.25808189798385434,
                0.22156707111486296,
                1.274537340179464,
                1.0394020220253013,
                0.5109989099999999,
                0.5109989100000001,
                0.13211267198340915,
                0.5109989100000001,
                0.3921176222038696,
                0.4872879807200175,
                0.51099891,
                0.581458394044031,
                0.06351839305343612,
                0.05179435706627126,
                0.51099891,
                0.724866021409317,
                0.51099891,
                0.30069202062648676,
                0.29181298008466683,
                0.5109989099999999,
                0.51099891,
                0.23210214303106383,
                0.6027799186285271,
                0.0875963329969429,
                1.2745373401794642,
                0.25919311487856966,
                0.053379659455765956,
                0.5109989100000001,
                0.22221998606334287,
                0.51099891,
                0.51099891,
                1.0364368266755921,
                0.288227212161847,
                0.1387983607685639,
                0.21174050205144748,
                0.32289179154575137,
                0.28944964205631024,
                0.3176149458810167,
                0.51099891,
                0.05885573334701622,
                0.51099891,
                0.26938515028143567,
                1.274537340179464,
                1.2745373401794637,
                0.32192936658546617,
                0.5109989099999999,
                0.19926466671349338,
                0.07633962481892108,
                0.5109989100000001,
                0.32572342089361545,
                0.5109989100000001,
                0.5002159679449126,
                0.0840525360442511,
                0.3018110828005237,
                0.5109989099999999,
                0.51099891,
                0.15058012932275205,
                0.3185822436612255,
                0.51099891,
                0.9222165154586006,
                0.5109989099999999,
                0.51099891,
                0.3158582354604389,
                1.241518840179464,
                0.1288567538030275,
                0.5109989099999999,
                0.5976433894872681,
                0.5109989100000001,
                0.3057077052207163,
                0.51099891,
                0.305441820424321,
                0.07525,
                0.321082019430514,
                0.51099891,
                0.0892598444128013,
                0.5109989099999999,
                0.51099891,
                0.08904300577778897,
                0.16867512951360925,
                0.37929902411083427,
                0.2885115492340698,
                0.51099891,
                0.11938161100909371,
                0.5109989100000001,
                0.5109989100000001,
                0.51099891,
                0.3870034063734107,
                0.5290083942856562,
                0.1993951513557674,
                0.51099891,
                0.20282047464980335,
                0.5109989099999999,
                0.5109989099999999,
                1.274537340179464,
                0.51099891,
                0.51099891,
                0.1402192568436216,
                0.07525,
                0.5109989100000001,
                0.51099891,
                0.5264864385193173,
                0.33387278444970947,
                0.51099891,
                1.2745373401794642,
                0.51099891,
                1.2745373401794637,
                0.19229728040198912,
                0.1517255174897586,
                0.5109989099999999,
                0.51099891,
                0.9536981930917293,
                0.51099891,
                0.51099891,
                0.010186416235464811,
                0.18054556656737197,
                0.8011256290014525,
                0.51099891,
                0.015708677944625077,
                0.2775766863753305,
                0.3585026778582096,
                0.7073609552567726,
                0.51099891,
                0.5109989100000001,
                0.5109989099999999,
                0.05904620000000001,
                0.5109989100000001,
                0.28187691939857284,
                0.5109989100000001,
                0.04855574230676585,
                0.037636635951638846,
                0.017730333056740346,
                0.22339553908367552,
                0.5109989099999999,
                0.5109989099999999,
                0.14830505469965655,
                0.073039,
                0.041645355955187716,
                0.18197637989285323,
                0.51099891,
                0.3427572337998078,
                0.15974681898552334,
                0.0882024,
                1.2745373401794637,
                0.2466912981173101,
                1.274537340179464,
                0.3480726825283976,
                0.9001724014360595,
                0.20651341819811525,
                0.51099891,
                0.5109989099999999,
                0.51099891,
                0.25662933207085065,
                0.5109989100000001,
                0.1855912855351057,
                0.51099891,
                0.3348062649321827,
                0.51099891,
                0.012865018121467973,
                0.51099891,
                0.0847407,
                0.51099891,
                0.51099891,
                1.0443864629432782,
                0.5109989100000001,
                0.51099891,
                0.5109989099999999,
                0.7306715790686998,
                0.1571176816055074,
                0.07525,
                0.5109989100000001,
                0.0054862152581200375,
                0.49377699684561255,
                1.274537340179464,
                0.5109989100000001,
                0.07524999999999998,
                0.08843075469801648,
                0.51099891,
                0.5109989100000001,
                0.3090071303165905,
                0.27893870605843346,
                0.48087921822482793,
                0.51099891,
                0.51099891,
                0.26416256476026895,
                0.51099891,
                0.5109989099999999,
                0.51099891,
                1.2745373401794644,
                0.51099891,
                0.1471225010659401,
                0.038197422212362775,
                0.5109989099999999,
                0.5109989099999999,
                0.51099891,
                0.3170746614818012,
                0.51099891,
                0.5109989100000001,
                0.1738123253739327,
                0.2847641419674541,
                1.274537340179464,
                0.5109989100000001,
                0.5109989099999999,
                0.1511545306793422,
                1.2745373401794635,
                0.3266380017377082,
                0.012049004088974738,
                0.25721366826602876,
                0.09764906371153524,
                0.3000561468979934,
                0.51099891,
                0.5109989099999999,
                0.15260251953254061,
                0.1906087016831061,
                0.795768205382406,
                0.14330653414887914,
                0.5109989099999999,
                0.51099891,
                0.5801431780827262,
                1.242300540179464,
                0.5109989099999999,
                0.7007446331624142,
                1.2745373401794642,
                0.5109989099999999,
                0.24975272459034403,
                0.16840191610860208,
                0.5109989099999999,
                0.0852354,
                0.0847407,
                1.274537340179464,
                0.19448144044297155,
                0.7474413825454128,
                0.39624506548275823,
                1.004813380207683,
                0.12400854653397578,
                1.274537340179464,
                0.1925687203049246,
                0.2527290147452117,
                0.3915226896531853,
                0.12618888372242865,
                1.0958986338869359,
                0.18001892814913473,
                0.1700150453843151,
                0.3267120137302071,
                0.5109989100000001,
                0.51099891,
                0.4970823850450534,
                0.51099891,
                0.473519084255459,
                1.274537340179464,
                1.2745373401794637,
                0.51099891,
                0.3511936709775052,
                0.3770352948005548,
                0.51099891,
                0.07525,
                0.4055741100605513,
                0.1800500004732897,
                1.2745373401794642,
                1.2745373401794642
            ]
        },
        "detections": 300,
        "events": 16189
    }
}