{
    "job_args": {
        "metric_limit": 300,
        "seed": 670919068
    },
    "job_id": "batch_175_do_300",
    "result": {
        "collections": {
            "crystal": [
                0.41842373642600683,
                0.51099891,
                0.5109989099999999,
                0.2190631812534778,
                0.0847407,
                0.51099891,
                1.274537340179464,
                1.274537340179464,
                0.5109989099999999,
                0.5109989100000001,
                0.51099891,
                0.2781334403439375,
                1.274537340179464,
                0.51099891,
                0.51099891,
                0.51099891,
                0.48238941,
                0.5109989099999999,
                0.37347285750265957,
                0.51099891,
                1.274537340179464,
                0.3534378158154023,
                1.0593369049008536,
                0.6120034495526867,
                0.5109989100000001,
                0.51099891,
                1.0602644986695582,
                0.51099891,
                0.057708444516371665,
                0.51099891,
                0.5109989099999999,
                0.9608081170577388,
                0.51099891,
                0.51099891,
                0.5109989099999999,
                0.51099891,
                0.37860414576022383,
                0.07129958281764702,
                0.5109989100000001,
                0.275515716154103,
                0.5252353672236167,
                0.2881828879313727,
                0.25081106139991216,
                0.28370204230812435,
                0.7043101074780322,
                0.51099891,
                0.043536295612380316,
                0.8020979438914547,
                1.2745373401794642,
                0.51099891,
                0.323381207611792,
                0.51099891,
                0.51099891,
                0.51099891,
                0.51099891,
                0.51099891,
                0.14442912124891438,
                0.4278962164419913,
                0.13041840022228404,
                0.51099891,
                0.2903764692220236,
                0.29601268003557324,
                0.51099891,
                0.042955799999999995,
                0.007202916835744133,
                0.51099891,
                0.28280089107621614,
                0.51099891,
                0.29165631975267986,
                0.30478790047280824,
                0.20835659640348875,
                0.40230689421978105,
                1.2745373401794637,
                0.15429602620794125,
                0.3566766476533131,
                0.019709144324125624,
                0.51099891,
                0.30988932366103256,
                0.11520039190925081,
                0.5109989100000001,
                0.2890234952395973,
                0.08523540000000002,
                0.0852354,
                0.5109989100000001,
                0.5109989100000001,
                0.0876557,
                0.413782891899464,
                0.3309926098286705,
                0.19194085552550788,
                0.51099891,
                0.51099891,
                0.073039,
                0.6916111276519965,
                0.10884100811248892,
                0.06989178439374777,
                0.21842801665501677,
                0.51099891,
                0.1360976960914703,
                0.2830273909193503,
                0.5109989100000001,
                0.5109989100000001,
                0.51099891,
                0.5109989099999999,
                0.3055007454063245,
                0.24681250259216353,
                0.5109989100000001,
                0.7452427979052003,
                0.2749619482193324,
                0.20686926843167314,
                0.13664462961794363,
                0.11559904968980464,
                0.028265121774477178,
                0.51099891,
                0.51099891,
                0.3345917098066703,
                0.5109989099999999,
                0.4345933072450805,
                0.1158180508598515,
                0.06690052199491739,
                1.2745373401794637,
                0.8875735920154703,
                0.51099891,
                0.5315866195421108,
                0.51099891,
                0.3706492501001292,
                0.51099891,
                0.3302755752098477,
                0.51099891,
                0.07012306013200646,
                0.51099891,
                0.51099891,
                0.51099891,
                1.2745373401794642,
                0.5109989099999999,
                0.51099891,
                0.8073473051020479,
                0.51099891,
                0.11571075446719509,
                0.19754096911800087,
                0.5109989100000001,
                0.5109989100000001,
                0.51099891,
                0.24143661760513876,
                0.51099891,
                1.2745373401794644,
                0.51099891,
                0.5109989100000001,
                0.51099891,
                0.0876557,
                0.5109989100000001,
                0.07525000000000001,
                0.51099891,
                0.7115502277585932,
                0.5109989099999999,
                0.07055043051482748,
                0.5109989100000001,
                0.03916005177473454,
                0.51099891,
                1.2745373401794633,
                0.5109989100000001,
                0.2796301443629005,
                0.2654822139332628,
                0.51099891,
                0.51099891,
                0.5109989099999999,
                0.20230403367785105,
                0.27721108864707616,
                0.5109989100000001,
                0.5109989100000001,
                0.5109989100000001,
                0.6842436298803412,
                0.51099891,
                0.32594841769284566,
                0.51099891,
                0.0525264236266051,
                0.36476861612615924,
                0.5109989099999999,
                0.253380126544945,
                0.05662590000000001,
                0.6275660220650383,
                0.23775484844361944,
                0.7862445514542813,
                0.45385156960571005,
                0.51099891,
                0.51099891,
                0.51099891,
                0.5109989100000001,
                0.087534,
                0.02090091674024376,
                0.22229144476440663,
                0.38027319954092403,
                0.143016737335054,
                0.51099891,
                0.51099891,
                0.3093254162347463,
                0.07418335434218515,
                0.51099891,
                0.51099891,
                0.51099891,
                0.33100517379890637,
                0.51099891,
                0.3579741161759691,
                0.4712800859349071,
                0.26867960425372095,
                0.51099891,
                0.51099891,
                0.51099891,
                0.51099891,
                0.22182114649382906,
                0.47601959880252204,
                1.274537340179464,
                0.073039,
                0.35578143415822366,
                0.7508389904900675,
                0.04473250000000001,
                0.5109989100000001,
                1.274537340179464,
                0.35636164046177654,
                0.51099891,
                0.39644798257595726,
                0.2135092637423512,
                0.51099891,
                0.5109989100000001,
                0.09608135037470071,
                0.5926970219720114,
                0.5109989099999999,
                0.5109989100000001,
                0.51099891,
                0.51099891,
                0.5109989099999999,
                1.057231126995866,
                0.51099891,
                0.51099891,
                0.5109989099999999,
                0.20991619546217305,
                0.24737693796221577,
                0.15149455385501484,
                0.9330288757284428,
                0.5085858336867338,
                0.51099891,
                0.7062396315835491,
                0.51099891,
                0.51099891,
                0.29731978924232927,
                0.5109989100000001,
                0.0736027015262275,
                0.51099891,
                0.5109989099999999,
                0.51099891,
                0.0796103097628706,
                0.5539859272585971,
                0.51099891,
                0.08944625989214869,
                1.274537340179464,
                0.3057191422887919,
                0.25856272791607393,
                0.21758700196643335,
                0.51099891,
                1.2745373401794642,
                0.51099891,
                0.3909659597797792,
                0.27552468362503735,
                0.42115822220789495,
                0.3982156474815822,
                1.2745373401794642,
                0.4435463099071493,
                0.3428073852615742,
                0.34416216863994764,
                0.08445228045987169,
                0.5109989099999999,
                1.0281363739664002,
                0.18264180482808032,
                0.5109989099999999,
                0.3844558781219203,
                0.0852354,
                0.00888904318379804,
                0.51099891,
                0.266565775235458,
                0.51099891,
                0.51099891,
                0.51099891,
                0.51099891,
                0.51099891,
                0.20966729315680677,
                0.2674864093052605,
                0.073039,
                0.5109989100000001,
                0.21648669657164993,
                0.5109989099999999,
                0.21336229381315763,
                0.51099891,
                0.3353276720517197,
                0.14178721238252706,
                0.51099891,
                0.23151491304765787,
                0.2584478793213877,
                0.12756350745258582,
                0.35245250470128076,
                1.2745373401794637,
                0.46898792074656825
            ]
        },
        "detections": 300,
        "events": 15704
    }
}