{
    "job_args": {
        "metric_limit": 300,
        "seed": 2924218987
    },
    "job_id": "batch_246_do_300",
    "result": {
        "collections": {
            "crystal": [
                0.10412308644799702,
                0.5109989100000001,
                1.274537340179464,
                0.22827374702312092,
                0.51099891,
                0.65812395513504,
                0.9943354884877265,
                0.44875050631781443,
                0.51099891,
                0.5109989099999999,
                0.51099891,
                0.24151950582343093,
                0.51099891,
                0.31409518993626284,
                0.3236969742368008,
                0.51099891,
                0.087534,
                1.0741582520203161,
                0.019925579273995325,
                0.15356747978697552,
                0.019001481097751304,
                0.51099891,
                0.38811884375173716,
                0.0805410201197891,
                1.2745373401794637,
                0.51099891,
                0.6968983470342355,
                0.0377568148606178,
                0.21777679869547711,
                0.5109989099999999,
                0.51099891,
                0.51099891,
                0.4674860799600373,
                0.035247506473767565,
                0.07525,
                0.5109989100000001,
                0.12165641036670509,
                0.08422540075481856,
                1.274537340179464,
                0.25370219633384206,
                0.15125171321400727,
                0.5109989100000001,
                0.51099891,
                0.21056027581570166,
                0.51099891,
                0.2627899290818957,
                0.51099891,
                0.51099891,
                0.034807233578218334,
                0.51099891,
                0.5109989100000001,
                1.2745373401794642,
                0.5109989099999999,
                0.34481730928287485,
                0.51099891,
                0.9432875392563254,
                0.17563214852323888,
                0.5109989099999999,
                0.5109989099999999,
                0.51099891,
                0.6390188239419679,
                0.21902342466519753,
                0.1896585546800559,
                0.51099891,
                0.7093495665444762,
                0.12352661606265818,
                0.5109989100000001,
                0.5742725501448035,
                0.51099891,
                0.51099891,
                0.5109989100000001,
                0.5109989099999999,
                0.057225378342835136,
                0.16388010086443613,
                0.51099891,
                0.308722952321981,
                0.5109989100000001,
                0.26152188287247824,
                0.1311707220511879,
                0.31922013337512856,
                1.0376512968701928,
                0.5109989099999999,
                0.23505023555353854,
                0.07592966111990475,
                1.0280645053508164,
                0.51099891,
                0.0692420454709609,
                0.019732523354471378,
                0.51099891,
                0.0636326798725625,
                0.2042432461608741,
                0.073039,
                0.51099891,
                1.2745373401794637,
                0.08523540000000002,
                0.51099891,
                1.2745373401794637,
                1.274537340179464,
                0.9094974279278456,
                0.3563202364945457,
                0.333539847625114,
                0.5109989100000001,
                0.4722104810335085,
                0.31793130700525807,
                0.3849059262842645,
                0.43691987979788915,
                0.51099891,
                0.7747590506659767,
                1.274537340179464,
                0.953037680550908,
                0.5109989099999999,
                0.51099891,
                0.17247466849227433,
                0.6178893026875513,
                0.5109989100000001,
                0.9086905493862644,
                0.3607384214200043,
                0.23875088054971494,
                0.49687584515674676,
                0.51099891,
                1.2745373401794642,
                0.5109989099999999,
                0.1480047858271163,
                0.07525,
                0.2986189494746948,
                0.51099891,
                0.6690474746014711,
                0.5109989099999999,
                0.03758847409097801,
                1.226248349748932,
                1.274537340179464,
                0.51099891,
                0.34905603937951357,
                0.7674377320881709,
                0.5109989099999999,
                0.16910399904987375,
                0.2324329289937476,
                0.5109989100000001,
                0.02601565028146881,
                0.51099891,
                0.51099891,
                0.51099891,
                0.14477886406128607,
                0.3216327667882909,
                1.2745373401794642,
                0.23396050092232767,
                0.2876806272290879,
                0.3088413065585971,
                1.144050501295983,
                1.274537340179464,
                0.35857810800460477,
                0.51099891,
                0.5684536264164591,
                0.3938619116733428,
                0.23835951881743872,
                0.36614444700194293,
                0.51099891,
                0.5109989100000001,
                0.15724439339933535,
                1.274537340179464,
                0.51099891,
                0.004377029381311147,
                0.18530077869290157,
                0.20621259642089887,
                0.5109989100000001,
                0.015207162061646464,
                1.274537340179464,
                0.5109989100000001,
                0.51099891,
                0.24292124949716729,
                0.06043092177580508,
                0.51099891,
                0.3733257944413805,
                0.29144172810662505,
                0.29342517260628787,
                0.5109989100000001,
                0.07293045121181452,
                0.6705521186031136,
                0.0566259,
                0.29253968899289184,
                0.003913429700612235,
                0.51099891,
                0.3362693884685072,
                0.8436302767398884,
                0.22941801213207907,
                0.5109989099999999,
                0.7564704264850544,
                0.073039,
                0.5109989099999999,
                0.40512606584273875,
                0.51099891,
                0.51099891,
                1.274537340179464,
                0.5109989100000001,
                0.51099891,
                0.51099891,
                0.08523539999999999,
                0.51099891,
                0.3086084607660473,
                0.5109989099999999,
                0.3321516128566034,
                0.51099891,
                0.16092990376463628,
                1.274537340179464,
                0.5109989100000001,
                1.274537340179464,
                0.5109989100000001,
                0.51099891,
                0.51099891,
                0.28735378553223945,
                0.3712282713971252,
                0.0378254078333761,
                0.51099891,
                0.5109989100000001,
                0.5109989100000001,
                0.07525,
                0.9338207398933915,
                0.51099891,
                0.23491347829599943,
                0.07525,
                0.5109989099999999,
                0.51099891,
                0.33421955967191,
                0.5291188479086326,
                0.18606673452278163,
                1.2745373401794642,
                0.51099891,
                1.274537340179464,
                0.51099891,
                0.3411815521929644,
                0.7452615235416818,
                0.10481658957863924,
                0.06726980860334893,
                0.06540217911747366,
                0.51099891,
                0.29163411284763724,
                0.51099891,
                0.51099891,
                0.21089941696547712,
                0.51099891,
                0.23367780397072965,
                1.0821303913307565,
                0.51099891,
                0.5109989099999999,
                0.51099891,
                0.5109989100000001,
                0.51099891,
                1.274537340179464,
                0.5109989100000001,
                0.5109989100000001,
                0.5109989100000001,
                0.51099891,
                0.35990894872534585,
                0.4276984598118933,
                0.08523540000000002,
                1.274537340179464,
                0.25527167879912016,
                0.12896710809293238,
                0.2714564073208247,
                0.9532070173797886,
                0.51099891,
                0.5109989100000001,
                0.4513532365860531,
                0.19716571381116904,
                0.3368694122745278,
                0.5109989100000001,
                0.5109989099999999,
                0.24751467070235025,
                0.22160937000318012,
                0.24902590921233184,
                0.07525,
                1.274537340179464,
                0.17338741020841103,
                0.0070776166896348025,
                0.51099891,
                0.51099891,
                0.01964389899288227,
                0.07525000000000001,
                0.073039,
                0.07524999999999998,
                0.620356562874614,
                0.51099891,
                0.4132803003801069,
                0.27501953792979317,
                0.2492451812481441,
                0.2140035848358246,
                0.07525,
                0.5109989100000001,
                0.51099891,
                0.0030593213911504677,
                0.256003935263275,
                0.03692007539649298,
                0.5109989100000001,
                0.51099891,
                1.274537340179464,
                0.29856967502082427,
                0.51099891,
                0.13969513165145278,
                0.5109989099999999,
                1.274537340179464
            ]
        },
        "detections": 300,
        "events": 14832
    }
}