{
    "job_args": {
        "metric_limit": 500,
        "seed": 774540640
    },
    "job_id": "batch_5_do_500",
    "result": {
        "collections": {
            "crystal": [
                0.2238501141635704,
                0.8080815195579237,
                0.3442785811265569,
                0.2082856414030556,
                0.8673810337567199,
                1.408013197545025,
                1.316381808960048,
                1.0858368332064599,
                0.16421855858500178,
                0.4733842833578625,
                0.7990769163532367,
                0.7789048647004684,
                0.04107939786061565,
                0.14983035738123815,
                0.3383636063803708,
                0.5786784845073449,
                0.18648125436378246,
                0.7386987916714762,
                0.8004395205690782,
                0.5639889353995464,
                0.6620267062632536,
                0.7809722580235995,
                0.22338142812440442,
                0.044877191170307085,
                0.08890923304829072,
                0.5969217524890469,
                0.5057196418545178,
                0.3442785811265569,
                0.8121640928062357,
                0.7789048647004683,
                0.6362777746606926,
                0.6786222447558069,
                0.21374180284430333,
                1.4080131975450252,
                1.2991330441718387,
                1.1120768331818678,
                0.5316971566889376,
                0.02419178354664031,
                0.23262483251154575,
                0.04837730236646931,
                0.809182219537666,
                0.4954155946768559,
                0.13416439264529645,
                0.7789048647004684,
                0.5787642190379266,
                0.8415736858305892,
                0.5520442591986231,
                0.47821300121399885,
                0.5566850516885844,
                0.8229061526065565,
                0.9902195255128279,
                1.408013197545025,
                0.028391245075146343,
                0.8103489932837773,
                0.34427858112655685,
                0.8575607760019284,
                1.0858368332064599,
                0.2613925352660622,
                0.0006042536657483999,
                0.34427858112655696,
                0.9640559192236222,
                0.4160219032803373,
                1.1120768331818678,
                0.7014180148045503,
                0.3780777793364967,
                0.7789048647004684,
                0.5443273928217573,
                1.2613199184988635,
                0.926290660326935,
                0.43286441672782533,
                1.1120768331818678,
                1.1120768331818676,
                0.31080057286015816,
                0.7789048647004683,
                0.583888751417318,
                0.7329564111513602,
                1.0078206909229983,
                0.3616256180209485,
                0.5666301712682076,
                0.5601188576906924,
                0.13859257831697674,
                0.13863857409011238,
                0.3442785811265569,
                1.1120768331818678,
                0.1662868257371346,
                0.11216655299271582,
                0.86738103375672,
                0.2048935572587467,
                1.2129444931966775,
                0.332794338347571,
                0.24978501975720963,
                0.04151518871420279,
                0.3828176575782477,
                0.1814977601205383,
                0.5075443440239078,
                1.2134968763262552,
                1.0013187588716066,
                0.055929076492740926,
                0.073039,
                0.45992596141502745,
                0.47273195817919517,
                0.9280079594491201,
                0.9640559192236222,
                0.3442785811265569,
                1.1365843143608594,
                0.3918680434122562,
                0.7789048647004685,
                0.896734867145377,
                0.37814269238612885,
                0.0922234414012334,
                0.637080687504185,
                0.34427858112655696,
                0.34427858112655685,
                0.08959521818536831,
                0.07524999999999998,
                0.12495543779133977,
                0.6160333197157679,
                0.4025589688291765,
                0.07525,
                0.009666999274316024,
                0.22127030701257455,
                0.3677893942632995,
                0.48481427975666336,
                0.3810540352949356,
                0.3879517616648789,
                0.41570686058089396,
                1.408013197545025,
                0.06525726551455313,
                0.6680688289758872,
                0.9487571469968088,
                0.4094202441594489,
                1.0897368119742792,
                0.7789048647004684,
                1.408013197545025,
                0.24523213170132496,
                0.4719950730933605,
                0.06778866855969568,
                0.11557499182054132,
                0.851846295685241,
                0.4070922067077941,
                0.24672089990580048,
                1.2129444931966777,
                0.2701811197851083,
                0.6601577854582126,
                0.34427858112655685,
                0.0852354,
                0.06201794120963883,
                1.1120768331818678,
                1.0858368332064599,
                0.6627260006076148,
                0.13318439110190644,
                0.36778939426329943,
                0.6639192350385777,
                0.2816277685861848,
                1.1053636161959928,
                0.5818792170900615,
                0.7789048647004684,
                0.8918020837399679,
                0.3188290296502231,
                0.7649209409771178,
                0.9640559192236222,
                0.8701970039389956,
                0.5648621643846721,
                0.7789048647004684,
                0.3442785811265569,
                1.4080131975450247,
                0.0500335149288631,
                1.1120768331818678,
                0.3847199523850194,
                1.005252121324406,
                0.023513007367263916,
                0.34427858112655696,
                0.964055919223622,
                0.023119726940483976,
                0.1583572577159359,
                0.44863869143931717,
                1.0858368332064599,
                0.4264337010871107,
                0.6286915193772056,
                0.1414240781025144,
                0.266888344693804,
                0.9579522297855024,
                1.0360090077087643,
                0.16500778574302896,
                1.4080131975450254,
                0.18152019520620147,
                0.86738103375672,
                0.2696143755560687,
                1.08583683320646,
                0.9640559192236222,
                0.9640559192236223,
                0.2787972182296166,
                0.86738103375672,
                0.44397299599870776,
                0.0847407,
                0.013073529933539274,
                1.0897368119742792,
                0.2623022006150827,
                0.015840794032972894,
                0.5987271911653003,
                1.0897368119742792,
                0.35934615427501104,
                0.34427858112655696,
                0.499691501271623,
                0.6411034645826086,
                0.7789048647004684,
                0.5777778328943513,
                0.3995262337797274,
                0.141400658544503,
                0.10150675606698167,
                0.628543338734281,
                0.7735393970557758,
                0.7927806925746592,
                0.34427858112655685,
                0.38421224240261764,
                0.5642372120556619,
                1.1120768331818676,
                0.9640559192236221,
                0.6786142854123844,
                0.7610222085991887,
                0.41596739240000924,
                0.23002892035721859,
                0.41993173711297827,
                0.5145919768682947,
                0.3854368136888944,
                0.4667417006147372,
                1.4080131975450247,
                0.4055526691474198,
                1.0858368332064599,
                0.612313362809219,
                1.2739061627842287,
                0.9096446820079356,
                0.9640559192236222,
                0.34427858112655685,
                0.30522419038709264,
                1.1120768331818678,
                0.07029679074840721,
                0.4791978592366088,
                0.028659029438429462,
                0.9640559192236222,
                1.112076833181868,
                0.3208723010413519,
                1.1120768331818678,
                0.3442785811265569,
                1.0858368332064599,
                1.1120768331818678,
                0.0015809474020831438,
                0.8152072860621511,
                1.408013197545025,
                0.8104506787448458,
                1.408013197545025,
                0.7789048647004684,
                0.3442785811265569,
                0.6249872652459862,
                0.027952435538202203,
                0.34427858112655685,
                0.36954441030385843,
                1.0753532623067819,
                0.659451404232809,
                0.9640559192236222,
                0.07525000000000001,
                0.07525000000000001,
                0.9640559192236221,
                0.16306827890657788,
                0.7085412559474736,
                0.5559582601345086,
                0.42600559435759555,
                0.44396036297130936,
                0.7789048647004685,
                0.3442785811265569,
                0.3442785811265569,
                0.4539171897393374,
                0.7789048647004684,
                0.07525000000000001,
                0.18140170811122003,
                1.1120768331818676,
                0.21019398417803128,
                0.1406026747305842,
                0.7718845508252209,
                0.685395175447855,
                1.0858368332064599,
                0.4529066154767136,
                0.6988124016366712,
                0.5963492514850592,
                0.2223329299362582,
                0.055499179331252035,
                0.021787081283642706,
                0.4363747037864276,
                1.4080131975450252,
                0.013056709347467443,
                0.7483661737499585,
                0.21793777424342575,
                0.21949974479206572,
                0.26842522730775575,
                0.21188675620893593,
                0.5878785125267134,
                0.38540966468919174,
                0.016427307088283438,
                0.5906688278229724,
                0.34427858112655696,
                0.2412895024985411,
                0.09205758740402398,
                0.06805509553092781,
                0.24509915283261088,
                0.13471159944153477,
                0.599314331296219,
                0.27510827560870854,
                0.6118196930529343,
                0.06138487723080743,
                0.8055353128873108,
                0.9839551762484423,
                0.7789048647004684,
                0.2119467253411771,
                0.45829514897091284,
                1.0819460414047417,
                0.8202076832636349,
                0.7789048647004683,
                0.7225506264909862,
                0.47922739404459513,
                0.2613041920028546,
                0.5639889353995463,
                1.2129444931966775,
                1.112076833181868,
                0.4397624600339822,
                1.4080131975450247,
                1.4080131975450247,
                0.4803510195778232,
                0.9704530289453012,
                0.6224516848194842,
                0.9339263680658128,
                0.16404350904896325,
                0.39232091957909715,
                0.7369579498581419,
                0.01598008281085017,
                0.3765705752196722,
                1.1609586697384444,
                1.0858368332064599,
                0.073039,
                0.5364789797666726,
                0.045663221225324346,
                0.09007783123829316,
                0.2076788365788663,
                0.5544221033736068,
                0.9497213112210142,
                0.2886865784960876,
                0.5026941533942872,
                0.6664150501863378,
                0.8104506787448458,
                0.5125920098185907,
                0.15603489554603178,
                0.8163052940374753,
                0.8673810337567197,
                0.17326415750843863,
                0.1856072892982561,
                0.9640559192236221,
                1.08583683320646,
                0.5780204571590467,
                0.23209989977034956,
                0.2720207335028313,
                0.7246899387303061,
                0.9640559192236223,
                0.1021086187304866,
                0.20214131059172236,
                0.8673810337567199,
                0.48155731161447934,
                1.4080131975450252,
                1.1969224969616938,
                0.4072655135927482,
                1.0572273332064601,
                0.34427858112655685,
                0.4079957951401203,
                0.3442785811265569,
                0.08820239999999999,
                0.9045642650615577,
                0.8132288600939951,
                0.5701024426599945,
                0.7789048647004684,
                0.1668745441561011,
                0.01842095236088223,
                0.10268120414282735,
                1.0858368332064599,
                0.7789048647004683,
                0.34656785913082094,
                0.0847407,
                0.6886695277208057,
                0.3442785811265569,
                0.3314404347426711,
                0.4111165114560972,
                0.7789048647004685,
                0.24917409720421943,
                0.04883893459844202,
                0.4762641389626169,
                0.20291321429831743,
                1.408013197545025,
                0.8673810337567199,
                0.89215960112074,
                0.5289476494596657,
                0.6675892917147964,
                0.3442785811265569,
                0.35912277346555177,
                1.2991330441718385,
                0.31809588014582074,
                0.05814399644396889,
                0.1947101270022862,
                0.3904715251914487,
                1.145357410228322,
                0.21005627742877542,
                0.1496958802004521,
                1.0858368332064599,
                0.2712560657573282,
                0.34427858112655685,
                0.07525,
                1.4080131975450252,
                0.6045235518270833,
                0.2520792456982991,
                1.0548103531028268,
                0.34427858112655685,
                0.7321576974889987,
                1.0161506922197185,
                0.5863809124506143,
                0.6570797976538093,
                1.0897368119742792,
                1.0858368332064599,
                0.7789048647004684,
                0.559493556999188,
                1.0858368332064599,
                0.030308388777171735,
                0.7480456403135335,
                0.6713638532672229,
                0.8483708145828027,
                1.2991330441718387,
                0.17443948177964663,
                0.7451231172888964,
                0.7676303262779243,
                0.7789048647004684,
                0.5797984800417737,
                0.6912625571680062,
                0.7789048647004684,
                0.07524999999999998,
                0.452408042740509,
                0.6411050949887698,
                1.2129444931966775,
                0.3233295891646928,
                0.8369670796755472,
                0.24244807559363862,
                0.6993185155542956,
                0.17706503318903616,
                0.34427858112655685,
                1.0052521213244057,
                1.0858368332064599,
                0.5736332866959177,
                0.6241486484458506,
                0.15319703630177517,
                0.8872423239067851,
                0.9009304603549704,
                0.5780629998136633,
                0.4280015051840783,
                0.9640559192236222,
                0.41111651145609723,
                0.016015153848021102,
                0.5872218649493108,
                0.2981872056024154,
                0.7488892458767099,
                0.39917400924567137,
                0.3390650024961155,
                0.06859701282053729,
                0.9640559192236222,
                1.3637191202345653,
                0.2619604594084589,
                0.34427858112655696,
                0.3995002217087351,
                0.14884761077564923,
                0.2953302802612122,
                0.009853701101452561,
                0.40710820604916037,
                1.4080131975450247,
                0.628611090239186,
                0.27364964113310064,
                0.530600792811541,
                0.2934426024970931,
                0.7255120258752017,
                1.1561112384421917,
                0.7314616031251773,
                0.9640559192236223,
                0.44396036297130936,
                0.7789048647004683,
                0.897014287545025,
                0.2946662479153208,
                0.4439603629713094,
                1.2991330441718383,
                0.23262304928759642,
                0.7789048647004684,
                0.33344178347533904,
                0.5684060152518375,
                0.22193597594211084,
                0.9640559192236222,
                0.3097489803647856,
                0.1024603951353358,
                0.4653098830291354,
                0.67285989138207
            ],
            "photocathode": [
                1569,
                5557,
                2341,
                1458,
                6046,
                9775,
                9348,
                7507,
                1105,
                3489,
                5678,
                5425,
                284,
                1077,
                2536,
                4148,
                1290,
                5242,
                5810,
                4056,
                4682,
                5538,
                1544,
                323,
                637,
                4219,
                3580,
                2403,
                5797,
                5570,
                4346,
                4737,
                1513,
                9859,
                9026,
                7873,
                3573,
                178,
                1614,
                361,
                5647,
                3483,
                886,
                5400,
                4092,
                5786,
                3817,
                3322,
                3922,
                5713,
                6802,
                9793,
                199,
                5562,
                2448,
                5951,
                7576,
                1874,
                4,
                2299,
                6908,
                2915,
                7925,
                4992,
                2663,
                5520,
                3844,
                9141,
                6478,
                3080,
                7677,
                7617,
                2153,
                5669,
                3995,
                4904,
                7033,
                2398,
                4064,
                3983,
                975,
                990,
                2470,
                7683,
                1094,
                793,
                6090,
                1455,
                8664,
                2296,
                1767,
                282,
                2707,
                1341,
                3671,
                8637,
                7185,
                385,
                486,
                3251,
                3384,
                6526,
                6829,
                2394,
                8120,
                2763,
                5460,
                6468,
                2661,
                640,
                4442,
                2474,
                2418,
                655,
                505,
                812,
                4337,
                2874,
                518,
                65,
                1548,
                2504,
                3368,
                2668,
                2659,
                3009,
                9987,
                444,
                4754,
                6752,
                2928,
                7759,
                5449,
                9730,
                1773,
                3398,
                468,
                820,
                5971,
                2857,
                1709,
                8555,
                1784,
                4542,
                2402,
                559,
                465,
                7789,
                7664,
                4595,
                982,
                2585,
                4600,
                2062,
                7620,
                4137,
                5500,
                6259,
                2152,
                5386,
                6991,
                5919,
                4034,
                5354,
                2410,
                9876,
                367,
                7851,
                2628,
                7233,
                166,
                2461,
                6697,
                163,
                1142,
                3144,
                7562,
                2845,
                4408,
                945,
                1962,
                6728,
                7449,
                1176,
                9686,
                1268,
                6200,
                1844,
                7777,
                6829,
                6799,
                2075,
                6006,
                3129,
                589,
                91,
                7504,
                1803,
                113,
                4236,
                7725,
                2491,
                2408,
                3456,
                4481,
                5692,
                4058,
                2841,
                980,
                690,
                4327,
                5267,
                5837,
                2328,
                2684,
                4032,
                7932,
                7003,
                4964,
                5294,
                2882,
                1614,
                3039,
                3599,
                2718,
                3273,
                10028,
                2925,
                7716,
                4399,
                8964,
                6276,
                6651,
                2368,
                2227,
                7696,
                536,
                3365,
                214,
                6682,
                7861,
                2196,
                7802,
                2412,
                7766,
                7846,
                10,
                5952,
                9910,
                5677,
                9882,
                5308,
                2403,
                4412,
                201,
                2437,
                2626,
                7534,
                4680,
                6671,
                555,
                568,
                6709,
                1155,
                4859,
                3771,
                3049,
                3193,
                5447,
                2386,
                2387,
                3171,
                5541,
                506,
                1282,
                7689,
                1476,
                928,
                5427,
                4708,
                7469,
                3152,
                4885,
                3974,
                1620,
                387,
                148,
                3002,
                9774,
                83,
                5336,
                1540,
                1487,
                1878,
                1481,
                4258,
                2779,
                102,
                4110,
                2425,
                1736,
                643,
                487,
                1786,
                908,
                4315,
                1951,
                4305,
                439,
                5721,
                6817,
                5439,
                1550,
                3228,
                7738,
                5896,
                5431,
                5224,
                3329,
                1894,
                3988,
                8484,
                7845,
                3147,
                9984,
                9900,
                3323,
                6840,
                4469,
                6513,
                1154,
                2654,
                5263,
                93,
                2604,
                8311,
                7469,
                501,
                3808,
                285,
                652,
                1464,
                3790,
                6664,
                2038,
                3542,
                4801,
                5503,
                3595,
                1110,
                5754,
                6078,
                1211,
                1293,
                6771,
                7531,
                4060,
                1622,
                1926,
                5113,
                6861,
                723,
                1434,
                6179,
                3487,
                10214,
                8320,
                2880,
                7576,
                2381,
                2872,
                2374,
                629,
                6341,
                5788,
                4190,
                5572,
                1141,
                138,
                781,
                7631,
                5597,
                2534,
                552,
                4821,
                2401,
                2304,
                2848,
                5419,
                1752,
                343,
                3386,
                1427,
                9784,
                6116,
                6429,
                3822,
                4621,
                2360,
                2649,
                9279,
                2240,
                424,
                1350,
                2826,
                7979,
                1524,
                1049,
                7572,
                2004,
                2391,
                547,
                9947,
                4188,
                1845,
                7385,
                2424,
                5231,
                7109,
                4126,
                4401,
                7612,
                7783,
                5632,
                4046,
                7560,
                228,
                5215,
                4561,
                5863,
                9163,
                1214,
                5194,
                5547,
                5434,
                4060,
                4732,
                5401,
                495,
                3290,
                4574,
                8424,
                2265,
                5842,
                1764,
                4992,
                1243,
                2467,
                7174,
                7615,
                4143,
                4307,
                1127,
                6264,
                6389,
                4058,
                3043,
                6684,
                2790,
                108,
                4086,
                2181,
                5181,
                2772,
                2318,
                472,
                6965,
                9986,
                1879,
                2255,
                2793,
                971,
                2120,
                82,
                2751,
                10076,
                4428,
                1885,
                3695,
                1997,
                5125,
                8043,
                5140,
                6796,
                3042,
                5400,
                6371,
                2163,
                3165,
                8866,
                1594,
                5357,
                2334,
                3978,
                1592,
                6836,
                2124,
                712,
                3296,
                4604
            ]
        },
        "detections": 500,
        "events": 145699
    }
}