{
    "job_args": {
        "metric_limit": 500,
        "seed": 3739981654
    },
    "job_id": "batch_112_do_500",
    "result": {
        "collections": {
            "crystal": [
                0.40330649462622725,
                0.7787178226815622,
                0.5246093148771662,
                0.5977025515767527,
                0.49275477164084425,
                1.4080131975450247,
                0.6463882325377228,
                0.31393613933768655,
                0.2814432104013481,
                0.24469729216765213,
                0.5444304637448338,
                0.605286767652535,
                0.1391671141486038,
                0.3726776040169475,
                0.7789048647004684,
                0.9744258893600132,
                0.08957429736410838,
                0.24045327890397916,
                0.30374605362700957,
                0.7789048647004684,
                1.408013197545025,
                0.4854773107509526,
                1.1120768331818678,
                0.9640559192236222,
                0.2901171433470852,
                0.7789048647004684,
                0.6250889863524577,
                0.6221683906640478,
                0.34072743449903065,
                1.0858368332064599,
                0.19079937056994167,
                0.14544844316765504,
                0.5670307741014116,
                0.09668307894814299,
                0.6854247424074462,
                1.0858368332064599,
                0.5507481038455418,
                0.7703158448212379,
                1.4080131975450252,
                0.9640559192236223,
                0.2108345706474306,
                1.0238450633809533,
                0.8673810337567199,
                0.8673810337567199,
                1.0480043152255614,
                0.914701466803651,
                0.7315255679373804,
                0.18472264701625463,
                1.0858368332064599,
                0.3473371453564832,
                0.34427858112655685,
                0.44396036297130936,
                0.2717363393806518,
                1.1120768331818678,
                0.19557900837561926,
                0.0852354,
                0.7316272243321771,
                0.3761304469865483,
                1.1073406102600782,
                0.2738867349780367,
                0.43515067613099045,
                0.4939950961563839,
                1.408013197545025,
                0.7789048647004686,
                0.6795679298504919,
                0.05243224470166402,
                0.2707241639008419,
                0.11507298263019548,
                0.35472876271882403,
                0.7082812470570745,
                0.4111165114560972,
                1.4080131975450252,
                0.8612544995721682,
                1.1120768331818676,
                0.07303899999999999,
                0.13541943371858695,
                0.18294504520988217,
                0.7923559485960608,
                0.2170762492252407,
                1.1120768331818678,
                0.31175251709169804,
                0.8123773928623791,
                0.07915900763039169,
                0.7533276646337789,
                0.4552156553030534,
                0.29378556779685927,
                0.9640559192236222,
                0.40419094615344914,
                0.8395680410421587,
                0.6734706393402394,
                1.2499476822978295,
                1.408013197545025,
                0.968631439481026,
                1.1120768331818678,
                1.2129444931966775,
                0.23749803624846133,
                0.4379837247449214,
                0.07525,
                1.1683920971330164,
                0.3155773231127119,
                0.5479767077447312,
                0.6635958195829417,
                1.2991330441718385,
                0.6572555388700332,
                0.6536585632832292,
                0.3261231846769276,
                0.2461862399586287,
                0.4707139714169308,
                0.7691060266442675,
                0.3442785811265569,
                1.4080131975450252,
                0.7789048647004685,
                0.49663105041072375,
                0.6110588231808491,
                1.0858368332064599,
                0.2523230071055166,
                1.1120768331818678,
                0.3879864602777473,
                0.5590671358503938,
                0.9640559192236222,
                0.2874128623017848,
                0.19987643485709927,
                0.460589585500162,
                0.8433470300251622,
                0.9640559192236222,
                0.4794050185847793,
                1.1247961064539673,
                0.1168171681398682,
                0.7789534932612983,
                0.41596739240000924,
                0.7789048647004683,
                0.39993446241159486,
                1.020390296531195,
                0.7365563450304968,
                1.1864205848433325,
                0.35842227629849144,
                0.1763255836472747,
                1.408013197545025,
                0.4159741365923957,
                0.1152873869089408,
                0.36524148087903463,
                0.03785677870981907,
                0.45403332652214823,
                0.927292841319487,
                0.8046050517243555,
                0.34427858112655696,
                1.0858368332064599,
                0.7779360506230606,
                1.4080131975450247,
                0.9640559192236222,
                0.5291328676357926,
                0.44396036297130925,
                0.3644943582596115,
                0.2409258349735258,
                1.0858368332064599,
                0.3442785811265569,
                0.6923854037815611,
                1.1128115883380583,
                0.9640559192236222,
                0.3598228547688039,
                0.3799465872175734,
                0.6946937607253978,
                1.4080131975450247,
                0.8711273099735715,
                0.07525,
                1.408013197545025,
                0.8802044215823084,
                1.0897368119742792,
                0.11609451566736062,
                0.34427858112655696,
                0.24469729216765218,
                0.806618333220811,
                0.7088562394078178,
                1.4080131975450247,
                0.9043154780519048,
                1.112076833181868,
                0.8250188474904345,
                0.21931698491872167,
                0.08623188493280531,
                0.28240507976722573,
                0.5357672345638806,
                0.7789048647004684,
                0.8800384800420906,
                0.12745675572288617,
                0.46138269859957126,
                1.0052521213244057,
                0.16243596570619018,
                0.7789048647004685,
                1.1120768331818678,
                0.3066569608416647,
                0.5645772423451116,
                0.113713936911918,
                0.10514880330307785,
                0.5232730098485606,
                0.7789048647004684,
                0.7789048647004684,
                1.0858368332064599,
                0.7717974384578961,
                0.5886972644227375,
                0.7543823752019093,
                0.42809985570533016,
                1.0082252672509107,
                0.3447257199572239,
                0.34427858112655685,
                0.541376552823992,
                0.5259626399121855,
                0.7971933962330314,
                0.9381891224454043,
                0.22663734807094663,
                0.34427858112655685,
                0.1128570217877981,
                0.3893189256827846,
                0.7396841696901819,
                0.05279358099622955,
                1.112076833181868,
                0.24469729216765218,
                1.2991330441718385,
                0.2926308200207439,
                0.8157366686420537,
                0.774985889932928,
                0.41928052053408743,
                0.7789048647004684,
                0.48052047379789964,
                0.29963710028268203,
                0.5862647941086815,
                0.34427858112655685,
                0.9640559192236222,
                0.503474131734551,
                0.21887924318844093,
                0.3442785811265569,
                0.5298361084409207,
                0.7789048647004682,
                1.1992963387635451,
                0.09502221129667832,
                0.7748887058012878,
                1.3350606751893244,
                0.2545628711519973,
                1.1120768331818678,
                0.22035257414467704,
                0.5639889353995464,
                0.6886695277208057,
                0.34427858112655696,
                1.4080131975450252,
                1.1097747112364764,
                0.3417792866675532,
                0.2153024222129469,
                0.12845663033876595,
                0.469552137167652,
                1.112076833181868,
                0.34427858112655685,
                0.3657712308564489,
                0.9640559192236223,
                0.7649209409771178,
                0.6154178216205466,
                0.35041349082181006,
                0.07801871532813953,
                1.0858368332064596,
                0.8168521445894844,
                0.1658755280858657,
                0.5441546586453176,
                1.4080131975450252,
                0.20204072466043932,
                0.34427858112655696,
                0.08523539999999999,
                0.6184483109708006,
                0.047208373205842716,
                0.9193372168731733,
                0.523209384997348,
                0.3442785811265569,
                0.0847407,
                0.9640559192236224,
                0.07525,
                0.025222867737320243,
                0.07525,
                1.112076833181868,
                0.34427858112655696,
                1.0052521213244057,
                0.19674349646838452,
                0.8472763991145711,
                1.08583683320646,
                1.1839795988756054,
                0.017512715637916787,
                0.9299199454429171,
                0.8511776703941912,
                0.9640559192236221,
                0.9640559192236221,
                0.21498927255397934,
                0.4795924756148845,
                0.918580342902899,
                0.5328577236685802,
                0.6886695277208057,
                1.0858368332064596,
                0.7067975265794177,
                0.44396036297130925,
                1.036703316444508,
                0.9640559192236222,
                0.5494808848465448,
                0.39563771996163816,
                0.7482902607632809,
                0.9309883858816618,
                1.0052521213244057,
                0.6600579797499795,
                0.7592177336536106,
                0.9640559192236222,
                0.16418389400418298,
                0.9640559192236221,
                1.112076833181868,
                1.112076833181868,
                0.3442785811265569,
                0.21550278013479904,
                0.6838934264433127,
                1.4080131975450247,
                0.40717367919833214,
                1.408013197545025,
                1.0239196922306804,
                1.2129444931966777,
                0.36820653562978795,
                0.43482596070984925,
                0.5429054354435758,
                0.4290138832595639,
                0.34427858112655685,
                0.28385320943713177,
                0.7261852083204843,
                0.8387141512386642,
                0.4326570053901855,
                1.2203891931192052,
                1.408013197545025,
                0.34427858112655696,
                0.7730920226175593,
                1.4080131975450252,
                1.408013197545025,
                0.7789048647004684,
                0.8367064594164653,
                1.2991330441718385,
                0.0590462,
                0.4833710481478637,
                1.1120768331818676,
                0.9481629428330767,
                0.4111165114560972,
                0.28882607499318447,
                0.750388424925392,
                0.6674493555885532,
                0.86738103375672,
                0.7118384191129007,
                0.6530531287326221,
                0.45334084397156177,
                0.3018783627363307,
                0.3442785811265569,
                0.8019223431167422,
                0.8912590371382442,
                0.3492850894058942,
                0.2983614006418829,
                0.3569557057942149,
                0.6040856987345697,
                0.4735978887394071,
                0.0876557,
                0.0566259,
                1.0858368332064596,
                0.44029618398053294,
                0.41900330119439133,
                1.212944493196677,
                0.5482491037707192,
                0.08326158577766318,
                0.34427858112655685,
                0.7789048647004683,
                1.1120768331818678,
                0.9640559192236221,
                1.08583683320646,
                0.7789048647004684,
                1.408013197545025,
                1.4080131975450247,
                0.34427858112655685,
                0.11860345608436151,
                0.3564653550328838,
                0.29616491540672474,
                0.1539501680695533,
                0.4439603629713093,
                0.756122532403924,
                0.9640559192236223,
                0.6785017076344644,
                0.60210327436672,
                0.44396036297130925,
                0.2448970224817274,
                0.07525,
                0.39174720823760933,
                0.47395759006119575,
                0.06169071983077962,
                0.34427858112655685,
                0.1842444292658258,
                0.7789048647004684,
                1.408013197545025,
                0.22687340491061236,
                0.05076080863658611,
                0.4989749411599155,
                0.6395498154530556,
                1.112076833181868,
                0.17394453049392544,
                0.06860385621783216,
                0.18407914482400922,
                0.7789048647004683,
                0.5177583911101094,
                0.4416129923446632,
                0.10809555300559248,
                0.8580433375865038,
                0.9647416224510642,
                0.34427858112655685,
                0.9193372168731735,
                0.5027578212165019,
                0.7509426129421339,
                1.4080131975450252,
                0.5539068140636043,
                0.34427858112655685,
                0.29027596696163466,
                0.23756629505767332,
                0.03875806202972665,
                0.34427858112655696,
                0.30283589581894754,
                0.8673810337567198,
                0.3541335668109883,
                0.9640559192236222,
                0.6423040085890143,
                0.07525,
                0.04473250000000001,
                0.3628736339337448,
                0.44396036297130925,
                0.86738103375672,
                0.09740121721648873,
                0.4091651684187734,
                1.112076833181868,
                1.0858368332064599,
                0.9640559192236222,
                0.2867051183502486,
                0.32914253171412894,
                1.408013197545025,
                0.6256675265417655,
                0.901185333654627,
                0.3892297573313912,
                0.5678024189280734,
                0.6446891637508056,
                0.07525,
                0.4439603629713093,
                1.1120768331818678,
                0.7789048647004684,
                0.9640559192236223,
                0.125117904006964,
                1.408013197545025,
                1.408013197545025,
                0.0005281467949067586,
                0.7789048647004685,
                1.115762468972584,
                0.5075440992543664,
                0.7492371983120055,
                0.5590539618242765,
                0.0847407,
                0.32639099316811115,
                0.7193598637916532,
                0.9591874633498852,
                0.07525000000000001,
                0.6475702329344946,
                1.4080131975450247,
                0.7649209409771179,
                0.1332094751289179,
                0.34427858112655685,
                1.167993971660178,
                1.1120768331818678,
                0.657014154221338,
                1.08583683320646,
                0.1934713652230964,
                0.26866852763799987,
                0.40846134685140006,
                1.1120768331818678,
                0.2617364257365431,
                0.7562198522020139,
                0.3362113778512529,
                0.0686463227925645,
                1.0202618124044955,
                0.2778827440546097,
                0.8265824966600025,
                0.4183218000193925,
                1.4080131975450247,
                0.2552149760825937,
                0.177657839988268,
                0.1304349008140053,
                0.7401490604518594,
                1.408013197545025,
                0.8104506787448459,
                0.34427858112655696,
                1.0241080978068413,
                0.9640559192236221,
                0.7789048647004684,
                0.9640559192236222,
                1.1623080180745768,
                1.408013197545025,
                0.31368516939977775,
                0.5064471156608503,
                0.6809170846485332,
                0.8617635839666036,
                0.24469729216765213,
                1.1800135739370106,
                1.112076833181868
            ],
            "photocathode": [
                2741,
                5428,
                3683,
                4069,
                3480,
                9795,
                4542,
                2171,
                1888,
                1734,
                3801,
                4271,
                996,
                2624,
                5389,
                6659,
                573,
                1608,
                2157,
                5404,
                9758,
                3443,
                7821,
                6752,
                2020,
                5514,
                4419,
                4315,
                2394,
                7619,
                1295,
                1006,
                4098,
                670,
                4847,
                7567,
                3877,
                5338,
                9697,
                6722,
                1502,
                7540,
                6211,
                6041,
                7339,
                6384,
                5170,
                1292,
                7664,
                2418,
                2460,
                3169,
                1913,
                7905,
                1439,
                552,
                5074,
                2571,
                7823,
                1899,
                3043,
                3482,
                9818,
                5449,
                4658,
                327,
                1825,
                770,
                2497,
                5223,
                2861,
                9795,
                6067,
                7639,
                474,
                966,
                1320,
                5751,
                1485,
                7886,
                2139,
                5832,
                572,
                5371,
                3271,
                2044,
                6655,
                2697,
                5683,
                4765,
                8897,
                9940,
                6898,
                7895,
                8678,
                1705,
                3087,
                556,
                8363,
                2233,
                3819,
                4728,
                9018,
                4562,
                4523,
                2278,
                1764,
                3244,
                5363,
                2446,
                9661,
                5610,
                3435,
                4341,
                7515,
                1720,
                7640,
                2787,
                4132,
                6861,
                2035,
                1340,
                3131,
                5966,
                6843,
                3418,
                7869,
                854,
                5632,
                2821,
                5492,
                2931,
                7219,
                5215,
                8403,
                2595,
                1268,
                9868,
                3025,
                804,
                2777,
                290,
                3094,
                6780,
                5822,
                2377,
                7613,
                5448,
                9959,
                6618,
                3673,
                3090,
                2575,
                1726,
                7633,
                2438,
                4868,
                7762,
                6668,
                2477,
                2664,
                4810,
                9772,
                6166,
                476,
                9944,
                6101,
                7954,
                815,
                2447,
                1685,
                5738,
                5085,
                9906,
                6321,
                7621,
                5838,
                1601,
                597,
                1946,
                3759,
                5231,
                6256,
                889,
                3197,
                7036,
                1223,
                5518,
                7960,
                2142,
                3975,
                807,
                732,
                3684,
                5546,
                5417,
                7638,
                5350,
                4222,
                5276,
                3136,
                7083,
                2450,
                2503,
                3833,
                3665,
                5625,
                6697,
                1583,
                2357,
                773,
                2662,
                5141,
                352,
                8065,
                1675,
                8993,
                2046,
                5661,
                5329,
                3036,
                5563,
                3391,
                2141,
                4054,
                2316,
                6684,
                3528,
                1581,
                2437,
                3789,
                5386,
                8547,
                670,
                5428,
                9392,
                1729,
                7966,
                1567,
                3981,
                4830,
                2438,
                10021,
                7968,
                2385,
                1518,
                917,
                3338,
                7794,
                2378,
                2624,
                6681,
                5401,
                4521,
                2472,
                493,
                7686,
                5841,
                1139,
                3991,
                9844,
                1470,
                2443,
                597,
                4406,
                322,
                6498,
                3633,
                2409,
                550,
                6763,
                552,
                188,
                513,
                7693,
                2375,
                6976,
                1344,
                6035,
                7545,
                8350,
                138,
                6640,
                6069,
                6930,
                6702,
                1510,
                3304,
                6435,
                3754,
                4732,
                7725,
                4906,
                3102,
                7245,
                6794,
                3852,
                2785,
                5175,
                6474,
                7204,
                4520,
                5194,
                6716,
                1144,
                6853,
                7610,
                7674,
                2367,
                1524,
                4851,
                9976,
                3009,
                9831,
                7349,
                8792,
                2671,
                2994,
                3858,
                3016,
                2439,
                2016,
                5065,
                5768,
                3024,
                8745,
                9782,
                2419,
                5510,
                9955,
                10100,
                5603,
                5811,
                8890,
                425,
                3189,
                7667,
                6695,
                2947,
                2043,
                5419,
                4613,
                6154,
                4974,
                4527,
                3201,
                2104,
                2498,
                5533,
                6306,
                2401,
                2105,
                2569,
                4162,
                3514,
                569,
                398,
                7616,
                3108,
                3048,
                8429,
                4078,
                550,
                2323,
                5524,
                7889,
                6719,
                7684,
                5513,
                9916,
                10044,
                2392,
                857,
                2452,
                2039,
                1036,
                3053,
                5258,
                6827,
                4874,
                4168,
                3060,
                1741,
                529,
                2834,
                3308,
                432,
                2411,
                1295,
                5365,
                9916,
                1619,
                360,
                3514,
                4337,
                7679,
                1262,
                457,
                1331,
                5435,
                3466,
                3169,
                803,
                6004,
                6833,
                2468,
                6537,
                3462,
                5266,
                9877,
                4025,
                2482,
                1968,
                1685,
                286,
                2425,
                2106,
                6190,
                2443,
                6947,
                4538,
                535,
                329,
                2538,
                3084,
                6095,
                687,
                2926,
                7983,
                7642,
                6829,
                2014,
                2292,
                9643,
                4406,
                6422,
                2646,
                3965,
                4605,
                554,
                2988,
                7846,
                5577,
                6729,
                872,
                9873,
                10012,
                4,
                5519,
                7965,
                3545,
                5240,
                3908,
                590,
                2281,
                5062,
                6583,
                568,
                4445,
                9807,
                5352,
                976,
                2298,
                8184,
                7931,
                4620,
                7462,
                1356,
                1930,
                2833,
                7656,
                1941,
                5501,
                2410,
                488,
                7373,
                1981,
                5584,
                2926,
                9917,
                1861,
                1244,
                924,
                5131,
                9911,
                5701,
                2364,
                7132,
                6664,
                5440,
                6847,
                8285,
                9922,
                2278,
                3559,
                4691,
                6068,
                1759,
                8354,
                7925
            ]
        },
        "detections": 500,
        "events": 136100
    }
}