{
    "job_args": {
        "metric_limit": 500,
        "seed": 2953138385
    },
    "job_id": "batch_118_do_500",
    "result": {
        "collections": {
            "crystal": [
                0.6462431689530386,
                0.049412698105297304,
                0.34427858112655685,
                1.1485314241600983,
                0.3442785811265569,
                0.8624574488035742,
                0.51099891,
                0.7511583699410476,
                0.02743478232641061,
                0.2997388012825375,
                0.8689290129071129,
                0.41111651145609723,
                0.2691412432066755,
                0.40358529610690363,
                0.9643555150046864,
                0.46038694068494523,
                0.6996784740079866,
                1.005884033196413,
                0.2798010723419556,
                1.0955445704381868,
                0.2921265588337884,
                0.17088138747937828,
                0.23751668389654604,
                0.07172369734313061,
                1.408013197545025,
                0.3442785811265569,
                0.9640559192236221,
                0.6847445192794371,
                1.4080131975450247,
                0.66237159032614,
                0.3299654571597409,
                0.6073489166791957,
                0.7789048647004685,
                0.8673810337567199,
                0.9928818196212944,
                0.0017070081803584602,
                0.8118363147393594,
                0.3352443828881436,
                1.151887700115018,
                0.9640559192236221,
                0.7660442172630098,
                0.3547111771944869,
                0.44396036297130936,
                0.9640559192236224,
                1.4080131975450247,
                0.30391483584618706,
                0.878027629373123,
                0.9114152555696413,
                0.6152445963352909,
                0.06096312713159896,
                0.8823165520284232,
                0.1592557356115637,
                0.5279038899287118,
                0.30100207567490234,
                0.7789048647004684,
                1.1736803324657563,
                1.112076833181868,
                0.008862658157769765,
                0.5535268129634563,
                1.0894918097528707,
                0.7920685363353852,
                0.04067261515357168,
                0.030170768456944108,
                0.7789048647004684,
                1.408013197545025,
                1.0858368332064599,
                1.0858368332064599,
                0.24469729216765213,
                1.1039847220647911,
                0.10455376552625395,
                0.9640559192236222,
                0.9640559192236222,
                0.26311354605083714,
                0.6558212481818176,
                0.9640559192236222,
                0.10592188795275109,
                1.2129444931966773,
                0.6093102959435319,
                1.112076833181868,
                0.2696765983736198,
                0.36139774952730797,
                0.13059131578694871,
                0.07529320851619603,
                0.3442785811265569,
                0.8673810337567198,
                0.43718718528403544,
                0.648146709714428,
                0.9640559192236222,
                0.3706545760838549,
                0.23074690744622328,
                0.44396036297130925,
                0.4111165114560972,
                0.2550664871272847,
                1.1120768331818678,
                0.328108850739286,
                1.1019435752324478,
                0.12122664599388441,
                0.9640559192236223,
                0.20046913840845482,
                0.1584510222670723,
                0.2678639248534167,
                0.28471657148529045,
                0.8536318113479184,
                1.408013197545025,
                1.112076833181868,
                0.2959386943952336,
                0.4582427396364528,
                0.3691636209100431,
                0.8824976202204332,
                0.29130143381185547,
                1.4080131975450247,
                1.2129444931966773,
                0.4243509061711558,
                0.5716096751350993,
                0.9640559192236221,
                1.0897368119742792,
                0.8415736858305893,
                0.20916353750586514,
                0.3442785811265569,
                0.3867835632355545,
                0.12788462066209258,
                1.5280409521036968,
                0.3371419758909666,
                0.3442785811265569,
                1.0052521213244057,
                0.2615394473477977,
                0.2498575775834415,
                0.3442785811265569,
                1.1120768331818678,
                0.7619030280349556,
                0.08336854537381766,
                0.34427858112655685,
                1.0858368332064599,
                0.5558224855803421,
                0.12492528885804244,
                0.39308102407664836,
                0.26460198614996705,
                0.7408064094356404,
                0.2558863876642934,
                0.9640559192236222,
                0.7677633063240126,
                0.849167430534301,
                0.4862996081281911,
                1.112076833181868,
                0.030632358794018377,
                0.3442785811265568,
                0.719347173602305,
                1.334782060730487,
                0.07525,
                0.9640559192236222,
                1.4080131975450252,
                1.0432934940284702,
                0.03516851433993356,
                0.9640559192236224,
                1.4080131975450254,
                0.7789048647004684,
                1.408013197545025,
                0.3508649612194378,
                0.963354705241005,
                0.6892881065724704,
                0.7789048647004684,
                0.3975792641383333,
                0.3442785811265569,
                0.24469729216765213,
                0.26634738736720653,
                0.8033404852636702,
                0.20338834337202727,
                0.7940010557777352,
                0.47435945297577486,
                0.2979941670444893,
                0.3386410117143396,
                1.0892294624056462,
                0.28278362763801335,
                0.05532652380498715,
                0.3442785811265569,
                1.4080131975450252,
                0.7789048647004684,
                1.1120768331818676,
                1.0858368332064599,
                0.07303899999999999,
                1.2991330441718385,
                0.5286358037699677,
                0.6131690833341747,
                0.6203584686393311,
                0.5608122778950557,
                1.1120768331818678,
                0.3442785811265569,
                0.559306499526083,
                0.8529998132965289,
                0.13622467490381973,
                0.5301564254810517,
                0.06691135423175597,
                0.3561527586885685,
                0.0852354,
                0.3736952243421495,
                1.0985455462859808,
                0.17080438523627775,
                0.2641106086964409,
                0.7789048647004684,
                1.0858368332064599,
                1.4080131975450247,
                0.964055919223622,
                0.5951011170599578,
                0.42590186894643617,
                1.0858368332064599,
                0.9640559192236222,
                1.112076833181868,
                0.28273201644247625,
                0.5190038412517701,
                0.4807104049540555,
                0.18245084748280738,
                0.42266102398650707,
                1.1174825099206673,
                1.4080131975450252,
                0.6164407946128809,
                0.2841897322772023,
                0.09103149906020325,
                0.34427858112655685,
                0.07525000000000001,
                0.7139966000977334,
                1.15244659550213,
                0.5607519309836522,
                0.5311707674087349,
                0.3442785811265569,
                1.1120768331818678,
                0.1838360261275156,
                0.2840470753739728,
                1.1120768331818678,
                0.07303900000000002,
                0.046640499999999994,
                0.9640559192236222,
                0.6431416703826542,
                1.0121814552508763,
                0.5316645662037695,
                0.5272721055443967,
                0.9640559192236221,
                0.44396036297130925,
                0.9640559192236221,
                0.23891812425607145,
                0.7214593194199392,
                1.0858368332064599,
                0.07525,
                0.3123521960803688,
                0.9640559192236222,
                0.3742565392696385,
                1.112076833181868,
                0.5400347196391446,
                0.7499828110208175,
                1.0858368332064599,
                0.32515547146572527,
                0.4410293894451538,
                0.6918934258177594,
                0.49014648123484444,
                0.21126453156202255,
                1.1120768331818678,
                0.4876054943794168,
                0.2536195733317919,
                0.8459512061237401,
                0.43176457571189325,
                1.2991330441718385,
                0.41293757621919436,
                0.42696484958022196,
                0.584665972397251,
                0.6157879967023827,
                0.4449353211622227,
                0.9640559192236222,
                1.191490807546048,
                0.7789048647004684,
                1.4080131975450252,
                0.07303900000000002,
                0.1645491409537444,
                0.34427858112655685,
                0.2340695907631838,
                0.9640559192236221,
                0.3442785811265569,
                0.7789048647004685,
                0.07525000000000001,
                0.06574005671402805,
                1.1120768331818678,
                0.4712902685775179,
                0.4880616997031208,
                0.7741700245226288,
                0.3537637046927824,
                0.35646603132438504,
                0.9640559192236222,
                0.5534046727607992,
                0.5438409854753299,
                1.1120768331818678,
                0.6534340549868684,
                0.6037553302908851,
                1.0502359898691327,
                0.565144249278042,
                0.03681928554944747,
                0.16177191137555702,
                0.9640559192236222,
                0.030490383166542845,
                0.7518971531801975,
                1.08583683320646,
                0.9640559192236223,
                0.3442785811265569,
                1.163604427033909,
                0.6384638184725504,
                0.7861286260290062,
                0.6926375063738738,
                0.262196724399753,
                1.0094897207986209,
                0.9640559192236222,
                0.7789048647004685,
                0.3595418460011718,
                0.6927381091455787,
                0.5194070470625523,
                0.32969523400663153,
                0.3442785811265569,
                0.3391797366513897,
                0.041362704043402365,
                1.1120768331818678,
                0.3319627622854038,
                1.1294253564611143,
                0.3442785811265569,
                0.7404431732572979,
                0.07303899999999999,
                1.1508401380933355,
                0.7789048647004684,
                0.3442785811265569,
                0.5252364863820215,
                1.112076833181868,
                0.7789048647004684,
                1.068082175185908,
                0.3390017451717785,
                0.6280763970819229,
                0.7789048647004684,
                1.1120768331818678,
                0.9031565133749129,
                0.0852354,
                0.5733895343251202,
                0.34930132677858244,
                1.1120768331818678,
                0.0863979773981427,
                0.702697405543527,
                0.10623166729500871,
                0.9640559192236222,
                0.06305810674064749,
                0.29634671550987723,
                0.30094781047067576,
                0.34427858112655696,
                0.07525,
                0.4111165114560972,
                0.30133035315561246,
                1.0858368332064599,
                0.07525,
                0.26263981226389055,
                1.1884570933146559,
                0.43572018533016105,
                0.3071183481962385,
                0.38565485269493266,
                0.18786202798541624,
                0.8429293141999489,
                1.2877493897667607,
                0.8673810337567199,
                1.0858368332064599,
                0.07989975251175596,
                0.5520186787955157,
                0.9640559192236222,
                0.3001231253652072,
                1.4080131975450252,
                1.408013197545025,
                0.410355500902625,
                0.6858330839480558,
                0.7789048647004683,
                1.0858368332064599,
                0.7061516430416774,
                0.6923927272929201,
                1.03800270656204,
                0.30639088554299065,
                0.3263456421426685,
                0.6496063470211205,
                1.2991330441718387,
                0.39412937615481425,
                0.5342149641070093,
                0.28960522290002433,
                0.2331058874312849,
                1.1120768331818678,
                0.21323542325875447,
                0.44974438131820904,
                0.14691923637300525,
                1.2129444931966775,
                0.8103241227417566,
                0.29702161643445324,
                0.4166931080995159,
                0.31443858347928616,
                0.862770048930098,
                0.357772683386587,
                0.7789048647004683,
                0.08523539999999999,
                0.21083277203023876,
                0.5663342151278351,
                0.3158402806784776,
                1.4080131975450245,
                0.8585534944766449,
                0.44396036297130925,
                0.5887465074348106,
                0.18918398059406016,
                0.7789048647004684,
                0.015442464961962998,
                0.34208334881652036,
                0.02359519129248211,
                1.1938283388069677,
                0.3442785811265569,
                0.0876557,
                0.47452165299854626,
                0.3455109582148228,
                0.43535463168912947,
                0.060116904208227906,
                0.21901015447115302,
                1.1120768331818678,
                0.32780765017556,
                0.18641223323404532,
                0.34427858112655696,
                0.34427858112655696,
                0.19959604390760988,
                1.0474069323462265,
                0.7821498230936718,
                0.07525,
                0.34427858112655696,
                0.6938331168479978,
                0.4902918179719399,
                0.7789048647004684,
                0.9952166959197679,
                1.4080131975450247,
                0.2409817317036766,
                1.2129444931966775,
                0.36317314728527533,
                0.1334388604465062,
                1.4080131975450247,
                1.0858368332064596,
                0.23230407452641041,
                0.24208232089468992,
                0.374945067781831,
                0.7359660522931479,
                1.0858368332064599,
                0.07525,
                0.5254681355205002,
                0.2003820358475507,
                0.9640559192236222,
                0.5524674831524635,
                0.9640559192236221,
                0.24469729216765213,
                1.1120768331818678,
                0.7190212542964767,
                0.3639792987379886,
                0.4470370277642088,
                1.408013197545025,
                0.31096184144430117,
                1.2129444931966775,
                0.7789048647004684,
                0.9640559192236222,
                0.8851533920398604,
                1.4080131975450247,
                0.3442785811265569,
                0.3442785811265569,
                1.408013197545025,
                0.8392190966186714,
                0.6311493906564436,
                0.6822556842796493,
                0.2115820850670835,
                1.1325378370662167,
                0.34427858112655696,
                0.8931444680822141,
                0.1639705672773662,
                0.3072854722549264,
                0.00609490789565037,
                0.023336854663332685,
                0.9640559192236222,
                0.1625097651534314,
                0.7276333214270977,
                0.8265061645052477,
                0.07303899999999999,
                0.7455816297506583,
                1.408013197545025,
                0.24206720968048723,
                1.0914195862117102,
                0.7568316003081496,
                1.2991330441718385,
                0.24469729216765218,
                0.6052989313429736,
                0.020928436119485916,
                0.7789048647004683,
                0.4839999080170252,
                0.2537338515670584,
                1.4080131975450245,
                0.5076584375760684,
                0.5057398395793824,
                0.9640559192236222,
                0.9640559192236221,
                0.6786222447558068,
                0.1187098775295583,
                1.0490877416819864,
                0.41111651145609723,
                0.5494149544979978,
                0.35573047328322277
            ],
            "photocathode": [
                4714,
                352,
                2343,
                8150,
                2397,
                6028,
                3539,
                5298,
                208,
                2114,
                6157,
                2895,
                1921,
                2786,
                6766,
                3252,
                5151,
                7048,
                1975,
                7755,
                2047,
                1223,
                1664,
                511,
                10070,
                2413,
                6647,
                4976,
                9828,
                4685,
                2374,
                4281,
                5504,
                5923,
                6766,
                12,
                5732,
                2347,
                7992,
                6857,
                5512,
                2581,
                3098,
                6877,
                9770,
                2210,
                6046,
                6477,
                4237,
                450,
                6080,
                1173,
                3798,
                2139,
                5534,
                8241,
                7791,
                81,
                3814,
                7618,
                5558,
                264,
                230,
                5333,
                9847,
                7582,
                7539,
                1705,
                7845,
                717,
                6611,
                6776,
                1894,
                4704,
                6557,
                737,
                8665,
                4203,
                7756,
                1998,
                2556,
                899,
                555,
                2423,
                6257,
                3105,
                4530,
                6713,
                2563,
                1655,
                3126,
                2843,
                1672,
                7889,
                2241,
                7816,
                819,
                6712,
                1408,
                1139,
                1861,
                1919,
                6023,
                9886,
                8002,
                2040,
                3180,
                2730,
                6236,
                2017,
                9906,
                8504,
                3015,
                4166,
                6803,
                7577,
                5788,
                1436,
                2419,
                2640,
                914,
                10724,
                2438,
                2413,
                6963,
                1886,
                1807,
                2449,
                7955,
                5439,
                563,
                2412,
                7624,
                4046,
                833,
                2765,
                1857,
                5226,
                1841,
                6884,
                5355,
                5988,
                3435,
                7775,
                207,
                2418,
                4995,
                9337,
                555,
                6875,
                10281,
                7315,
                237,
                6598,
                10041,
                5508,
                9802,
                2497,
                6723,
                4797,
                5386,
                2781,
                2485,
                1690,
                1828,
                5651,
                1432,
                5546,
                3288,
                2094,
                2438,
                7711,
                1983,
                399,
                2371,
                10269,
                5391,
                7806,
                7480,
                466,
                9056,
                3590,
                4350,
                4376,
                4059,
                7898,
                2322,
                3980,
                6006,
                946,
                3902,
                467,
                2478,
                613,
                2746,
                7768,
                1196,
                1884,
                5422,
                7507,
                10112,
                6771,
                4195,
                3047,
                7677,
                6582,
                7822,
                1983,
                3803,
                3330,
                1309,
                2985,
                8054,
                10010,
                4265,
                1941,
                681,
                2407,
                534,
                5056,
                8266,
                3836,
                3942,
                2425,
                7868,
                1264,
                1910,
                7823,
                491,
                327,
                6923,
                4614,
                7126,
                3761,
                3660,
                6822,
                3147,
                6726,
                1698,
                5074,
                7519,
                535,
                2277,
                7204,
                2596,
                7846,
                3855,
                5110,
                7775,
                2096,
                3170,
                4793,
                3450,
                1475,
                7733,
                3427,
                1786,
                5858,
                3088,
                9159,
                2942,
                3105,
                4029,
                4383,
                3122,
                6691,
                8587,
                5387,
                9726,
                489,
                1160,
                2369,
                1735,
                6945,
                2352,
                5678,
                547,
                477,
                7679,
                3424,
                3391,
                5493,
                2444,
                2393,
                6724,
                3876,
                3825,
                7552,
                4740,
                4289,
                7722,
                4047,
                242,
                1148,
                6850,
                194,
                5282,
                7842,
                6929,
                2499,
                8061,
                4409,
                5487,
                4963,
                1920,
                7092,
                6736,
                5611,
                2460,
                4889,
                3703,
                2304,
                2419,
                2448,
                285,
                7746,
                2345,
                8135,
                2401,
                5243,
                544,
                8167,
                5533,
                2375,
                3728,
                7808,
                5623,
                7438,
                2285,
                4324,
                5340,
                7747,
                6366,
                582,
                4068,
                2349,
                8037,
                586,
                4977,
                753,
                6526,
                471,
                2112,
                2085,
                2391,
                450,
                2951,
                2053,
                7733,
                501,
                1758,
                8215,
                3016,
                2169,
                2801,
                1314,
                5853,
                8804,
                6118,
                7669,
                578,
                3825,
                6557,
                2062,
                9724,
                9986,
                2790,
                4764,
                5482,
                7630,
                4952,
                4849,
                7305,
                2340,
                2402,
                4455,
                9031,
                2758,
                3675,
                1994,
                1617,
                7826,
                1537,
                3091,
                1094,
                8672,
                5574,
                2158,
                2865,
                2218,
                6319,
                2497,
                5363,
                619,
                1472,
                3941,
                2209,
                9958,
                6074,
                3096,
                4115,
                1392,
                5533,
                113,
                2486,
                165,
                8451,
                2375,
                617,
                3339,
                2511,
                3132,
                374,
                1549,
                7850,
                2302,
                1338,
                2415,
                2377,
                1400,
                7268,
                5433,
                504,
                2484,
                4889,
                3526,
                5592,
                7076,
                9948,
                1722,
                8474,
                2488,
                990,
                9889,
                7762,
                1575,
                1708,
                2608,
                5225,
                7560,
                501,
                3609,
                1434,
                6883,
                3922,
                6687,
                1718,
                7808,
                5204,
                2493,
                3157,
                9834,
                2202,
                8572,
                5665,
                6813,
                6414,
                9787,
                2467,
                2433,
                9878,
                6025,
                4446,
                4859,
                1468,
                8082,
                2423,
                6296,
                1135,
                2151,
                41,
                169,
                6809,
                1170,
                5120,
                6113,
                517,
                5116,
                9871,
                1700,
                7850,
                5376,
                9240,
                1583,
                4340,
                142,
                5580,
                3401,
                1738,
                9730,
                3692,
                3591,
                6670,
                6860,
                4650,
                796,
                7277,
                2825,
                3965,
                2529
            ]
        },
        "detections": 500,
        "events": 148957
    }
}