{
    "job_args": {
        "metric_limit": 500,
        "seed": 3778388106
    },
    "job_id": "batch_73_do_500",
    "result": {
        "collections": {
            "crystal": [
                0.08516013002405465,
                0.2694062005468014,
                0.3909696382574354,
                0.05928429525190987,
                0.7186714459574968,
                0.07525,
                0.7789048647004683,
                0.7561752702132245,
                0.39069899226832744,
                0.04691109884811118,
                1.1120768331818678,
                0.2265285701991628,
                0.33485744991608557,
                0.964055919223622,
                0.7789048647004686,
                0.6886695277208057,
                0.11090469652153678,
                0.6966646710447548,
                0.02036166117870103,
                1.1120768331818678,
                0.2625715892311751,
                0.8027232719807724,
                0.1941106113876993,
                1.408013197545025,
                0.029247181126489386,
                0.747375501117695,
                0.47423030114614995,
                0.22275657682741812,
                1.112076833181868,
                0.9011853336546275,
                0.6485749075614681,
                0.35680099800020715,
                0.34427858112655685,
                1.0858368332064599,
                1.093257086958113,
                0.9640559192236223,
                0.6106571535810456,
                0.07075267534402052,
                0.6616538360719312,
                0.18907355438620607,
                0.3442785811265569,
                0.33902008149752266,
                1.408013197545025,
                0.5891152592435942,
                0.03814114322691936,
                0.46854670144563215,
                0.3387912405295652,
                0.6333212323659927,
                0.12592946047288578,
                0.5637301739893699,
                0.559741088896521,
                0.528639291051975,
                0.18700029239597046,
                0.7004809396580511,
                0.521370202800308,
                1.4080131975450252,
                1.0858368332064596,
                0.3886827214957108,
                0.9973092509637606,
                0.7338463121378743,
                0.34427858112655685,
                0.29378762435416206,
                0.86738103375672,
                0.9133649616699642,
                0.0852354,
                0.30313260640970063,
                0.5533303088794426,
                0.7789048647004684,
                1.1120768331818678,
                0.34427858112655685,
                0.86738103375672,
                0.2694299099587958,
                0.7789048647004684,
                1.0858368332064599,
                0.7604076817563392,
                0.7789048647004684,
                0.04442950000000001,
                0.6895278011843453,
                0.07303900000000002,
                0.7789048647004685,
                0.8340833307378077,
                0.7395128754978265,
                0.4837552120679236,
                0.7789048647004684,
                0.21054859481341284,
                0.789202039919834,
                0.20177196906482622,
                0.7423229886152125,
                0.6065014817649095,
                0.07303900000000002,
                0.730871714691383,
                1.2991330441718385,
                0.7789048647004684,
                0.24586128641697091,
                0.7036452900936725,
                0.590077756209715,
                1.0858368332064599,
                1.1120768331818678,
                1.0858368332064596,
                0.4482064534505897,
                0.042929799205505104,
                0.9640559192236222,
                1.08583683320646,
                1.4080131975450247,
                0.7426668311909737,
                0.11907598643402913,
                1.408013197545025,
                0.194622889111282,
                1.408013197545025,
                0.07087975563964996,
                0.48867919636851703,
                0.7789048647004683,
                0.0847407,
                0.004549480103938186,
                0.167887826165581,
                0.5034138224065832,
                0.27994976007752026,
                0.8267537064626307,
                0.046640499999999994,
                0.7789048647004685,
                0.45702543040360505,
                0.34427858112655685,
                0.9640559192236222,
                0.7789048647004684,
                0.07525000000000001,
                1.1120768331818676,
                0.8673810337567198,
                0.2442005721912971,
                1.0858368332064599,
                0.26930344411958557,
                0.6060988644652439,
                0.07375572399382602,
                0.5536861937712183,
                0.14570111666904828,
                0.9640559192236222,
                1.408013197545025,
                1.408013197545025,
                0.5342149641070093,
                0.8415736858305893,
                0.5979452446191711,
                0.5862647941086816,
                0.7926685263618121,
                0.0466405,
                0.06342291904153174,
                0.45306019630551464,
                0.15727245676268814,
                0.9319547731903173,
                0.23883307281095406,
                0.7097244700380798,
                0.7789048647004686,
                1.112076833181868,
                0.09235837261968238,
                0.66021651990517,
                0.5162021841451425,
                0.6654435976577975,
                0.4111165114560972,
                0.1403955590751217,
                0.4575418190665067,
                0.27775382664083287,
                0.8673810337567199,
                0.9785902557398205,
                0.9640559192236222,
                0.9640559192236222,
                0.3442785811265569,
                0.40490764777916205,
                0.17113183085851869,
                1.408013197545025,
                0.34427858112655685,
                0.5596058998484154,
                0.8761038267858445,
                0.4111165114560972,
                0.4862359016088003,
                0.4240684890708802,
                0.42552017742866916,
                0.9011853336546274,
                0.34149132011667244,
                0.41046169638857033,
                0.14561369104462984,
                0.3088332333509852,
                0.828215348086585,
                0.16585307744160124,
                0.28612181208584575,
                1.2245461258281822,
                1.1752179627510824,
                0.37052925423221356,
                0.86738103375672,
                0.7789048647004683,
                1.249947682297829,
                0.8731722069224246,
                0.21955677151167907,
                0.9563915965752078,
                1.2129444931966775,
                0.3700400973881483,
                0.3469031880537382,
                0.5039169266499693,
                0.9053310125946139,
                1.1803576032287377,
                0.17583567883701476,
                0.964055919223622,
                1.08583683320646,
                0.6864524797243047,
                0.4162117575721533,
                1.2991330441718385,
                0.7789048647004684,
                0.11039958760643999,
                0.06430957712842411,
                0.32062027896026835,
                0.9640559192236222,
                1.1120768331818678,
                0.43474226744247657,
                0.9640559192236223,
                0.38418069623816353,
                0.703566452494971,
                0.2453609376445714,
                1.0051069972105475,
                0.4268405837139227,
                0.458318282408667,
                0.07525,
                0.9640559192236222,
                0.3442785811265569,
                0.7205109542254784,
                1.408013197545025,
                0.49868170416670077,
                0.5495155401622376,
                0.34633717370946937,
                0.740590438066909,
                1.1120768331818676,
                0.45833043456900796,
                0.9640559192236222,
                0.28596526728316807,
                0.3442785811265569,
                0.30610070680843326,
                1.1120768331818678,
                0.7286505468952311,
                0.3017897600855767,
                0.5106535702172333,
                0.39223454583243156,
                0.8673810337567198,
                1.408013197545025,
                0.41192743579250113,
                1.1120768331818678,
                0.4479005808292247,
                0.5407763954003812,
                0.03138277717719595,
                0.30235713024650757,
                0.14688282309189096,
                0.11076205849711786,
                1.112076833181868,
                0.7278687112755222,
                1.4080131975450247,
                0.9640559192236222,
                0.2529758560346369,
                0.3442785811265569,
                0.27511313705228646,
                0.7380076073661002,
                0.14582590428453035,
                0.7789048647004683,
                0.9181681803752808,
                0.6886695277208057,
                1.0625877896136235,
                0.7789048647004684,
                0.47739039656383214,
                0.8904624498203507,
                0.23928310805954175,
                1.4080131975450247,
                0.8153400029518995,
                0.7836043480290176,
                0.5303012381575661,
                0.6410959698391466,
                0.34427858112655696,
                0.9260016929031233,
                0.35709636477422857,
                0.7789048647004684,
                0.06502665533870577,
                1.4080131975450247,
                0.7789048647004684,
                0.7209504837305536,
                0.4585665331511284,
                0.7789048647004684,
                0.9412088966236688,
                0.34427858112655685,
                1.4080131975450245,
                0.36616096849630597,
                0.5268768921860161,
                0.4560730711021736,
                0.11498024223354329,
                0.46102105811241084,
                0.7193598637916533,
                1.102032870387481,
                1.408013197545025,
                0.5704824189350554,
                0.7064548626375602,
                0.29693006958388524,
                1.1120768331818676,
                0.46141510033772565,
                0.7789048647004684,
                0.5109989100000001,
                0.9108833504446513,
                0.34427858112655685,
                0.08300331620160767,
                0.8770761280395438,
                1.408013197545025,
                0.4702380150504312,
                1.2129444931966775,
                0.24469729216765213,
                0.34427858112655696,
                0.9811367667463307,
                1.4080131975450247,
                0.12075661502454083,
                1.4080131975450247,
                0.51099891,
                1.408013197545025,
                0.22214684343346947,
                0.5962943270089872,
                0.9278687011322178,
                1.4080131975450252,
                0.7681433010323928,
                0.38351512412274036,
                0.1789769618003048,
                1.1120768331818676,
                0.34427858112655685,
                0.7912259427584336,
                0.7789048647004685,
                0.8673810337567202,
                0.9640559192236221,
                0.31101530678900763,
                0.002216144231184769,
                0.18080523628782505,
                0.1791188218318816,
                1.1120768331818678,
                0.8257533385375293,
                1.1120768331818678,
                0.22275865259305697,
                0.07303899999999999,
                0.920542894202329,
                0.3395271281315896,
                1.08583683320646,
                1.112076833181868,
                0.6338045480277716,
                0.6741427929159318,
                0.18061035062241426,
                0.7789048647004684,
                1.1545732286605643,
                0.7353373756465234,
                0.7215587591434969,
                1.0634361617494192,
                1.1120768331818678,
                0.29496835277236627,
                0.31092636923628125,
                0.1140405834291009,
                0.641932368364543,
                0.42269921097831004,
                1.408013197545025,
                1.1120768331818678,
                0.3941401210149116,
                0.9640559192236224,
                0.008541390698125984,
                1.0802278882966505,
                0.1857349981484354,
                1.1120768331818678,
                0.18100737017307872,
                0.5164415018309979,
                0.07524999999999998,
                0.0728506705584771,
                0.9640559192236221,
                1.1120768331818678,
                1.112076833181868,
                0.4798193004662462,
                0.4827967367746452,
                0.5529114632126435,
                0.0852354,
                0.4025296287310895,
                0.3421472894179089,
                0.7789048647004684,
                1.0858368332064599,
                1.112076833181868,
                0.34427858112655685,
                0.073039,
                0.24469729216765215,
                0.28111909710311983,
                1.08583683320646,
                0.07524999999999998,
                0.1223735250995629,
                0.32102805566344583,
                0.9072075222168304,
                0.34427858112655685,
                0.18272181536453924,
                0.5194534919207026,
                0.5639889353995464,
                0.5862647941086815,
                0.04200506536228005,
                0.9640559192236222,
                0.34427858112655685,
                0.7852689439516504,
                0.9640559192236222,
                0.7257213837658623,
                0.34427858112655696,
                0.14668664658069597,
                0.340011679244283,
                0.010814856075800794,
                1.1212590013261388,
                0.9633547052410049,
                0.7789048647004685,
                0.24469729216765218,
                0.4863965299862224,
                0.1786580822369808,
                1.1120768331818676,
                0.9640559192236221,
                0.6739227664857989,
                0.34427858112655685,
                0.41458843790191835,
                0.2679937585692068,
                1.1079240187273522,
                0.29157730407708937,
                0.3442785811265569,
                0.030126304363931045,
                1.0897368119742792,
                0.7105269311196154,
                0.44396036297130914,
                0.1563774071569454,
                0.46894100484289425,
                0.13822413156224633,
                0.5947754263476543,
                0.6282209381736361,
                1.4080131975450252,
                0.24552590435690488,
                0.5765373963313648,
                1.0949934302620985,
                1.1931954298625715,
                0.342166777320552,
                1.1925578673491786,
                1.4080131975450247,
                0.29058607617728605,
                1.4080131975450247,
                0.2319332061223226,
                0.3897420601900061,
                1.0479895901973277,
                0.18795453919536897,
                0.45826399613758595,
                1.1120768331818678,
                0.5180538638431349,
                0.9846939847982915,
                0.07524999999999998,
                0.12200452278148133,
                0.5588535938082901,
                0.982517596343987,
                0.2676503854705092,
                0.9133403875741762,
                0.57862101273111,
                1.153603632538787,
                0.4304106665063926,
                0.6192950713592225,
                0.08812050367148916,
                0.6770602022643714,
                0.3442785811265569,
                0.09004916859572654,
                0.1524065777063882,
                1.1120768331818678,
                0.9221854532577675,
                0.4754425100296692,
                0.07524999999999998,
                0.8626871084132199,
                1.4080131975450247,
                0.4857980920433044,
                0.4391454721938099,
                0.1502421298696075,
                1.457639694961042,
                0.5405226170271202,
                1.408013197545025,
                1.1120768331818678,
                0.07157062395203617,
                0.7789048647004684,
                1.408013197545025,
                0.7789048647004685,
                0.44545686602966866,
                0.17692984127660483,
                0.3677893942632995,
                0.34427858112655685,
                0.3442785811265569,
                0.8833363712410209,
                1.4080131975450252,
                0.21500240036060808,
                0.36778939426329954,
                0.5564521506541733,
                0.5106063798765094,
                0.7210364164769292,
                0.41116859496347113,
                0.1261934284102857,
                0.3342440357573482,
                0.7789048647004684,
                0.7789048647004683,
                0.15027411563869153,
                1.408013197545025,
                0.5108878046499514,
                0.17854385958620775,
                0.057409532119038514,
                1.1120768331818676,
                0.45247452919349107,
                1.408013197545025,
                0.7789048647004683
            ],
            "photocathode": [
                600,
                1923,
                2764,
                398,
                4948,
                503,
                5451,
                5397,
                2795,
                272,
                7770,
                1611,
                2326,
                6678,
                5452,
                4784,
                783,
                5052,
                146,
                7759,
                1813,
                5541,
                1386,
                9723,
                202,
                5189,
                3254,
                1602,
                7777,
                6300,
                4622,
                2611,
                2438,
                7349,
                7473,
                6713,
                4367,
                541,
                4479,
                1324,
                2448,
                2287,
                10086,
                4105,
                261,
                3169,
                2315,
                4556,
                868,
                4048,
                3835,
                3688,
                1326,
                4907,
                3725,
                9708,
                7592,
                2668,
                7062,
                5117,
                2437,
                2187,
                6065,
                6485,
                546,
                2068,
                3776,
                5355,
                7869,
                2452,
                6093,
                1855,
                5384,
                7560,
                5202,
                5363,
                318,
                4655,
                540,
                5469,
                5808,
                5162,
                3368,
                5444,
                1522,
                5562,
                1414,
                5174,
                4273,
                500,
                5084,
                9285,
                5286,
                1715,
                4950,
                4132,
                7777,
                7953,
                7657,
                3154,
                323,
                6761,
                7505,
                9959,
                5209,
                818,
                10250,
                1431,
                9762,
                484,
                3509,
                5521,
                585,
                28,
                1150,
                3569,
                1950,
                5828,
                362,
                5515,
                3164,
                2440,
                7027,
                5588,
                498,
                7863,
                6047,
                1672,
                7596,
                1760,
                4353,
                505,
                3785,
                1012,
                6714,
                9915,
                9945,
                3657,
                6010,
                4139,
                4186,
                5453,
                341,
                424,
                3241,
                1087,
                6519,
                1670,
                5109,
                5553,
                7892,
                635,
                4749,
                3621,
                4584,
                2895,
                934,
                3271,
                2015,
                6159,
                6767,
                6780,
                6708,
                2427,
                2895,
                1227,
                9972,
                2428,
                3930,
                6006,
                2902,
                3399,
                3016,
                3074,
                6198,
                2355,
                2819,
                1013,
                2108,
                5990,
                1198,
                1943,
                8714,
                8300,
                2579,
                5962,
                5606,
                8909,
                6280,
                1546,
                6923,
                8688,
                2546,
                2436,
                3526,
                6278,
                8261,
                1245,
                6735,
                7552,
                4797,
                2936,
                9075,
                5343,
                772,
                463,
                2152,
                6491,
                7708,
                3006,
                6656,
                2787,
                4904,
                1685,
                7049,
                2957,
                3138,
                523,
                6766,
                2403,
                5050,
                9924,
                3409,
                3927,
                2315,
                5351,
                7786,
                3216,
                6689,
                1953,
                2385,
                2157,
                7694,
                5215,
                2084,
                3611,
                2796,
                6138,
                9918,
                2949,
                7657,
                3163,
                3733,
                242,
                2141,
                1052,
                790,
                7746,
                5144,
                9935,
                6696,
                1741,
                2338,
                1871,
                5100,
                991,
                5404,
                6599,
                4706,
                7429,
                5390,
                3057,
                6381,
                1707,
                9850,
                5821,
                5621,
                3853,
                4482,
                2319,
                6389,
                2450,
                5397,
                458,
                9575,
                5353,
                4999,
                3241,
                5532,
                6672,
                2329,
                9709,
                2564,
                3619,
                3262,
                826,
                3270,
                4946,
                7570,
                9897,
                3998,
                4930,
                1925,
                7757,
                3210,
                5386,
                3503,
                6483,
                2364,
                566,
                6276,
                9827,
                3526,
                8475,
                1761,
                2322,
                7015,
                10150,
                844,
                9608,
                3574,
                10055,
                1571,
                4202,
                6433,
                9780,
                5762,
                2798,
                1259,
                7678,
                2400,
                5584,
                5414,
                6123,
                6973,
                2225,
                19,
                1295,
                1238,
                7972,
                5748,
                7866,
                1615,
                502,
                6458,
                2357,
                7505,
                7831,
                4385,
                4631,
                1251,
                5339,
                8120,
                5219,
                4980,
                7399,
                7860,
                2095,
                2280,
                822,
                4521,
                2896,
                9946,
                8165,
                2822,
                6836,
                49,
                7567,
                1237,
                7641,
                1270,
                3674,
                515,
                505,
                6919,
                7641,
                7996,
                3396,
                3487,
                3874,
                565,
                2881,
                2309,
                5468,
                7734,
                7797,
                2345,
                521,
                1724,
                1964,
                7623,
                532,
                856,
                2337,
                6565,
                2540,
                1324,
                3646,
                3948,
                3962,
                294,
                6829,
                2403,
                5625,
                6904,
                5111,
                2456,
                1065,
                2425,
                85,
                7886,
                6545,
                5677,
                1660,
                3366,
                1218,
                7578,
                6662,
                4610,
                2424,
                2934,
                1889,
                7646,
                1972,
                2489,
                198,
                7780,
                5180,
                3118,
                1040,
                3333,
                996,
                4119,
                4419,
                9842,
                1646,
                4091,
                7571,
                8475,
                2446,
                8457,
                9950,
                2090,
                10043,
                1575,
                2653,
                7106,
                1265,
                3240,
                7611,
                3653,
                7112,
                495,
                858,
                3894,
                6878,
                1891,
                6430,
                4029,
                8094,
                2991,
                4317,
                658,
                4772,
                2430,
                640,
                1081,
                7931,
                6424,
                3288,
                513,
                6031,
                9779,
                3380,
                3140,
                1086,
                10293,
                3782,
                9938,
                7695,
                518,
                5655,
                9755,
                5483,
                3160,
                1271,
                2481,
                2405,
                2454,
                6099,
                9791,
                1552,
                2559,
                3767,
                3611,
                5136,
                2921,
                869,
                2307,
                5609,
                5356,
                1104,
                9819,
                3524,
                1305,
                380,
                7810,
                3133,
                9830,
                5422
            ]
        },
        "detections": 500,
        "events": 136999
    }
}