{
    "job_args": {
        "metric_limit": 500,
        "seed": 2099417177
    },
    "job_id": "batch_135_do_500",
    "result": {
        "collections": {
            "crystal": [
                0.059566133654942816,
                0.05951743200588749,
                0.05959338990269146,
                0.059513034635355996,
                0.05954125101382311,
                0.017289989480947152,
                0.01784148535686755,
                0.018026918334893154,
                0.05958229067348788,
                0.059566199306715514,
                0.05956082579031873,
                0.059563408138933294,
                0.05949179146133888,
                0.059528234761896656,
                0.021574034512624175,
                0.059493529181555996,
                0.059516003240252524,
                0.016811950748123528,
                0.02636127476332312,
                0.05953255738519317,
                0.01394615762110944,
                0.017838098765440548,
                0.05950368281457496,
                0.0595301649163555,
                0.013958868293415569,
                0.059515464300527024,
                0.05955560818805648,
                0.05444536864733173,
                0.05949996878042031,
                0.05948994471367898,
                0.01785866301756199,
                0.05950366664586423,
                0.05959481542081995,
                0.013945449497151608,
                0.020897506637613902,
                0.05950334099363033,
                0.05951964962144891,
                0.059508628449509084,
                0.0031592878147074085,
                0.01395326294431613,
                0.03093251519737007,
                0.020870904636341767,
                0.013758805992973359,
                0.05950504807401349,
                0.013967494960327691,
                0.017196208934949775,
                0.05951266191404863,
                0.05957844150926626,
                0.05953081113154068,
                0.013966208981624576,
                0.05958287612729295,
                0.017843945276298123,
                0.020871104730133826,
                0.059533506813969385,
                0.0595269276415063,
                0.017068444141180965,
                0.05955675535249065,
                0.021133231160526515,
                0.012656300000000002,
                0.017839284154242133,
                0.026324328227639505,
                0.059558719405239255,
                0.027305930906579467,
                0.017847333883261284,
                0.017846113355245368,
                0.05948678871315267,
                0.059501519493288774,
                0.01752696138992585,
                0.016851394706515584,
                0.05951760289284119,
                0.01782742564028623,
                0.017074091761863742,
                0.028678926825505702,
                0.03092926448367694,
                0.059552023148975924,
                0.059511983148320985,
                0.03094606372190327,
                0.026904247297232998,
                0.05957657959644497,
                0.05956050381291694,
                0.05952336443176125,
                0.05951082363260269,
                0.059562393464289556,
                0.013951140134506013,
                0.05952075518272976,
                0.059489681033156765,
                0.01785537091959593,
                0.05955800972700928,
                0.013960585286267386,
                0.05957087148968569,
                0.026333805223098306,
                0.020900013442690924,
                0.05955110905332608,
                0.05958121496255653,
                0.013957623981375063,
                0.0595920089453638,
                0.05949144580685265,
                0.030936206354404118,
                0.026334858049012876,
                0.059489844092477144,
                0.05950938356178839,
                0.017835269885972206,
                0.05955954293052038,
                0.0595335564928536,
                0.05956782125280289,
                0.05955021834951281,
                0.017517026426583426,
                0.017848671193407755,
                0.02090408863879309,
                0.05955461476724309,
                0.05954227393604039,
                0.05950150009029133,
                0.01783395708686958,
                0.05953388367240846,
                0.05958513980813621,
                0.05950055173874595,
                0.05948976606912357,
                0.017832758909747184,
                0.05954774214464628,
                0.012656300000000002,
                0.05959465462123219,
                0.030885074434080513,
                0.059524705750160695,
                0.05952238450891023,
                0.026347760420826035,
                0.059574665325401586,
                0.059522673674265954,
                0.05953589543558915,
                0.017832657247628617,
                0.05955889359522892,
                0.016845000670268378,
                0.05955241717690364,
                0.0595094411005632,
                0.059588475424137595,
                0.031242142207108692,
                0.05954069312320784,
                0.059577554348127136,
                0.05440906295814843,
                0.026333822962856714,
                0.031239334172075993,
                0.016847862755037163,
                0.013758237351216479,
                0.05955885660934514,
                0.0595303793312497,
                0.059563954301212106,
                0.059594286427792485,
                0.059502435908545495,
                0.05955953939441638,
                0.05948791674189555,
                0.05951614982824589,
                0.05955316670318776,
                0.05949257212293765,
                0.031233765457307622,
                0.059568135148550166,
                0.014815800000000002,
                0.059568471335827364,
                0.059562545508927,
                0.026355833679858994,
                0.030909622996851314,
                0.059507635187386804,
                0.05952770721602086,
                0.05954410238035787,
                0.05954541995007617,
                0.05950764262597813,
                0.059565950784528636,
                0.05959040306198728,
                0.013946407004464846,
                0.0595872907646382,
                0.017071686000497473,
                0.059559707590461274,
                0.013960159773803193,
                0.021567703159702967,
                0.0595866731978672,
                0.020898210609022746,
                0.013945927996765351,
                0.013961437197109614,
                0.05957070802309122,
                0.059568293970551016,
                0.05955023178385429,
                0.059552938064746555,
                0.059521571533009014,
                0.059545051315803135,
                0.059569488680483555,
                0.01861461624968813,
                0.05719394479161309,
                0.059542222511230966,
                0.0595347632718583,
                0.059494387308081105,
                0.013955909723403808,
                0.059576027650869876,
                0.02089038138423653,
                0.05959350481899649,
                0.059595479554848924,
                0.026348512440837087,
                0.05954738631538074,
                0.0126563,
                0.026354256940312428,
                0.017838210723646136,
                0.059486535186731054,
                0.05954026488776561,
                0.059504578951558286,
                0.059593328596383555,
                0.0594969865645814,
                0.05954511526614311,
                0.05958192201722007,
                0.05951365524025397,
                0.030907710243357926,
                0.05953198510683827,
                0.059572433086411476,
                0.05958445628570509,
                0.05954620421580343,
                0.026506347740543255,
                0.059545016798869484,
                0.05957096332849824,
                0.05953524642034949,
                0.05958262426282104,
                0.05958149531419371,
                0.059522473793468575,
                0.013965910971779134,
                0.013959536543372434,
                0.05954311001200836,
                0.05954715924655418,
                0.018008759077665484,
                0.05952109553381632,
                0.05949815834186217,
                0.059580594255566104,
                0.05949587694610348,
                0.05954008845678258,
                0.02088893093976192,
                0.05953367294798212,
                0.059569541890430656,
                0.059493049136811985,
                0.05959512203370123,
                0.05952726283043808,
                0.0595196158263738,
                0.05950222178402546,
                0.05951992149819698,
                0.05957534824066939,
                0.027355672625011082,
                0.05951654509160817,
                0.059530991813603794,
                0.05949015032501277,
                0.059569400654966215,
                0.059553826626870976,
                0.0175065812465426,
                0.059504289269973656,
                0.030908138610012948,
                0.0594987499541246,
                0.059531326398036905,
                0.013955025872385587,
                0.0595757667044255,
                0.029480920416993326,
                0.018757180702643074,
                0.05209088111106828,
                0.059516065757065195,
                0.026329219710590587,
                0.0595496442767014,
                0.059527565761889556,
                0.05957413833591875,
                0.026321584070219357,
                0.030971080979167488,
                0.027304031312693218,
                0.059541932344391556,
                0.013960810474733576,
                0.016857310462369116,
                0.05957646556444146,
                0.013953568491165125,
                0.059583219810666006,
                0.01783562628212429,
                0.02635627864194041,
                0.059518614260492785,
                0.02157584279723076,
                0.05954689168066698,
                0.016864469751741065,
                0.05952158135445971,
                0.04342139601966314,
                0.059563341024310094,
                0.05951986027442752,
                0.059561417146734824,
                0.0595135921911634,
                0.05957682418381795,
                0.059533527568861835,
                0.059567261785687185,
                0.05957451238980519,
                0.05951136688548696,
                0.017853467106749656,
                0.01800735629174712,
                0.059546510362259365,
                0.05954432415764261,
                0.017848649572819897,
                0.01685287048484231,
                0.059532145638460425,
                0.030980383423679165,
                0.05956876626372525,
                0.059496451245323205,
                0.021122044209861343,
                0.0595277339256406,
                0.05958233581269847,
                0.021353060039998123,
                0.03128890710591572,
                0.05952848869924042,
                0.05953854422277009,
                0.05954573167319089,
                0.0595304868891641,
                0.05957579740549114,
                0.013756231301579463,
                0.05949271368694359,
                0.02727531010717644,
                0.05955112375981561,
                0.013762983251418144,
                0.059524750348475895,
                0.05950249289333754,
                0.059559305360730716,
                0.05955709827568821,
                0.059565284573905045,
                0.059489925832118394,
                0.04870278884962006,
                0.059553213185837915,
                0.017081250150682094,
                0.017857292744960042,
                0.031244059286372285,
                0.016858932964284885,
                0.013962163071185916,
                0.0178389689883744,
                0.027242901963294305,
                0.059560392615011455,
                0.02160087674342232,
                0.030950588583798733,
                0.059583749657165785,
                0.0213869580995784,
                0.05953178872325886,
                0.020906482925308813,
                0.026328861828545692,
                0.059566077422017,
                0.05951702085805573,
                0.031188579368204343,
                0.030893522985079972,
                0.05950497162901538,
                0.059583854986354524,
                0.013756658583597777,
                0.05950401216155388,
                0.05958359492890292,
                0.016980786303786022,
                0.05955111329470182,
                0.05949192939392797,
                0.05709018019423882,
                0.05948754301042056,
                0.059574240967548354,
                0.059513953861756536,
                0.0223969198209056,
                0.017851415057924758,
                0.05248479894433668,
                0.01685195930198159,
                0.05951921437421755,
                0.020886950548776755,
                0.026346928273244908,
                0.017830771277312724,
                0.0595167231057478,
                0.030899775319153028,
                0.059532076446888064,
                0.059573883780363275,
                0.05954626732159043,
                0.05953468566504244,
                0.05957687676000183,
                0.059564313129573235,
                0.05948712860057457,
                0.05956500996036068,
                0.020898167753507786,
                0.017832661940504098,
                0.0126563,
                0.059574872092736604,
                0.059574120942047115,
                0.016850760997826775,
                0.0595819645290189,
                0.05952508638907537,
                0.01599357962493378,
                0.05956815719491581,
                0.05956976156336143,
                0.059553371129179064,
                0.059497851457620474,
                0.05951554497835539,
                0.0595505478833884,
                0.05951099988802676,
                0.05958877738349507,
                0.0595078162153954,
                0.059577722526603656,
                0.059542455724586704,
                0.05950530443972677,
                0.01785488338981562,
                0.059520424303645625,
                0.059589131728209704,
                0.05953646928393929,
                0.05949081306611598,
                0.022411995326422136,
                0.05956467912453792,
                0.05954111795799195,
                0.05956323367724791,
                0.013949516573127556,
                0.030924131388361073,
                0.05958919700181282,
                0.12525596701009825,
                0.05950068905858553,
                0.031250486986402516,
                0.0595878827641865,
                0.059542393494116996,
                0.05291602945947648,
                0.05958456453702398,
                0.05950099697997213,
                0.03097595963804686,
                0.02089767507606271,
                0.05952307648043247,
                0.05950266219013824,
                0.05952161724118804,
                0.017828078085815227,
                0.031271193045472795,
                0.05959549749648579,
                0.013957413507803338,
                0.059560014609148705,
                0.05958941384808387,
                0.059548331964722055,
                0.02636150088051808,
                0.05950288728490558,
                0.05952841872262253,
                0.059536196138571584,
                0.020882098815228303,
                0.05959160097745793,
                0.059515923880200085,
                0.013949982126641444,
                0.05955855252722913,
                0.03126574761985641,
                0.05958620872730947,
                0.016864790977473627,
                0.03127043101973257,
                0.059572717185900174,
                0.059525143020786285,
                0.059574773109252355,
                0.020898702612182997,
                0.013956770493605128,
                0.05950313674774432,
                0.01785220175858453,
                0.059560070378139034,
                0.05951155788270888,
                0.05949509747243233,
                0.05948958795011014,
                0.05956075390628065,
                0.059568515896523365,
                0.059573402783411,
                0.01782881525813568,
                0.05470561688504549,
                0.059555172434526425,
                0.059523263729632875,
                0.05959180582811123,
                0.01395469566201079,
                0.026522931346202334,
                0.059491839791070186,
                0.017835291824007,
                0.01707132833229772,
                0.013949658551236623,
                0.05951581584340944,
                0.013969660690888744,
                0.018033265600589928,
                0.05953885407455342,
                0.017834110216338454,
                0.026337605140870336,
                0.05950271530205428,
                0.059542183897702564,
                0.05951593321831695,
                0.05957444840658392,
                0.017826566596647025,
                0.02087600402471407,
                0.0178270889342455,
                0.05955642322220295,
                0.059594662287890524,
                0.05958879792503592,
                0.01395631226948632,
                0.059573172291117436,
                0.05954014720242119,
                0.01685527633075488,
                0.03098582356017538,
                0.059556206831673265,
                0.01784518535057992,
                0.016874046532250456,
                0.020888526283869426,
                0.05956350031060837,
                0.059535112184782524,
                0.026362421270842578,
                0.059514318796790755,
                0.05957158995033841,
                0.05954824338278436,
                0.01396102170019771,
                0.013965120497328561,
                0.01395126322453893,
                0.057865896467136003,
                0.05952247163742007,
                0.059513783207479964,
                0.05711766811748499,
                0.017832924248186808,
                0.05958824145007405,
                0.05953605142622353,
                0.05957356330119093
            ],
            "photocathode": [
                435,
                384,
                380,
                379,
                409,
                129,
                139,
                122,
                430,
                419,
                463,
                394,
                384,
                430,
                153,
                365,
                446,
                116,
                166,
                435,
                92,
                115,
                454,
                432,
                83,
                436,
                413,
                403,
                436,
                430,
                131,
                385,
                405,
                100,
                143,
                443,
                416,
                401,
                15,
                92,
                195,
                144,
                85,
                411,
                94,
                127,
                393,
                442,
                418,
                86,
                419,
                119,
                133,
                379,
                417,
                110,
                398,
                146,
                76,
                105,
                194,
                371,
                170,
                148,
                115,
                439,
                376,
                135,
                111,
                427,
                122,
                124,
                218,
                229,
                438,
                412,
                198,
                199,
                426,
                455,
                424,
                405,
                432,
                108,
                377,
                421,
                134,
                364,
                75,
                391,
                164,
                160,
                407,
                420,
                94,
                392,
                394,
                220,
                178,
                449,
                422,
                128,
                423,
                433,
                397,
                407,
                142,
                131,
                151,
                425,
                420,
                410,
                132,
                370,
                404,
                416,
                399,
                118,
                405,
                67,
                435,
                189,
                412,
                392,
                173,
                415,
                367,
                428,
                131,
                408,
                127,
                447,
                443,
                423,
                221,
                407,
                429,
                362,
                172,
                232,
                110,
                80,
                406,
                389,
                437,
                413,
                396,
                462,
                410,
                462,
                404,
                413,
                156,
                429,
                98,
                421,
                410,
                187,
                228,
                393,
                374,
                400,
                390,
                422,
                390,
                433,
                88,
                420,
                124,
                412,
                106,
                150,
                376,
                138,
                68,
                105,
                394,
                426,
                423,
                426,
                414,
                437,
                367,
                130,
                418,
                442,
                420,
                407,
                116,
                412,
                136,
                424,
                396,
                193,
                399,
                85,
                184,
                128,
                435,
                401,
                425,
                391,
                408,
                402,
                416,
                385,
                183,
                415,
                415,
                393,
                425,
                175,
                404,
                441,
                438,
                397,
                437,
                401,
                93,
                105,
                441,
                427,
                116,
                422,
                420,
                370,
                400,
                399,
                151,
                425,
                444,
                424,
                402,
                401,
                373,
                424,
                401,
                399,
                206,
                376,
                415,
                395,
                398,
                415,
                132,
                405,
                201,
                427,
                409,
                105,
                408,
                201,
                134,
                373,
                412,
                192,
                434,
                381,
                422,
                183,
                231,
                200,
                400,
                110,
                100,
                417,
                64,
                436,
                117,
                198,
                398,
                177,
                399,
                117,
                436,
                286,
                406,
                380,
                451,
                377,
                407,
                445,
                422,
                407,
                391,
                122,
                143,
                408,
                381,
                138,
                114,
                413,
                224,
                406,
                419,
                145,
                442,
                430,
                136,
                218,
                403,
                412,
                407,
                396,
                447,
                95,
                432,
                183,
                430,
                89,
                435,
                405,
                373,
                378,
                411,
                394,
                360,
                421,
                125,
                120,
                229,
                124,
                88,
                110,
                185,
                420,
                145,
                191,
                397,
                130,
                392,
                159,
                207,
                432,
                383,
                237,
                248,
                389,
                393,
                101,
                423,
                433,
                113,
                395,
                442,
                375,
                424,
                424,
                424,
                125,
                118,
                329,
                132,
                373,
                165,
                183,
                133,
                357,
                212,
                393,
                445,
                415,
                421,
                374,
                428,
                391,
                398,
                151,
                122,
                77,
                451,
                389,
                108,
                402,
                408,
                121,
                419,
                430,
                428,
                421,
                414,
                412,
                443,
                382,
                422,
                413,
                404,
                428,
                132,
                433,
                429,
                415,
                386,
                159,
                404,
                385,
                408,
                99,
                238,
                412,
                873,
                378,
                202,
                375,
                366,
                374,
                407,
                383,
                195,
                153,
                423,
                441,
                361,
                131,
                218,
                412,
                92,
                420,
                429,
                373,
                207,
                411,
                413,
                394,
                124,
                434,
                427,
                100,
                381,
                242,
                454,
                113,
                217,
                414,
                399,
                404,
                138,
                99,
                425,
                110,
                410,
                415,
                430,
                424,
                404,
                450,
                420,
                94,
                398,
                445,
                433,
                407,
                83,
                196,
                414,
                106,
                108,
                92,
                372,
                105,
                119,
                438,
                117,
                186,
                374,
                406,
                406,
                442,
                134,
                149,
                122,
                445,
                399,
                394,
                109,
                422,
                453,
                124,
                224,
                426,
                124,
                100,
                144,
                424,
                364,
                198,
                439,
                393,
                408,
                88,
                99,
                98,
                365,
                393,
                430,
                382,
                140,
                414,
                403,
                383
            ]
        },
        "detections": 500,
        "events": 232045
    }
}