{
    "job_args": {
        "metric_limit": 500,
        "seed": 1586898357
    },
    "job_id": "batch_133_do_500",
    "result": {
        "collections": {
            "crystal": [
                0.5667046364110093,
                0.3978467989705944,
                0.07934318087553005,
                0.6616572831606166,
                0.6616572831606166,
                0.6616572831606166,
                0.22474595508892842,
                0.46446032895466827,
                0.6616572831606166,
                0.25287142522186645,
                0.6616572831606166,
                0.23370396566575435,
                0.07524999999999998,
                0.09640026181850586,
                0.6616572831606167,
                0.012391356339707893,
                0.12966181180590775,
                0.6616572831606167,
                0.44973674969780286,
                0.4607475909351872,
                0.05622744256035761,
                0.6616572831606164,
                0.6616572831606164,
                0.458125432691995,
                0.6528161934937842,
                0.6616572831606166,
                0.6616572831606166,
                0.5011828471843552,
                0.6616572831606166,
                0.4518525501953846,
                0.6549801430428811,
                0.4282347148316856,
                0.6239106313938291,
                0.3420637575025367,
                0.4776690736669709,
                0.23807956742918776,
                0.6616572831606166,
                0.6616572831606166,
                0.595313262634453,
                0.6616572831606166,
                0.4193451732364889,
                0.0878775,
                0.040645255930471746,
                0.47283693366805163,
                0.6616572831606167,
                0.6616572831606166,
                0.1914213188952658,
                0.31242339375829686,
                0.6616572831606167,
                0.6616572831606168,
                0.6616572831606164,
                0.43031673865133235,
                0.41357830315523614,
                0.0909511962667765,
                0.6616572831606166,
                0.6616572831606167,
                0.41451247119855805,
                0.09520653484475305,
                0.6616572831606166,
                0.07525,
                0.4323313784255262,
                0.6616572831606164,
                0.09847943649888091,
                0.06345856107902159,
                0.46503000376038633,
                0.14585045079275397,
                0.5687206801623759,
                0.6616572831606166,
                0.06995608513059609,
                0.21116391491122416,
                0.1190379293253302,
                0.6616572831606167,
                0.4671454685245461,
                0.2820487260935498,
                0.3302711707089375,
                0.3468668095334728,
                0.6616572831606166,
                0.34485181543427473,
                0.09561648533592493,
                0.38140287274021206,
                0.5703443262551786,
                0.6616572831606166,
                0.3735173793132962,
                0.09040666871193392,
                0.6616572831606164,
                0.41761269308749405,
                0.6068162477536302,
                0.6616572831606168,
                0.34418265742807186,
                0.6616572831606166,
                0.6616572831606164,
                0.6616572831606166,
                0.6616572831606167,
                0.5568655618420523,
                0.6616572831606166,
                0.4312830888300988,
                0.32872054329888933,
                0.6616572831606167,
                0.4765035706891402,
                0.5003959466472735,
                0.6616572831606166,
                0.6616572831606166,
                0.6616572831606164,
                0.6616572831606166,
                0.6616572831606167,
                0.6428537215624613,
                0.6616572831606164,
                0.6616572831606167,
                0.6616572831606166,
                0.43561929724793585,
                0.6616572831606164,
                0.090110724589745,
                0.6616572831606166,
                0.4846926158608851,
                0.6616572831606166,
                0.6616572831606166,
                0.6616572831606166,
                0.33485846440780176,
                0.6616572831606167,
                0.4612921971594466,
                0.362526052671692,
                0.4728518849938413,
                0.6100671941518558,
                0.6616572831606166,
                0.1296414119262238,
                0.6616572831606164,
                0.06063774974071334,
                0.09783091529442889,
                0.12724624916096783,
                0.11553394835240294,
                0.12975062089923084,
                0.1414011195511955,
                0.23332686670794484,
                0.6616572831606166,
                0.5079393017053124,
                0.2493972269249599,
                0.6616572831606164,
                0.3401719503803735,
                0.05527090876140983,
                0.6616572831606166,
                0.6616572831606166,
                0.4657074170360111,
                0.6108741304077666,
                0.5442109986233479,
                0.6616572831606166,
                0.6616572831606166,
                0.34647769549665414,
                0.0852354,
                0.23760786663293595,
                0.6616572831606166,
                0.6616572831606166,
                0.3156545267321368,
                0.44992128250037444,
                0.6616572831606166,
                0.47268957434911124,
                0.6616572831606167,
                0.6616572831606166,
                0.4978462709572008,
                0.1444388046017707,
                0.1303579920820941,
                0.18196607806173487,
                0.2675351429441291,
                0.6616572831606164,
                0.6616572831606166,
                0.6616572831606166,
                0.6616572831606164,
                0.6616572831606167,
                0.6616572831606166,
                0.07822058729591874,
                0.6616572831606166,
                0.5351135483675253,
                0.6616572831606167,
                0.3853995882801341,
                0.04742656961478342,
                0.6616572831606166,
                0.6301098961919476,
                0.6327085533068358,
                0.6616572831606167,
                0.3343691253897725,
                0.5452455074374867,
                0.009956467559985027,
                0.2341957607766548,
                0.2892238533818484,
                0.5844138922477066,
                0.05323592561270862,
                0.27750600066052966,
                0.2427764602994911,
                0.6616572831606166,
                0.6616572831606164,
                0.6616572831606167,
                0.45661739666996165,
                0.41082542464331107,
                0.38788792876614964,
                0.503683567504135,
                0.6616572831606166,
                0.6616572831606164,
                0.34194758030922706,
                0.42513862566970406,
                0.6616572831606166,
                0.31602918708674865,
                0.37654991307120267,
                0.4058666041887314,
                0.6616572831606166,
                0.11620748431744592,
                0.6616572831606164,
                0.03126072671613389,
                0.4480508527291975,
                0.6616572831606166,
                0.4171937804019581,
                0.6616572831606167,
                0.014917499249163635,
                0.47414974883835564,
                0.6616572831606166,
                0.6616572831606167,
                0.42412867122049325,
                0.6287758667692828,
                0.17390682779651906,
                0.6616572831606164,
                0.5485746484484723,
                0.6616572831606166,
                0.5563291356533231,
                0.6616572831606167,
                0.009668807317621486,
                0.21039300020932306,
                0.6616572831606166,
                0.4994037973707647,
                0.3430316382731661,
                0.28956457648729217,
                0.6616572831606166,
                0.45983257217012374,
                0.6616572831606166,
                0.4027430451856116,
                0.6286977539330241,
                0.12906328414794932,
                0.1177930247586465,
                0.6616572831606166,
                0.3941261336876945,
                0.23894768102703634,
                0.6616572831606166,
                0.42841763054687265,
                0.6616572831606168,
                0.40602986295662846,
                0.6616572831606164,
                0.6616572831606164,
                0.4880000079983951,
                0.01635290927323496,
                0.25942409172109643,
                0.288296041269577,
                0.6616572831606164,
                0.509418346751927,
                0.6616572831606167,
                0.20661935098514114,
                0.3895294387972273,
                0.6616572831606166,
                0.5383607190196992,
                0.2681770681985415,
                0.10833742671478085,
                0.17406550825605882,
                0.6616572831606167,
                0.6616572831606166,
                0.6616572831606167,
                0.6616572831606168,
                0.6616572831606166,
                0.4320273660356061,
                0.37128629477788083,
                0.4282717443701497,
                0.30575669799562794,
                0.6616572831606167,
                0.41328300813753105,
                0.49852071695990297,
                0.6352770972989181,
                0.06127046703355854,
                0.6616572831606167,
                0.07525,
                0.45182822836063746,
                0.0852354,
                0.0009163885491207946,
                0.18522050896533127,
                0.32750567468709646,
                0.27831539233106634,
                0.6616572831606167,
                0.6616572831606166,
                0.6616572831606164,
                0.41793577475978816,
                0.3889054496407873,
                0.6616572831606164,
                0.6616572831606166,
                0.6616572831606166,
                0.31449185472472363,
                0.24516130674617143,
                0.25028821855799915,
                0.4567060644374581,
                0.08151135241744778,
                0.2389837365945394,
                0.1770461035923238,
                0.036733768423641455,
                0.00483014446970409,
                0.12207107152881314,
                0.6616572831606166,
                0.2471049303832024,
                0.6195566330197327,
                0.4666769905164213,
                0.40256114880472915,
                0.3936409396360573,
                0.35457317207216466,
                0.6616572831606166,
                0.44258885877701015,
                0.6073668685557762,
                0.6616572831606166,
                0.044179707536265655,
                0.43409332315648935,
                0.08778232502599526,
                0.3432529889986695,
                0.23384102624266337,
                0.43074218936371966,
                0.15792623243639106,
                0.6616572831606167,
                0.6616572831606166,
                0.3785279988979927,
                0.5503646672279512,
                0.6616572831606167,
                0.3610568366458207,
                0.6616572831606166,
                0.18006311853520965,
                0.6616572831606166,
                0.6616572831606166,
                0.6616572831606166,
                0.6616572831606166,
                0.20326616318033716,
                0.6616572831606166,
                0.03363927213517748,
                0.4333282220764705,
                0.3445611040715171,
                0.6616572831606166,
                0.3848905184223657,
                0.038663226092492176,
                0.6616572831606164,
                0.5562280981969485,
                0.5084722420226893,
                0.6616572831606164,
                0.09109979933521156,
                0.073039,
                0.6277857824907759,
                0.6616572831606166,
                0.3260842474776327,
                0.6616572831606164,
                0.4004898038742014,
                0.04788699023859544,
                0.6345855105875928,
                0.42500664149151746,
                0.6303075392755509,
                0.6616572831606164,
                0.6616572831606166,
                0.4684088732295969,
                0.4637642925778856,
                0.6616572831606167,
                0.6616572831606167,
                0.07524999999999998,
                0.04894477400781405,
                0.4544920688298891,
                0.37923169464170664,
                0.6616572831606166,
                0.08829713477402312,
                0.6616572831606166,
                0.48010561488585113,
                0.3179182945873049,
                0.2791604253664983,
                0.6616572831606164,
                0.08474069999999999,
                0.6616572831606167,
                0.6616572831606164,
                0.42656347421509166,
                0.6616572831606167,
                0.04707541026372131,
                0.6616572831606166,
                0.38785523194532184,
                0.3210757108682466,
                0.3955307188144535,
                0.6616572831606167,
                0.020865288949409422,
                0.07525,
                0.0717245428523148,
                0.6616572831606166,
                0.21714046796195466,
                0.3980467130342149,
                0.6616572831606167,
                0.6147955161946848,
                0.42066368348977434,
                0.24502470645962215,
                0.6616572831606166,
                0.052734648984903994,
                0.3000002460779192,
                0.6616572831606164,
                0.6616572831606166,
                0.6616572831606164,
                0.16166615303826626,
                0.45765823075377116,
                0.33128112367971524,
                0.6616572831606166,
                0.6413714477426445,
                0.5619007258285986,
                0.6616572831606166,
                0.073039,
                0.46019011618409666,
                0.0876557,
                0.6616572831606166,
                0.5003065898571979,
                0.11377996307792039,
                0.2529815292718157,
                0.6616572831606167,
                0.4028434718345822,
                0.005385724752347443,
                0.05456252286385299,
                0.1382790792771442,
                0.07303899999999999,
                0.31636082714797864,
                0.5534785936014626,
                0.6616572831606166,
                0.5389037965365979,
                0.6616572831606164,
                0.6616572831606164,
                0.6616572831606166,
                0.3630589799277857,
                0.20752915306860564,
                0.07524999999999998,
                0.6616572831606166,
                0.6108541208533306,
                0.6616572831606166,
                0.4344723522193668,
                0.24294652418164048,
                0.0903259640980838,
                0.2803558034626493,
                0.14828281693845957,
                0.6616572831606167,
                0.6616572831606166,
                0.17771528794284933,
                0.6616572831606166,
                0.6616572831606167,
                0.3423988195607604,
                0.6616572831606166,
                0.5144933371660738,
                0.41824676932484367,
                0.6616572831606164,
                0.6616572831606167,
                0.0892661274164469,
                0.2893384730631901,
                0.6616572831606166,
                0.6616572831606167,
                0.3462570910353374,
                0.6616572831606166,
                0.6616572831606166,
                0.6616572831606167,
                0.595529628949572,
                0.6616572831606164,
                0.3978217983955044,
                0.6616572831606166,
                0.6616572831606167,
                0.23230026121968259,
                0.6616572831606167,
                0.578932936457707,
                0.4218428598782584,
                0.6616572831606166,
                0.6616572831606167,
                0.43473560012468093,
                0.6616572831606164,
                0.57076095758486,
                0.25514962064492297,
                0.6616572831606167,
                0.14297485422105594,
                0.1737444489744734,
                0.2771669291901676,
                0.34375789792072364,
                0.3518108771260549,
                0.6616572831606166,
                0.6616572831606167,
                0.6616572831606166,
                0.5274814195907276,
                0.07303899999999999,
                0.6616572831606166,
                0.14417913176170324,
                0.5405793020945413,
                0.49402455571361886,
                0.372306178394636,
                0.6616572831606164,
                0.39109590450048504,
                0.07303900000000002,
                0.07525,
                0.6616572831606166,
                0.6616572831606164,
                0.3223058788330194,
                0.3886279169113985,
                0.26179074560882903,
                0.006707485501906918,
                0.6616572831606166,
                0.04616587970816449,
                0.6616572831606167,
                0.6616572831606167,
                0.6616572831606166,
                0.2990219096494583,
                0.2906029973053413
            ],
            "photocathode": [
                3978,
                2746,
                554,
                4672,
                4697,
                4696,
                1591,
                3349,
                4601,
                1895,
                4562,
                1632,
                495,
                684,
                4674,
                84,
                948,
                4643,
                3076,
                3161,
                378,
                4585,
                4653,
                3154,
                4567,
                4596,
                4588,
                3612,
                4742,
                3240,
                4580,
                3004,
                4390,
                2379,
                3224,
                1691,
                4644,
                4649,
                4244,
                4607,
                3033,
                596,
                259,
                3243,
                4647,
                4624,
                1364,
                2126,
                4740,
                4705,
                4761,
                3048,
                2934,
                654,
                4507,
                4688,
                3034,
                622,
                4641,
                506,
                2952,
                4836,
                693,
                452,
                3246,
                1058,
                3935,
                4800,
                534,
                1607,
                843,
                4606,
                3401,
                1959,
                2266,
                2487,
                4694,
                2409,
                692,
                2706,
                3940,
                4655,
                2632,
                640,
                4617,
                2962,
                4332,
                4609,
                2324,
                4580,
                4981,
                4636,
                4763,
                3972,
                4563,
                2901,
                2391,
                4625,
                3485,
                3534,
                4689,
                4724,
                4632,
                4688,
                4712,
                4450,
                4661,
                4538,
                4663,
                3037,
                4744,
                572,
                4636,
                3403,
                4576,
                4781,
                4606,
                2377,
                4592,
                3195,
                2591,
                3388,
                4357,
                4577,
                883,
                4649,
                399,
                727,
                905,
                862,
                921,
                967,
                1671,
                4640,
                3527,
                1747,
                4596,
                2419,
                353,
                4755,
                4531,
                3257,
                4192,
                3806,
                4697,
                4599,
                2497,
                624,
                1660,
                4712,
                4671,
                2200,
                3101,
                4484,
                3265,
                4693,
                4656,
                3504,
                1011,
                979,
                1285,
                1837,
                4661,
                4512,
                4680,
                4472,
                4669,
                4662,
                514,
                4797,
                3654,
                4461,
                2639,
                374,
                4740,
                4497,
                4307,
                4625,
                2335,
                3866,
                76,
                1681,
                2019,
                4158,
                406,
                1979,
                1700,
                4722,
                4519,
                4589,
                3203,
                2918,
                2806,
                3508,
                4580,
                4594,
                2351,
                3062,
                4653,
                2227,
                2583,
                2905,
                4538,
                829,
                4638,
                220,
                3145,
                4693,
                2945,
                4540,
                107,
                3216,
                4606,
                4715,
                3005,
                4468,
                1215,
                4624,
                3772,
                4554,
                3953,
                4630,
                65,
                1452,
                4722,
                3549,
                2381,
                1968,
                4622,
                3262,
                4615,
                2792,
                4428,
                865,
                831,
                4646,
                2803,
                1669,
                4600,
                2978,
                4503,
                2826,
                4666,
                4649,
                3395,
                114,
                1766,
                1917,
                4697,
                3417,
                4690,
                1504,
                2739,
                4740,
                3800,
                1936,
                745,
                1214,
                4606,
                4718,
                4762,
                4768,
                4703,
                2977,
                2658,
                3048,
                2121,
                4635,
                2926,
                3579,
                4379,
                418,
                4571,
                493,
                3206,
                614,
                6,
                1337,
                2320,
                1926,
                4554,
                4607,
                4683,
                2980,
                2728,
                4495,
                4650,
                4854,
                2205,
                1737,
                1719,
                3239,
                533,
                1680,
                1211,
                268,
                39,
                869,
                4685,
                1807,
                4372,
                3326,
                2782,
                2721,
                2469,
                4554,
                3081,
                4307,
                4683,
                321,
                3106,
                646,
                2360,
                1694,
                2983,
                1140,
                4572,
                4643,
                2653,
                3879,
                4663,
                2433,
                4596,
                1292,
                4504,
                4670,
                4547,
                4604,
                1398,
                4535,
                237,
                3054,
                2449,
                4799,
                2836,
                248,
                4611,
                3890,
                3622,
                4517,
                644,
                535,
                4456,
                4557,
                2279,
                4530,
                2710,
                346,
                4398,
                3030,
                4403,
                4634,
                4527,
                3316,
                3302,
                4682,
                4646,
                540,
                342,
                3251,
                2683,
                4526,
                647,
                4690,
                3369,
                2223,
                1875,
                4738,
                575,
                4633,
                4703,
                3011,
                4745,
                357,
                4725,
                2692,
                2343,
                2855,
                4660,
                152,
                542,
                501,
                4590,
                1481,
                2782,
                4566,
                4424,
                2928,
                1711,
                4593,
                380,
                2054,
                4555,
                4619,
                4620,
                1138,
                3251,
                2348,
                4549,
                4419,
                3874,
                4473,
                496,
                3244,
                578,
                4652,
                3369,
                737,
                1882,
                4496,
                2749,
                37,
                366,
                995,
                487,
                2177,
                3854,
                4703,
                3793,
                4641,
                4818,
                4546,
                2620,
                1466,
                582,
                4571,
                4208,
                4697,
                3119,
                1653,
                646,
                2062,
                1061,
                4657,
                4611,
                1205,
                4599,
                4605,
                2405,
                4762,
                3582,
                2934,
                4615,
                4752,
                629,
                1989,
                4533,
                4827,
                2415,
                4505,
                4765,
                4663,
                4118,
                4579,
                2770,
                4635,
                4610,
                1677,
                4584,
                4008,
                2952,
                4625,
                4681,
                3071,
                4522,
                3996,
                1723,
                4596,
                1041,
                1187,
                1958,
                2343,
                2531,
                4648,
                4695,
                4527,
                3680,
                526,
                4597,
                1023,
                3798,
                3381,
                2678,
                4604,
                2732,
                523,
                550,
                4678,
                4775,
                2206,
                2746,
                1881,
                42,
                4625,
                332,
                4588,
                4713,
                4686,
                2206,
                2039
            ]
        },
        "detections": 500,
        "events": 297617
    }
}