{
    "job_args": {
        "metric_limit": 500,
        "seed": 2900171490
    },
    "job_id": "batch_83_do_500",
    "result": {
        "collections": {
            "crystal": [
                0.09559055346588075,
                0.6616572831606166,
                0.17887781954276355,
                0.6616572831606164,
                0.4013795691447705,
                0.471267164380765,
                0.4162647678659447,
                0.6616572831606167,
                0.20480346190701437,
                0.1388218257593844,
                0.2153828350754506,
                0.051211881161017714,
                0.6616572831606167,
                0.6616572831606164,
                0.6616572831606164,
                0.6616572831606164,
                0.35387345862979247,
                0.47168274490175105,
                0.09212509768603183,
                0.48639954994980594,
                0.6616572831606166,
                0.6616572831606167,
                0.6616572831606166,
                0.23310695217462796,
                0.08523539999999998,
                0.6616572831606166,
                0.27674141904988037,
                0.6616572831606167,
                0.6616572831606164,
                0.6616572831606164,
                0.14133628739407922,
                0.38311599880245145,
                0.6616572831606166,
                0.1131893129398141,
                0.6616572831606164,
                0.4888642159740921,
                0.0847407,
                0.5573727370327977,
                0.586649529165258,
                0.6616572831606166,
                0.1943498652556251,
                0.6616572831606167,
                0.6616572831606166,
                0.6616572831606166,
                0.6616572831606167,
                0.32324053204940295,
                0.6616572831606164,
                0.4032508199751771,
                0.6616572831606164,
                0.1531276838083271,
                0.44842169848078317,
                0.6616572831606166,
                0.6616572831606166,
                0.2304088669522601,
                0.1359446181419276,
                0.42945808770349386,
                0.3046519045286281,
                0.5466682586665469,
                0.6616572831606164,
                0.48240703170607047,
                0.6616572831606166,
                0.23996882672956185,
                0.07850262365168403,
                0.0852354,
                0.6616572831606167,
                0.33858509996945435,
                0.1749601955299069,
                0.11904758418420647,
                0.6616572831606168,
                0.6616572831606166,
                0.3087590030568049,
                0.41759969504323285,
                0.13040223458868516,
                0.30719193968219977,
                0.19340036261556642,
                0.17200787770010367,
                0.6026155737138541,
                0.6616572831606166,
                0.07525,
                0.4774686990747288,
                0.6616572831606166,
                0.6616572831606166,
                0.2336733294571276,
                0.2914382143878059,
                0.01106654678047847,
                0.18575685890552204,
                0.5443587065847542,
                0.6616572831606164,
                0.3473693391730793,
                0.48625387828699035,
                0.6616572831606166,
                0.0667475490888696,
                0.33052155638796415,
                0.36867029204184376,
                0.6616572831606167,
                0.6616572831606166,
                0.15469117120897646,
                0.3793369205827142,
                0.6616572831606166,
                0.33622359545137825,
                0.44141616616048857,
                0.544887879263841,
                0.14392653279718656,
                0.6616572831606167,
                0.6616572831606166,
                0.36972003413792137,
                0.5251144829571246,
                0.641571604632184,
                0.022346012933268877,
                0.41980419414066705,
                0.11852391338067614,
                0.3868904078652202,
                0.4409511748696026,
                0.1650084761195756,
                0.6616572831606166,
                0.0529412,
                0.0653829388077547,
                0.0878096422376361,
                0.391289493750396,
                0.6384888775287528,
                0.6616572831606164,
                0.6616572831606166,
                0.6616572831606166,
                0.6616572831606164,
                0.6616572831606168,
                0.6616572831606167,
                0.11662696609963287,
                0.30165295168672673,
                0.6616572831606167,
                0.3154870721763669,
                0.073039,
                0.05009002787328798,
                0.2725746816198653,
                0.6616572831606166,
                0.03611103468406662,
                0.6616572831606166,
                0.3659393599311468,
                0.17025302294744787,
                0.6021003565879572,
                0.5385344358623142,
                0.6616572831606164,
                0.07524999999999998,
                0.6616572831606166,
                0.37911471883528886,
                0.6616572831606166,
                0.6616572831606166,
                0.484346453523192,
                0.6616572831606167,
                0.4659450967140491,
                0.5360768988311276,
                0.6417363310207985,
                0.6616572831606168,
                0.6616572831606167,
                0.6616572831606167,
                0.6616572831606167,
                0.07142415680532711,
                0.6616572831606166,
                0.08601122387935811,
                0.6616572831606166,
                0.3624373020467584,
                0.6616572831606164,
                0.467565980163673,
                0.3898245194915459,
                0.09056014208035773,
                0.6616572831606166,
                0.4149026302898293,
                0.4586860702395801,
                0.6616572831606164,
                0.16323154957283378,
                0.01475149610153903,
                0.3427305925308093,
                0.6616572831606166,
                0.6616572831606166,
                0.6616572831606167,
                0.6616572831606166,
                0.6616572831606164,
                0.1191697465730117,
                0.36859252754840577,
                0.4382938221735393,
                0.6616572831606166,
                0.3991909929774653,
                0.6616572831606167,
                0.6616572831606166,
                0.6616572831606167,
                0.29954587064674837,
                0.4991005496444548,
                0.6616572831606167,
                0.6616572831606166,
                0.5512279631116076,
                0.6342568340935366,
                0.16979899721690234,
                0.12039939512323604,
                0.6616572831606167,
                0.028222377464938442,
                0.6616572831606166,
                0.11582771126901412,
                0.6616572831606166,
                0.27846658773024024,
                0.3855952243784063,
                0.41852894840431953,
                0.5232851862051043,
                0.5291079517031376,
                0.04425353572223423,
                0.6244021949135673,
                0.058838060239258805,
                0.40759745624448696,
                0.24439684841456358,
                0.6616572831606167,
                0.5774318205560147,
                0.2559096538941087,
                0.009566951044221561,
                0.4581742166214806,
                0.6616572831606166,
                0.0935570086638437,
                0.2679782589644313,
                0.3010537229150768,
                0.11443022031310301,
                0.5049472659551624,
                0.6616572831606167,
                0.22502175127185506,
                0.4043810049766103,
                0.3431360571317783,
                0.6616572831606166,
                0.6337708880714283,
                0.35724382407052435,
                0.6616572831606167,
                0.35388448391745786,
                0.6616572831606166,
                0.4294537203028123,
                0.6616572831606164,
                0.3716831367307796,
                0.24527234094498612,
                0.36811764418413073,
                0.6616572831606167,
                0.2683894418946094,
                0.45986915038920023,
                0.43516841358328145,
                0.4173315136343063,
                0.3050330933694012,
                0.6121382117813281,
                0.5032832974010599,
                0.6616572831606166,
                0.49673134067822694,
                0.6616572831606166,
                0.6616572831606166,
                0.14635413028638733,
                0.14914049462062628,
                0.6616572831606166,
                0.6616572831606167,
                0.6616572831606166,
                0.6616572831606166,
                0.6616572831606167,
                0.4569208456319328,
                0.1801818177863306,
                0.6616572831606166,
                0.6616572831606166,
                0.11352340848274656,
                0.6616572831606167,
                0.08474070000000002,
                0.6616572831606164,
                0.5929936577365883,
                0.6616572831606167,
                0.6616572831606166,
                0.6616572831606166,
                0.20602330382991446,
                0.6616572831606166,
                0.11623493785776863,
                0.08710763553277012,
                0.3976417367351005,
                0.13370939701231066,
                0.06953284316790537,
                0.6616572831606164,
                0.5090338456241364,
                0.4255674748815845,
                0.5168878796974171,
                0.5312547652798503,
                0.24109959509165185,
                0.02064784628402766,
                0.43255481280659364,
                0.6616572831606167,
                0.34427828626778006,
                0.6616572831606164,
                0.27891859577834366,
                0.5294098107332326,
                0.6616572831606164,
                0.23150040220770232,
                0.05081408063424375,
                0.35039822739337456,
                0.18147367012837257,
                0.6616572831606166,
                0.43944548798854066,
                0.19110397224991038,
                0.40315395651664004,
                0.07403150329312583,
                0.6616572831606166,
                0.5545852674694324,
                0.5556704892639505,
                0.3285704762077787,
                0.6616572831606167,
                0.19767707021608588,
                0.4208329542888054,
                0.20823600826873184,
                0.6616572831606167,
                0.29139125692246265,
                0.6616572831606167,
                0.6616572831606167,
                0.27630805501046074,
                0.02273501007284018,
                0.17038763000971213,
                0.25643002835970174,
                0.6616572831606166,
                0.5752651470823769,
                0.6616572831606166,
                0.21308949111054584,
                0.6616572831606166,
                0.29974025875743093,
                0.6616572831606166,
                0.6616572831606167,
                0.6616572831606166,
                0.6616572831606164,
                0.5286434896803593,
                0.17716064418959557,
                0.6023463901397,
                0.21134877064886787,
                0.26710274180709753,
                0.423880755133943,
                0.07525,
                0.056928900000000004,
                0.36623454888167345,
                0.6616572831606167,
                0.6616572831606167,
                0.552173616200906,
                0.20521114208821647,
                0.34041708861580383,
                0.6616572831606167,
                0.6616572831606166,
                0.6616572831606164,
                0.6616572831606166,
                0.6150328188154367,
                0.1974445144949436,
                0.04875072037038164,
                0.4814541104128761,
                0.11011190384880462,
                0.6616572831606167,
                0.07525000000000001,
                0.17405563999995438,
                0.30444066750646476,
                0.17462745748339847,
                0.608478898639498,
                0.01694843593192641,
                0.5450044837694678,
                0.6616572831606166,
                0.5025551426631578,
                0.6616572831606166,
                0.318331577802982,
                0.6616572831606166,
                0.6616572831606166,
                0.6616572831606166,
                0.6616572831606166,
                0.6616572831606167,
                0.1375050656577219,
                0.5184753568491203,
                0.6616572831606167,
                0.5857211349450553,
                0.45673453331402597,
                0.008996783064957325,
                0.3176743046707514,
                0.6616572831606164,
                0.5811056936492093,
                0.016871396564613922,
                0.2577511098441321,
                0.6616572831606164,
                0.6616572831606166,
                0.6218186317712465,
                0.5493906800417985,
                0.6616572831606166,
                0.4233966733700546,
                0.15083069832175855,
                0.6616572831606167,
                0.5060160502401558,
                0.11508190950188558,
                0.6616572831606166,
                0.6616572831606166,
                0.30970837979492755,
                0.6616572831606167,
                0.4324265307177622,
                0.3401151983388151,
                0.6616572831606167,
                0.3536167995657997,
                0.21287713807747882,
                0.6616572831606167,
                0.6616572831606166,
                0.3022034255696939,
                0.6616572831606164,
                0.47172764718709487,
                0.6616572831606167,
                0.4199365238660818,
                0.6616572831606166,
                0.537444762291316,
                0.34403567195414325,
                0.6616572831606166,
                0.6616572831606167,
                0.6616572831606167,
                0.6616572831606166,
                0.073039,
                0.6616572831606167,
                0.03633863259159398,
                0.07524999999999998,
                0.6616572831606166,
                0.29919584036636426,
                0.3988184321931181,
                0.6616572831606166,
                0.07524999999999998,
                0.05972938078960477,
                0.6616572831606166,
                0.31579804815899293,
                0.6616572831606164,
                0.4821119192193096,
                0.5060233440227228,
                0.6616572831606167,
                0.6616572831606164,
                0.6616572831606166,
                0.6616572831606167,
                0.10131984809709382,
                0.6616572831606166,
                0.6616572831606166,
                0.6616572831606167,
                0.6616572831606166,
                0.582882429705579,
                0.5619135024085228,
                0.05782672716200343,
                0.6616572831606166,
                0.6616572831606167,
                0.6616572831606167,
                0.11240090442338224,
                0.07525,
                0.6616572831606166,
                0.48518407737670255,
                0.5694207294599843,
                0.6616572831606166,
                0.22598575966632917,
                0.4628898886332736,
                0.388903316747661,
                0.6616572831606166,
                0.3781111515367974,
                0.6509863174377754,
                0.6616572831606166,
                0.3873174266235551,
                0.1599103805340818,
                0.6616572831606167,
                0.6616572831606164,
                0.4584032022172497,
                0.07525,
                0.6616572831606164,
                0.6616572831606166,
                0.6616572831606166,
                0.6616572831606167,
                0.6616572831606167,
                0.6616572831606166,
                0.26944505900048293,
                0.6616572831606166,
                0.41908956137205877,
                0.6616572831606164,
                0.29628698515001783,
                0.6616572831606167,
                0.6435502982293061,
                0.4785062598497708,
                0.4358685266290492,
                0.6616572831606167,
                0.5800217296527459,
                0.2967121145126051,
                0.45070138537931803,
                0.36064249494569056,
                0.35267879646774886,
                0.4659377442283882,
                0.6616572831606167,
                0.30732124365854147,
                0.6616572831606166,
                0.6616572831606167,
                0.08523540000000002,
                0.47451918561614187,
                0.07525,
                0.4767849651907433,
                0.2731790290100452,
                0.2579898800646814,
                0.6616572831606166,
                0.6616572831606166,
                0.22894062027915216,
                0.6616572831606164,
                0.4630327794350557,
                0.6616572831606164,
                0.1429444076005424,
                0.6616572831606166,
                0.34279168165153917,
                0.3986656680384023,
                0.6616572831606166,
                0.01914581071549071,
                0.6616572831606164,
                0.49387893615579964,
                0.2614317313532375
            ],
            "photocathode": [
                635,
                4675,
                1257,
                4578,
                2829,
                3300,
                2886,
                4585,
                1406,
                925,
                1489,
                344,
                4515,
                4641,
                4553,
                4618,
                2504,
                3336,
                674,
                3446,
                4632,
                4664,
                4698,
                1609,
                556,
                4601,
                1917,
                4650,
                4920,
                4552,
                1019,
                2671,
                4850,
                788,
                4600,
                3317,
                604,
                3962,
                4001,
                4755,
                1423,
                4707,
                4610,
                4660,
                4697,
                2267,
                4604,
                2731,
                4614,
                1067,
                3126,
                4601,
                4586,
                1608,
                989,
                3059,
                2062,
                3865,
                4620,
                3470,
                4657,
                1676,
                520,
                561,
                4568,
                2412,
                1188,
                834,
                4670,
                4594,
                2188,
                2855,
                932,
                2197,
                1382,
                1219,
                4210,
                4776,
                512,
                3240,
                4701,
                4784,
                1682,
                2013,
                64,
                1323,
                3693,
                4519,
                2517,
                3615,
                4545,
                510,
                2319,
                2679,
                4527,
                4666,
                1043,
                2709,
                4715,
                2369,
                3148,
                3953,
                992,
                4519,
                4605,
                2543,
                3779,
                4549,
                161,
                2934,
                822,
                2704,
                3011,
                1126,
                4572,
                377,
                435,
                610,
                2799,
                4493,
                4619,
                4601,
                4690,
                4585,
                4668,
                4709,
                836,
                2126,
                4652,
                2179,
                505,
                367,
                1896,
                4716,
                238,
                4689,
                2731,
                1180,
                4362,
                3824,
                4648,
                513,
                4575,
                2664,
                4671,
                4511,
                3436,
                4606,
                3256,
                3665,
                4444,
                4713,
                4562,
                4557,
                4741,
                480,
                4484,
                597,
                4627,
                2594,
                4558,
                3266,
                2716,
                622,
                4600,
                2978,
                3309,
                4787,
                1165,
                91,
                2438,
                4613,
                4675,
                4771,
                4648,
                4461,
                875,
                2668,
                3097,
                4747,
                2833,
                4601,
                4682,
                4528,
                2138,
                3502,
                4777,
                4616,
                3915,
                4520,
                1228,
                860,
                4542,
                179,
                4687,
                796,
                4799,
                1959,
                2746,
                2937,
                3605,
                3526,
                325,
                4243,
                413,
                2800,
                1760,
                4733,
                3993,
                1809,
                65,
                3243,
                4658,
                648,
                1823,
                2091,
                868,
                3459,
                4644,
                1628,
                2825,
                2372,
                4552,
                4461,
                2537,
                4594,
                2576,
                4551,
                3048,
                4506,
                2676,
                1666,
                2642,
                4619,
                1839,
                3180,
                3090,
                2883,
                2136,
                4556,
                3700,
                4646,
                3502,
                4655,
                4654,
                1019,
                1073,
                4557,
                4555,
                4649,
                4717,
                4627,
                3096,
                1226,
                4510,
                4571,
                772,
                4681,
                581,
                4611,
                4068,
                4903,
                4557,
                4583,
                1539,
                4604,
                795,
                607,
                2802,
                932,
                492,
                4580,
                3582,
                3023,
                3528,
                3751,
                1711,
                128,
                3071,
                4574,
                2351,
                4476,
                1905,
                3778,
                4660,
                1636,
                400,
                2494,
                1349,
                4657,
                3198,
                1295,
                2868,
                498,
                4610,
                3844,
                3955,
                2355,
                4580,
                1400,
                2937,
                1462,
                4673,
                2105,
                4558,
                4691,
                1995,
                173,
                1122,
                1796,
                4602,
                4074,
                4715,
                1504,
                4471,
                2133,
                4711,
                4685,
                4667,
                4642,
                3692,
                1269,
                4187,
                1501,
                1887,
                2939,
                484,
                459,
                2542,
                4543,
                4605,
                3798,
                1443,
                2504,
                4688,
                4721,
                4552,
                4503,
                4328,
                1450,
                314,
                3362,
                794,
                4714,
                482,
                1217,
                2226,
                1192,
                4200,
                117,
                3851,
                4693,
                3471,
                4721,
                2199,
                4567,
                4707,
                4585,
                4906,
                4660,
                940,
                3781,
                4662,
                4246,
                3215,
                71,
                2341,
                4367,
                4030,
                106,
                1788,
                4636,
                4768,
                4287,
                3845,
                4594,
                3003,
                1116,
                4653,
                3546,
                821,
                4571,
                4669,
                2206,
                4576,
                3077,
                2431,
                4746,
                2456,
                1571,
                4752,
                4508,
                2083,
                4713,
                3221,
                4597,
                2965,
                4834,
                3825,
                2435,
                4642,
                4704,
                4529,
                4774,
                489,
                4752,
                255,
                517,
                4659,
                2183,
                2880,
                4600,
                482,
                403,
                4543,
                2148,
                4655,
                3346,
                3630,
                4736,
                4584,
                4656,
                4717,
                707,
                4532,
                4598,
                4621,
                4582,
                4003,
                3885,
                404,
                4631,
                4632,
                4645,
                786,
                521,
                4743,
                3331,
                4187,
                4662,
                1598,
                3163,
                2687,
                4650,
                2647,
                4348,
                4627,
                2744,
                1175,
                4601,
                4637,
                3128,
                459,
                4541,
                4835,
                4532,
                4644,
                4597,
                4571,
                1989,
                4559,
                2960,
                4603,
                2155,
                4654,
                4584,
                3468,
                3178,
                4611,
                3927,
                2044,
                3282,
                2634,
                2488,
                3309,
                4551,
                2183,
                4675,
                4689,
                577,
                3362,
                531,
                3374,
                1869,
                1792,
                4662,
                4696,
                1574,
                4731,
                3154,
                4561,
                1041,
                4573,
                2455,
                2786,
                4501,
                120,
                4592,
                3438,
                1787
            ]
        },
        "detections": 500,
        "events": 318317
    }
}