{
    "job_args": {
        "metric_limit": 300,
        "seed": 1264407072
    },
    "job_id": "batch_228_do_300",
    "result": {
        "collections": {
            "crystal": [
                0.03220571802682801,
                0.19960689332342074,
                0.1905552406766292,
                0.2674500181591128,
                0.6616572831606164,
                0.032205441446064326,
                0.6616572831606166,
                0.6616572831606164,
                0.6616572831606164,
                0.04997656736835154,
                0.6616572831606166,
                0.03639217117175358,
                0.6616572831606166,
                0.6616572831606166,
                0.24427348832755616,
                0.18260157800445653,
                0.03181857664783607,
                0.21446248841482438,
                0.6616572831606166,
                0.1381496903299687,
                0.6616572831606166,
                0.6616572831606166,
                0.28327480934330146,
                0.032205366059529034,
                0.45064716716635966,
                0.03181863707361962,
                0.6616572831606167,
                0.3262634132167117,
                0.6616572831606166,
                0.030533079076345615,
                0.27043877464813737,
                0.6616572831606167,
                0.6616572831606166,
                0.11861353360565907,
                0.6616572831606166,
                0.4061173057976982,
                0.6616572831606167,
                0.6616572831606164,
                0.6616572831606167,
                0.07841489657118483,
                0.032205620083140034,
                0.6616572831606166,
                0.39878620086585936,
                0.6616572831606167,
                0.07833315658707607,
                0.30620507683365966,
                0.6616572831606164,
                0.6616572831606164,
                0.6616572831606167,
                0.3953652920584242,
                0.12183952792545918,
                0.4448991752309575,
                0.6616572831606166,
                0.16241990348901797,
                0.6616572831606167,
                0.6616572831606164,
                0.4345680364586239,
                0.6616572831606166,
                0.09819366460372203,
                0.6616572831606166,
                0.6616572831606166,
                0.6616572831606166,
                0.6616572831606166,
                0.008085251138601075,
                0.36401617337767445,
                0.1768704443710985,
                0.09920276064777345,
                0.3333166014168129,
                0.6616572831606167,
                0.6616572831606164,
                0.6616572831606166,
                0.2701777079978895,
                0.6616572831606164,
                0.42969647847058307,
                0.6616572831606166,
                0.43550079320963686,
                0.6616572831606166,
                0.6616572831606166,
                0.6616572831606167,
                0.6616572831606167,
                0.38283209803199464,
                0.48718913831784627,
                0.6616572831606166,
                0.45903195096589217,
                0.2560469849427142,
                0.4628097949866899,
                0.6616572831606164,
                0.6616572831606166,
                0.6616572831606167,
                0.6616572831606164,
                0.47991374183571467,
                0.47749520708655835,
                0.44878959633842874,
                0.3477303677401612,
                0.2920109858049012,
                0.03639192458269491,
                0.2425200767147296,
                0.6616572831606166,
                0.03220549493990832,
                0.09995346471135858,
                0.4433842283710591,
                0.6616572831606166,
                0.10921241014941041,
                0.020371062107792937,
                0.6616572831606164,
                0.21448948811441432,
                0.6616572831606166,
                0.1202159277175987,
                0.6616572831606167,
                0.6616572831606164,
                0.6616572831606164,
                0.6616572831606166,
                0.47120124396247476,
                0.6616572831606164,
                0.03872639559474689,
                0.6616572831606167,
                0.6616572831606166,
                0.6616572831606164,
                0.6616572831606167,
                0.44467273945677765,
                0.03181891136053103,
                0.36045568443292414,
                0.26649023416183926,
                0.6616572831606167,
                0.6616572831606164,
                0.46051316473524284,
                0.22093815062678018,
                0.21662595179431707,
                0.6616572831606166,
                0.2971721715458486,
                0.031818777791262944,
                0.4519736593199932,
                0.6616572831606166,
                0.2005784113222324,
                0.6616572831606166,
                0.6616572831606166,
                0.6616572831606166,
                0.039557571510070076,
                0.18544101450133677,
                0.19632049657562956,
                0.6616572831606166,
                0.6616572831606164,
                0.4815856678244464,
                0.6616572831606164,
                0.6616572831606164,
                0.4621021478731604,
                0.12808096848423012,
                0.6616572831606167,
                0.6616572831606164,
                0.6616572831606167,
                0.022241836974828202,
                0.4702923169816223,
                0.20638448292865924,
                0.6616572831606166,
                0.6616572831606167,
                0.6616572831606167,
                0.6616572831606166,
                0.29961171247564894,
                0.6616572831606166,
                0.6616572831606167,
                0.6616572831606166,
                0.6616572831606166,
                0.6616572831606166,
                0.6616572831606166,
                0.016909428017285677,
                0.6616572831606166,
                0.010430034067363647,
                0.6616572831606167,
                0.6616572831606166,
                0.1425057816791558,
                0.25373279836397555,
                0.6616572831606166,
                0.3507613605154378,
                0.07445439239601692,
                0.6616572831606164,
                0.25407456865852895,
                0.6616572831606166,
                0.6616572831606164,
                0.6616572831606166,
                0.007782303582579163,
                0.6616572831606166,
                0.12423320945334115,
                0.6616572831606166,
                0.15509482916569348,
                0.41963391753040247,
                0.13905389045663408,
                0.38398697181813546,
                0.3842462139147742,
                0.6616572831606164,
                0.6616572831606167,
                0.03220535900825106,
                0.6616572831606167,
                0.6616572831606166,
                0.44324739647826394,
                0.6616572831606164,
                0.45195521079172163,
                0.4621220277333469,
                0.4643667497331649,
                0.6616572831606167,
                0.08898055027977425,
                0.6616572831606166,
                0.14390827276748983,
                0.6616572831606166,
                0.24364908733919352,
                0.6616572831606164,
                0.6616572831606167,
                0.5663245659834006,
                0.041226467383250864,
                0.6616572831606167,
                0.304912896876051,
                0.45110560321324367,
                0.6616572831606164,
                0.6616572831606166,
                0.6616572831606164,
                0.43393557825657614,
                0.30948201790646457,
                0.4771280110722608,
                0.6616572831606167,
                0.49890199249308853,
                0.6616572831606164,
                0.6616572831606166,
                0.6616572831606164,
                0.03181855892524135,
                0.25652288664339395,
                0.3429161148189484,
                0.2167313526504075,
                0.039308397541700235,
                0.03631698093853844,
                0.6616572831606166,
                0.6616572831606166,
                0.6616572831606167,
                0.3172690646125547,
                0.6616572831606166,
                0.36087008826013844,
                0.6616572831606164,
                0.1874261340891752,
                0.12832504064856587,
                0.2114711258003561,
                0.09210335811847836,
                0.6616572831606164,
                0.6616572831606166,
                0.2999764685770521,
                0.4672313941698804,
                0.6616572831606166,
                0.6616572831606166,
                0.6616572831606167,
                0.6616572831606167,
                0.1743489312735285,
                0.6616572831606166,
                0.466449055511697,
                0.4775573724656298,
                0.6616572831606166,
                0.6616572831606166,
                0.25089301963892585,
                0.23974571088631702,
                0.6616572831606166,
                0.4487996285808018,
                0.007782537556340705,
                0.3431077866462933,
                0.14324413338744602,
                0.38062834335997214,
                0.472462066245576,
                0.6616572831606167,
                0.6616572831606167,
                0.4358202990689782,
                0.026422995085059964,
                0.6616572831606166,
                0.6616572831606166,
                0.29169960440290565,
                0.6616572831606167,
                0.6616572831606166,
                0.6616572831606167,
                0.03181889942554233,
                0.3617162356902416,
                0.6616572831606164,
                0.6616572831606167,
                0.1509389300204783,
                0.6616572831606166,
                0.6616572831606166,
                0.031818518463883345,
                0.20336893753890928,
                0.33300559576918987,
                0.44082645259116454,
                0.03074267374219497,
                0.6616572831606166,
                0.6616572831606166,
                0.16027783866188072,
                0.47542874978740596,
                0.009333441368325146,
                0.6616572831606166,
                0.2714238692519997,
                0.5461810614920453,
                0.6616572831606164,
                0.06929271139015292,
                0.6616572831606166,
                0.37555861296989657,
                0.05721362488887993,
                0.6616572831606164,
                0.6616572831606166,
                0.1996946287175003
            ]
        },
        "detections": 300,
        "events": 80688
    }
}