{
    "job_args": {
        "metric_limit": 300,
        "seed": 2509317502
    },
    "job_id": "batch_265_do_300",
    "result": {
        "collections": {
            "crystal": [
                0.29059356559635446,
                0.3438855287804419,
                0.6616572831606164,
                0.16397102180141238,
                0.6616572831606167,
                0.094855284007897,
                0.6616572831606166,
                0.6616572831606166,
                0.6616572831606167,
                0.03220580517518262,
                0.2769156860423957,
                0.6616572831606166,
                0.03639172974116051,
                0.6616572831606166,
                0.6616572831606164,
                0.6616572831606166,
                0.3224912390278919,
                0.44123202253893473,
                0.6616572831606167,
                0.032205644623358,
                0.6616572831606166,
                0.032205531337094445,
                0.6616572831606167,
                0.09544768471464071,
                0.6616572831606166,
                0.2812697246670053,
                0.29220125541001674,
                0.5146577822910646,
                0.6616572831606166,
                0.6616572831606166,
                0.6616572831606164,
                0.6616572831606167,
                0.6616572831606166,
                0.6616572831606166,
                0.24088953590610152,
                0.2309300343472025,
                0.6616572831606164,
                0.032205654996816,
                0.5296644841117565,
                0.6616572831606166,
                0.16807352824868005,
                0.6616572831606167,
                0.15841222356681706,
                0.028279985045249156,
                0.6616572831606164,
                0.6616572831606166,
                0.6616572831606167,
                0.6616572831606164,
                0.032205397387385606,
                0.6616572831606164,
                0.35894628813441654,
                0.3255457001152552,
                0.02219607232926135,
                0.25528334619117726,
                0.6616572831606166,
                0.027435303885673168,
                0.6616572831606164,
                0.14027417810597043,
                0.6616572831606166,
                0.3793578301345941,
                0.6616572831606167,
                0.6616572831606167,
                0.280277108460398,
                0.6616572831606167,
                0.4012533458620521,
                0.6616572831606166,
                0.4367314940865533,
                0.6616572831606166,
                0.24120841015251165,
                0.6616572831606166,
                0.03220578852177395,
                0.6616572831606166,
                0.33428664186577667,
                0.26806872408989985,
                0.3065943438959879,
                0.41743765640862035,
                0.6616572831606164,
                0.3002369835429093,
                0.14046674726946107,
                0.007782533035706193,
                0.6616572831606166,
                0.6616572831606166,
                0.31230703042092334,
                0.21755857134857176,
                0.5250343655875678,
                0.49086415449662346,
                0.03220571419078261,
                0.6616572831606164,
                0.6616572831606166,
                0.6616572831606167,
                0.4680392340081387,
                0.6616572831606166,
                0.3306420632828254,
                0.6616572831606166,
                0.16389838703520015,
                0.6616572831606166,
                0.031818504609279624,
                0.23840820292023054,
                0.032205345541369605,
                0.6616572831606166,
                0.6616572831606166,
                0.1436935986975545,
                0.43501291184121804,
                0.6616572831606164,
                0.6616572831606166,
                0.6616572831606166,
                0.13868476713341107,
                0.09380633778946423,
                0.6616572831606168,
                0.6616572831606166,
                0.6616572831606164,
                0.6616572831606164,
                0.4462208714800937,
                0.42855951555543265,
                0.6616572831606164,
                0.2636914029355573,
                0.2390922751109507,
                0.008651040480904829,
                0.4347245209868844,
                0.39133552554178597,
                0.01462732795880839,
                0.19115546022011348,
                0.6616572831606167,
                0.03181859012601668,
                0.03181878087138604,
                0.6616572831606166,
                0.3416304872067809,
                0.42406515199779604,
                0.6616572831606167,
                0.6616572831606166,
                0.6616572831606164,
                0.3804455743482972,
                0.12794425452989222,
                0.6616572831606166,
                0.2373438517601895,
                0.6616572831606166,
                0.6616572831606166,
                0.6616572831606164,
                0.0363921883954761,
                0.6616572831606164,
                0.6616572831606167,
                0.3436488486365964,
                0.6616572831606166,
                0.6616572831606166,
                0.6616572831606166,
                0.6616572831606166,
                0.27560632402858626,
                0.3772819467261347,
                0.032021654723436654,
                0.07190741099915465,
                0.6584724570800098,
                0.6471244964424678,
                0.031619193502516726,
                0.6616572831606164,
                0.6616572831606167,
                0.3480333056049934,
                0.1255037851752736,
                0.6616572831606167,
                0.4274043782270263,
                0.6616572831606164,
                0.6616572831606166,
                0.6616572831606166,
                0.6616572831606166,
                0.6616572831606164,
                0.036392131751479664,
                0.6616572831606167,
                0.6616572831606167,
                0.6616572831606166,
                0.3221231552038738,
                0.18333445927804373,
                0.45806528006126446,
                0.6616572831606166,
                0.6616572831606164,
                0.6616572831606164,
                0.3643258120696537,
                0.007047927550855704,
                0.6616572831606166,
                0.6616572831606166,
                0.6616572831606164,
                0.4585745764461273,
                0.6616572831606164,
                0.6616572831606164,
                0.13687192064358367,
                0.6616572831606164,
                0.6616572831606167,
                0.4175814508135245,
                0.38339746156775045,
                0.499546420590053,
                0.29014542668403387,
                0.3695486694472755,
                0.341075035640588,
                0.03220540961503627,
                0.0322055767322116,
                0.032205679909625876,
                0.6616572831606164,
                0.3172113556925221,
                0.4553622565989323,
                0.06159738897516309,
                0.2668316225793216,
                0.6616572831606166,
                0.6616572831606166,
                0.13415734582220729,
                0.00808575614991057,
                0.6616572831606166,
                0.22858285456074592,
                0.6616572831606166,
                0.6616572831606167,
                0.6616572831606167,
                0.29975478531723293,
                0.3956991256454506,
                0.6616572831606164,
                0.31062352375480784,
                0.6616572831606166,
                0.3629674641982981,
                0.33424197438966974,
                0.12920818586753233,
                0.6616572831606166,
                0.6616572831606166,
                0.6616572831606166,
                0.6616572831606167,
                0.2951548132684204,
                0.6616572831606167,
                0.032205644518090305,
                0.6616572831606166,
                0.005752050925034391,
                0.032205834676791965,
                0.0318188515662257,
                0.6616572831606164,
                0.6616572831606164,
                0.16286646355112844,
                0.6616572831606164,
                0.6616572831606167,
                0.6616572831606167,
                0.6616572831606164,
                0.03993727073892856,
                0.24590136042365862,
                0.6616572831606166,
                0.4963202599746276,
                0.6616572831606164,
                0.00575096801932462,
                0.6616572831606167,
                0.032205810669067386,
                0.22787299985936288,
                0.43170240956984907,
                0.6616572831606166,
                0.6616572831606166,
                0.6616572831606167,
                0.27416909054684363,
                0.20800704066496484,
                0.6616572831606164,
                0.6616572831606166,
                0.3457098253380053,
                0.6616572831606167,
                0.18884033409765438,
                0.6616572831606166,
                0.6616572831606166,
                0.6616572831606166,
                0.10852492274071901,
                0.6616572831606166,
                0.036392006351461094,
                0.035763956871166847,
                0.036392216647336106,
                0.03181887669246732,
                0.6616572831606164,
                0.16655385194802846,
                0.6616572831606167,
                0.6616572831606166,
                0.1864389844677362,
                0.6616572831606166,
                0.6616572831606164,
                0.15925180621079082,
                0.6616572831606167,
                0.42554568860499226,
                0.6616572831606167,
                0.10531787639391467,
                0.4947501015525224,
                0.6616572831606166,
                0.6616572831606167,
                0.6616572831606166,
                0.6616572831606164,
                0.1572203412758618,
                0.007921613026300567,
                0.6616572831606167,
                0.6616572831606166,
                0.40512815740149066,
                0.6616572831606167,
                0.6616572831606166,
                0.6616572831606164,
                0.6616572831606166,
                0.014703394410772843,
                0.6616572831606164,
                0.6616572831606167,
                0.33270508499820445,
                0.1568299469145975,
                0.6616572831606166,
                0.3925829723049843,
                0.48212709825217215,
                0.42605262404955735,
                0.6616572831606166,
                0.09707311197322477
            ]
        },
        "detections": 300,
        "events": 90001
    }
}