{
    "job_args": {
        "metric_limit": 300,
        "seed": 386228763
    },
    "job_id": "batch_241_do_300",
    "result": {
        "collections": {
            "crystal": [
                0.6616572831606166,
                0.6616572831606167,
                0.6616572831606167,
                0.45622515749911485,
                0.6616572831606166,
                0.6616572831606164,
                0.00047551059285455555,
                0.278783689546923,
                0.6616572831606167,
                0.09886715192768702,
                0.6616572831606166,
                0.032205518498389374,
                0.6616572831606166,
                0.03220578707520309,
                0.6616572831606166,
                0.6616572831606166,
                0.6616572831606164,
                0.6616572831606166,
                0.6616572831606164,
                0.6616572831606166,
                0.6616572831606164,
                0.04839119168340844,
                0.6616572831606166,
                0.023644829444939397,
                0.6616572831606167,
                0.12931909972933497,
                0.23010546530113343,
                0.6616572831606166,
                0.2516670235553029,
                0.6616572831606166,
                0.3522021308843454,
                0.6616572831606166,
                0.6330477831606166,
                0.4332647641781438,
                0.034352869965950654,
                0.18020867099585686,
                0.4221656402444618,
                0.2707216983809284,
                0.06725602677644416,
                0.6616572831606164,
                0.3065212616205511,
                0.6616572831606167,
                0.4708522429154133,
                0.6616572831606166,
                0.6616572831606166,
                0.6616572831606166,
                0.6616572831606166,
                0.19426676673834475,
                0.3053649887770765,
                0.6616572831606167,
                0.6616572831606166,
                0.6616572831606166,
                0.6616572831606166,
                0.6616572831606166,
                0.03220566122155313,
                0.6616572831606166,
                0.6616572831606167,
                0.41927985283094316,
                0.6616572831606164,
                0.004943784626015746,
                0.6616572831606164,
                0.6616572831606166,
                0.38443269092405635,
                0.6616572831606167,
                0.6616572831606166,
                0.6616572831606166,
                0.6616572831606166,
                0.15328999070788576,
                0.25760464778036757,
                0.6616572831606166,
                0.09364151790200759,
                0.6616572831606166,
                0.4128166152191812,
                0.6616572831606166,
                0.4597936910472388,
                0.04171619444347774,
                0.6616572831606164,
                0.2702480773791087,
                0.07774043519912888,
                0.07808845786937513,
                0.6616572831606166,
                0.32547220512782615,
                0.24761059152259918,
                0.032205387189912976,
                0.42533473431111596,
                0.6616572831606167,
                0.04979448374029727,
                0.3239304198952279,
                0.6616572831606167,
                0.6616572831606166,
                0.1983906538965708,
                0.6616572831606166,
                0.5204946491221353,
                0.19001486516843447,
                0.06634870193164144,
                0.008945262116720865,
                0.21339329508763158,
                0.6616572831606166,
                0.09693221572256394,
                0.03181866500491555,
                0.6616572831606167,
                0.3845161954793715,
                0.23722046087055237,
                0.10499889835591059,
                0.6616572831606166,
                0.3077575298416055,
                0.13711779946615232,
                0.6616572831606166,
                0.12289534184875794,
                0.5130880218174458,
                0.6616572831606166,
                0.6616572831606166,
                0.6616572831606166,
                0.6616572831606166,
                0.3598066257137678,
                0.1564234982006737,
                0.6616572831606164,
                0.03181858169179648,
                0.16623416221133092,
                0.3488119040851165,
                0.6616572831606166,
                0.2926667602964408,
                0.3142565029597022,
                0.6616572831606167,
                0.3320023969395921,
                0.6616572831606166,
                0.6616572831606166,
                0.6616572831606166,
                0.1802911477253619,
                0.6616572831606167,
                0.6616572831606164,
                0.12881864133295076,
                0.6616572831606167,
                0.4138452641549196,
                0.6616572831606167,
                0.6616572831606166,
                0.24526435437911454,
                0.6616572831606167,
                0.2741956389962289,
                0.6616572831606167,
                0.6616572831606166,
                0.6616572831606163,
                0.6616572831606167,
                0.6616572831606164,
                0.031818872832519385,
                0.19981652060940397,
                0.6616572831606166,
                0.6616572831606164,
                0.6616572831606164,
                0.6616572831606167,
                0.16547964047528455,
                0.05637455511681577,
                0.6616572831606166,
                0.6616572831606166,
                0.4237198793185035,
                0.3773497187355491,
                0.6616572831606167,
                0.3267116227560483,
                0.25377379910241055,
                0.6616572831606166,
                0.6616572831606167,
                0.22949813324102708,
                0.6616572831606167,
                0.6616572831606167,
                0.39474183740201213,
                0.6616572831606164,
                0.6616572831606164,
                0.6616572831606167,
                0.6616572831606166,
                0.6616572831606167,
                0.6616572831606166,
                0.20442526404412892,
                0.031818546945614534,
                0.6616572831606164,
                0.2319894365416764,
                0.3412478208131281,
                0.6616572831606164,
                0.027675413237490017,
                0.6616572831606166,
                0.6616572831606166,
                0.03220552061190225,
                0.0318186625528728,
                0.29077666405037617,
                0.6616572831606167,
                0.6616572831606164,
                0.16446968061293696,
                0.6616572831606167,
                0.13531964452275513,
                0.6616572831606164,
                0.1701665849105748,
                0.6616572831606166,
                0.6616572831606166,
                0.13754247941914732,
                0.6616572831606166,
                0.6616572831606167,
                0.3610621614667801,
                0.6616572831606164,
                0.6616572831606166,
                0.6616572831606164,
                0.2836381381675725,
                0.03181876807881737,
                0.3483859152968166,
                0.03181876795621201,
                0.031818838177728626,
                0.4957542890655202,
                0.46990861105366294,
                0.6616572831606166,
                0.19213545731621348,
                0.5042368158744984,
                0.6616572831606166,
                0.037244986421356506,
                0.6616572831606167,
                0.6616572831606164,
                0.6616572831606167,
                0.07253083089087142,
                0.6616572831606164,
                0.10868933635009957,
                0.6616572831606164,
                0.6616572831606166,
                0.6616572831606167,
                0.6616572831606166,
                0.6616572831606166,
                0.3334986961229531,
                0.6616572831606167,
                0.30416845019103356,
                0.6616572831606167,
                0.1547970956593414,
                0.6616572831606167,
                0.6616572831606166,
                0.3167094147736338,
                0.6616572831606167,
                0.6616572831606164,
                0.6616572831606164,
                0.6616572831606164,
                0.03613759427778773,
                0.6616572831606164,
                0.1941532154148012,
                0.03220535091648156,
                0.2332576577920317,
                0.06277757799408801,
                0.025255272191434086,
                0.03181863996336481,
                0.057956311053620646,
                0.4960828306281786,
                0.46664955871830205,
                0.4492421668392163,
                0.6616572831606166,
                0.17349105445421723,
                0.1570964499239078,
                0.15399338949142571,
                0.6616572831606166,
                0.6616572831606163,
                0.3293098882891031,
                0.6616572831606167,
                0.25823013017774304,
                0.03181880195309696,
                0.6616572831606166,
                0.6616572831606164,
                0.6616572831606166,
                0.6616572831606166,
                0.6616572831606167,
                0.10267319481883096,
                0.6616572831606166,
                0.032205451347524346,
                0.3939815458877466,
                0.6616572831606166,
                0.6616572831606167,
                0.23811087930533487,
                0.6616572831606166,
                0.6616572831606167,
                0.6616572831606166,
                0.03220584318801769,
                0.23071076870545285,
                0.45947537723541987,
                0.36681850245921765,
                0.6616572831606164,
                0.6616572831606166,
                0.25360420312305,
                0.6616572831606166,
                0.06503795649399857,
                0.6616572831606167,
                0.1557723737025427,
                0.6616572831606164,
                0.23972661136568307,
                0.24121737583032338,
                0.06352953586812682,
                0.6616572831606166,
                0.031818915367088106,
                0.6616572831606166,
                0.6616572831606167,
                0.23594370720988225,
                0.6616572831606167,
                0.6616572831606166,
                0.6616572831606167,
                0.6616572831606166,
                0.2867877409820697,
                0.6616572831606167,
                0.03220557694567274,
                0.6616572831606167,
                0.6616572831606167
            ]
        },
        "detections": 300,
        "events": 79750
    }
}