{
    "job_args": {
        "metric_limit": 300,
        "seed": 2072666891
    },
    "job_id": "batch_201_do_300",
    "result": {
        "collections": {
            "crystal": [
                0.09352358508822178,
                0.19894622678574442,
                0.6616572831606166,
                0.4920136315689789,
                0.03220574024020192,
                0.6616572831606164,
                0.4001250100430145,
                0.28130259445753814,
                0.6616572831606166,
                0.17982066925771117,
                0.6616572831606166,
                0.16598553781703035,
                0.6616572831606166,
                0.3136403230189976,
                0.6616572831606166,
                0.07817804991232868,
                0.07223706155277365,
                0.0372606027725323,
                0.03181877048482793,
                0.6616572831606166,
                0.6616572831606167,
                0.6616572831606166,
                0.014645042088665794,
                0.6616572831606164,
                0.6616572831606166,
                0.6616572831606166,
                0.6616572831606164,
                0.6616572831606168,
                0.6616572831606164,
                0.47627821885572075,
                0.04546066662103487,
                0.6616572831606164,
                0.13513408648083158,
                0.6616572831606166,
                0.6616572831606166,
                0.3554604824378104,
                0.3348334284742628,
                0.6616572831606164,
                0.3543442728730146,
                0.35230769137116,
                0.6616572831606164,
                0.1209301554319868,
                0.6616572831606164,
                0.15263542847283362,
                0.6616572831606164,
                0.6616572831606167,
                0.6616572831606166,
                0.6616572831606164,
                0.6616572831606166,
                0.6616572831606167,
                0.2907040952991037,
                0.6616572831606166,
                0.3148072653293087,
                0.43816556604163437,
                0.6616572831606167,
                0.6616572831606166,
                0.0322056823644187,
                0.6616572831606166,
                0.6616572831606164,
                0.6616572831606167,
                0.067950512000437,
                0.6616572831606167,
                0.0363917435978703,
                0.6616572831606164,
                0.20141899050848883,
                0.6616572831606166,
                0.4210339027038426,
                0.3553331339905497,
                0.6616572831606164,
                0.14182832659133682,
                0.6616572831606167,
                0.6616572831606166,
                0.6616572831606166,
                0.6616572831606166,
                0.5207286456267113,
                0.15124928217645162,
                0.4275787275622141,
                0.6616572831606166,
                0.6616572831606166,
                0.6616572831606166,
                0.6616572831606167,
                0.032205628319754,
                0.6616572831606167,
                0.3019804560491659,
                0.6616572831606166,
                0.6616572831606166,
                0.6616572831606166,
                0.03220541668105951,
                0.6408486468085227,
                0.06494381468436727,
                0.6616572831606166,
                0.1998529258938394,
                0.28629605828571825,
                0.6616572831606164,
                0.6616572831606166,
                0.6616572831606166,
                0.6616572831606166,
                0.6616572831606167,
                0.6616572831606166,
                0.23814671707124774,
                0.6616572831606167,
                0.10872366712075587,
                0.6616572831606166,
                0.3994249823317857,
                0.2714310851298826,
                0.009546129610174484,
                0.31961733461476166,
                0.03762930782634578,
                0.6616572831606164,
                0.6616572831606166,
                0.3254058482341544,
                0.6616572831606164,
                0.05439479681897555,
                0.2010135037315759,
                0.3386657363231784,
                0.13050494731165374,
                0.6616572831606167,
                0.38430609343583616,
                0.6616572831606166,
                0.40148970145636825,
                0.6616572831606166,
                0.14712525934289145,
                0.6616572831606166,
                0.2847537555541333,
                0.03220543360189905,
                0.25107210533308816,
                0.6616572831606167,
                0.6616572831606164,
                0.6616572831606166,
                0.39315747523963673,
                0.6616572831606164,
                0.6616572831606166,
                0.6616572831606167,
                0.05487880168573278,
                0.24406584766355116,
                0.6616572831606166,
                0.0682185984073489,
                0.6616572831606166,
                0.6616572831606164,
                0.009046906056820236,
                0.04204600789393753,
                0.6616572831606166,
                0.6616572831606167,
                0.6616572831606164,
                0.21919357478297768,
                0.6616572831606164,
                0.45941037763566345,
                0.5140368759016305,
                0.6616572831606166,
                0.6616572831606166,
                0.6616572831606166,
                0.19908408467849045,
                0.20306196119683084,
                0.03631702835602729,
                0.19969390100100243,
                0.39363382833522137,
                0.6616572831606166,
                0.6616572831606166,
                0.002944764886739004,
                0.6616572831606166,
                0.30751740979462394,
                0.6616572831606164,
                0.20248541132686212,
                0.2032234962207782,
                0.6616572831606167,
                0.03220573772357812,
                0.22251701562560505,
                0.3640681797515548,
                0.6616572831606167,
                0.0322053688036236,
                0.05297771948270158,
                0.6616572831606166,
                0.6616572831606166,
                0.6616572831606167,
                0.3743715202667285,
                0.6616572831606166,
                0.6616572831606164,
                0.6616572831606164,
                0.6616572831606166,
                0.6330477831606167,
                0.34165242929741985,
                0.6616572831606164,
                0.2632179283092493,
                0.6616572831606166,
                0.6616572831606164,
                0.6616572831606164,
                0.032205755832098726,
                0.6616572831606166,
                0.04299732072253304,
                0.0031669245726202912,
                0.6616572831606167,
                0.6616572831606167,
                0.444416513035206,
                0.6616572831606164,
                0.6616572831606167,
                0.6616572831606166,
                0.6616572831606166,
                0.442587701730485,
                0.6616572831606166,
                0.28957224142551696,
                0.26614190306941377,
                0.6616572831606167,
                0.6616572831606166,
                0.03631674030196751,
                0.03220535840866025,
                0.6616572831606164,
                0.18739385967640665,
                0.14991749985220992,
                0.6616572831606166,
                0.6616572831606166,
                0.6616572831606166,
                0.1646290376421049,
                0.414773965371397,
                0.06557906041884198,
                0.40674094157279167,
                0.6616572831606164,
                0.6616572831606167,
                0.6616572831606166,
                0.4191653691221446,
                0.6616572831606166,
                0.6616572831606167,
                0.6616572831606166,
                0.6616572831606166,
                0.6616572831606166,
                0.6616572831606167,
                0.6616572831606167,
                0.37204214455435836,
                0.6616572831606166,
                0.34371487056947736,
                0.6616572831606166,
                0.47326404043699366,
                0.6616572831606166,
                0.13369061575063412,
                0.2158075576453003,
                0.6616572831606167,
                0.6616572831606166,
                0.6616572831606166,
                0.6616572831606167,
                0.6616572831606166,
                0.03639200765517646,
                0.6616572831606167,
                0.19194435424170564,
                0.6616572831606166,
                0.22903991327642143,
                0.04281251963544963,
                0.1609510455032389,
                0.6616572831606164,
                0.13257381633667964,
                0.6616572831606167,
                0.6616572831606164,
                0.23532700140998097,
                0.03220559749908183,
                0.05813432887394887,
                0.6616572831606167,
                0.6616572831606167,
                0.3864184676795658,
                0.03742673727939621,
                0.23746871052199195,
                0.21582345831506528,
                0.6616572831606166,
                0.032205621034796295,
                0.6616572831606167,
                0.2662826983144033,
                0.026511568898571647,
                0.0873277761912461,
                0.021597650950061498,
                0.6616572831606166,
                0.6616572831606167,
                0.6616572831606166,
                0.6616572831606167,
                0.6616572831606167,
                0.15834510969101445,
                0.6616572831606166,
                0.23323338480654335,
                0.3369386388848256,
                0.6616572831606167,
                0.2235322576912493,
                0.6616572831606164,
                0.0884349672244149,
                0.6616572831606166,
                0.48096739500703467,
                0.3599444209992109,
                0.6616572831606166,
                0.6616572831606166,
                0.4737171417239295,
                0.6616572831606166,
                0.6616572831606166,
                0.6616572831606164,
                0.6616572831606166,
                0.21244596591248777,
                0.6616572831606166,
                0.46383882080573713,
                0.6616572831606166,
                0.355371728559033,
                0.021344103775664452,
                0.6616572831606166,
                0.3321727027744912,
                0.35122515000451826,
                0.03220546330264462,
                0.6616572831606166
            ]
        },
        "detections": 300,
        "events": 79884
    }
}