{
    "job_args": {
        "metric_limit": 500,
        "seed": 239143312
    },
    "job_id": "batch_113_do_500",
    "result": {
        "collections": {
            "crystal": [
                0.2441149541451809,
                0.10523973531784533,
                0.6142260397629346,
                0.4592808853846574,
                0.4140323108475671,
                1.274537340179464,
                0.23304197200021692,
                0.14527620265945873,
                0.5652057399924909,
                1.2745373401794637,
                0.07525,
                1.2745373401794642,
                0.685865694089475,
                0.03792194921647346,
                0.42656154216296405,
                0.2553872978310711,
                0.4228825778680765,
                0.23847683732446434,
                0.436964376195888,
                0.3847756714676894,
                0.51099891,
                0.51099891,
                0.51099891,
                0.8618865470048451,
                0.51099891,
                0.9868566790687265,
                0.5607366445034909,
                0.44617588129919156,
                0.2620247946790615,
                0.7662985271560119,
                0.027014974962002336,
                1.274537340179464,
                0.5109989099999999,
                0.4487667649680558,
                0.4319790021055716,
                0.5085373211993529,
                0.5109989100000001,
                0.51099891,
                0.5109989100000001,
                0.51099891,
                0.51099891,
                0.3270496788994893,
                0.3756739377513053,
                0.5628565469408076,
                0.061699997501723836,
                0.9459002822846252,
                0.005978348839181358,
                1.2745373401794637,
                1.2745373401794637,
                0.39406464921784884,
                0.2619904889645508,
                0.37377330463023917,
                0.51099891,
                0.23969312105046536,
                0.39252276875449,
                0.496410299148036,
                0.5109989099999999,
                0.38020236793205625,
                0.0852354,
                0.8761327654732467,
                0.1778642782178168,
                0.8757904430792304,
                0.8122498675363763,
                0.4881593324797594,
                1.274537340179464,
                0.2889356895011638,
                0.05166788382047022,
                0.006878550656879367,
                1.274537340179464,
                1.000000552063498,
                0.3232892688369405,
                0.24571863574099984,
                0.51099891,
                0.04218433167356461,
                0.7254696987809892,
                0.5150789076337028,
                0.05669103990447627,
                1.2745373401794637,
                0.51099891,
                0.43945936735967767,
                0.5109989100000001,
                0.3127509546102741,
                0.6479581663883082,
                0.23418956949346917,
                0.140980308243361,
                0.00291345829532752,
                0.33560182710076886,
                0.3135712816366395,
                0.18764094559935868,
                0.33712998840459046,
                1.2745373401794642,
                1.2745373401794642,
                0.5203479057163396,
                1.0343792866305184,
                0.26643388134255774,
                0.29175796189620645,
                0.44558744964506375,
                1.2745373401794642,
                0.02334662348803146,
                0.3550961909790913,
                0.51099891,
                0.08596911153463038,
                0.046943500000000006,
                1.0508306611943243,
                0.5109989099999999,
                0.2475215640344176,
                0.11502384061136131,
                0.30987897415530224,
                0.16910753492309707,
                0.32248059566250425,
                1.2745373401794637,
                0.51099891,
                0.7577054074186345,
                0.51099891,
                0.28736181417140916,
                0.392249192300282,
                0.9242156466060105,
                0.02584889741512386,
                0.6564090813071062,
                0.7635384301794639,
                0.362628302455372,
                1.274537340179464,
                0.06880215333095219,
                0.6414750701966508,
                0.1375403388230957,
                1.274537340179464,
                0.8513560977309769,
                0.21832755290562214,
                0.07303899999999999,
                0.51099891,
                0.39730396493094744,
                0.0010371913032454216,
                0.51099891,
                0.5226691563747207,
                1.2745373401794642,
                1.2745373401794637,
                0.6422028771077068,
                0.719659149306039,
                0.51099891,
                0.015406576780826131,
                0.4148722129984984,
                0.600845286029446,
                0.48777285459988606,
                0.13766398241550637,
                0.4937224554187144,
                0.3445615102774871,
                0.05947117730668622,
                0.8517897630885829,
                0.40113334918131915,
                1.2745373401794642,
                0.3013426985011483,
                0.51099891,
                0.4116495065642562,
                0.8081964215629659,
                1.274537340179464,
                0.11529400455201944,
                1.2745373401794637,
                1.274537340179464,
                0.4372798521805276,
                0.17243167049573715,
                0.44122244051905246,
                0.5800985341638635,
                0.0876557,
                0.4444131431932803,
                0.14170753279854775,
                0.11945393693546441,
                0.7653476640681469,
                0.51099891,
                0.20255120635852789,
                0.51099891,
                1.274537340179464,
                1.2745373401794642,
                0.51099891,
                0.19958252270525323,
                0.44063634757027265,
                0.019491089951285623,
                0.6966296617391681,
                0.5109989099999999,
                0.21685032690724154,
                0.4886202341132885,
                1.2745373401794637,
                0.268569081586603,
                0.04552441100168947,
                0.51099891,
                0.33760457406978167,
                0.2994755610442208,
                0.5109989100000001,
                0.4965022594713036,
                0.4385406111565832,
                0.5109989100000001,
                0.4507095266366127,
                0.26441979003201066,
                0.2610565852841853,
                0.3349296239948676,
                0.2057992957501732,
                1.036704931111938,
                0.51099891,
                0.04824265844608655,
                1.274537340179464,
                0.477219678521232,
                0.03128232514792678,
                0.39644738698094,
                0.9380531033891686,
                1.274537340179464,
                0.473372337565615,
                0.028712742417483283,
                0.6191855507954218,
                0.20195680806430727,
                0.7245170364848023,
                0.6225945824046732,
                1.274537340179464,
                0.715490166042389,
                0.3296813888423557,
                0.3330982164989936,
                1.2745373401794637,
                0.35958345739939795,
                0.6323615938611629,
                0.3657736602593293,
                0.7562657981584918,
                0.5052783181159382,
                0.7608001984211132,
                0.5109989100000001,
                0.5389708053243477,
                0.6597949608482859,
                0.7360872385621466,
                1.274537340179464,
                0.3859080688527396,
                0.51099891,
                0.07525000000000001,
                0.3919151170335932,
                0.24790738741054685,
                0.3081599918597608,
                0.19159137263015547,
                0.19530031488826816,
                0.2328842556991787,
                0.13641393378768357,
                0.11770058698819458,
                0.4616685307432216,
                0.4259191842865339,
                0.7326301551077302,
                0.30878072450808486,
                0.39096287910600824,
                0.17694893851510618,
                0.02354278128360876,
                1.274537340179464,
                0.3203787731958208,
                1.274537340179464,
                0.5558054824330346,
                1.2745373401794644,
                1.2745373401794642,
                0.4806627040826457,
                1.2745373401794635,
                0.2117229502024227,
                1.2745373401794637,
                0.5993919363654208,
                0.360721941839499,
                0.07525000000000001,
                0.5109989099999999,
                0.51099891,
                0.51099891,
                1.274537340179464,
                0.0876557,
                0.5109989099999999,
                1.2745373401794642,
                0.03485084537530364,
                0.5109989099999999,
                0.2508714645401399,
                0.7427952618427944,
                0.8246941451833391,
                1.2745373401794637,
                0.07525,
                0.26669387105490705,
                0.5109989099999999,
                0.24325589976015288,
                0.1041925060220284,
                1.2745373401794637,
                0.7308487304699661,
                0.9183021496614866,
                0.3401745252578863,
                0.6820062153790699,
                1.1305992664992803,
                0.5799584338811087,
                0.51099891,
                0.4348334020290501,
                0.39039812893440695,
                0.07524999999999998,
                0.51099891,
                0.4409015911393049,
                1.2745373401794637,
                0.5109989100000001,
                1.2745373401794637,
                0.51099891,
                1.274537340179464,
                0.51099891,
                0.356653490164216,
                1.012616093555379,
                0.5109989099999999,
                0.025810519757492822,
                1.274537340179464,
                0.5109989099999999,
                0.18217849608051126,
                0.509955886383603,
                0.51099891,
                0.5109989099999999,
                0.14085500143211283,
                1.2745373401794642,
                0.5109989099999999,
                0.9257772008035724,
                0.51099891,
                0.6968478920486538,
                0.2489634861614357,
                1.1419570861689141,
                0.036267784060857955,
                0.51099891,
                0.6067263757524215,
                1.274537340179464,
                1.1218321371597448,
                0.19465522688096948,
                0.06877849832048166,
                0.37948047668547924,
                0.6659029174980386,
                0.5109989100000001,
                1.274537340179464,
                0.5109989099999999,
                0.6132527866695551,
                0.273474111867434,
                0.26131763767685356,
                0.5109989100000001,
                0.6181484453417442,
                0.29882938989997254,
                0.056424172084211355,
                0.3493386496322011,
                0.51099891,
                0.51099891,
                0.07219391897799886,
                0.04325614607836536,
                0.8932467930233428,
                0.2788050296216504,
                0.1948376809101406,
                0.51099891,
                1.274537340179464,
                0.401073743719331,
                0.4797677411278184,
                0.5717676309444261,
                0.443034940351201,
                0.3077955720595297,
                0.51099891,
                0.18168110683966515,
                0.7185574826996189,
                0.4928547682111657,
                0.7228293768428308,
                0.1777370367664215,
                0.51099891,
                0.5109989100000001,
                0.4318156849844861,
                1.2745373401794642,
                0.51099891,
                0.7895924651905497,
                0.51099891,
                0.8130742688018135,
                1.2745373401794637,
                0.51099891,
                1.274537340179464,
                0.9827353294638868,
                1.2745373401794642,
                0.22378881238714765,
                0.06895024331823141,
                0.7820536723689897,
                0.4112306186983854,
                0.073039,
                0.16610014325688943,
                0.5109989099999999,
                0.03644571492395099,
                0.5109989100000001,
                1.2745373401794642,
                1.0413391273041168,
                0.8617095214199828,
                1.2201170209337744,
                0.51099891,
                1.274537340179464,
                0.9851107025441945,
                0.29873173051457935,
                0.4034219142645797,
                0.31881917190533293,
                0.51099891,
                0.5109989100000001,
                0.625696088132774,
                1.040767779353546,
                0.3867951257753869,
                0.9562438883787262,
                1.0614556343505066,
                0.0778844796258058,
                1.2745373401794642,
                1.014916656883754,
                0.51099891,
                0.2538121171574437,
                0.6138548140960619,
                0.26069320271125607,
                0.49987550173355527,
                0.51099891,
                0.9574566393515611,
                0.40959362808724936,
                0.400658558616321,
                1.2335926087468931,
                1.274537340179464,
                0.2622672534369593,
                0.03087803934048744,
                0.3466740803895651,
                0.4117314578452972,
                0.37702415911343545,
                0.4217406941284518,
                0.28464179866916356,
                0.09008162224853067,
                0.538568292443251,
                0.6421633147371153,
                1.1863649222596202,
                0.028271976404944194,
                1.2745373401794637,
                0.11065345344484157,
                0.4613335838578046,
                0.09380533303909722,
                0.9723523066756286,
                0.51099891,
                0.51099891,
                0.51099891,
                0.4313737071991637,
                0.9434537857290763,
                0.18484465494961233,
                0.073039,
                1.2745373401794642,
                0.04125824750339935,
                0.6663193701348744,
                0.11919751809606488,
                0.24703760618809464,
                0.6805646394178273,
                0.8054055560442804,
                0.5109989100000001,
                0.31535202535829165,
                0.25384835759776014,
                0.7883755075866338,
                0.1584712394322011,
                0.6064794958323761,
                0.51099891,
                0.7967464544419639,
                0.51099891,
                0.51099891,
                0.7907081473172658,
                0.4594835137684839,
                1.2745373401794642,
                0.5127279922820239,
                0.48635529562733265,
                0.4420954088145893,
                1.231022699688023,
                0.17011008849251635,
                0.51099891,
                0.7982582099719033,
                1.2745373401794642,
                0.5109989099999999,
                0.11459690895908103,
                0.37677675978621994,
                0.08282047495773753,
                0.5034218499778617,
                0.5880878072132508,
                0.51099891,
                0.35195591588705055,
                1.274537340179464,
                0.51099891,
                0.0852354,
                0.147876420958343,
                1.0362870329148293,
                0.49046254795398836,
                0.6195196228332259,
                1.274537340179464,
                1.274537340179464,
                1.0668228263578072,
                0.51099891,
                0.6503688042137621,
                1.0367272605302507,
                0.32807543998638156,
                0.4843127650464694,
                0.18868654671708443,
                0.9571224845889047,
                0.51099891,
                0.2867598832725265,
                1.0315224233293425,
                0.2770275507474265,
                0.5312348090575356,
                0.51099891,
                0.5109989100000001,
                0.017604626166867032,
                0.39980657689009513,
                0.43099779027419494,
                0.042955799999999995,
                1.274537340179464,
                0.43322670977963484,
                1.274537340179464,
                0.2983316420131914,
                1.2745373401794642,
                0.5109989099999999,
                0.3861765814696718
            ],
            "photocathode": [
                1717,
                710,
                4322,
                3297,
                2923,
                8961,
                1591,
                1018,
                4087,
                9008,
                502,
                8951,
                5032,
                258,
                3018,
                1772,
                2953,
                1663,
                3119,
                2610,
                3522,
                3550,
                3626,
                6106,
                3470,
                6969,
                3927,
                3241,
                1813,
                5501,
                176,
                9174,
                3508,
                3158,
                3059,
                3580,
                3672,
                3636,
                3607,
                3584,
                3545,
                2294,
                2657,
                3914,
                430,
                6859,
                42,
                8966,
                8824,
                2836,
                1804,
                2650,
                3584,
                1731,
                2766,
                3503,
                3521,
                2616,
                581,
                6216,
                1238,
                6056,
                5677,
                3496,
                8831,
                1997,
                365,
                43,
                8858,
                6970,
                2294,
                1758,
                3489,
                327,
                5059,
                3635,
                408,
                8901,
                3597,
                3103,
                3737,
                2169,
                4655,
                1731,
                1053,
                14,
                2370,
                2204,
                1287,
                2410,
                8784,
                8917,
                3609,
                7167,
                1840,
                1977,
                3148,
                8970,
                158,
                2595,
                3560,
                592,
                321,
                7446,
                3474,
                1701,
                763,
                2214,
                1211,
                2192,
                8838,
                3517,
                5276,
                3509,
                2112,
                2767,
                6343,
                169,
                4449,
                5376,
                2488,
                8869,
                488,
                4462,
                1019,
                8898,
                5957,
                1536,
                514,
                3583,
                2688,
                9,
                3588,
                3595,
                8866,
                8772,
                4653,
                5072,
                3589,
                110,
                2998,
                4256,
                3400,
                931,
                3635,
                2304,
                434,
                5964,
                2869,
                9056,
                2140,
                3593,
                2805,
                5665,
                8995,
                801,
                8779,
                8780,
                2989,
                1172,
                3077,
                3957,
                580,
                3011,
                978,
                824,
                5284,
                3621,
                1428,
                3639,
                8959,
                8923,
                3489,
                1409,
                3121,
                128,
                4911,
                3589,
                1494,
                3382,
                8726,
                1893,
                320,
                3647,
                2393,
                2128,
                3628,
                3416,
                3109,
                3817,
                3108,
                1914,
                1878,
                2329,
                1416,
                7305,
                3566,
                318,
                9151,
                3225,
                211,
                2755,
                6753,
                8953,
                3344,
                192,
                4468,
                1445,
                5101,
                4329,
                9026,
                5069,
                2292,
                2357,
                9022,
                2425,
                4478,
                2540,
                5356,
                3652,
                5377,
                3518,
                3789,
                4744,
                5223,
                9028,
                2621,
                3567,
                530,
                2706,
                1743,
                2140,
                1356,
                1370,
                1612,
                937,
                774,
                3291,
                2980,
                5147,
                2191,
                2752,
                1226,
                184,
                8938,
                2198,
                9024,
                3939,
                9108,
                9058,
                3447,
                9057,
                1506,
                8734,
                4426,
                2624,
                573,
                3577,
                3716,
                3591,
                8814,
                602,
                3620,
                8895,
                245,
                3732,
                1810,
                5133,
                5754,
                9059,
                496,
                1877,
                3468,
                1665,
                730,
                8972,
                5175,
                6431,
                2463,
                4776,
                7891,
                4224,
                3583,
                2936,
                2772,
                563,
                3639,
                3056,
                8828,
                3548,
                8788,
                3607,
                8930,
                3593,
                2511,
                7191,
                3570,
                178,
                8977,
                3599,
                1243,
                3708,
                3625,
                3486,
                1044,
                9042,
                3610,
                6565,
                3616,
                4819,
                1787,
                8036,
                241,
                3462,
                4325,
                8992,
                7732,
                1387,
                470,
                2638,
                4817,
                3589,
                8992,
                3492,
                4311,
                1882,
                1911,
                3562,
                4395,
                2182,
                376,
                2431,
                3567,
                3605,
                504,
                297,
                6439,
                1994,
                1385,
                3544,
                8754,
                2873,
                3370,
                4008,
                3197,
                2169,
                3678,
                1222,
                5086,
                3505,
                5212,
                1276,
                3696,
                3551,
                3041,
                9201,
                3730,
                5601,
                3525,
                5644,
                8977,
                3632,
                9167,
                6896,
                8977,
                1496,
                542,
                5589,
                2942,
                537,
                1149,
                3675,
                246,
                3650,
                8797,
                7444,
                6059,
                8526,
                3620,
                8875,
                6897,
                2087,
                2894,
                2251,
                3509,
                3528,
                4306,
                7308,
                2723,
                6810,
                7351,
                535,
                9068,
                7249,
                3597,
                1692,
                4266,
                1840,
                3327,
                3534,
                6668,
                2911,
                2847,
                8821,
                8899,
                1797,
                257,
                2405,
                2898,
                2703,
                2997,
                2145,
                627,
                3794,
                4408,
                8342,
                188,
                8852,
                871,
                3350,
                640,
                6874,
                3681,
                3511,
                3629,
                2995,
                6742,
                1357,
                472,
                9106,
                274,
                4754,
                864,
                1752,
                4776,
                5623,
                3600,
                2226,
                1795,
                5355,
                1139,
                4292,
                3666,
                5400,
                3520,
                3645,
                5539,
                3300,
                9024,
                3583,
                3382,
                3140,
                8786,
                1234,
                3576,
                5722,
                9331,
                3564,
                789,
                2691,
                575,
                3425,
                4267,
                3605,
                2641,
                8911,
                3559,
                602,
                1005,
                7300,
                3443,
                4322,
                8861,
                9100,
                7466,
                3483,
                4753,
                7285,
                2318,
                3352,
                1355,
                6601,
                3537,
                1922,
                7481,
                2049,
                3882,
                3664,
                3524,
                131,
                2681,
                3118,
                303,
                8824,
                3056,
                8751,
                2152,
                9060,
                3652,
                2871
            ]
        },
        "detections": 500,
        "events": 101792
    }
}