{
    "job_args": {
        "metric_limit": 500,
        "seed": 1133256194
    },
    "job_id": "batch_6_do_500",
    "result": {
        "collections": {
            "crystal": [
                1.0596122737351603,
                0.338589743199617,
                0.06624333933811272,
                0.0847407,
                0.9607425231502029,
                0.40966467997127365,
                0.51099891,
                0.51099891,
                0.51099891,
                0.34864071400471525,
                0.51099891,
                0.9349348907464498,
                0.6574337206623704,
                0.582568331820633,
                0.51099891,
                0.09721927903829686,
                0.51099891,
                0.4253277577215693,
                1.2745373401794642,
                1.274537340179464,
                0.18825083329706163,
                0.5109989099999999,
                0.07525,
                0.34373910717871436,
                0.5109989100000001,
                0.31267219506366983,
                0.010318505847186634,
                0.51099891,
                1.2745373401794642,
                1.274537340179464,
                0.51099891,
                0.51099891,
                1.274537340179464,
                0.5109989100000001,
                0.4992340975198743,
                0.25966688561022755,
                0.07980230858697518,
                0.51099891,
                0.5961811985308036,
                0.381236605903858,
                1.274537340179464,
                0.51099891,
                0.51099891,
                0.3723024332544922,
                0.24930927034665218,
                0.45569724998886435,
                0.16650185557139585,
                0.5109989100000001,
                1.274537340179464,
                0.3326517136380518,
                1.0610294686284338,
                1.274537340179464,
                0.1487238561777029,
                0.7470546083495362,
                0.05019210279728509,
                0.6703689918327447,
                0.025601499400710992,
                0.2586093671284293,
                0.6501546069922456,
                0.3321659214802646,
                0.4055775440943677,
                0.05323017110099082,
                0.7337207139794957,
                0.5109989100000001,
                0.061099032701136924,
                1.274537340179464,
                1.0311153731189844,
                0.3337556422228053,
                0.2868499704693033,
                0.51099891,
                0.51099891,
                0.15508286379173686,
                0.769748755814659,
                0.6477515020808136,
                0.15275267035017626,
                0.13399190457468502,
                0.6768423697363164,
                0.7460403616359241,
                0.087534,
                0.18379127488096392,
                0.12956183870954344,
                0.51099891,
                1.7855362501794638,
                0.26592457402090774,
                0.2260036891069126,
                1.0287165297526333,
                0.51099891,
                0.2793568517714177,
                0.3893104930951606,
                0.5895819385472806,
                0.51099891,
                0.51099891,
                0.7639326799751784,
                1.2145880304468102,
                1.2745373401794642,
                0.5109989100000001,
                0.2837336303607354,
                1.2745373401794637,
                0.5109989100000001,
                0.30368393215330536,
                0.16223289439379107,
                0.51099891,
                0.7133607744072752,
                0.70269160381433,
                0.3844489382858799,
                0.51099891,
                0.51099891,
                0.334908940581656,
                0.26785540304305155,
                0.2117126594444061,
                0.7328481159171845,
                1.274537340179464,
                0.1785940704556115,
                0.770333599078024,
                0.9069643558324442,
                0.3364822928137441,
                0.06080062871904601,
                0.0876557,
                0.51099891,
                0.1977370074315568,
                0.4733995175405304,
                0.40187484065797774,
                0.5109989099999999,
                0.5109989100000001,
                0.26375948619803213,
                0.060669682253370105,
                0.4599497302696494,
                1.0164164304948125,
                0.15605432245042272,
                0.51099891,
                1.2745373401794637,
                0.05241311432503998,
                0.46824537988301834,
                0.40163447438199973,
                0.2002499760879256,
                0.20852523270958062,
                0.27479210589629366,
                0.4126121826853878,
                0.5109989099999999,
                0.5109989099999999,
                1.274537340179464,
                0.6989920460686916,
                0.03144339444155575,
                0.51099891,
                0.45911647574680536,
                0.538562054049323,
                0.39920969845544474,
                0.07524999999999998,
                0.7060227108021391,
                0.4103646040420403,
                0.3838322280852248,
                0.8142750430170123,
                1.0497362176247735,
                0.09005280352647789,
                1.2745373401794637,
                0.3861433976207155,
                0.942577133168928,
                1.274537340179464,
                0.2156507195924225,
                0.14734810741582544,
                1.2745373401794637,
                0.2043011615877008,
                0.3488517205813819,
                0.14145355479114002,
                0.007527709923851544,
                0.07496045553983266,
                0.044651297230512886,
                0.05812829500132577,
                0.5109989100000001,
                0.0820023251925317,
                0.41026630915405965,
                0.5109989100000001,
                1.0048981730574018,
                0.4645569735616606,
                0.9438610736833767,
                0.14439507486611056,
                0.8374893669787241,
                0.018869782400968815,
                0.20458657580127704,
                0.7698224990015557,
                0.08474070000000002,
                0.5109989099999999,
                0.3857910598122975,
                1.2745373401794642,
                0.8004802835264659,
                0.51099891,
                1.2745373401794637,
                1.0201957196542142,
                0.5109989100000001,
                0.7147243837872811,
                1.2745373401794637,
                1.0328073457411913,
                0.0852354,
                0.10062332348272011,
                1.274537340179464,
                0.3541607108264402,
                0.20449461760178494,
                0.36841078753549383,
                0.8513795665918973,
                0.3638377011321693,
                1.274537340179464,
                0.5563358697092493,
                1.2745373401794637,
                0.38395673498283744,
                0.404002535047284,
                0.51099891,
                0.055019634262668815,
                0.51099891,
                0.51099891,
                0.6631256216690962,
                0.08527242970438592,
                0.8025083608609633,
                1.0244042687752146,
                0.33252241920333,
                1.2745373401794642,
                0.7105141600408702,
                0.8488535833895784,
                1.08251006847811,
                1.2745373401794637,
                0.3051347777107078,
                0.22459948022269044,
                0.7687342573148684,
                0.8657619708973319,
                0.5109989099999999,
                0.7517720664159464,
                0.5785480391839786,
                0.3243768367928721,
                0.6313690490402949,
                0.9934452218171581,
                0.51099891,
                0.7821583724991485,
                0.2652332782241036,
                0.5773103741041804,
                0.022519547088395465,
                1.2745373401794637,
                0.3909292409767643,
                0.5014117092230785,
                0.18684204325676257,
                0.5109989099999999,
                0.5109989100000001,
                1.2745373401794637,
                0.3368206993525751,
                0.51099891,
                1.2628311041279865,
                0.305475450067497,
                0.1562278032843336,
                0.4960996676814977,
                0.14333305634041238,
                0.5109989099999999,
                0.4835805367244076,
                0.6328237019775724,
                0.9508959484518832,
                1.274537340179464,
                0.7794365684495969,
                0.2715878813983524,
                0.6606814247821584,
                0.08224112506845072,
                0.03738330714278315,
                0.12526136808535093,
                0.022914683107943423,
                1.2745373401794642,
                1.2745373401794642,
                0.7533662569549473,
                1.2745373401794637,
                0.13683585076895688,
                0.8139148960286101,
                0.30012546240092575,
                1.0210680201297169,
                0.6547084919096172,
                0.5865902608828332,
                0.35311381093201566,
                0.45024677940632607,
                1.274537340179464,
                0.29301228441162974,
                0.51099891,
                0.3411953204986546,
                1.274537340179464,
                0.9338550534084296,
                0.9964810533693279,
                0.51099891,
                0.07525,
                0.017351115444161958,
                0.087534,
                0.5109989100000001,
                0.17769905738244418,
                1.274537340179464,
                1.0106648459805845,
                0.3141899272689279,
                1.2745373401794642,
                0.1833979720344236,
                0.8806015779570423,
                0.18626770351382943,
                0.22896948990674293,
                0.3976807212043218,
                0.15574524952406055,
                0.338590707639627,
                0.9722034777808449,
                0.2022587543255477,
                0.6763355076108868,
                0.41767701775419475,
                0.3838733850657462,
                1.274537340179464,
                0.03781251048755366,
                0.5109989100000001,
                0.11937044973426679,
                0.5077579449987583,
                0.08523540000000002,
                0.51099891,
                1.274537340179464,
                0.02629944564763237,
                0.15699674528265217,
                0.38713603842726546,
                0.51099891,
                0.51099891,
                0.0617721888896397,
                0.51099891,
                1.0400632066702356,
                0.0847407,
                0.4384016368592255,
                0.51099891,
                0.037692870894839414,
                0.3294610984106496,
                0.04283152249603672,
                0.51099891,
                0.01388182065475324,
                0.25309466469345754,
                1.274537340179464,
                0.9730960272221578,
                0.51099891,
                0.47913932873161225,
                0.2409091456566016,
                1.274537340179464,
                0.9184513962761046,
                1.274537340179464,
                1.274537340179464,
                0.021339214235178816,
                0.2505306783089385,
                0.4903293833476003,
                0.2627340169868802,
                0.017961412821171585,
                1.274537340179464,
                0.4700397027788464,
                0.6088977578010546,
                1.2745373401794642,
                1.2745373401794642,
                0.230464524007464,
                0.21858270697961688,
                1.274537340179464,
                0.51099891,
                1.274537340179464,
                0.51099891,
                0.8144349112777356,
                0.51099891,
                0.51099891,
                0.51099891,
                0.51099891,
                1.274537340179464,
                1.274537340179464,
                0.27165183499197976,
                0.9592113888746242,
                0.7939880938980151,
                1.0741254758851464,
                0.51099891,
                0.32769931247423023,
                0.7335326905711106,
                0.9348934668476496,
                0.4031718468678461,
                1.0691382416857758,
                0.42470395350085255,
                0.6821912876399084,
                0.5435699052495442,
                0.1570419807500773,
                0.7775086922763466,
                1.274537340179464,
                0.12940183503859684,
                0.18002585766931012,
                0.5119335476834947,
                0.2166878316240114,
                0.04637494318308988,
                0.044035090489998985,
                0.5774489911630577,
                0.017646464014883456,
                0.6781885132518617,
                0.5084452375779822,
                1.2745373401794642,
                0.06094893256641254,
                1.2745373401794637,
                0.20424918350395388,
                0.4043428005049115,
                0.516206419896621,
                0.202001202863073,
                0.21252281523427263,
                0.51099891,
                0.11341198976035975,
                0.07303899999999999,
                0.3884200974788417,
                0.5109989099999999,
                0.51099891,
                0.51099891,
                1.2745373401794642,
                0.21550404103221044,
                0.31751910371016745,
                0.51099891,
                0.5616198571148606,
                0.009173027642623066,
                0.4935376888019538,
                0.08980062693274932,
                1.274537340179464,
                0.51099891,
                0.7609152163080283,
                0.51099891,
                1.274537340179464,
                0.5850266132397508,
                0.5109989100000001,
                1.2086461431157618,
                0.6209806189631355,
                0.7095347008553985,
                0.28214407519431506,
                0.51099891,
                0.3947832045599384,
                0.18328808602009916,
                0.8958313715071917,
                0.1896424105862271,
                0.05763082290096988,
                0.4852311699891106,
                0.0852354,
                0.3115281091866883,
                0.24781030585860217,
                0.07525,
                0.48699457730391005,
                0.51099891,
                0.3610081133487968,
                0.5593615233143582,
                0.51099891,
                0.6077714796648644,
                1.274537340179464,
                0.07525,
                0.14495589623814809,
                1.0997089385020211,
                0.534134585583873,
                0.6220285893430116,
                0.9249299982723641,
                0.06111441346645008,
                0.670343118626939,
                1.274537340179464,
                0.818419968227338,
                0.02238317092825065,
                0.3029422334639573,
                0.17550789162403263,
                0.5109989099999999,
                0.51099891,
                0.5826470341712078,
                1.2745373401794637,
                0.11068364969247176,
                0.15726450330478925,
                0.5366058711357458,
                0.04550052205860289,
                0.51099891,
                1.0105952966085523,
                1.2745373401794642,
                0.13431666218949911,
                0.073039,
                0.51099891,
                0.51099891,
                0.51099891,
                0.51099891,
                0.0825415077734708,
                0.8272646170024892,
                1.2745373401794637,
                1.2745373401794637,
                0.51099891,
                1.274537340179464,
                0.51099891,
                0.5706552021273934,
                1.242243140179464,
                0.8055632618292835,
                0.5109989099999999,
                0.23912559022016522,
                0.5812202537368162,
                1.2745373401794642,
                1.206884907392073,
                0.51099891,
                0.09269935368515864,
                0.9124187154696071,
                0.06948853037673275,
                1.274537340179464,
                1.2745373401794642,
                0.9939719712725861,
                0.08344913140583943,
                0.4030002710924219,
                1.2745373401794642,
                0.51099891,
                0.6027100786006775,
                0.42389589178802073,
                0.43364703005770405,
                0.51099891,
                0.5109989100000001,
                0.4251769947161129,
                0.0847407,
                1.274537340179464
            ],
            "photocathode": [
                7418,
                2475,
                460,
                599,
                6733,
                2836,
                3612,
                3651,
                3514,
                2352,
                3578,
                6434,
                4672,
                4158,
                3543,
                636,
                3710,
                2939,
                8664,
                8923,
                1323,
                3596,
                564,
                2330,
                3516,
                2120,
                77,
                3659,
                8948,
                8896,
                3661,
                3575,
                8648,
                3586,
                3400,
                1761,
                601,
                3598,
                4128,
                2756,
                8781,
                3629,
                3815,
                2605,
                1746,
                3106,
                1213,
                3714,
                8930,
                2154,
                7593,
                8939,
                975,
                5324,
                354,
                4880,
                182,
                1757,
                4580,
                2374,
                2832,
                396,
                5086,
                3647,
                413,
                9053,
                7286,
                2344,
                1972,
                3583,
                3584,
                1069,
                5347,
                4565,
                1118,
                915,
                4816,
                5297,
                588,
                1323,
                930,
                3529,
                12712,
                1839,
                1575,
                7279,
                3650,
                2010,
                2742,
                4117,
                3539,
                3640,
                5384,
                8399,
                9077,
                3632,
                1953,
                8702,
                3523,
                2123,
                1151,
                3651,
                5022,
                4967,
                2766,
                3613,
                3670,
                2359,
                1903,
                1454,
                4971,
                9278,
                1359,
                5334,
                6338,
                2271,
                434,
                601,
                3448,
                1409,
                3214,
                2914,
                3607,
                3685,
                1921,
                435,
                3230,
                7266,
                1051,
                3496,
                8924,
                380,
                3233,
                2699,
                1420,
                1465,
                1964,
                2876,
                3552,
                3499,
                8893,
                5030,
                219,
                3546,
                3354,
                3804,
                2809,
                514,
                4929,
                2898,
                2673,
                5638,
                7524,
                675,
                8991,
                2782,
                6703,
                9018,
                1521,
                990,
                8910,
                1380,
                2440,
                1009,
                56,
                513,
                329,
                387,
                3655,
                584,
                2892,
                3561,
                7167,
                3436,
                6566,
                1030,
                5925,
                142,
                1495,
                5496,
                567,
                3540,
                2622,
                9029,
                5518,
                3541,
                9051,
                7250,
                3672,
                4965,
                8902,
                7067,
                607,
                675,
                8874,
                2526,
                1416,
                2621,
                5866,
                2484,
                8878,
                3874,
                8778,
                2601,
                2893,
                3583,
                373,
                3664,
                3564,
                4663,
                595,
                5716,
                7138,
                2333,
                8951,
                4908,
                6005,
                7633,
                8983,
                2178,
                1594,
                5405,
                6030,
                3629,
                5381,
                4082,
                2232,
                4442,
                6994,
                3752,
                5470,
                1863,
                3889,
                190,
                8903,
                2757,
                3512,
                1357,
                3669,
                3510,
                9111,
                2314,
                3514,
                8919,
                2053,
                1154,
                3364,
                999,
                3758,
                3487,
                4411,
                6794,
                9018,
                5466,
                1821,
                4578,
                544,
                235,
                875,
                172,
                9180,
                8992,
                5220,
                8812,
                963,
                5639,
                2097,
                7315,
                4613,
                4068,
                2437,
                3123,
                9033,
                2126,
                3578,
                2473,
                8975,
                6729,
                7034,
                3428,
                512,
                118,
                646,
                3521,
                1248,
                8999,
                7077,
                2147,
                9001,
                1252,
                6277,
                1273,
                1649,
                2760,
                1117,
                2372,
                6790,
                1390,
                4828,
                2903,
                2714,
                9204,
                259,
                3582,
                860,
                3677,
                551,
                3526,
                9226,
                195,
                1104,
                2722,
                3587,
                3629,
                405,
                3532,
                7435,
                618,
                3132,
                3535,
                261,
                2348,
                271,
                3487,
                78,
                1797,
                8782,
                6943,
                3602,
                3412,
                1777,
                8809,
                6546,
                9072,
                9051,
                156,
                1751,
                3544,
                1904,
                118,
                8838,
                3267,
                4275,
                8988,
                8899,
                1552,
                1526,
                8943,
                3586,
                9042,
                3612,
                5789,
                3476,
                3552,
                3590,
                3596,
                8830,
                8996,
                1921,
                6670,
                5678,
                7706,
                3583,
                2258,
                5225,
                6673,
                2806,
                7610,
                2883,
                4770,
                3860,
                1161,
                5542,
                8965,
                949,
                1237,
                3467,
                1517,
                349,
                312,
                4213,
                125,
                4827,
                3624,
                9026,
                401,
                8918,
                1439,
                2866,
                3712,
                1423,
                1462,
                3580,
                758,
                539,
                2750,
                3577,
                3542,
                3524,
                8840,
                1527,
                2203,
                3616,
                3949,
                59,
                3419,
                614,
                9073,
                3571,
                5319,
                3543,
                9175,
                3959,
                3617,
                8339,
                4353,
                4951,
                2076,
                3595,
                2745,
                1255,
                6335,
                1429,
                392,
                3333,
                650,
                2175,
                1670,
                540,
                3443,
                3668,
                2513,
                3807,
                3573,
                4247,
                8991,
                539,
                1053,
                7768,
                3757,
                4532,
                6441,
                420,
                4761,
                8718,
                5701,
                151,
                2224,
                1202,
                3561,
                3534,
                4064,
                8848,
                808,
                1070,
                3726,
                314,
                3456,
                7183,
                8905,
                950,
                510,
                3528,
                3657,
                3621,
                3562,
                591,
                5900,
                8904,
                8750,
                3570,
                9038,
                3566,
                4050,
                8528,
                5781,
                3600,
                1739,
                4077,
                8977,
                8434,
                3448,
                688,
                6480,
                482,
                9044,
                9020,
                6918,
                602,
                2838,
                8874,
                3624,
                4391,
                2964,
                3017,
                3672,
                3657,
                2946,
                586,
                8984
            ]
        },
        "detections": 500,
        "events": 104055
    }
}