{
    "job_args": {
        "metric_limit": 500,
        "seed": 1634124115
    },
    "job_id": "batch_73_do_500",
    "result": {
        "collections": {
            "crystal": [
                0.07525000000000001,
                0.222491296397488,
                0.08219735826666397,
                0.2091999382385511,
                1.2745373401794642,
                0.2976516545893297,
                0.4372355680844886,
                0.4402837265286696,
                0.25792678234991556,
                0.6412337075853065,
                0.20892799221466113,
                0.00986652051930856,
                0.5109989100000001,
                0.51099891,
                0.041876178479753834,
                0.21891191619325623,
                0.2780380167376175,
                0.3936908123509538,
                0.4698832794531582,
                1.2745373401794637,
                0.3335977151948809,
                0.46847391753993256,
                1.2745373401794637,
                0.469673715648552,
                0.51099891,
                0.04088789803930015,
                0.51099891,
                0.8124134395896176,
                0.017762958515257665,
                0.8700943362997957,
                0.1451864046300082,
                0.4039084692121584,
                0.47899079924301086,
                0.25484713928539254,
                0.51099891,
                0.51099891,
                1.2719162892456153,
                0.51099891,
                0.5320893600088682,
                1.2745373401794642,
                1.274537340179464,
                0.5870044153110006,
                0.4452240110525492,
                0.30055508785871515,
                0.15044342161719004,
                0.2614738926906032,
                0.8955149618635047,
                0.09121369763077586,
                1.274537340179464,
                1.274537340179464,
                1.2073713745001968,
                0.34763399349795276,
                0.08027876413306273,
                0.08225254387965453,
                1.274537340179464,
                0.2851905314235737,
                0.11042751761284314,
                0.7879464010150027,
                0.51099891,
                1.2745373401794642,
                0.6376867551726162,
                0.4295403854710692,
                1.274537340179464,
                0.05164120922792215,
                1.274537340179464,
                0.26465652328474065,
                0.5028933931646706,
                0.0876557,
                0.37037819851491344,
                0.4361820776175904,
                0.2523325951394973,
                0.5993911742019782,
                0.3040600689972423,
                0.5109989099999999,
                0.33307734046901116,
                0.07525,
                0.39589773072972084,
                0.24490437369401843,
                1.2745373401794642,
                0.9281644324943449,
                0.2182736485496804,
                0.51099891,
                0.5825011126302295,
                0.7185871030831252,
                0.51099891,
                0.6786802489938979,
                0.3545275834542124,
                1.274537340179464,
                1.274537340179464,
                0.5109989099999999,
                0.7522251024159001,
                0.1070508928657147,
                0.28683774337144513,
                0.9161118565621995,
                0.5109989099999999,
                0.5427060048592485,
                0.38287926279382695,
                0.51099891,
                0.5013957821970665,
                0.07525,
                1.2745373401794642,
                0.4951537740349296,
                1.274537340179464,
                0.43972027803997293,
                0.3598904088685848,
                0.9668819416145464,
                0.51099891,
                0.51099891,
                1.274537340179464,
                0.5677896091791462,
                0.51099891,
                0.16880266071138728,
                1.2745373401794637,
                0.7683982010318031,
                0.17290183429588443,
                0.51099891,
                1.274537340179464,
                0.6602935683593426,
                0.36124443909436016,
                0.5502267040067442,
                0.5109989099999999,
                0.5109989099999999,
                0.1248397754317292,
                0.650578068162111,
                0.7506378633425894,
                0.8012548192864496,
                0.4751583315221868,
                0.5409727436317927,
                1.2745373401794637,
                0.8362613430070633,
                0.5585563676273658,
                1.1335141124092878,
                0.51099891,
                0.28649859198039906,
                0.5109989100000001,
                0.5103863556958235,
                0.51099891,
                0.4412119356286044,
                0.7934356682716681,
                0.7738300320105064,
                0.08198252616969581,
                0.05164512530246257,
                1.056903182095929,
                0.12137302186341203,
                0.3537695972893316,
                0.5109989100000001,
                0.15577719823587688,
                1.274537340179464,
                0.7847373127819526,
                0.05916877261306874,
                0.3297588089970944,
                1.274537340179464,
                0.4111609183010226,
                0.5109989100000001,
                0.38756839531904796,
                0.30310570256019254,
                0.21395863808534066,
                0.3049305384084864,
                0.11375463124377627,
                0.8065419116469632,
                0.7005933962535469,
                0.5015746578635972,
                0.3340056735179322,
                0.13661913503022946,
                0.5109989100000001,
                0.7115919720555861,
                0.39804757642071315,
                0.51099891,
                0.51099891,
                1.274537340179464,
                0.44514229134961336,
                0.0852354,
                0.6472996962955608,
                0.982399355495341,
                0.27551533214376556,
                0.51099891,
                0.21492293761304845,
                0.51099891,
                0.9113914945744394,
                1.051914468243619,
                1.0434967408955065,
                1.000037231625454,
                0.188663330188257,
                0.5109989100000001,
                0.808550797767876,
                0.3430978210546422,
                0.30169481308939883,
                0.51099891,
                0.8016434171804029,
                1.2745373401794642,
                0.51099891,
                1.2745373401794642,
                0.5149884447254971,
                0.073039,
                0.7373106190632723,
                0.43792348575901396,
                0.9407357472721871,
                0.23799632353644185,
                0.3325056892648166,
                0.4769689649736396,
                0.623041784067591,
                1.274537340179464,
                0.46795134277419853,
                0.07524999999999998,
                0.11334986751118277,
                0.0876557,
                0.57659886100771,
                0.49724501350992734,
                1.0197847450467865,
                0.07524999999999998,
                0.5678291457944717,
                0.51099891,
                0.29077598849794095,
                0.7926545575890442,
                1.2745373401794644,
                0.5544091390008073,
                0.45953189205626765,
                0.36670385127202354,
                0.5310203109881027,
                0.6811919688066457,
                0.8792176685211249,
                0.25502117863993146,
                0.37262761975221376,
                1.2745373401794642,
                1.2745373401794646,
                0.51099891,
                0.51099891,
                0.5750209121747422,
                0.5826775429537248,
                0.17005954529699607,
                0.51099891,
                0.08578531224572478,
                1.2745373401794637,
                0.586692365370824,
                0.5262931587619998,
                0.0477353268035684,
                0.51099891,
                0.9349462110439223,
                0.3664063358525508,
                0.4381518176216417,
                0.7884373731159461,
                0.5109989100000001,
                0.538640911088926,
                0.46795058570671766,
                0.32458068298623943,
                0.5109989100000001,
                0.51099891,
                0.5109989100000001,
                0.51099891,
                1.026531626802091,
                1.2745373401794637,
                0.9030255279050612,
                0.3414949194323818,
                0.2418471567757163,
                1.0823052284288834,
                0.9143662295248836,
                0.03585543969710164,
                1.2745373401794642,
                0.5109989100000001,
                0.07159124576785053,
                0.7713326260476971,
                0.04692596269973859,
                0.6656253028520426,
                1.2745373401794642,
                0.07303899999999999,
                0.2995739932137029,
                1.099400609866494,
                0.007952328626650962,
                0.9877943646687293,
                1.0993228933004575,
                0.2587182211833539,
                0.44732139664988485,
                1.274537340179464,
                0.07305354305252565,
                0.51099891,
                0.5109989099999999,
                1.274537340179464,
                0.15744373798118927,
                0.5109989100000001,
                1.274537340179464,
                0.0538301124320395,
                0.51099891,
                1.274537340179464,
                0.5568958486531935,
                0.51099891,
                0.2731680099607839,
                0.922270341978041,
                0.8740272694439103,
                0.30488670072123264,
                1.2745373401794637,
                1.274537340179464,
                0.51099891,
                0.46549101564209955,
                0.51099891,
                0.713768197235551,
                0.51099891,
                0.5258751234245166,
                0.1046958511807955,
                0.9423903258900779,
                0.5109989100000001,
                0.341469552595824,
                0.46467355365257446,
                0.3239070419132644,
                1.274537340179464,
                0.51099891,
                0.8300299808769822,
                0.26557666500133315,
                0.9226321884952927,
                0.51099891,
                0.8418469092679349,
                1.274537340179464,
                1.0734231427392007,
                0.51099891,
                0.21296259096465578,
                0.4629559968832408,
                1.2411256583701162,
                0.14022628284188238,
                0.25679648065493144,
                0.5109989100000001,
                0.2801251088457173,
                0.057850803661855715,
                0.9889945705290699,
                0.3387536590636782,
                0.480183526147837,
                0.3166102716999892,
                0.5647088562778262,
                0.3195109240727838,
                0.5951364220210216,
                1.274537340179464,
                1.2745373401794642,
                0.51099891,
                0.5109989099999999,
                0.7441677652184701,
                0.5109989099999999,
                0.8117032773033019,
                0.7711318355236627,
                1.274537340179464,
                0.33173463588046764,
                0.32339378193579654,
                0.7360039418670598,
                0.07303899999999999,
                0.5109989100000001,
                0.5109989099999999,
                0.51099891,
                0.3104557174101059,
                1.274537340179464,
                0.3561488422654316,
                0.12387888399959687,
                0.33617821943791704,
                1.274537340179464,
                0.07524999999999998,
                0.22470776432945572,
                0.51099891,
                0.9250148245968335,
                0.51099891,
                0.24007318602280936,
                0.4058876642503732,
                0.4281161861826293,
                0.5109989099999999,
                0.4506865692608498,
                0.45395731515503124,
                0.5109989100000001,
                0.4596482526530481,
                1.0435424235302049,
                0.5403344635257611,
                0.38868089626784924,
                0.4986438323708624,
                0.42787629216373985,
                0.29340550552455436,
                1.274537340179464,
                0.5187931732016512,
                0.51099891,
                0.7384693532254836,
                0.04681716718811901,
                0.7368426901758689,
                0.19290305908479422,
                0.17519616864691812,
                1.2745373401794637,
                0.20475365017405334,
                0.9497655821254728,
                0.5060987370768357,
                0.07525,
                0.2252426759793693,
                0.508280834019659,
                0.08196502252432636,
                0.51099891,
                0.51099891,
                0.5012583218187199,
                0.9982995664426877,
                1.274537340179464,
                0.49277514420573276,
                0.2546631734394681,
                0.2992560211278765,
                0.51099891,
                0.9934696125590419,
                0.01981359877482175,
                0.12881532702327408,
                0.25991331636200504,
                1.274537340179464,
                0.51099891,
                0.33971405791491416,
                0.9674134896815645,
                0.26374605383186334,
                0.2614506669495297,
                1.2745373401794637,
                1.2745373401794637,
                0.5344441808021296,
                0.00029711151086164733,
                0.8641620690055211,
                1.274537340179464,
                1.2745373401794637,
                0.20842069100024774,
                1.2320102254255283,
                0.6640100291225478,
                0.5109989099999999,
                0.2547789731975938,
                0.08523540000000002,
                1.274537340179464,
                0.005483276360827017,
                0.14708278681169126,
                0.5109989100000001,
                0.6350920125676959,
                0.6934432783041029,
                0.32762867192190037,
                1.2745373401794637,
                0.36399289666186097,
                0.51099891,
                0.5109989100000001,
                0.51099891,
                1.1621577931984222,
                0.51099891,
                0.6650571314242228,
                0.3903492624017365,
                0.51099891,
                0.3618119625148434,
                0.4355122930045306,
                0.36214261748166765,
                0.3195771683378348,
                0.952389934819296,
                1.2745373401794642,
                1.274537340179464,
                0.51099891,
                0.8015648030552268,
                0.5675935572798589,
                0.4488754827664364,
                1.2745373401794642,
                0.8161427115843594,
                0.34900842820550043,
                0.3263577669904555,
                0.5964927996833037,
                0.5109989100000001,
                1.076469717614613,
                0.38139048785585966,
                0.726004618483522,
                0.6473205418058701,
                1.274537340179464,
                0.44987348943998673,
                0.4320965139781694,
                0.730061014674948,
                0.2594372433741575,
                0.14578666949374874,
                0.5109989099999999,
                0.29995435119917224,
                0.51099891,
                1.0235198251121713,
                1.2745373401794642,
                0.17059575823980722,
                0.45770098067357673,
                0.51099891,
                1.111061114791863,
                0.48679477581151465,
                0.6666611912850353,
                1.2745373401794642,
                1.169925274120264,
                1.2745373401794642,
                1.274537340179464,
                0.12578193788156988,
                0.51099891,
                0.5021493861017241,
                0.9878820323208772,
                1.274537340179464,
                0.18609189923667396,
                0.41578823958542455,
                1.2745373401794637,
                0.5109989100000001,
                0.36542793758707176,
                0.249449008167584,
                1.0015577114887106,
                1.2745373401794637,
                0.25951621062848806,
                0.51099891,
                1.2745373401794642,
                0.552215792985304,
                0.192682401558812,
                0.51099891,
                0.6809631955166828,
                1.2745373401794642,
                0.9689297937833035,
                0.4090155268434234,
                0.4486745692039004
            ],
            "photocathode": [
                512,
                1511,
                593,
                1472,
                8937,
                2125,
                3050,
                3159,
                1793,
                4521,
                1436,
                64,
                3609,
                3540,
                288,
                1527,
                2042,
                2744,
                3234,
                9076,
                2352,
                3304,
                9068,
                3267,
                3626,
                266,
                3591,
                5862,
                152,
                6229,
                1028,
                2822,
                3449,
                1785,
                3631,
                3602,
                8818,
                3676,
                3690,
                8893,
                8709,
                4164,
                3103,
                2187,
                1009,
                1856,
                6389,
                670,
                8928,
                9019,
                8432,
                2363,
                550,
                555,
                9016,
                1979,
                743,
                5535,
                3657,
                9085,
                4427,
                3053,
                8939,
                369,
                9081,
                1899,
                3643,
                586,
                2644,
                3054,
                1728,
                4110,
                2198,
                3540,
                2340,
                510,
                2668,
                1681,
                9052,
                6686,
                1563,
                3529,
                3960,
                4904,
                3578,
                4847,
                2444,
                8804,
                9056,
                3614,
                5230,
                730,
                1970,
                6306,
                3612,
                3891,
                2599,
                3554,
                3470,
                544,
                8946,
                3527,
                9057,
                3030,
                2708,
                6675,
                3560,
                3555,
                8944,
                4030,
                3597,
                1085,
                8998,
                5479,
                1284,
                3611,
                9135,
                4696,
                2480,
                3981,
                3524,
                3624,
                846,
                4721,
                5120,
                5751,
                3328,
                3768,
                8766,
                6115,
                3966,
                7826,
                3544,
                2054,
                3551,
                3707,
                3585,
                3084,
                5507,
                5391,
                594,
                376,
                7263,
                902,
                2518,
                3630,
                1083,
                9004,
                5499,
                425,
                2288,
                8917,
                2870,
                3658,
                2710,
                2125,
                1498,
                2203,
                761,
                5773,
                5006,
                3536,
                2317,
                959,
                3517,
                4992,
                2827,
                3556,
                3569,
                8914,
                3111,
                610,
                4505,
                6781,
                2008,
                3578,
                1575,
                3696,
                6543,
                7348,
                7313,
                7012,
                1387,
                3593,
                5615,
                2426,
                2201,
                3634,
                5686,
                8815,
                3478,
                9319,
                3621,
                506,
                5187,
                3067,
                6475,
                1677,
                2302,
                3411,
                4323,
                8986,
                3226,
                586,
                820,
                606,
                3904,
                3388,
                6976,
                504,
                3973,
                3560,
                2097,
                5638,
                8904,
                3850,
                3133,
                2571,
                3861,
                4815,
                6200,
                1670,
                2485,
                8991,
                8978,
                3568,
                3561,
                4002,
                4093,
                1167,
                3579,
                602,
                8770,
                4242,
                3463,
                334,
                3639,
                6783,
                2636,
                3106,
                5633,
                3613,
                3702,
                3182,
                2280,
                3650,
                3563,
                3601,
                3711,
                7224,
                9057,
                6262,
                2431,
                1659,
                7551,
                6466,
                256,
                8868,
                3664,
                472,
                5377,
                291,
                4781,
                9202,
                488,
                2137,
                7741,
                53,
                7102,
                7754,
                1827,
                3173,
                8927,
                496,
                3467,
                3555,
                8984,
                1078,
                3456,
                9010,
                397,
                3617,
                8952,
                3857,
                3664,
                1856,
                6516,
                6066,
                2266,
                8910,
                9291,
                3523,
                3278,
                3578,
                4972,
                3538,
                3524,
                799,
                6523,
                3705,
                2439,
                3203,
                2291,
                9152,
                3455,
                5893,
                1880,
                6510,
                3608,
                6066,
                8996,
                7452,
                3464,
                1489,
                3249,
                8951,
                946,
                1753,
                3484,
                1898,
                386,
                6873,
                2342,
                3312,
                2286,
                4050,
                2264,
                4388,
                9119,
                9053,
                3552,
                3557,
                5373,
                3510,
                5917,
                5585,
                9111,
                2328,
                2264,
                5267,
                489,
                3669,
                3632,
                3575,
                2169,
                8741,
                2546,
                902,
                2411,
                8926,
                501,
                1640,
                3560,
                6465,
                3660,
                1684,
                2836,
                2958,
                3630,
                3107,
                3091,
                3649,
                3352,
                7375,
                3845,
                2653,
                3507,
                3027,
                1946,
                9072,
                3637,
                3792,
                5201,
                321,
                4901,
                1355,
                1222,
                8986,
                1335,
                6728,
                3475,
                536,
                1581,
                3548,
                561,
                3510,
                3561,
                3530,
                7218,
                8747,
                3421,
                1815,
                2096,
                3546,
                7032,
                135,
                884,
                1824,
                9210,
                3560,
                2447,
                6833,
                1815,
                1870,
                9035,
                8826,
                3745,
                0,
                6165,
                9028,
                8970,
                1467,
                8613,
                4631,
                3559,
                1796,
                567,
                8848,
                32,
                1049,
                3605,
                4587,
                4863,
                2268,
                8751,
                2590,
                3705,
                3618,
                3533,
                8095,
                3635,
                4599,
                2728,
                3512,
                2459,
                2999,
                2668,
                2242,
                6699,
                8852,
                8831,
                3537,
                5565,
                4123,
                3149,
                8670,
                5788,
                2429,
                2350,
                4237,
                3723,
                7542,
                2696,
                5072,
                4547,
                9114,
                3204,
                3043,
                5165,
                1809,
                971,
                3618,
                2105,
                3550,
                7190,
                8803,
                1185,
                3156,
                3655,
                7740,
                3351,
                4604,
                8976,
                8271,
                8927,
                8898,
                810,
                3587,
                3500,
                6924,
                8942,
                1373,
                3017,
                9083,
                3624,
                2496,
                1835,
                6985,
                8944,
                1825,
                3491,
                9241,
                3828,
                1355,
                3574,
                4598,
                8940,
                6791,
                2880,
                3097
            ]
        },
        "detections": 500,
        "events": 108677
    }
}