{
    "job_args": {
        "metric_limit": 500,
        "seed": 364165935
    },
    "job_id": "batch_30_do_500",
    "result": {
        "collections": {
            "crystal": [
                0.8744238643036057,
                0.51099891,
                0.13709918629862264,
                0.9091457280509943,
                0.40182261005566255,
                0.7020328455236209,
                1.2745373401794642,
                0.11885261248623209,
                1.2745373401794637,
                1.2745373401794637,
                0.32680124989977544,
                0.6385955362547804,
                0.183755406492081,
                0.8672074867790378,
                0.6051694480104617,
                0.4253178482242236,
                0.4332707813833163,
                0.6348461852925872,
                0.8436541590066579,
                0.4076951955545517,
                1.2745373401794637,
                0.07524999999999998,
                1.2745373401794637,
                0.580163362844622,
                0.727983316624143,
                0.5314062058019313,
                0.9217800951599607,
                0.47486981114896565,
                0.3636053229331023,
                0.4466799634285939,
                1.274537340179464,
                1.274537340179464,
                1.274537340179464,
                0.10415749410372203,
                0.13487841711997905,
                0.044732499999999994,
                1.274537340179464,
                0.4797608250139206,
                0.49217159089280993,
                0.07525000000000001,
                0.4519800901400761,
                0.51099891,
                1.2745373401794637,
                0.5069650304918663,
                0.4347900783499503,
                0.6066250607770982,
                1.033243595968836,
                0.9205063474814728,
                0.6586233652937419,
                0.2926810051241936,
                0.5844204088632204,
                0.6117840678922762,
                0.6945668186980369,
                0.21821982234495177,
                0.5062280008724862,
                1.274537340179464,
                0.5736372216891396,
                0.4584579471831731,
                0.4152619925812735,
                1.274537340179464,
                0.9664234101150373,
                0.10391145508922217,
                0.51099891,
                1.274537340179464,
                0.5109989099999999,
                1.2745373401794642,
                0.5983845405026471,
                0.13337635922944238,
                0.5109989099999999,
                0.7215362607380913,
                1.274537340179464,
                0.23178352516123366,
                0.07303899999999999,
                0.0914552218167487,
                0.6460393350103929,
                1.274537340179464,
                0.43008324118356683,
                0.4009557854901173,
                0.22478224688015813,
                0.51099891,
                0.5109989099999999,
                1.2745373401794637,
                0.8656313472455645,
                1.274537340179464,
                1.274537340179464,
                1.274537340179464,
                0.51099891,
                0.8419027067539471,
                0.5762847251999889,
                0.9321328842027898,
                1.2745373401794642,
                0.4022961191901455,
                1.274537340179464,
                0.2134806772958106,
                0.9482844152989469,
                0.42204042902992434,
                0.6163349696704731,
                0.42788325251228787,
                0.6521199374497199,
                0.30031993985537586,
                0.225713165118695,
                0.7285606023956359,
                0.6560981891370626,
                0.9781722746107329,
                0.11999534296076492,
                0.47893236988980614,
                0.5109989099999999,
                0.9361306044974524,
                0.51099891,
                0.0852354,
                1.274537340179464,
                0.2448122017248422,
                0.2977069863269441,
                0.22737149262846157,
                0.4409144421054244,
                0.24909450448180337,
                1.2745373401794637,
                0.51099891,
                1.2745373401794642,
                1.2745373401794642,
                0.38526816326144964,
                0.6372640368019945,
                0.073039,
                0.9087032200209333,
                0.9863809120053786,
                0.4460962357949011,
                0.4789409996749088,
                1.274537340179464,
                0.51099891,
                0.4334022523957022,
                0.1990045765086259,
                1.274537340179464,
                0.38046480972563806,
                0.586772376330541,
                0.5109989100000001,
                0.9546605868571416,
                0.51099891,
                0.2741267241957748,
                0.51099891,
                0.37357797790069114,
                0.6170293044990746,
                0.51099891,
                0.8245731437744868,
                1.274537340179464,
                1.2745373401794637,
                0.7409008170947049,
                0.44373825952105894,
                0.1940757878137666,
                0.14280789859712983,
                1.0036602142653746,
                0.40817913453460125,
                0.35491348172900755,
                0.40663434064405063,
                0.5109989099999999,
                0.24258260358182393,
                0.51099891,
                0.33403984611593135,
                0.4092247259026148,
                0.1451265536342637,
                0.5268258415276222,
                1.274537340179464,
                0.8330974474253705,
                0.6399883856847589,
                0.51099891,
                0.206197997479503,
                0.08968695656547625,
                0.888164658017311,
                0.3319911376927921,
                0.51099891,
                0.7448878434121426,
                0.014731982408485556,
                0.6496998270882635,
                0.5109989099999999,
                1.274537340179464,
                0.07514614350009463,
                0.3927242426477519,
                0.3126215454481212,
                0.5805231345530786,
                1.274537340179464,
                1.0378290348869013,
                1.2745373401794637,
                0.32672635318611776,
                1.1132135033203845,
                0.5939050227162121,
                1.2745373401794642,
                0.40965182029802255,
                0.5109989100000001,
                1.274537340179464,
                0.51099891,
                1.2745373401794642,
                0.5109989100000001,
                0.6753503843148567,
                0.5109989100000001,
                0.9608532733264238,
                0.34339272298687656,
                1.2745373401794637,
                0.9074106533783765,
                1.2745373401794637,
                1.2745373401794637,
                0.51099891,
                0.05662590000000001,
                0.07303899999999999,
                0.39386355412614954,
                0.14438777676390252,
                1.2745373401794637,
                0.010076419503595502,
                0.5109989099999999,
                0.36585374512875923,
                0.27331264972921165,
                1.2745373401794637,
                0.07525,
                0.761193419272737,
                1.131264992512416,
                1.2745373401794637,
                0.18648988168828165,
                1.2745373401794637,
                0.944923025266542,
                1.274537340179464,
                1.274537340179464,
                0.7548627892309894,
                0.2929082166759599,
                0.44636666405966174,
                0.1519262438788272,
                0.6127642115930572,
                1.2745373401794637,
                0.51099891,
                0.51099891,
                0.2699435498692124,
                0.51099891,
                0.9053621054440912,
                0.51099891,
                0.052093162812032245,
                1.274537340179464,
                0.7268459274032835,
                0.20524051867241358,
                0.8928637404185428,
                1.274537340179464,
                0.28454371021147595,
                1.2745373401794642,
                0.28786075768244535,
                0.26467328697273784,
                0.19210663506294945,
                0.24264595825545804,
                0.13269176662058813,
                0.4080394112427922,
                1.2745373401794637,
                1.0606803310772186,
                1.0411830510156799,
                0.51099891,
                0.9434446325504277,
                0.48028028612983187,
                0.16718998606008795,
                0.21239150797842932,
                0.9536241930673905,
                0.7687201673238707,
                1.274537340179464,
                0.499577365164508,
                1.2745373401794642,
                0.51099891,
                0.6389460988046118,
                0.51099891,
                0.9948091978778305,
                0.8508776367526348,
                0.51099891,
                0.0019373082178080203,
                0.51099891,
                0.057422081562672644,
                0.05228817949420794,
                0.51099891,
                0.659151654511224,
                0.1289003285360965,
                0.2917703562368305,
                0.3772244261676185,
                0.010969851172886623,
                0.16944055895897947,
                0.7407414799851049,
                0.5109989099999999,
                0.51099891,
                0.4166266797539212,
                1.274537340179464,
                0.7888718525122014,
                1.0726456393616,
                1.2745373401794637,
                0.51099891,
                0.5109989100000001,
                1.2745373401794642,
                0.48680243824758584,
                0.04924818312844925,
                0.51099891,
                0.073039,
                1.274537340179464,
                0.9913257997177803,
                0.42923863733490913,
                0.5109989099999999,
                0.29185048164351346,
                0.033977507942316465,
                1.0863907569240536,
                0.1933879489476851,
                0.32129910195529965,
                0.51099891,
                1.274537340179464,
                0.3752445593841405,
                1.2745373401794642,
                1.064170732493536,
                0.08523539999999999,
                0.51099891,
                1.274537340179464,
                1.274537340179464,
                0.5109989100000001,
                0.09580658543501018,
                0.4189174251053123,
                1.274537340179464,
                0.51099891,
                0.51099891,
                1.274537340179464,
                0.5483972518129108,
                0.461985230396332,
                0.5792668123555571,
                0.37216622071892064,
                1.274537340179464,
                0.5893273315195671,
                0.6573149354184,
                0.11107448000391222,
                1.0018828493018797,
                0.51099891,
                0.7740882368087699,
                0.3481461349801541,
                1.2745373401794642,
                1.0589321394774296,
                0.4695475401557511,
                0.5109989100000001,
                0.24665754910219376,
                0.06252088407352888,
                0.5109989100000001,
                0.4264800106724661,
                0.9705578857445883,
                0.4593768778259662,
                0.49526246074504665,
                0.9343121823261917,
                0.2635347193056037,
                0.32840295803011044,
                0.4297809025202971,
                0.7866536257485705,
                0.5293152789078553,
                0.6078063599976818,
                0.26354161143326005,
                0.51099891,
                0.27250279300520985,
                0.3120445860874596,
                1.0463904450809562,
                0.7021017758140898,
                0.8265375061781486,
                0.47458645587167947,
                0.23799620888567377,
                0.7650499678691196,
                1.2745373401794637,
                0.3706798968154034,
                0.7013038788673837,
                0.2979665672872931,
                1.2745373401794642,
                0.08073940558154302,
                0.2934794589905037,
                0.51099891,
                0.015127308534502504,
                0.825865554180147,
                1.274537340179464,
                0.5250247414020206,
                0.5109989099999999,
                0.13455669047261187,
                0.39634334112422354,
                0.18591887700251528,
                0.3649420912662822,
                0.7554524927825387,
                0.56355081707317,
                0.11728621767955982,
                0.47967749537123094,
                0.2639494977559278,
                0.465905049306422,
                0.5109989100000001,
                0.9743318665712866,
                0.5109989100000001,
                0.10877936918436998,
                0.17927916370563876,
                0.0469435,
                0.3438170095730289,
                0.20420532393032143,
                0.5109989100000001,
                1.0216933486708708,
                0.51099891,
                1.2745373401794637,
                0.6651981323211593,
                0.51099891,
                0.007261960813534918,
                0.17864554928792473,
                1.1531797543931643,
                0.30900085455639514,
                0.4930315064728935,
                1.2745373401794637,
                0.8677471035488524,
                0.7411545586095085,
                0.48076852263350467,
                0.4376391247486825,
                0.44941887406500447,
                0.08235455494321908,
                0.763538430179464,
                0.16874331465581732,
                0.08365304718747224,
                0.5109989100000001,
                0.51099891,
                0.5109989100000001,
                0.4207606613821868,
                0.5109989100000001,
                0.07149272449817834,
                0.34232876113209654,
                1.2745373401794637,
                0.36354800962465944,
                0.17231459081100492,
                0.51099891,
                0.44429024329476186,
                1.274537340179464,
                1.274537340179464,
                0.17096469202341696,
                0.5044878044348535,
                0.8685829782871104,
                0.5024852956879844,
                0.23496058617488774,
                0.16465127826609233,
                0.44719325400606486,
                0.8335484988402515,
                0.5109989099999999,
                0.51099891,
                0.9125817243253118,
                0.5337367051086648,
                0.7394007923660649,
                0.0853419389654364,
                1.2745373401794642,
                0.51099891,
                0.302690963906237,
                0.6344120823578567,
                0.40761011878066755,
                0.3228583024894116,
                0.3235379353964287,
                0.51099891,
                0.5580398321506641,
                0.1463510435112771,
                0.51099891,
                0.5109989100000001,
                0.17776995518662167,
                0.34172116315393614,
                0.036996817841025376,
                0.18057863475572478,
                0.4314094568627444,
                0.7874381044789944,
                0.073039,
                0.39555695321069695,
                0.07020980574528884,
                0.9488422883313441,
                1.274537340179464,
                0.51099891,
                0.9623013114180298,
                0.06062424640868597,
                0.8829231122704436,
                0.4504812034159047,
                0.5109989099999999,
                0.8734505545629865,
                0.07524999999999998,
                0.526105388877829,
                0.3579957209548069,
                0.15001836000062513,
                1.2745373401794642,
                0.51099891,
                0.7444437325508018,
                0.233685671701779,
                1.274537340179464,
                0.6050303452664781,
                0.51099891,
                0.5109989099999999,
                0.8830284229571754,
                0.5219720802192392,
                0.51099891,
                0.5848116781592517,
                0.43092390129862357,
                1.7855362501794638,
                0.51099891,
                0.2334929901607768,
                0.20371938761359573,
                0.35214658228179196,
                1.274537340179464,
                0.9551019571229107,
                0.08386373056864815,
                0.401372673226488,
                0.7779391150471608,
                0.36339390115716097,
                0.9099647354839386,
                0.809898078671263,
                1.2745373401794637,
                0.39953970256541815,
                0.6562657067366064,
                0.7724743730898554,
                0.5109989099999999
            ],
            "photocathode": [
                6097,
                3660,
                1017,
                6449,
                2895,
                4974,
                8975,
                842,
                8899,
                8907,
                2183,
                4487,
                1279,
                6179,
                4185,
                2890,
                2955,
                4523,
                6082,
                2868,
                9205,
                529,
                8876,
                3992,
                4951,
                3712,
                6502,
                3396,
                2523,
                3193,
                9009,
                9028,
                8911,
                712,
                923,
                323,
                8803,
                3269,
                3542,
                521,
                3201,
                3575,
                8740,
                3566,
                3069,
                4342,
                7335,
                6426,
                4551,
                2108,
                4106,
                4345,
                4983,
                1522,
                3544,
                8878,
                4061,
                3186,
                2904,
                8980,
                6908,
                751,
                3557,
                9091,
                3574,
                8826,
                4362,
                954,
                3517,
                5064,
                8994,
                1627,
                490,
                644,
                4530,
                9018,
                2930,
                2854,
                1646,
                3647,
                3544,
                8887,
                6047,
                9300,
                8742,
                8982,
                3538,
                5820,
                4140,
                6402,
                9027,
                2810,
                8978,
                1586,
                6631,
                2915,
                4457,
                3159,
                4564,
                2088,
                1594,
                5079,
                4590,
                6864,
                874,
                3369,
                3523,
                6700,
                3494,
                583,
                8877,
                1792,
                2085,
                1610,
                3119,
                1715,
                9048,
                3664,
                8964,
                9015,
                2689,
                4522,
                517,
                6303,
                6894,
                3198,
                3440,
                9008,
                3676,
                3011,
                1531,
                9035,
                2690,
                4196,
                3490,
                6712,
                3662,
                1898,
                3605,
                2673,
                4349,
                3677,
                5715,
                8755,
                8971,
                5186,
                3193,
                1356,
                951,
                7154,
                2896,
                2571,
                2790,
                3497,
                1682,
                3680,
                2429,
                2857,
                964,
                3709,
                8944,
                5748,
                4385,
                3577,
                1486,
                638,
                6437,
                2374,
                3658,
                5323,
                111,
                4746,
                3658,
                8890,
                515,
                2697,
                2165,
                4022,
                8768,
                7205,
                8927,
                2315,
                7922,
                4098,
                9103,
                2806,
                3569,
                8887,
                3509,
                8945,
                3492,
                4725,
                3533,
                6772,
                2399,
                8775,
                6276,
                9080,
                8844,
                3621,
                382,
                521,
                2713,
                1010,
                8985,
                75,
                3480,
                2536,
                1894,
                8811,
                547,
                5421,
                7990,
                9094,
                1289,
                9015,
                6559,
                8738,
                8979,
                5368,
                2025,
                2973,
                1090,
                4288,
                9256,
                3529,
                3590,
                1824,
                3593,
                6315,
                3624,
                364,
                9228,
                5136,
                1428,
                6288,
                9134,
                1896,
                9017,
                2017,
                1831,
                1347,
                1665,
                992,
                2880,
                9035,
                7446,
                7244,
                3671,
                6483,
                3436,
                1150,
                1418,
                6735,
                5411,
                9079,
                3520,
                8944,
                3500,
                4427,
                3561,
                6973,
                6100,
                3579,
                14,
                3676,
                377,
                346,
                3523,
                4519,
                886,
                2008,
                2683,
                76,
                1145,
                5297,
                3546,
                3496,
                2968,
                8945,
                5505,
                7346,
                8958,
                3646,
                3482,
                8876,
                3474,
                341,
                3511,
                522,
                9336,
                6986,
                3050,
                3502,
                2089,
                270,
                7727,
                1416,
                2240,
                3514,
                8841,
                2657,
                8937,
                7508,
                602,
                3625,
                8599,
                9015,
                3529,
                690,
                2956,
                8884,
                3724,
                3503,
                8962,
                3988,
                3251,
                4157,
                2658,
                8829,
                4117,
                4496,
                816,
                6921,
                3601,
                5411,
                2356,
                9144,
                7700,
                3149,
                3611,
                1733,
                457,
                3612,
                2971,
                6808,
                3153,
                3472,
                6510,
                1925,
                2271,
                3098,
                5512,
                3802,
                4296,
                1887,
                3608,
                1904,
                2176,
                7372,
                4992,
                5822,
                3283,
                1689,
                5258,
                9205,
                2543,
                4979,
                2006,
                9034,
                594,
                2024,
                3616,
                86,
                5923,
                8887,
                3748,
                3548,
                901,
                2796,
                1242,
                2704,
                5284,
                3876,
                764,
                3357,
                1845,
                3248,
                3548,
                6823,
                3651,
                778,
                1309,
                324,
                2412,
                1404,
                3541,
                7196,
                3582,
                9042,
                4588,
                3653,
                45,
                1219,
                8489,
                2126,
                3569,
                8954,
                6023,
                5307,
                3408,
                3030,
                3064,
                569,
                5310,
                1149,
                533,
                3645,
                3718,
                3630,
                2946,
                3571,
                492,
                2372,
                8882,
                2527,
                1244,
                3583,
                3108,
                8865,
                8996,
                1225,
                3673,
                6074,
                3531,
                1614,
                1124,
                3200,
                5681,
                3680,
                3629,
                6342,
                3650,
                5111,
                609,
                8941,
                3491,
                2080,
                4453,
                2826,
                2336,
                2295,
                3522,
                3861,
                952,
                3554,
                3544,
                1265,
                2384,
                291,
                1260,
                2954,
                5529,
                494,
                2626,
                493,
                6612,
                9084,
                3520,
                6589,
                411,
                6181,
                3237,
                3503,
                6109,
                544,
                3677,
                2510,
                1025,
                8876,
                3631,
                5313,
                1545,
                9284,
                4289,
                3569,
                3541,
                5964,
                3651,
                3580,
                4082,
                3071,
                12490,
                3563,
                1676,
                1375,
                2430,
                9221,
                6639,
                596,
                2770,
                5536,
                2556,
                6511,
                5730,
                8756,
                2888,
                4642,
                5508,
                3587
            ]
        },
        "detections": 500,
        "events": 100641
    }
}