{
    "job_args": {
        "metric_limit": 300,
        "seed": 1663796901
    },
    "job_id": "batch_59_do_300",
    "result": {
        "collections": {
            "crystal": [
                1.0,
                1.0,
                0.38947953147663394,
                1.0,
                0.9999999999999998,
                0.5625303820357107,
                1.0,
                1.0,
                0.8036393936491821,
                0.7367677440678437,
                1.0,
                0.61610469678822,
                0.5017573557737185,
                0.4853181118189721,
                0.9999999999999999,
                0.13126353334425075,
                0.13681995552015727,
                0.18216041455174936,
                1.0,
                1.0,
                0.9999999999999999,
                0.4826489863912785,
                0.739107152769246,
                0.7184801837860335,
                0.9391536999999999,
                0.4412143770238956,
                0.26371718953490564,
                1.0,
                0.3292093824361917,
                0.9999999999999999,
                0.26990703859847504,
                1.0,
                0.9999999999999999,
                1.0,
                1.0,
                1.0,
                1.0,
                1.0,
                0.3315653257031691,
                1.0,
                1.0,
                1.0,
                0.4870791164355498,
                0.9999999999999998,
                0.7051428020019879,
                0.3517922876145877,
                0.04006050470328093,
                1.0,
                1.0,
                0.67217305462003,
                0.23106635174603884,
                1.0,
                0.6149267365901154,
                1.0,
                1.0000000000000002,
                1.0,
                1.0,
                0.9999999999999999,
                0.32433609513542105,
                1.0,
                1.0,
                0.15239672756612688,
                1.0000000000000002,
                0.0284035637279052,
                0.9999999999999999,
                0.3878780844119797,
                0.4168869688149652,
                1.0000000000000002,
                0.32170138272281107,
                0.9999999999999998,
                0.229713992306491,
                0.7676114844414755,
                0.3810491366727939,
                0.9999999999999999,
                0.6028759380182446,
                0.09629469384932643,
                0.5000361634705193,
                0.7162559152212753,
                1.0,
                0.6731097342194341,
                0.5761150251873213,
                0.4611067601647838,
                0.7918689035747289,
                0.39208715642496716,
                0.16486385424932026,
                1.0,
                1.0,
                1.0,
                0.6754913809540928,
                0.4645721248493438,
                1.0,
                1.0000000000000002,
                0.6942599135971868,
                0.7863963574522644,
                0.4853605601169367,
                0.4868746435555775,
                0.9999999999999999,
                0.9999999999999998,
                0.3403146338249368,
                0.6806739512033926,
                0.6506207856549715,
                0.04748881993561249,
                0.06927412436396341,
                1.0,
                1.0,
                0.48500911085532455,
                1.0,
                0.3552716244124574,
                0.0962008570826103,
                1.0,
                1.0,
                0.7253464827191886,
                1.0,
                0.674652768998278,
                0.03888865259535301,
                0.7417411046130802,
                0.9999999999999998,
                0.504891110121803,
                0.9999999999999999,
                0.6924896834830453,
                0.7790802290217628,
                1.0,
                0.5127470564490716,
                0.11547527306645368,
                1.0,
                0.9999999999999999,
                1.0,
                0.9999999999999998,
                1.0,
                0.7992287456773935,
                1.0,
                1.0,
                1.0000000000000002,
                1.0,
                0.29338376565573054,
                0.6939455553671201,
                1.0,
                0.09602651986508637,
                1.0,
                0.4954797676231356,
                0.6778081102116315,
                0.7709377769460926,
                0.6808324527579681,
                0.47599747488909044,
                0.7495952188296355,
                0.06423758749414543,
                0.9999999999999999,
                0.11286837293459054,
                0.3833979562639316,
                0.9999999999999998,
                0.7069386985405167,
                0.753497712286134,
                1.0,
                0.7541537017360405,
                1.0,
                0.26995505281840226,
                0.4622734558031056,
                1.0,
                0.6701884948214947,
                0.5425054898679422,
                0.9999999999999999,
                0.7992155939898125,
                0.7974161253010337,
                0.6303759921220161,
                0.6865018010380073,
                0.04589941706948064,
                0.5930722504200017,
                0.34923710038969075,
                0.10820985645993407,
                1.0,
                0.751559883025654,
                0.35374109516758834,
                0.7434203092376097,
                0.542197861897562,
                0.710955339806587,
                1.0,
                0.3415835925772994,
                0.33949333455126196,
                0.30467488029289413,
                0.09379631033356173,
                0.7923598751212688,
                0.9999999999999999,
                0.27280178378471975,
                0.22593683031351264,
                0.7307100837570897,
                1.0,
                0.16856927495574903,
                1.0,
                0.7471344466809919,
                0.9999999999999999,
                0.04218440022225756,
                1.0,
                1.0,
                0.9999999999999999,
                0.26109857709628614,
                0.05479368346756874,
                1.0,
                0.562541672975015,
                1.0,
                1.0,
                1.0000000000000002,
                1.0,
                1.0,
                1.0,
                0.21216316582246342,
                1.0,
                0.18430357391280547,
                1.0000000000000002,
                0.233857035327785,
                0.43391656444429355,
                0.01116014164883572,
                0.544882524391541,
                0.9999999999999999,
                1.0,
                0.664062788437915,
                0.3361683940594834,
                1.0000000000000002,
                0.7156038340640883,
                1.0,
                1.0,
                1.0,
                0.13615126301173086,
                0.1635517333985761,
                0.3741923712158971,
                1.0,
                0.46807652446946635,
                1.0,
                1.0000000000000002,
                1.0,
                0.16022486918245515,
                0.9999999999999999,
                1.0,
                1.0,
                1.0,
                0.9999999999999999,
                1.0,
                1.0,
                1.0,
                0.22522893127744403,
                1.0,
                1.0,
                1.0000000000000002,
                1.0,
                1.0,
                0.9999999999999999,
                1.0,
                0.46999502843016744,
                1.0,
                1.0,
                0.4791819786908342,
                0.6408479216880343,
                1.0,
                1.0,
                0.9999999999999999,
                0.6903493401177169,
                1.0,
                0.624608141452244,
                1.0,
                0.14670161977285257,
                1.0,
                0.5650833333252792,
                0.7150477835630643,
                1.0,
                1.0,
                1.0,
                0.9999999999999997,
                0.645153537001537,
                1.0,
                0.110967432397717,
                0.7919223703462843,
                1.0,
                1.0,
                1.0,
                0.9999999999999999,
                1.0,
                0.9999999999999999,
                1.0,
                0.7439715999926122,
                0.7795752046570952,
                1.0000000000000002,
                1.0,
                0.5936811392534083,
                0.5828463050912827,
                1.0,
                1.0,
                1.0,
                0.03848230456602997,
                0.650330234173979,
                1.0,
                0.6471590426083503,
                1.0,
                0.7503215620415675,
                0.2983935604788684,
                1.0,
                0.9999999999999999,
                0.3116324878444613,
                0.6155284244933547,
                0.9999999999999999,
                0.7805652355550382,
                0.7516240879487668
            ],
            "photocathode": [
                7036,
                6931,
                2731,
                7114,
                6922,
                3903,
                6818,
                7219,
                5486,
                5197,
                7077,
                4336,
                3410,
                3277,
                6948,
                908,
                975,
                1373,
                7089,
                6772,
                7047,
                3378,
                5164,
                4871,
                6549,
                3085,
                1949,
                7021,
                2252,
                6871,
                1875,
                7027,
                6783,
                7141,
                7031,
                7145,
                7210,
                7184,
                2266,
                7018,
                7170,
                6890,
                3317,
                6819,
                5058,
                2541,
                267,
                6927,
                6929,
                4635,
                1631,
                7048,
                4264,
                7036,
                6900,
                6901,
                6789,
                6900,
                2280,
                7124,
                7076,
                1057,
                7081,
                197,
                7057,
                2761,
                2822,
                6940,
                2331,
                7126,
                1628,
                5294,
                2590,
                6933,
                4195,
                691,
                3425,
                4962,
                6868,
                4687,
                4004,
                3228,
                5563,
                2706,
                1173,
                7033,
                6838,
                7071,
                4800,
                3068,
                6863,
                6909,
                4910,
                5411,
                3373,
                3419,
                7170,
                6855,
                2335,
                4601,
                4569,
                311,
                496,
                6684,
                7231,
                3414,
                7084,
                2580,
                725,
                7070,
                6982,
                4861,
                6972,
                4650,
                246,
                5123,
                6983,
                3506,
                6841,
                4702,
                5520,
                6953,
                3517,
                879,
                6804,
                7283,
                7006,
                6927,
                7284,
                5476,
                6883,
                7010,
                6942,
                7146,
                2001,
                4830,
                6868,
                654,
                7067,
                3484,
                4605,
                5447,
                4692,
                3343,
                5177,
                436,
                6864,
                825,
                2752,
                6813,
                4782,
                5224,
                7230,
                5309,
                6997,
                1903,
                3195,
                7133,
                4621,
                3794,
                6806,
                5416,
                5560,
                4440,
                4850,
                321,
                4169,
                2466,
                791,
                6763,
                5258,
                2460,
                5253,
                3742,
                4895,
                7018,
                2401,
                2361,
                2116,
                661,
                5398,
                6981,
                1918,
                1595,
                5052,
                7045,
                1134,
                6994,
                5219,
                6979,
                310,
                6902,
                6986,
                6822,
                1880,
                385,
                7066,
                3917,
                6990,
                7429,
                7032,
                7193,
                7103,
                7008,
                1448,
                7064,
                1300,
                6883,
                1694,
                3029,
                76,
                3819,
                6943,
                6853,
                4471,
                2250,
                6922,
                4835,
                6931,
                7044,
                6872,
                933,
                1137,
                2580,
                7051,
                3242,
                7007,
                6887,
                7136,
                1158,
                6875,
                6843,
                6967,
                6970,
                6906,
                7161,
                6863,
                6935,
                1554,
                6874,
                6905,
                7020,
                6968,
                7003,
                6934,
                6766,
                3298,
                7002,
                6983,
                3426,
                4547,
                6992,
                6923,
                6778,
                4950,
                7025,
                4347,
                6832,
                1028,
                7220,
                3786,
                5062,
                6881,
                6865,
                7044,
                6941,
                4560,
                6913,
                800,
                5507,
                7156,
                7075,
                6997,
                7075,
                7089,
                6886,
                7372,
                5086,
                5369,
                6829,
                6946,
                4126,
                4083,
                6867,
                7191,
                6982,
                244,
                4308,
                6919,
                4357,
                6937,
                5267,
                2093,
                7127,
                7082,
                2283,
                4225,
                6784,
                5254,
                5298
            ]
        },
        "detections": 300,
        "events": 370
    }
}