{
    "job_args": {
        "metric_limit": 300,
        "seed": 692174508
    },
    "job_id": "batch_68_do_300",
    "result": {
        "collections": {
            "crystal": [
                1.0000000000000002,
                0.41209002723925797,
                0.9999999999999999,
                0.2186642264656795,
                1.0,
                0.004144558587447333,
                0.690730039015139,
                1.0,
                1.0,
                1.0,
                1.0,
                0.6330295211530917,
                1.0000000000000002,
                1.0000000000000002,
                1.0,
                0.4411968583033059,
                1.0,
                1.0000000000000002,
                0.7957963377793186,
                0.7587329004437137,
                0.46682378093042265,
                0.6745979253298959,
                1.0000000000000002,
                1.0,
                0.12683495543550583,
                0.20173899422854102,
                0.34082098586919385,
                1.0,
                1.0000000000000002,
                0.6870650997554935,
                1.0,
                1.0,
                0.6345771980312654,
                0.6132736503370277,
                1.0000000000000002,
                1.0,
                0.9713905,
                0.9999999999999999,
                1.0,
                0.6168175338401297,
                0.7418688356790886,
                0.9999999999999999,
                0.32702128359334665,
                1.0,
                0.22272574971594597,
                1.0,
                1.0,
                1.0000000000000002,
                1.0,
                1.0,
                0.9999999999999999,
                1.0000000000000002,
                0.9999999999999999,
                1.0,
                0.06364681278023243,
                1.0,
                1.0,
                0.21606120014554475,
                1.0,
                1.0,
                1.0,
                0.1478397510542847,
                0.9999999999999999,
                1.0,
                1.0,
                0.18048074178132936,
                0.5625364294392023,
                1.0,
                1.0,
                0.6767314649850672,
                1.0,
                1.0,
                1.0,
                1.0000000000000002,
                1.0,
                1.0,
                0.9999999999999999,
                1.0,
                0.9999999999999999,
                0.5654960045014199,
                0.9999999999999999,
                0.9999999999999999,
                1.0,
                0.5045799855522964,
                0.2000880582931811,
                1.0000000000000002,
                0.647139034462995,
                0.9999999999999998,
                0.9999999999999999,
                1.0,
                1.0,
                0.33330559640139323,
                1.0000000000000002,
                1.0,
                1.0,
                0.528252685764605,
                0.12845636088489387,
                0.9999999999999999,
                0.6031473070379842,
                0.4605947621063108,
                0.27945082497408835,
                0.9999999999999999,
                1.0,
                0.2706988397092932,
                1.0,
                0.7990037203654784,
                0.200688696256639,
                1.0,
                0.38413961857167983,
                1.0000000000000002,
                1.0,
                1.0,
                1.0,
                0.042528113098631914,
                1.0,
                0.11959542550994859,
                0.5830383014282967,
                0.10264534669749248,
                0.2933494751844248,
                1.0,
                0.6615848797673505,
                0.9999999999999999,
                0.08304172859881942,
                0.9999999999999999,
                0.36816806272578384,
                1.0,
                1.0,
                1.0,
                0.9999999999999998,
                0.7555709587927901,
                1.0,
                1.0,
                1.0,
                0.9999999999999999,
                0.9999999999999999,
                0.9999999999999998,
                1.0,
                0.31891589535068876,
                0.1531834893692324,
                0.9999999999999999,
                0.6819627337190539,
                0.6019711853608941,
                0.9999999999999999,
                0.4177231405921509,
                1.0,
                0.8317267046183503,
                1.0000000000000002,
                1.0000000000000002,
                0.5898034692443301,
                1.0,
                1.0,
                0.9999999999999999,
                0.3674127892444252,
                0.7668692027355188,
                1.0,
                0.04569736966908944,
                0.4707820684805434,
                0.10661814327492869,
                1.0,
                0.7387263600300276,
                1.0,
                1.0,
                1.0000000000000002,
                0.9999999999999998,
                1.0,
                1.0,
                1.0,
                0.38142997782179583,
                0.7174175278473597,
                0.9999999999999999,
                1.0000000000000002,
                0.18121007033753309,
                0.15246055913124712,
                0.9999999999999999,
                1.0,
                0.4511703188351588,
                1.0,
                0.7648584484282924,
                0.4514795584004458,
                1.0,
                1.0,
                1.0,
                1.0,
                1.0,
                1.0,
                0.3487129392850862,
                1.0,
                1.0,
                0.05559869890007285,
                0.34973966814557744,
                0.7125208798972559,
                0.47090409937807176,
                0.7391353107318654,
                0.3821276004158344,
                1.0,
                0.6523604958953488,
                0.4842220403392784,
                1.0000000000000002,
                0.7490674039417917,
                0.9999999999999999,
                1.0,
                1.0,
                1.0,
                0.9999999999999999,
                0.739030888423161,
                1.0,
                1.0,
                1.0,
                0.1490466824062473,
                0.267325927236987,
                0.9999999999999998,
                1.0,
                0.6147460176193381,
                1.0,
                1.0,
                0.5157836436810708,
                1.0,
                1.0,
                1.0,
                0.7522140495117974,
                1.0000000000000002,
                1.0,
                0.373959034173233,
                1.0,
                0.4378055839241396,
                0.7053719920020547,
                0.4869080484806648,
                0.9999999999999999,
                0.1349624263095719,
                1.0,
                1.0,
                0.09663221485654294,
                1.0000000000000002,
                0.2467896815502649,
                1.0,
                0.23835533428438538,
                1.0000000000000002,
                1.0,
                0.03470860172164592,
                0.2743710843578128,
                1.0,
                0.039730062499099605,
                1.0,
                0.5522176031478638,
                0.7658847137447994,
                1.0000000000000002,
                0.9999999999999998,
                1.0,
                0.7090171804885912,
                1.0,
                0.3927998231986235,
                1.0,
                1.0,
                0.11767102965597065,
                0.17685876448828095,
                1.0000000000000002,
                0.0634545885799388,
                0.9999999999999998,
                1.0,
                1.0,
                1.0,
                1.0000000000000002,
                1.0,
                0.27680384140912667,
                0.16018034150503302,
                0.9999999999999999,
                0.9999999999999998,
                1.0,
                1.0,
                0.48866641184320575,
                1.0,
                0.6031663423109731,
                0.5611444768823163,
                0.9999999999999998,
                0.7861047497545304,
                0.4566798739815014,
                1.0,
                0.6320214749335658,
                0.17736558367606392,
                1.0,
                0.45202077541742725,
                1.0,
                1.0,
                1.0,
                0.5573889277543781,
                1.0000000000000002,
                1.0,
                0.23347106090083214,
                0.4846346769381007,
                0.13185189975043454,
                1.0,
                0.27355232733128065,
                1.0,
                0.7750572896510168,
                0.13638956734079913,
                1.0,
                0.7350483105447883,
                1.0,
                1.0,
                1.0
            ],
            "photocathode": [
                7013,
                2845,
                6888,
                1505,
                6978,
                30,
                4861,
                6866,
                6944,
                6891,
                7043,
                4400,
                7061,
                6918,
                7048,
                3226,
                7116,
                7032,
                5346,
                5215,
                3287,
                4837,
                6916,
                7018,
                845,
                1373,
                2448,
                7078,
                6734,
                4778,
                7157,
                6961,
                4502,
                4397,
                6941,
                6851,
                7044,
                7204,
                7024,
                4348,
                5189,
                6983,
                2269,
                7146,
                1538,
                6941,
                7096,
                6822,
                7091,
                6957,
                6853,
                7073,
                7092,
                6907,
                453,
                7012,
                7046,
                1485,
                6816,
                7063,
                6948,
                1056,
                6989,
                6797,
                7014,
                1233,
                3897,
                6887,
                6981,
                4637,
                7027,
                6957,
                6775,
                6944,
                7001,
                7001,
                7126,
                6887,
                6916,
                4009,
                6974,
                6908,
                6848,
                3461,
                1466,
                7140,
                4490,
                6984,
                7102,
                7104,
                6947,
                2370,
                7028,
                7013,
                7017,
                3660,
                938,
                6927,
                4173,
                3300,
                2001,
                6858,
                6983,
                1948,
                7189,
                5494,
                1337,
                7009,
                2663,
                6891,
                7231,
                6868,
                6855,
                286,
                6992,
                830,
                3983,
                727,
                2047,
                7132,
                4486,
                7024,
                601,
                7003,
                2545,
                7092,
                7007,
                7252,
                6955,
                5327,
                6901,
                7039,
                6866,
                6915,
                6943,
                6941,
                6965,
                2269,
                1120,
                7082,
                4710,
                4123,
                6979,
                2975,
                6973,
                5605,
                6973,
                7197,
                4111,
                7225,
                7036,
                6981,
                2522,
                5193,
                7039,
                288,
                3219,
                775,
                6843,
                5229,
                6861,
                7167,
                6853,
                6849,
                6897,
                7069,
                6909,
                2576,
                4931,
                6851,
                6888,
                1266,
                1056,
                7133,
                6934,
                3415,
                6786,
                5346,
                3157,
                7343,
                6920,
                7090,
                7056,
                7158,
                7026,
                2379,
                7025,
                6775,
                405,
                2510,
                4852,
                3139,
                5168,
                2733,
                7044,
                4421,
                3381,
                6964,
                5105,
                6889,
                6896,
                7052,
                6996,
                6755,
                5066,
                7076,
                7169,
                7240,
                999,
                1969,
                7021,
                6984,
                4368,
                7072,
                6969,
                3465,
                7150,
                6910,
                6864,
                5261,
                6939,
                6831,
                2637,
                6881,
                3020,
                5009,
                3388,
                6982,
                923,
                6872,
                7098,
                652,
                6924,
                1740,
                6837,
                1659,
                7016,
                6989,
                232,
                1914,
                7132,
                280,
                7022,
                3936,
                5337,
                6882,
                7075,
                6675,
                4879,
                6837,
                2694,
                7030,
                6835,
                820,
                1150,
                7005,
                457,
                7206,
                6980,
                6897,
                7244,
                6941,
                7266,
                1962,
                1137,
                6896,
                6894,
                6967,
                6910,
                3647,
                6929,
                4444,
                3792,
                7072,
                5378,
                3208,
                6904,
                4312,
                1220,
                7182,
                3215,
                6833,
                6937,
                7003,
                3957,
                6873,
                6797,
                1605,
                3509,
                904,
                7007,
                1880,
                6888,
                5344,
                993,
                7149,
                5201,
                7270,
                7169,
                6968
            ]
        },
        "detections": 300,
        "events": 381
    }
}