{
    "job_args": {
        "metric_limit": 300,
        "seed": 2391018355
    },
    "job_id": "batch_32_do_300",
    "result": {
        "collections": {
            "crystal": [
                0.18027992344479382,
                1.0000000000000002,
                1.0,
                0.9999999999999999,
                0.317736352162745,
                0.5888308599585855,
                0.2719080609003668,
                0.7863253157394599,
                0.4215953437463249,
                1.0,
                0.020612288087607067,
                1.0,
                1.0,
                1.0,
                0.47044118487223596,
                1.0,
                1.0,
                1.0,
                1.0000000000000002,
                0.6838701817940032,
                0.647794912501944,
                0.7029445524614196,
                0.3181101963627535,
                1.0,
                1.0000000000000002,
                1.0000000000000002,
                1.0,
                0.9999999999999999,
                1.0,
                1.0,
                0.6327159967283608,
                0.6615086997707064,
                1.0,
                0.11360672212843248,
                1.0,
                0.13079600021570129,
                0.12748462204729283,
                0.9999999999999998,
                1.0,
                0.7847905887242388,
                1.0,
                1.0,
                0.026836594357499743,
                0.9999999999999999,
                1.0,
                1.0,
                1.0,
                0.2852083118877834,
                0.44541519639253957,
                1.0,
                0.181720030564527,
                0.9999999999999999,
                0.13382911983554568,
                0.5925930202080792,
                1.0000000000000002,
                1.0,
                1.0,
                1.0,
                1.0,
                1.0,
                0.8851190839897886,
                1.0,
                0.1803437427004504,
                1.0,
                1.0,
                1.0000000000000002,
                1.0,
                1.0000000000000002,
                1.0,
                0.31468680751268957,
                0.48598734817471645,
                1.0,
                1.0,
                0.4448893678442877,
                1.0,
                0.5921511576941627,
                0.376428382669704,
                0.5145697443134853,
                1.0,
                1.0,
                0.011540179448478627,
                0.42826754872928474,
                1.0,
                0.5412087667872131,
                1.0,
                0.9999999999999999,
                1.0,
                0.02870210529026973,
                0.4094162923494944,
                1.0,
                0.3681936191926106,
                0.9999999999999999,
                1.0,
                0.45454941100889945,
                1.0,
                0.9999999999999999,
                1.0000000000000002,
                1.0,
                0.7737437864122003,
                1.0000000000000002,
                1.0,
                0.9999999999999999,
                1.0,
                1.0,
                1.0,
                1.0,
                0.5793707318863871,
                0.4460106209186659,
                0.1532223154224701,
                0.8666705121442203,
                1.0000000000000002,
                1.0,
                1.0,
                0.625052528620924,
                0.5204261210210982,
                0.3954865485849016,
                0.5874421418759077,
                0.7058230767450682,
                0.9999999999999999,
                0.9999999999999999,
                1.0,
                0.7365891150977547,
                1.0,
                0.5068595730060499,
                1.0,
                0.9999999999999999,
                1.0,
                0.23080894074078107,
                0.7940944490589075,
                1.0000000000000002,
                0.7333226454656614,
                1.0,
                0.5282481350085447,
                1.0,
                1.0000000000000002,
                1.0,
                1.0000000000000002,
                0.3318166921483145,
                1.0,
                0.9999999999999999,
                0.3153171543310323,
                0.9999999999999999,
                0.16439827494888604,
                1.0,
                0.9999999999999999,
                0.766639992143688,
                0.9999999999999999,
                0.6498715840136715,
                0.7617175851277292,
                1.0,
                1.0,
                1.0,
                1.0000000000000002,
                1.0,
                0.6481297865394056,
                0.22769443461228267,
                1.0000000000000002,
                0.4371495628199845,
                0.9999999999999999,
                0.6214359375355667,
                0.21475616146286527,
                1.0,
                0.3213845270514766,
                1.0,
                1.0000000000000002,
                1.0,
                0.7282355314724223,
                0.711086095056708,
                0.09647567630685305,
                0.29222749858884833,
                0.638958752399981,
                1.0,
                0.7383094581822822,
                1.0,
                1.0,
                1.0,
                0.5256882397927998,
                1.0,
                1.0,
                0.30850319442837254,
                0.8121063172488876,
                0.5861632098821781,
                0.3304566087756399,
                0.30424975960086764,
                0.06737582934361297,
                1.0,
                0.43007453380655736,
                1.0,
                0.02403512809034425,
                1.0,
                0.02710781318250266,
                1.0000000000000002,
                1.0,
                0.9999999999999999,
                0.18735425351353052,
                1.0,
                0.9999999999999999,
                0.31289709577952385,
                0.5809298204527411,
                0.6881862112984445,
                0.9999999999999999,
                1.0000000000000002,
                1.0000000000000002,
                0.570549744667998,
                1.0,
                0.6928002980665087,
                0.7728992524273421,
                1.0000000000000002,
                1.0,
                1.0,
                1.0,
                1.0,
                0.6991701661395057,
                0.39462543703003394,
                1.0,
                0.43100066043182894,
                1.0,
                0.09249807769881646,
                0.9999999999999999,
                1.0,
                0.9999999999999998,
                1.0,
                0.470960903687811,
                1.0,
                1.0,
                0.4548330444241828,
                1.0000000000000002,
                0.4573635570391533,
                0.7193150552423606,
                1.0,
                0.611603280469261,
                1.0000000000000002,
                0.15730602635756896,
                0.8201328116387154,
                0.7238734638735962,
                0.6795724146186175,
                1.0000000000000002,
                0.5605953802830869,
                0.3469847093347579,
                0.0015759113530225966,
                1.0,
                1.0,
                1.0,
                0.5168193835152887,
                0.2588812219101976,
                1.0,
                0.1814573056546116,
                0.6379144196553823,
                0.03851369538248995,
                1.0,
                1.0,
                1.0,
                1.0,
                0.08633495265852387,
                1.0,
                1.0,
                1.0,
                0.9999999999999999,
                1.0,
                1.0,
                1.0,
                0.3582863679980012,
                0.21235525089865803,
                1.0,
                0.5479459936110564,
                0.2370660380849443,
                1.0,
                1.0,
                0.9999999999999999,
                0.774777051578794,
                0.34241365841362537,
                0.9999999999999999,
                0.9999999999999998,
                1.0,
                1.0,
                1.0000000000000002,
                1.0,
                1.0,
                1.0000000000000002,
                1.0,
                0.9999999999999999,
                0.9999999999999999,
                1.0,
                0.7904030148952155,
                1.0,
                0.26843711725026487,
                1.0000000000000002,
                0.4145519359793444,
                0.9999999999999998,
                1.0,
                1.0,
                1.0,
                0.014633167941105918,
                1.0,
                1.0,
                1.0,
                1.0,
                0.44174561875057894,
                0.6080247249361193,
                1.0
            ],
            "photocathode": [
                1235,
                6827,
                6880,
                6760,
                2201,
                4044,
                2011,
                5449,
                2924,
                7115,
                137,
                7224,
                7075,
                6949,
                3356,
                6953,
                7060,
                7206,
                6894,
                4780,
                4341,
                4924,
                2109,
                6782,
                7015,
                6929,
                6933,
                7191,
                6936,
                7061,
                4442,
                4675,
                7154,
                818,
                7000,
                875,
                853,
                7233,
                7000,
                5425,
                6944,
                6847,
                187,
                7088,
                6942,
                6931,
                6833,
                2017,
                3150,
                7093,
                1278,
                6949,
                907,
                4153,
                6929,
                6923,
                6752,
                7281,
                7108,
                7148,
                6383,
                6984,
                1265,
                6971,
                7117,
                6811,
                6859,
                6860,
                7153,
                2187,
                3406,
                7021,
                6998,
                3193,
                7048,
                4032,
                2641,
                3586,
                7115,
                6878,
                76,
                3033,
                7065,
                3805,
                6933,
                6844,
                6960,
                197,
                2831,
                7191,
                2494,
                7089,
                6921,
                3137,
                6903,
                6917,
                6952,
                6910,
                5436,
                6913,
                6899,
                7026,
                6897,
                6734,
                7095,
                7190,
                4003,
                3110,
                1158,
                6173,
                7079,
                6892,
                7131,
                4409,
                3630,
                2740,
                4109,
                4909,
                6844,
                6880,
                7046,
                5020,
                6918,
                3519,
                6924,
                7021,
                6850,
                1539,
                5395,
                7218,
                5040,
                6818,
                3609,
                7042,
                6977,
                7256,
                6925,
                2284,
                6944,
                7220,
                2220,
                6886,
                1135,
                7057,
                7150,
                5307,
                7117,
                4583,
                5438,
                6879,
                6921,
                6721,
                6846,
                6880,
                4535,
                1594,
                6930,
                3131,
                6808,
                4371,
                1463,
                7008,
                2282,
                6983,
                7032,
                7075,
                5089,
                4973,
                671,
                2094,
                4565,
                6927,
                5027,
                7038,
                7022,
                6958,
                3571,
                6892,
                6869,
                2210,
                5750,
                4044,
                2352,
                2206,
                460,
                6942,
                2877,
                6928,
                170,
                6911,
                196,
                6916,
                7047,
                7025,
                1336,
                6892,
                6798,
                2205,
                4017,
                4799,
                7082,
                6946,
                6859,
                3953,
                7248,
                4843,
                5341,
                6938,
                6970,
                7009,
                6865,
                7061,
                4742,
                2798,
                6793,
                2947,
                7300,
                669,
                6867,
                7212,
                6931,
                6841,
                3232,
                6974,
                7060,
                3035,
                7055,
                3140,
                5259,
                6854,
                4218,
                7061,
                1079,
                5838,
                5122,
                4910,
                6946,
                4033,
                2389,
                14,
                6974,
                6975,
                6882,
                3523,
                1827,
                7068,
                1228,
                4378,
                302,
                7024,
                6898,
                7155,
                6915,
                635,
                7008,
                7156,
                6871,
                7038,
                7057,
                6863,
                6991,
                2378,
                1542,
                6877,
                3763,
                1749,
                6878,
                6944,
                6913,
                5329,
                2492,
                7177,
                6912,
                6840,
                7071,
                6892,
                6928,
                6986,
                6865,
                7205,
                6875,
                7245,
                7291,
                5393,
                7015,
                1904,
                6909,
                2898,
                6927,
                7026,
                6935,
                6821,
                89,
                7051,
                6940,
                6803,
                6909,
                3129,
                4216,
                6721
            ]
        },
        "detections": 300,
        "events": 368
    }
}