{
    "job_args": {
        "metric_limit": 500,
        "seed": 3419539762
    },
    "job_id": "batch_37_do_500",
    "result": {
        "collections": {
            "crystal": [
                0.6253991004982608,
                0.7937711041008071,
                0.47507524358524517,
                0.006727256597458542,
                0.3104507753847815,
                1.3324980931528798,
                1.3324980931528798,
                0.8440837158580925,
                1.3324980931528798,
                0.1814587205889134,
                0.3684458052124187,
                1.1053595763314237,
                0.1365654862050613,
                1.0319802112817873,
                0.4372305445673104,
                1.3324980931528798,
                0.4236272509131109,
                0.04783213643939399,
                0.7292280116473949,
                0.10989074734532311,
                0.257704267061723,
                1.0311445106867396,
                0.7819269630090191,
                0.9341146624770313,
                0.15944127014403242,
                0.20439046151309304,
                1.3324980931528798,
                0.873368843642229,
                0.2873569789805459,
                0.8982838096906856,
                1.003326320396381,
                0.07524999999999998,
                0.7433204878425804,
                1.1732266212015408,
                1.045511489520913,
                0.4959494013070387,
                0.4337065446257252,
                0.07525,
                0.5746070336847778,
                0.7134666847416539,
                0.07952700955162023,
                0.694078130676026,
                1.3324980931528798,
                0.4228016400730875,
                0.06119327579655709,
                1.1732266212015405,
                1.3324980931528798,
                0.5576822064242842,
                1.3324980931528796,
                1.1732266212015405,
                0.41542121173989155,
                1.1732266212015403,
                0.2527944653198646,
                1.1732266212015405,
                1.3324980931528798,
                1.2686628660666122,
                0.4690972008993869,
                1.3324980931528798,
                0.958968138789861,
                1.3324980931528796,
                0.31067657547166166,
                1.3324980931528798,
                0.6790652008832297,
                0.8218429291349088,
                0.8394947145145049,
                0.1280435008287679,
                0.047917594926521145,
                0.05464803182241008,
                0.2898820752308816,
                0.7604025006349354,
                0.741604142215579,
                0.9621649539366077,
                0.6427281512776699,
                0.9052091431778664,
                0.7455026476348154,
                0.8783862514969217,
                1.3194826059796396,
                0.274400480712227,
                1.1732266212015403,
                0.10385190261769034,
                1.0483900408167206,
                0.6376466739583515,
                1.1732266212015405,
                0.5528030024959576,
                1.1732266212015405,
                0.4748550319204203,
                0.8984807734769733,
                0.39783821994312646,
                1.1732266212015405,
                0.767957893918817,
                0.3613328432928584,
                0.5117087413056001,
                0.4373199175340971,
                1.3324980931528796,
                0.8645281573186897,
                1.3324980931528796,
                1.33249809315288,
                0.2486749734840319,
                1.0152084542688644,
                0.25911904646048534,
                1.1087760498550552,
                0.21150747059384775,
                1.1732266212015405,
                1.3324980931528798,
                0.6931292731294215,
                0.4900499446799726,
                0.33057870186430766,
                0.9516998200832743,
                0.44802872519531944,
                0.459743918678857,
                0.826954324284406,
                0.24488321225563703,
                0.6735173327627912,
                0.7491049026165559,
                1.1732266212015405,
                0.06186127878947417,
                1.1732266212015405,
                0.8464290652409006,
                0.732567493999057,
                0.34884974243854483,
                0.7917126189179015,
                0.9178408643056506,
                0.7069763044642217,
                0.740810373196788,
                0.28984363789635825,
                0.31086101231279584,
                0.5967008240417367,
                1.3324980931528798,
                0.8355411919329743,
                0.17646926817046404,
                1.0018587276161943,
                1.1732266212015408,
                0.863306227867136,
                1.3324980931528794,
                0.5216316700151724,
                0.6718415366499014,
                0.08625412299746922,
                0.40160813432185016,
                0.5730930223066538,
                0.5676795572432025,
                0.6364289182454823,
                0.4558422441679956,
                1.1732266212015403,
                0.4883772364707321,
                0.006278131346581395,
                0.5909000113536463,
                1.0064719346133901,
                1.1732266212015408,
                0.33766862130859543,
                0.5365096643479992,
                1.3324980931528798,
                0.3530640928354971,
                0.19041201947535988,
                0.681436033969725,
                1.1732266212015405,
                0.9186437869225967,
                1.3324980931528798,
                0.8209696911242585,
                1.33249809315288,
                1.1732266212015405,
                0.17952108863277516,
                0.06473260255966973,
                0.44747920692500165,
                0.15259621738224532,
                0.6504482711728755,
                0.33797465406407634,
                1.1525115068507394,
                1.3324980931528798,
                1.1732266212015403,
                1.1732266212015405,
                0.9623020875305371,
                1.1732266212015405,
                0.9920066912161648,
                0.902218135454105,
                0.6379863357605455,
                1.3324980931528798,
                0.31940984009429896,
                0.4071994411858141,
                0.8054913999542033,
                0.2625069644841731,
                1.33249809315288,
                0.5415728909900855,
                1.3324980931528796,
                0.22554029756596175,
                0.7063771168618357,
                0.23361364529652281,
                0.5587704695931284,
                0.41886183256674414,
                0.3371321598168869,
                1.1732266212015405,
                1.3324980931528798,
                0.6196240411200358,
                0.7586312929556716,
                0.6208908480614086,
                0.915603733242913,
                1.1555307816546878,
                1.1153703629992273,
                0.34580119479928956,
                0.9215154228743745,
                0.5051804220011775,
                0.06128782508264219,
                0.05438772942345271,
                1.3324980931528796,
                1.1732266212015405,
                0.4660138357802046,
                0.9919172595649911,
                1.33249809315288,
                0.8872776255788672,
                1.0557505771638807,
                0.4013381950551505,
                1.1732266212015405,
                0.3361999479022563,
                1.3324980931528796,
                0.9648693714000169,
                0.050617124669774194,
                1.1732266212015405,
                0.14784014862536965,
                0.7215280574684813,
                0.14014226652558182,
                0.1628268817594447,
                1.3324980931528798,
                0.6008049115133572,
                0.20408584025781717,
                0.39860594197454174,
                0.07478150456781352,
                1.1732266212015405,
                1.1732266212015405,
                0.7788881938905193,
                0.6789212343182207,
                0.5109989099999999,
                0.7024901163004978,
                0.5342364099197641,
                0.6432205235651353,
                1.3324980931528798,
                1.1732266212015405,
                0.4840665121693898,
                0.33525173202097475,
                0.7423306852645253,
                0.6594229349552015,
                1.1732266212015405,
                0.24790672538075986,
                0.4545694336345564,
                0.3078731838337171,
                0.5772423430784338,
                1.1732266212015408,
                0.0852354,
                0.554663702059302,
                0.6489659201947817,
                0.05163971425641811,
                0.16100141298615941,
                0.34347309898440836,
                0.13546293738698706,
                0.6445645138891717,
                0.7877190800101834,
                0.43720233243253914,
                0.0847407,
                1.1732266212015408,
                0.07830903459066141,
                1.0067990814288337,
                0.2278655180166838,
                0.016699803407169034,
                1.3324980931528798,
                1.3324980931528798,
                0.3995734026087915,
                0.8221073063662776,
                1.3324980931528798,
                0.6624133146673111,
                0.4983613666524883,
                1.1732266212015403,
                1.1732266212015405,
                0.07524999999999998,
                0.08095841794701464,
                0.785260928148327,
                0.4849143939759716,
                1.0706155153523935,
                0.5315923358258523,
                1.086227732232357,
                1.1732266212015408,
                0.18024380278323188,
                0.8909257272604307,
                0.2150979328680083,
                0.5337444781578264,
                1.1732266212015405,
                0.38281819260751054,
                0.6991105514880789,
                0.7068801593882008,
                1.3324980931528796,
                0.06621479207085024,
                0.07692738465073601,
                0.1400729544723628,
                1.1732266212015405,
                0.7852081800700246,
                1.1732266212015405,
                0.9605768724731891,
                1.3324980931528798,
                0.9739894769146196,
                0.6944148283253511,
                1.3324980931528794,
                0.7573535288682486,
                0.20610097648505155,
                0.40292332820015847,
                1.3324980931528798,
                0.8388057377057347,
                0.30952482530275605,
                0.737042956494831,
                0.3826229476688332,
                1.3324980931528798,
                0.32076724326356354,
                1.1732266212015408,
                0.3031906038635954,
                0.8729975091995871,
                1.0816314396497326,
                0.6421532703794786,
                0.15109180530028699,
                0.6796971639820444,
                0.7723216056141007,
                1.1732266212015405,
                0.6312819431363286,
                1.1732266212015405,
                0.5417731125781645,
                0.22184529469717265,
                0.9904016743543375,
                0.5252648991731556,
                0.9436182980016377,
                0.5312714140231102,
                0.6189463959276249,
                0.4636264165258981,
                0.6732707006363488,
                0.07525,
                0.9952090545552786,
                0.6851872833558387,
                0.31377212645161534,
                1.1650869602001461,
                1.037098431973433,
                0.9454405140522536,
                1.1732266212015405,
                0.51099891,
                0.6419630712276724,
                0.7516244616701446,
                1.0995728329988912,
                0.7376699347419244,
                1.1732266212015403,
                0.7734326432069076,
                0.5639212270145627,
                1.3324980931528798,
                0.5667304180899524,
                1.3324980931528798,
                0.6385491995533448,
                1.3324980931528798,
                1.1732266212015405,
                1.1732266212015405,
                0.735890145898983,
                0.9341232519930247,
                1.1510985324693463,
                0.6971063107382018,
                0.8035033777730791,
                1.0500526427743928,
                0.27246133134921213,
                1.3324980931528798,
                0.16402001162036542,
                1.3324980931528798,
                1.1732266212015405,
                1.0140190455729512,
                0.186823799816468,
                0.503310343218712,
                0.7808894922102446,
                0.5376607986319224,
                0.1633611956848797,
                0.8902266790752653,
                0.670122545691875,
                1.3324980931528798,
                0.07525,
                0.3696680298950983,
                0.529106332258419,
                0.33996539209145393,
                1.1013480045486503,
                0.20509860737254604,
                0.2759262849536154,
                1.0375168739275753,
                0.20023711455949683,
                0.5824284905370756,
                1.1732266212015405,
                0.1503909996486003,
                0.8141494663028033,
                0.8159367238291981,
                0.783063801985443,
                0.28739795720254596,
                1.082262599328709,
                0.9363885018217004,
                1.16955557337555,
                0.31050027315287976,
                0.4251872098763394,
                1.1732266212015405,
                0.31377666391849923,
                0.9222406045241376,
                0.21498582283454593,
                0.3415557481844588,
                0.5056871096602422,
                0.5985750857396968,
                0.7436700248857281,
                0.6067101050811289,
                1.1732266212015405,
                1.166885094659667,
                1.1732266212015405,
                0.5960216741159531,
                0.12881460033474101,
                0.27946083662040816,
                1.1732266212015405,
                1.3324980931528798,
                0.5903493852924522,
                0.9245309513041227,
                0.6731601072702635,
                0.8653572787585997,
                1.3324980931528798,
                0.8534813844614051,
                1.33249809315288,
                0.9922691605047957,
                1.3324980931528798,
                0.348924083644254,
                0.12716243031948005,
                0.6015220355686539,
                0.22117288297611729,
                0.4269143803872257,
                0.23905409059091576,
                1.1732266212015403,
                0.4634928118620351,
                1.33249809315288,
                0.06370129373616142,
                0.7809130063112872,
                0.03307278483867654,
                0.9094941241752008,
                0.8002969225073674,
                0.4470314223184037,
                0.0852354,
                0.8445599268045311,
                0.07525,
                1.1732266212015405,
                0.9353055306122131,
                0.9253590703039356,
                0.642402183931457,
                1.3324980931528798,
                0.20899609463409408,
                0.26324745467456145,
                1.1732266212015403,
                0.34540445936194397,
                0.7854066796817599,
                0.5914234069391883,
                1.3324980931528796,
                0.5463455707314584,
                1.037034668682312,
                1.3324980931528798,
                1.1732266212015405,
                0.6050903205923767,
                0.689068541854186,
                1.1732266212015405,
                0.6199024594243774,
                0.030999248523893297,
                1.3324980931528796,
                0.7571795145311034,
                1.1732266212015405,
                1.1732266212015408,
                1.10379766087066,
                0.1825340996857716,
                1.1732266212015405,
                1.3324980931528798,
                0.9543264688130252,
                1.1732266212015405,
                0.711265776792789,
                0.3071452337707115,
                1.1732266212015403,
                1.3324980931528798,
                0.43850225511159346,
                1.1732266212015405,
                0.0800663504236842,
                0.7823728324921105,
                0.38229781621631787,
                0.9291433455811262,
                0.5085494999232737,
                0.04564168509311595,
                0.51099891,
                1.0831585111155073,
                0.07525000000000001,
                0.9711362536286001,
                0.29781807115873976,
                0.18201484122219858,
                0.6748716711473137,
                1.1732266212015408,
                1.3324980931528798,
                0.4053749392530937,
                0.4757521924229622,
                0.327538606144172,
                1.1732266212015405,
                1.3324980931528798,
                1.1732266212015405,
                0.6381113487916458,
                0.8161592383599904,
                1.3324980931528798,
                1.3324980931528796,
                0.49663145075145987,
                1.1732266212015403
            ],
            "photocathode": [
                4404,
                5621,
                3375,
                44,
                2193,
                9334,
                9313,
                5947,
                9368,
                1313,
                2561,
                7942,
                1023,
                7462,
                3077,
                9295,
                2961,
                312,
                4985,
                785,
                1847,
                7187,
                5488,
                6420,
                1086,
                1435,
                9034,
                6335,
                1926,
                6259,
                6928,
                506,
                5195,
                8224,
                7492,
                3641,
                3053,
                512,
                3994,
                5099,
                574,
                4896,
                9246,
                3040,
                439,
                8380,
                9277,
                3861,
                9218,
                8213,
                2905,
                8253,
                1697,
                7972,
                9299,
                9178,
                3279,
                9298,
                6788,
                9239,
                2125,
                9286,
                4818,
                5703,
                5911,
                891,
                371,
                381,
                2067,
                5516,
                5188,
                6740,
                4585,
                6356,
                5186,
                6213,
                9235,
                1871,
                8219,
                682,
                7333,
                4549,
                8063,
                3760,
                8271,
                3346,
                6416,
                2721,
                8297,
                5367,
                2580,
                3573,
                3137,
                9593,
                6125,
                9384,
                9399,
                1711,
                7221,
                1829,
                7698,
                1556,
                8141,
                9350,
                4872,
                3396,
                2330,
                6689,
                3237,
                3192,
                5830,
                1676,
                4694,
                5200,
                8104,
                402,
                8172,
                6091,
                5133,
                2541,
                5517,
                6679,
                4880,
                5240,
                2122,
                2195,
                4142,
                9340,
                5913,
                1137,
                7020,
                8009,
                6254,
                9389,
                3603,
                4831,
                568,
                2849,
                4046,
                3950,
                4415,
                3134,
                8213,
                3402,
                38,
                4125,
                7110,
                8143,
                2446,
                3841,
                9289,
                2453,
                1315,
                4775,
                8034,
                6350,
                9247,
                5743,
                9393,
                8342,
                1256,
                467,
                3250,
                1101,
                4506,
                2358,
                8198,
                9198,
                8139,
                8262,
                6783,
                8225,
                7025,
                6400,
                4509,
                9497,
                2234,
                2889,
                5684,
                1793,
                9451,
                3875,
                9427,
                1544,
                4810,
                1625,
                3871,
                2958,
                2446,
                8045,
                9335,
                4305,
                5359,
                4383,
                6425,
                8002,
                7925,
                2370,
                6573,
                3609,
                444,
                376,
                9434,
                8153,
                3299,
                7241,
                9437,
                6166,
                7336,
                2731,
                8053,
                2420,
                9564,
                6897,
                360,
                8172,
                1020,
                5109,
                928,
                1195,
                9501,
                4248,
                1460,
                2688,
                504,
                8356,
                7888,
                5377,
                4795,
                3612,
                4948,
                3638,
                4554,
                9265,
                8185,
                3432,
                2413,
                5159,
                4693,
                8298,
                1791,
                3296,
                2124,
                4110,
                8191,
                555,
                3882,
                4693,
                354,
                1134,
                2426,
                957,
                4481,
                5633,
                3011,
                616,
                8386,
                527,
                7006,
                1552,
                118,
                9367,
                9372,
                2718,
                5854,
                9330,
                4812,
                3369,
                8050,
                8106,
                537,
                577,
                5460,
                3375,
                7349,
                3825,
                7543,
                8203,
                1252,
                6284,
                1491,
                3762,
                8334,
                2751,
                4806,
                5060,
                9520,
                449,
                470,
                997,
                8282,
                5483,
                8349,
                6727,
                9509,
                6939,
                4860,
                9361,
                5258,
                1472,
                2947,
                9261,
                5850,
                2180,
                5231,
                2698,
                9219,
                2254,
                8469,
                2170,
                6438,
                7668,
                4553,
                1057,
                5016,
                5585,
                8311,
                4413,
                8147,
                3879,
                1608,
                6755,
                3628,
                6707,
                3823,
                4548,
                3398,
                4816,
                523,
                6914,
                4731,
                2264,
                8133,
                7191,
                6717,
                8125,
                3499,
                4461,
                5209,
                7632,
                5276,
                8108,
                5508,
                4033,
                9659,
                4002,
                9540,
                4431,
                9184,
                8300,
                8472,
                5036,
                6514,
                8029,
                4740,
                5724,
                7316,
                2020,
                9270,
                1164,
                9462,
                8139,
                7170,
                1315,
                3465,
                5491,
                3877,
                1171,
                6243,
                4650,
                9366,
                469,
                2575,
                3820,
                2402,
                7527,
                1394,
                1964,
                7342,
                1386,
                4079,
                8162,
                1008,
                5684,
                5617,
                5278,
                2016,
                7548,
                6491,
                8353,
                2140,
                3028,
                8500,
                2128,
                6875,
                1509,
                2303,
                3458,
                4195,
                5171,
                4199,
                8452,
                8116,
                8264,
                4207,
                861,
                1921,
                8316,
                9168,
                4028,
                6550,
                4810,
                6091,
                9333,
                6150,
                9284,
                6942,
                9207,
                2463,
                919,
                4283,
                1582,
                3092,
                1619,
                8269,
                3207,
                9265,
                422,
                5542,
                230,
                6369,
                5735,
                3090,
                580,
                6042,
                543,
                8219,
                6672,
                6560,
                4393,
                9563,
                1403,
                1774,
                8214,
                2463,
                5500,
                4250,
                9195,
                3930,
                7303,
                9416,
                8152,
                4216,
                4742,
                8403,
                4366,
                195,
                9379,
                5525,
                8181,
                8326,
                7751,
                1325,
                8501,
                9109,
                7197,
                8483,
                5104,
                2166,
                8177,
                9315,
                3152,
                8291,
                617,
                5386,
                2714,
                6686,
                3525,
                303,
                3671,
                7458,
                556,
                6906,
                2140,
                1281,
                4743,
                8136,
                9322,
                2881,
                3340,
                2284,
                8149,
                9321,
                8298,
                4363,
                5901,
                9733,
                9412,
                3416,
                8113
            ]
        },
        "detections": 500,
        "events": 85975
    }
}