{
    "job_args": {
        "metric_limit": 500,
        "seed": 650918386
    },
    "job_id": "batch_44_do_500",
    "result": {
        "collections": {
            "crystal": [
                0.4751431628441515,
                0.1358836410033084,
                1.3324980931528798,
                0.5143892407740042,
                0.5100222930470163,
                1.33249809315288,
                0.20630445976294287,
                1.33249809315288,
                0.9399126422651563,
                0.8142491617258059,
                0.23863482175215253,
                0.347634009948497,
                0.6118265911606338,
                0.5592072740538699,
                0.689364186032569,
                0.24226825190489662,
                1.3324980931528798,
                0.7866545727114704,
                1.1074097443448643,
                0.9813815434588511,
                0.5874675220199027,
                0.5426349937202353,
                0.06907512573138364,
                0.6960337559410922,
                0.29029830146352215,
                1.1654117002229307,
                0.6136064772593424,
                0.4185431705459791,
                0.5857830612423197,
                0.8680867415144956,
                0.3715691767767134,
                1.3324980931528798,
                0.36648627360717884,
                0.6369396517862073,
                0.9263138648494205,
                0.5723554085492292,
                0.1845938065555269,
                1.1732266212015405,
                0.5350620073200751,
                1.3324980931528798,
                0.2368102809332946,
                1.0771583339752733,
                0.23487569765539626,
                0.5558970015639578,
                0.030317883511975285,
                1.3324980931528798,
                1.080497119362195,
                1.3324980931528798,
                0.6967577499070121,
                0.63803433975216,
                0.5837190769111201,
                0.41286979813269054,
                0.37305460246393846,
                0.5736022155579271,
                1.1732266212015405,
                0.9824169015720849,
                0.5506821491415408,
                0.8024929110338455,
                0.6053616389597959,
                0.0882024,
                0.2836880769287105,
                1.3324980931528798,
                1.0094457255166855,
                0.02321835602314843,
                0.7533052150915734,
                0.22486477669123903,
                1.0589053079640756,
                0.3429492815866496,
                0.8671568649299792,
                1.0479431655873594,
                1.1732266212015405,
                0.8579159540113412,
                1.1732266212015405,
                1.1732266212015405,
                0.9890871466550399,
                0.6101762808117599,
                1.1732266212015405,
                1.012460616852641,
                0.6728776757971373,
                0.7575732957417345,
                1.3324980931528798,
                0.939000588089643,
                1.3324980931528798,
                1.1732266212015408,
                1.3324980931528798,
                0.211269308853708,
                0.07303899999999999,
                0.1088567725333851,
                0.9378368477831933,
                0.8863057340604532,
                0.07525,
                0.2300584251361205,
                0.36321860943081175,
                1.0109688814016087,
                0.51099891,
                0.6898244445415869,
                1.056312083987914,
                0.6944979534367024,
                0.22495931420687845,
                1.1732266212015403,
                0.5393247353411195,
                0.5404501452951087,
                1.0276135428432944,
                1.1312805550543494,
                0.11810742421731792,
                1.1732266212015405,
                1.3324980931528798,
                0.21677416554509485,
                1.3324980931528798,
                1.1732266212015405,
                1.1732266212015408,
                0.9002004835246701,
                1.1732266212015403,
                0.5819513822661428,
                0.03611365540686062,
                0.37957264914944994,
                1.1732266212015403,
                1.1732266212015405,
                1.1732266212015405,
                0.5764220658095742,
                0.03573969373081631,
                1.3324980931528798,
                0.46607837699778787,
                0.7452956884069021,
                0.766080601704715,
                1.0550305434083063,
                0.06785371292402123,
                0.13242919157023347,
                0.41866592429219496,
                0.9730126545052821,
                0.30387055562960824,
                0.3606421893832543,
                0.43291628029686297,
                0.4682341085477426,
                0.7136257776868686,
                1.1732266212015403,
                1.3324980931528798,
                1.3324980931528798,
                0.6673914263494929,
                0.13602573900262072,
                0.22995202207672016,
                0.6525222179442152,
                0.7111284632636379,
                0.8092599556321971,
                0.9208616949121098,
                1.1732266212015403,
                0.42596392881830647,
                0.7308298871784686,
                1.3324980931528798,
                1.1732266212015405,
                0.49546922673846316,
                0.25833169012115126,
                1.3324980931528798,
                0.8174221427885567,
                1.3324980931528798,
                0.08405545246755014,
                0.7461676518644851,
                0.27342751194889936,
                0.05496255520341098,
                0.5758217702829855,
                1.0730762381854664,
                0.6370814779738424,
                0.9142426265862742,
                1.07016030589771,
                0.6992493470508292,
                0.2433357091116732,
                0.17240853195718112,
                1.1732266212015405,
                1.1732266212015405,
                1.3324980931528798,
                0.9410209276855077,
                0.16551800167053754,
                0.7265326660185654,
                0.4974012310654368,
                1.3324980931528798,
                1.3324980931528796,
                1.3324980931528796,
                1.17322662120154,
                0.8122590703808974,
                0.06344662111939647,
                0.005404354207826811,
                1.1732266212015405,
                0.179650096237014,
                1.3324980931528796,
                0.1947907398065563,
                0.8184579140002615,
                0.4627254113409103,
                0.2211262130796923,
                0.5152243545260333,
                0.7321094397987643,
                0.029471125269110898,
                0.7314161594506052,
                0.6961404051813908,
                0.8591500758233015,
                0.565157958932095,
                1.1447132618284503,
                0.0639382491139402,
                0.5150011742991829,
                1.1732266212015405,
                0.5240809943512218,
                0.8385657663560935,
                1.3324980931528798,
                0.8583352204115318,
                1.3324980931528798,
                0.7347890755429398,
                1.1732266212015408,
                0.8976310032871262,
                0.655469790278065,
                0.6197427597022861,
                0.980529301149669,
                0.6678975286226412,
                0.34157144951960094,
                0.5904664777836971,
                0.3086297545234331,
                0.9366642645847364,
                0.07303900000000002,
                0.05170540342276042,
                1.1732266212015403,
                0.6073370467470227,
                0.33884103233403784,
                0.6726037377565822,
                0.7614338893676232,
                0.6861064776239343,
                0.5270817680369307,
                1.3324980931528796,
                0.8440116429168624,
                0.595536835656531,
                0.6187055796137965,
                0.2968583180091555,
                1.1732266212015405,
                1.1732266212015405,
                0.5466979825767213,
                0.030561480302727206,
                0.4271966775562704,
                1.1732266212015408,
                1.3324980931528798,
                1.3324980931528798,
                1.1732266212015405,
                0.44321468687912113,
                0.8200766550490252,
                0.27700937006507664,
                0.922432810085737,
                0.8579372179089348,
                1.1732266212015405,
                0.03536332733561087,
                1.649524374220714,
                0.8585572756067907,
                1.0596589349355983,
                0.961854870756816,
                0.5277165364462313,
                0.5689215100065743,
                0.4811757805041428,
                1.1317655245541653,
                0.38742170728416153,
                0.3355016199563874,
                0.07633828328936809,
                0.07525,
                1.3324980931528798,
                0.14375265892528688,
                0.8449750777987259,
                0.019946178886619093,
                0.512060076793953,
                1.1732266212015408,
                0.3647900761099977,
                1.3324980931528803,
                0.1975337101728957,
                0.5638775321357152,
                0.5996906195448781,
                0.39208873297453006,
                0.8795841473382519,
                1.33249809315288,
                1.1732266212015405,
                0.12560833372726396,
                0.45799716727493633,
                1.3324980931528798,
                1.02661514982575,
                0.2458462689956331,
                1.1958475642717463,
                0.9444405132320649,
                0.8007297410504148,
                1.3324980931528798,
                0.19909885513780554,
                1.3324980931528798,
                0.7283614101317355,
                1.3324980931528796,
                1.1732266212015405,
                0.057845321099817326,
                0.8171901704436797,
                0.5978166686136447,
                0.47460013049694494,
                1.3324980931528798,
                1.1732266212015405,
                1.1732266212015405,
                0.6012994935642607,
                0.5563793293065686,
                0.15981982635303038,
                0.5701125054614502,
                1.0161381317654676,
                0.2451549355896794,
                0.3879776161694438,
                0.20884714221107992,
                1.33249809315288,
                0.037452421620297494,
                0.5109989100000001,
                0.9676612879371207,
                0.6392757015236366,
                0.6924635096394156,
                0.4817858371988333,
                1.1732266212015405,
                1.0186790384683633,
                0.6469525869949777,
                0.7985193935065275,
                1.1732266212015405,
                0.36745059116766543,
                1.33249809315288,
                1.3324980931528798,
                1.3324980931528798,
                0.5484993666071677,
                1.1732266212015405,
                0.6449357750528915,
                0.38277347270957346,
                1.1732266212015405,
                0.7228287411815834,
                0.7012562556213704,
                0.5561724027432356,
                0.9375693039356913,
                1.3324980931528798,
                0.51099891,
                0.6004120764884153,
                0.4771372036531949,
                0.7924961102427557,
                0.9101994174286793,
                0.9179489436568652,
                0.6901080893682048,
                1.087458893914717,
                0.4180877873797869,
                0.3274272016585183,
                0.7669361065701388,
                0.19391905292176034,
                0.899765567755137,
                0.2916282597416601,
                0.2590118921620016,
                1.3324980931528798,
                0.1361772176463899,
                0.36552320546995437,
                0.5675894506191934,
                0.5898385814075476,
                0.6795723414494781,
                0.51636405478991,
                0.301059232568597,
                0.6850508199501957,
                0.1779697575195987,
                0.5384731942588672,
                0.8119426817522086,
                1.1439934369032476,
                0.3251263688733035,
                0.6983282935873623,
                1.1732266212015405,
                0.5453162851032894,
                1.3324980931528798,
                0.8101471860122522,
                1.1469450431349857,
                0.5606114512294353,
                0.05357875216446753,
                0.09462703214891699,
                0.18756540033475913,
                0.6049569263201096,
                0.5025879656042679,
                0.8377567363494258,
                1.3324980931528798,
                1.1732266212015403,
                0.10946655267503158,
                0.06009957231780328,
                1.1732266212015405,
                0.2408128059264639,
                0.581082473641548,
                0.5073267592264548,
                0.6930214258981012,
                0.38168269556388745,
                1.3324980931528798,
                0.1931387356936787,
                0.3668983689918725,
                0.6536611053372701,
                0.8976532422732855,
                0.8013233709008291,
                0.9591225267849024,
                1.3324980931528796,
                1.1732266212015403,
                1.33249809315288,
                0.8498862512827884,
                1.1732266212015405,
                0.18190279508293825,
                0.06794146718219252,
                0.7805483614345783,
                0.21102351474651954,
                0.5001770772767621,
                1.1732266212015405,
                0.005736754550524137,
                0.918619335210955,
                0.5311186721996912,
                1.3324980931528798,
                0.6105398325264365,
                0.7844801297815942,
                1.33249809315288,
                0.073039,
                0.516628813978976,
                0.3650558365464442,
                0.8498906494796623,
                1.3324980931528798,
                1.2205687087525914,
                0.5513503229185513,
                0.32264347076777916,
                0.6689837505442471,
                0.058024840546259115,
                1.3324980931528798,
                0.073039,
                0.8771131866479711,
                0.8534210382108701,
                1.1732266212015405,
                0.9295998511420688,
                1.33249809315288,
                1.0436877846392822,
                1.17322662120154,
                0.2372434833999938,
                0.012627500000000002,
                1.1732266212015405,
                0.30102978490264115,
                1.1732266212015405,
                0.8159978727193243,
                1.1732266212015403,
                1.3324980931528796,
                1.3324980931528796,
                0.6189268370333536,
                0.7650541214724271,
                0.8055270577854703,
                0.3198919515262306,
                0.4412166042811996,
                0.8401471509104271,
                0.7144803450787973,
                0.34964868580304087,
                1.049794313964496,
                0.6298141947076932,
                1.3324980931528798,
                0.4043573368480376,
                1.3324980931528798,
                0.08581530141107535,
                0.7862343072037772,
                0.9726255886498396,
                1.311109732020929,
                0.15004626486687422,
                0.2801575007834502,
                0.19919509232414934,
                0.28190443799309023,
                0.25577212392841053,
                0.32789315405206804,
                0.16784027082719022,
                1.1732266212015405,
                0.26341398277906725,
                0.6312095992938767,
                0.20525165665005196,
                0.2160965825368142,
                0.8771475562218902,
                1.3324980931528798,
                0.7305624873686831,
                1.3324980931528798,
                0.7464536858294297,
                1.0637539484552265,
                1.3324980931528796,
                0.1229459516387872,
                0.8138094903698851,
                0.3740636991452996,
                0.07525000000000001,
                0.8364507576628216,
                0.6641476643796437,
                0.5797310710499356,
                0.1807595214340079,
                0.3257371462875753,
                0.4659963674079307,
                0.8809802933988735,
                0.7299624152594854,
                0.7893032472014803,
                1.1732266212015405,
                0.8684810687437596,
                0.9472756715957051,
                0.4706755318127138,
                0.5498630567413232,
                1.1914218413031268,
                1.3324980931528796,
                0.11175707848196914,
                0.909621033845508,
                0.7550110762082521,
                0.8251749607889078,
                0.4285649171936645,
                0.8624801028143065,
                0.34498804220563634,
                1.1732266212015405,
                0.9268629918059663,
                0.4228684640604903,
                0.9575125642203579,
                0.45799400126709294
            ],
            "photocathode": [
                3468,
                952,
                9152,
                3717,
                3502,
                9393,
                1528,
                9507,
                6708,
                5664,
                1645,
                2352,
                4362,
                3910,
                4892,
                1699,
                9297,
                5687,
                7879,
                6811,
                4098,
                3812,
                489,
                4942,
                2027,
                8088,
                4219,
                2847,
                4129,
                6047,
                2712,
                9403,
                2544,
                4556,
                6518,
                4040,
                1308,
                8225,
                3734,
                9313,
                1777,
                7281,
                1677,
                3883,
                195,
                9301,
                7597,
                9465,
                4887,
                4559,
                4078,
                2938,
                2626,
                4130,
                8251,
                6835,
                3969,
                5595,
                4365,
                600,
                2041,
                9317,
                7240,
                165,
                5478,
                1646,
                7496,
                2396,
                6078,
                7448,
                8199,
                6132,
                8119,
                8213,
                6984,
                4208,
                8088,
                7028,
                4840,
                5332,
                9288,
                6598,
                9562,
                8241,
                9334,
                1529,
                507,
                735,
                6618,
                6170,
                529,
                1537,
                2485,
                7090,
                3738,
                4861,
                7141,
                5023,
                1541,
                8338,
                3726,
                3820,
                7267,
                7777,
                840,
                8234,
                9428,
                1472,
                9457,
                8239,
                8278,
                6471,
                8155,
                3890,
                253,
                2591,
                8138,
                8365,
                8251,
                3980,
                234,
                9376,
                3281,
                5239,
                5432,
                7401,
                453,
                906,
                2903,
                6931,
                2158,
                2618,
                3169,
                3271,
                5021,
                8300,
                9480,
                9279,
                4829,
                965,
                1763,
                4652,
                5045,
                5760,
                6490,
                8204,
                3028,
                5188,
                9394,
                8309,
                3441,
                1869,
                9383,
                5759,
                9324,
                582,
                5318,
                1952,
                398,
                4035,
                7577,
                4506,
                6380,
                7553,
                4786,
                1688,
                1256,
                8106,
                8135,
                9412,
                6483,
                1159,
                5136,
                3487,
                9536,
                9368,
                9400,
                8364,
                5893,
                421,
                34,
                8632,
                1272,
                9232,
                1397,
                5629,
                3260,
                1542,
                3718,
                5098,
                216,
                5134,
                4876,
                5972,
                3828,
                8204,
                451,
                3645,
                7927,
                3742,
                5759,
                9371,
                6042,
                9523,
                5082,
                8054,
                6478,
                4570,
                4345,
                7289,
                4671,
                2424,
                3960,
                2265,
                6545,
                528,
                320,
                8184,
                4280,
                2475,
                4655,
                5412,
                4826,
                3669,
                9574,
                6216,
                4149,
                4313,
                2039,
                8144,
                8238,
                3859,
                237,
                3136,
                8173,
                9193,
                9350,
                8306,
                3166,
                5797,
                1919,
                6723,
                6045,
                8156,
                263,
                11553,
                5940,
                7529,
                6782,
                3624,
                4217,
                3372,
                7961,
                2715,
                2404,
                528,
                500,
                9301,
                1076,
                5946,
                130,
                3569,
                8337,
                2585,
                9597,
                1421,
                3958,
                4388,
                2833,
                6353,
                9395,
                8385,
                877,
                3170,
                9324,
                7031,
                1793,
                8649,
                6715,
                5486,
                9138,
                1371,
                9084,
                5017,
                9354,
                8085,
                398,
                5758,
                4246,
                3381,
                9364,
                8035,
                8091,
                4168,
                3897,
                1049,
                3944,
                7266,
                1748,
                2740,
                1428,
                9289,
                281,
                3524,
                6743,
                4595,
                4857,
                3496,
                8342,
                7182,
                4551,
                5546,
                8384,
                2558,
                9723,
                9457,
                9312,
                3921,
                8152,
                4693,
                2671,
                8207,
                5101,
                4869,
                3897,
                6652,
                9342,
                3666,
                4122,
                3421,
                5462,
                6612,
                6250,
                4994,
                7829,
                3011,
                2342,
                5485,
                1383,
                6341,
                2051,
                1739,
                9129,
                996,
                2602,
                3964,
                4209,
                4877,
                3623,
                2085,
                4702,
                1229,
                3759,
                5706,
                8127,
                2289,
                4893,
                8335,
                3894,
                9480,
                5587,
                8071,
                3879,
                368,
                633,
                1330,
                4319,
                3528,
                5838,
                9147,
                8087,
                748,
                399,
                8107,
                1712,
                4064,
                3529,
                4868,
                2715,
                9428,
                1332,
                2648,
                4561,
                6277,
                5804,
                6694,
                9383,
                8307,
                9436,
                6074,
                8190,
                1318,
                456,
                5395,
                1543,
                3563,
                8105,
                36,
                6423,
                3678,
                9294,
                4335,
                5464,
                9129,
                477,
                3622,
                2632,
                5855,
                9393,
                8741,
                3990,
                2206,
                4743,
                388,
                9483,
                496,
                6053,
                6078,
                8451,
                6563,
                9254,
                7447,
                8377,
                1665,
                69,
                8241,
                2069,
                8093,
                5631,
                8482,
                9466,
                9443,
                4559,
                5322,
                5627,
                2313,
                3024,
                5759,
                5016,
                2527,
                7488,
                4429,
                9384,
                2898,
                9298,
                612,
                5565,
                6842,
                9068,
                1087,
                1947,
                1398,
                2020,
                1783,
                2230,
                1168,
                8083,
                1869,
                4584,
                1425,
                1481,
                6147,
                9186,
                5158,
                9333,
                5187,
                7398,
                9234,
                859,
                5615,
                2625,
                529,
                5933,
                4645,
                4016,
                1263,
                2183,
                3261,
                6054,
                5277,
                5578,
                8058,
                6014,
                6665,
                3393,
                3950,
                8349,
                9219,
                786,
                6369,
                5251,
                5840,
                2951,
                6124,
                2484,
                8504,
                6517,
                2985,
                6462,
                3201
            ]
        },
        "detections": 500,
        "events": 88359
    }
}