{
    "job_args": {
        "metric_limit": 500,
        "seed": 3809629677
    },
    "job_id": "batch_108_do_500",
    "result": {
        "collections": {
            "crystal": [
                0.2324954143659742,
                0.30355947921772,
                0.39218919169672967,
                0.031046165930787968,
                0.20454832971721473,
                0.27728624865345997,
                0.9587002147781032,
                0.24183331729541713,
                1.4608223291577749,
                1.125588553744933,
                0.44586844923819924,
                0.6882069598036678,
                1.1943140323816146,
                0.36846380932845135,
                0.28650907363802114,
                0.346496799421633,
                1.1149758553125513,
                0.4425763823071298,
                0.3736683570775003,
                0.4457533223636932,
                1.4608223291577753,
                0.21721176218460253,
                0.28269345220508313,
                0.7898401036897026,
                1.0182055031299273,
                0.22318060061716416,
                0.2121096341435231,
                0.9768953930900894,
                0.23234141971316372,
                0.988979503317736,
                0.22433325618792505,
                1.4608223291577749,
                1.4608223291577753,
                0.8369323211428853,
                0.5448392675588708,
                0.27023765983431824,
                1.460822329157775,
                0.8823910949550544,
                0.12152386215031598,
                0.22359665130672834,
                0.5802250956621972,
                0.698593757415506,
                1.0846932331617016,
                1.0781339226980424,
                0.7307338098991979,
                0.904862420565979,
                1.051927205522375,
                0.073039,
                0.8479410353645027,
                0.0876557,
                1.1431357036115433,
                0.2457452880162465,
                0.10571045048365302,
                0.29732516592107255,
                0.3782313723181479,
                0.43882450915777527,
                0.8081022141780876,
                1.1222870592013523,
                1.4608223291577753,
                0.19130296884444142,
                0.008504899076370087,
                0.2077322514970259,
                0.21796175981042798,
                1.460822329157775,
                0.19641640943119362,
                0.23656497556449202,
                0.04295579999999999,
                0.24662316747890456,
                0.22133497253329454,
                1.234153891413154,
                1.4608223291577749,
                1.460822329157775,
                1.4608223291577749,
                0.40468807877216495,
                0.7692338227760771,
                1.141169348019555,
                0.0852354,
                1.460822329157775,
                1.460822329157775,
                0.5545714175566518,
                0.11837697761654353,
                0.0876557,
                0.28723606233267873,
                1.460822329157775,
                0.7632733135099533,
                1.4608223291577747,
                0.5365943458523692,
                0.902297053544118,
                0.0943596532041655,
                0.9615552607529778,
                0.07525000000000001,
                1.460822329157775,
                1.460822329157775,
                0.2625418184389413,
                0.5284325934387194,
                0.8591586465997636,
                0.1807771431962109,
                0.7808200338471815,
                1.1823881149101034,
                0.5695050454178576,
                1.4608223291577749,
                0.8938988242188306,
                0.7865197488417794,
                0.8912661890259794,
                1.0205496477312028,
                0.7429741427445427,
                0.15894598294136264,
                1.1722321782861282,
                0.3925307395440562,
                1.460822329157775,
                0.17490299676597396,
                0.5917593180159284,
                1.460822329157775,
                1.460822329157775,
                0.17190509633057494,
                0.07434730036644693,
                1.4608223291577749,
                1.2378365933489361,
                0.51099891,
                0.29753155267827297,
                1.197687020219749,
                0.1905919677362918,
                0.2555589611659371,
                0.012383842605738549,
                0.4383950933153149,
                0.8796743918898904,
                1.460822329157775,
                1.0532199651060568,
                1.2612789742147308,
                1.3059061462625017,
                1.460822329157775,
                0.1763535666669816,
                0.31130282358288625,
                0.11883440500612807,
                0.2920127894018472,
                1.460822329157775,
                1.0463683192511741,
                0.2408078680071484,
                0.2456105508262163,
                1.0967570109474014,
                1.4608223291577753,
                0.9694490768377542,
                1.460822329157775,
                0.1841524805473004,
                1.460822329157775,
                0.8975665116393385,
                0.6980419161991896,
                1.460822329157775,
                0.28536108620656625,
                0.7931112435612021,
                0.12362537538214743,
                0.7761195667669749,
                1.460822329157775,
                1.4608223291577753,
                1.0975085858527445,
                0.004042438024362827,
                0.6998237945071183,
                0.6736936979943308,
                0.903436593995431,
                1.4608223291577749,
                0.01230872243162029,
                0.2417036627659545,
                0.6345859209163525,
                0.8810263260177252,
                0.20248559797825078,
                0.17329763302696258,
                0.14986111139563119,
                0.329652230932292,
                0.4234883049921394,
                1.4608223291577749,
                1.460822329157775,
                0.6753138254296308,
                0.32269888501225474,
                0.12860421785212553,
                1.1686651210198558,
                0.4509087552055562,
                0.07524999999999998,
                1.460822329157775,
                0.7224739232329189,
                0.04396588328591011,
                0.3719110767163059,
                0.21975650454768644,
                1.4608223291577749,
                1.460822329157775,
                0.2239688288905064,
                0.0876557,
                0.2796886540547315,
                0.48156027616830754,
                0.5769018652431983,
                0.6254481776830798,
                1.1314911018128795,
                0.6582917863553297,
                0.3384790361217001,
                1.460822329157775,
                0.4818823900640143,
                1.2087067833939678,
                0.2549119160523581,
                1.460822329157775,
                0.6620032617239551,
                1.4608223291577749,
                0.19226483206454428,
                1.1443044435613559,
                0.2872543266235063,
                0.04320321317273379,
                0.25171396321419964,
                1.201404483494542,
                0.018736414632403053,
                0.9977730013468117,
                0.14904164985264345,
                1.460822329157775,
                1.460822329157775,
                1.460822329157775,
                0.5075206935227355,
                0.21224014187702617,
                1.0781300750791858,
                0.16933957563761504,
                0.48864055448275534,
                0.1694037299105677,
                0.32318995001403517,
                0.12530014044333715,
                0.13185693864158202,
                1.1216305893459753,
                0.873952666849599,
                1.2276238270803472,
                0.30012085407358824,
                0.38839948612579556,
                1.1377125061722009,
                0.477237964857107,
                0.23694467282575954,
                0.37453762137391966,
                0.22465339254798283,
                0.18350626652779628,
                1.460822329157775,
                0.073039,
                1.460822329157775,
                0.5045730181137575,
                0.17531375415466838,
                1.2207792408161517,
                0.21796434836484704,
                0.5654225361332191,
                0.5861852165023737,
                0.28834815795683877,
                0.20511186614191484,
                1.460822329157775,
                0.8647381742544338,
                0.039986248543077474,
                0.073039,
                0.42126710799212,
                0.09925089806041769,
                0.1650329357715012,
                0.3112608288485252,
                0.22383719109876715,
                0.2936829500473672,
                0.9206172806930715,
                0.5405801679140169,
                0.6349196807020162,
                1.4608223291577753,
                1.4608223291577753,
                0.6663988554842857,
                1.1809713147991823,
                0.5822223288500664,
                0.2722446334024081,
                0.5109989100000001,
                0.2292875917550674,
                0.2549991623663044,
                0.5347956941084794,
                0.7236259493831456,
                0.32427357065566675,
                0.6300619499738671,
                0.938444758791326,
                1.460822329157775,
                1.4608223291577753,
                0.3118561314708125,
                1.4608223291577747,
                0.5400027670118287,
                1.460822329157775,
                0.7023434877117735,
                1.460822329157775,
                0.2473610178573869,
                0.18903664686827198,
                0.7603182188241645,
                0.9012895799554956,
                0.2834094795397664,
                1.1905323721099157,
                0.16836864176451555,
                0.6372594231284578,
                0.8188534036379456,
                0.01912817615286011,
                0.8585887541856939,
                0.4905258267598503,
                0.29328652563308266,
                1.4608223291577749,
                0.2559923417915404,
                1.0147561521305413,
                0.2328558849290567,
                0.6019532496481891,
                0.7694913392798792,
                0.07525,
                0.28183355361318824,
                0.3359229802879558,
                1.2231539711495834,
                1.0819919081668334,
                0.1937706782025769,
                0.8492960930894902,
                0.19784982977667065,
                0.2509752141103951,
                0.36432811645937546,
                0.9298374391146783,
                0.6277838586516254,
                0.7414824932228656,
                0.6117072781233583,
                1.2214208965602182,
                1.460822329157775,
                0.24136508765038137,
                0.2091445316465585,
                1.4608223291577747,
                0.20071572740840937,
                0.6812296218101389,
                1.2842346291916829,
                0.1146460806027292,
                0.16126054021381087,
                1.460822329157775,
                0.5833791173939895,
                1.4608223291577749,
                0.24895910075279948,
                0.3210871721586379,
                0.8550717951140012,
                1.4608223291577753,
                0.10212519483270732,
                0.5847591226381089,
                0.4762551184689827,
                0.5588099343567722,
                1.460822329157775,
                0.5260554783870283,
                0.7581911729285744,
                0.7759310289077281,
                0.31180485979846473,
                1.460822329157775,
                0.6247593572053263,
                1.4608223291577749,
                1.2002226976574502,
                0.51099891,
                0.43747522254947374,
                1.4608223291577753,
                1.460822329157775,
                0.17276406630884572,
                0.7270968963712874,
                0.5691362928735341,
                0.4803268690857223,
                0.18929221279368103,
                1.1204531988006172,
                0.4771063032228446,
                0.20938653417270398,
                0.23165252939744507,
                0.4487121498408406,
                0.30751956309080986,
                0.4969323396365175,
                1.460822329157775,
                0.18165727065266782,
                0.36669710839273745,
                1.4608223291577747,
                1.460822329157775,
                1.4608223291577753,
                0.2641759435784289,
                0.26443383882658256,
                0.5575023961670755,
                1.4608223291577753,
                0.6582044705405401,
                0.1206791342902116,
                0.3315409938289197,
                1.0227776482802382,
                0.9897388843906769,
                0.16855165669350947,
                0.24244087110810675,
                1.460822329157775,
                1.460822329157775,
                1.202160336532592,
                0.37173578230711196,
                1.0080577413005718,
                1.1443325954216605,
                0.9963838506244016,
                0.2154105078708505,
                0.2840855429462227,
                0.17536881001508764,
                0.28954682661995573,
                1.0144538657483144,
                0.07525,
                0.0847407,
                1.460822329157775,
                1.3482408834134865,
                0.20254590815241436,
                1.460822329157775,
                0.2715963247247076,
                1.4608223291577753,
                0.40734222319229246,
                1.460822329157775,
                0.9165695727758045,
                0.09025724482287939,
                1.1977057089904268,
                1.460822329157775,
                0.3349811231645774,
                0.686047636168196,
                0.33376704407122404,
                0.9246913564063924,
                0.4453188354264954,
                0.5421801894405895,
                0.9737490385717351,
                0.560227514210915,
                0.18452737100998098,
                0.41165741340163664,
                1.460822329157775,
                1.2007678057624027,
                0.9023437286735303,
                1.460822329157775,
                0.4131419887477359,
                0.22779413357655942,
                1.073799946268913,
                1.460822329157775,
                0.2544888853603917,
                1.460822329157775,
                0.17944895568807595,
                0.8513693204719104,
                1.460822329157775,
                0.31193287440980155,
                1.4608223291577749,
                0.27261011900132426,
                0.9498234191577751,
                0.8843648983913267,
                0.16643157854233978,
                0.6175061445152134,
                0.008447684267445467,
                0.35439989013812756,
                0.39371300810502174,
                0.6873960614849411,
                0.69289236444803,
                0.6696117980119622,
                0.2817177471963009,
                0.3761211455678874,
                0.21354285251013172,
                1.4608223291577749,
                1.0390990400385955,
                0.08830799592880095,
                1.4608223291577749,
                1.4608223291577753,
                0.43882450915777527,
                1.0021265513348216,
                0.569003728813446,
                0.8972599658958654,
                0.8865572566097925,
                1.1028929419184534,
                0.38979676856647716,
                1.460822329157775,
                1.2355170172556442,
                0.368479004464767,
                0.3352063780098226,
                0.16362509962221583,
                1.4608223291577753,
                0.7683037554828751,
                1.460822329157775,
                1.2359664922905305,
                0.2581698885302637,
                0.07172906139158683,
                0.9435929039802914,
                0.300128119517434,
                0.9699088453775042,
                1.2024499014756287,
                0.22513549581107153,
                0.04229434105714347,
                1.2020082073755756,
                0.41264469645507174,
                1.460822329157775,
                0.2592603933577163,
                0.390085707941285,
                1.4608223291577753,
                1.460822329157775,
                0.6413635564542897,
                0.12780934279441966,
                0.13091340046543598,
                0.8668994776465412,
                0.2136386729379374,
                0.13334809366870815,
                0.23111975740047547,
                0.3425479804452179,
                0.34782201078518615,
                0.7580843927185035,
                0.9960285737890802,
                0.6098258028594278,
                0.882388692196578,
                0.41049485101862565,
                1.460822329157775,
                0.51099891,
                0.32619721781282124,
                1.4608223291577753,
                0.5698163752250229,
                0.9134588115875635,
                0.26921224736370875,
                0.20533035403433622,
                0.0876557,
                0.1907544452284929,
                1.460822329157775
            ],
            "photocathode": [
                1701,
                2127,
                2891,
                209,
                1466,
                1917,
                6692,
                1745,
                10208,
                8028,
                3110,
                4887,
                8599,
                2682,
                2004,
                2476,
                8073,
                3118,
                2647,
                3098,
                10179,
                1497,
                1948,
                5485,
                7148,
                1583,
                1500,
                6999,
                1656,
                7024,
                1525,
                10005,
                10542,
                5906,
                3863,
                1830,
                10285,
                6250,
                785,
                1633,
                4049,
                4819,
                7781,
                7738,
                5124,
                6443,
                7482,
                545,
                5839,
                616,
                8079,
                1681,
                705,
                2136,
                2730,
                3122,
                5696,
                7950,
                10214,
                1242,
                73,
                1447,
                1609,
                10455,
                1345,
                1694,
                309,
                1622,
                1600,
                8856,
                10356,
                10359,
                10045,
                2801,
                5419,
                8170,
                583,
                10118,
                10438,
                3867,
                803,
                618,
                2101,
                10116,
                5466,
                10462,
                3655,
                6449,
                719,
                6655,
                523,
                10384,
                10091,
                1813,
                3759,
                6268,
                1272,
                5481,
                8460,
                4025,
                10317,
                6243,
                5452,
                6123,
                7177,
                5434,
                1086,
                8511,
                2799,
                10124,
                1219,
                4228,
                9950,
                10327,
                1181,
                552,
                10143,
                8666,
                3657,
                2127,
                8453,
                1304,
                1777,
                78,
                2909,
                6161,
                10073,
                7528,
                8752,
                9559,
                10293,
                1207,
                2188,
                807,
                2015,
                10276,
                7440,
                1678,
                1716,
                7652,
                10131,
                6899,
                10067,
                1240,
                10266,
                6286,
                4915,
                10283,
                2024,
                5722,
                835,
                5496,
                10325,
                10219,
                7774,
                33,
                4814,
                4874,
                6232,
                10140,
                82,
                1713,
                4488,
                6123,
                1466,
                1220,
                1066,
                2267,
                2889,
                10146,
                10501,
                4690,
                2258,
                925,
                8276,
                3234,
                506,
                10227,
                4923,
                329,
                2492,
                1494,
                10393,
                10030,
                1611,
                612,
                1986,
                3519,
                4097,
                4375,
                7887,
                4590,
                2417,
                10277,
                3342,
                8565,
                1853,
                10139,
                4873,
                10299,
                1441,
                8227,
                2024,
                289,
                1714,
                8522,
                130,
                7071,
                1063,
                10343,
                10098,
                10366,
                3468,
                1475,
                7566,
                1187,
                3492,
                1195,
                2206,
                920,
                934,
                8139,
                6121,
                8751,
                2110,
                2706,
                7788,
                3305,
                1644,
                2633,
                1563,
                1325,
                10352,
                498,
                10279,
                3491,
                1239,
                8543,
                1536,
                3856,
                4135,
                1947,
                1431,
                10288,
                6197,
                287,
                490,
                2883,
                705,
                1233,
                2103,
                1581,
                2137,
                6373,
                3736,
                4476,
                10247,
                10161,
                4738,
                8310,
                4152,
                1869,
                3573,
                1605,
                1811,
                3717,
                5123,
                2486,
                4615,
                6517,
                10097,
                10250,
                2141,
                10105,
                3846,
                10413,
                4978,
                10499,
                1756,
                1329,
                5334,
                6550,
                2042,
                8322,
                1198,
                4586,
                5761,
                138,
                6186,
                3558,
                2072,
                10225,
                1866,
                7185,
                1558,
                4446,
                5495,
                537,
                1945,
                2372,
                8760,
                7740,
                1417,
                5906,
                1350,
                1794,
                2569,
                6569,
                4398,
                5152,
                4228,
                8747,
                10450,
                1721,
                1472,
                10399,
                1462,
                4660,
                8959,
                804,
                1104,
                10357,
                4107,
                10059,
                1744,
                2237,
                6034,
                10281,
                690,
                4036,
                3376,
                3910,
                10641,
                3854,
                5351,
                5560,
                2107,
                10060,
                4433,
                10425,
                8435,
                3549,
                3143,
                10374,
                10280,
                1201,
                5094,
                4104,
                3476,
                1279,
                7971,
                3259,
                1423,
                1651,
                3169,
                2173,
                3623,
                10363,
                1290,
                2543,
                10142,
                10242,
                10396,
                1781,
                1871,
                4045,
                10434,
                4612,
                845,
                2311,
                7494,
                7007,
                1252,
                1753,
                10588,
                10172,
                8493,
                2584,
                6924,
                7909,
                7260,
                1504,
                1954,
                1222,
                2117,
                7186,
                455,
                575,
                10278,
                9545,
                1401,
                9989,
                1877,
                10197,
                2974,
                10743,
                6286,
                650,
                8298,
                10172,
                2464,
                4859,
                2386,
                6278,
                3059,
                3892,
                6783,
                3945,
                1315,
                3116,
                10301,
                8358,
                6480,
                10247,
                3045,
                1640,
                7349,
                10097,
                1772,
                10120,
                1305,
                6016,
                10505,
                2208,
                10270,
                1960,
                6546,
                6183,
                1167,
                4337,
                59,
                2460,
                2803,
                4803,
                5092,
                4719,
                2063,
                2659,
                1521,
                10107,
                7158,
                618,
                10380,
                10236,
                3099,
                6985,
                3937,
                6244,
                6172,
                7737,
                2728,
                10087,
                8889,
                2622,
                2347,
                1143,
                10263,
                5498,
                10063,
                8572,
                1780,
                466,
                6687,
                2156,
                6900,
                8553,
                1579,
                288,
                8571,
                2921,
                10045,
                1721,
                2646,
                10263,
                10170,
                4504,
                906,
                894,
                6136,
                1514,
                924,
                1582,
                2372,
                2449,
                5356,
                6913,
                4150,
                6143,
                2830,
                10470,
                3541,
                2278,
                10359,
                4023,
                6444,
                1897,
                1459,
                590,
                1260,
                10228
            ]
        },
        "detections": 500,
        "events": 854431
    }
}