{
    "job_args": {
        "metric_limit": 500,
        "seed": 1331953148
    },
    "job_id": "batch_156_do_500",
    "result": {
        "collections": {
            "crystal": [
                1.4608223291577753,
                1.2311954038641264,
                1.4608223291577749,
                0.8898702608449846,
                0.4081388530425729,
                0.4551057409430809,
                1.4608223291577755,
                0.6878148718482252,
                1.1323034109777126,
                0.8917622653914199,
                0.5749872453247246,
                0.07525,
                0.9732263020812727,
                0.8063494652512944,
                1.460822329157775,
                0.007988112208437315,
                0.6875662111227754,
                1.460822329157775,
                0.18651874476087973,
                0.24213925072403938,
                0.073039,
                0.25948195569438026,
                0.2201619707801441,
                1.4608223291577753,
                0.80627749509129,
                1.0797111391833782,
                0.18141878455247415,
                0.16555388639653187,
                0.5764086216779618,
                0.805870293553299,
                0.5719238404006074,
                0.9753577953773283,
                0.27938704761437805,
                0.17721853554014808,
                0.3956355834770797,
                0.5272188100074432,
                0.2950550224429616,
                0.3360508136500695,
                0.4636663162774115,
                0.8032058842364193,
                0.6223932696364437,
                0.6312142442908973,
                0.07303899999999999,
                0.28347868824405853,
                0.31904961505143337,
                1.460822329157775,
                0.3385711475853934,
                0.6090070514947248,
                1.0794465674081404,
                0.5192902826189969,
                1.2830794769138243,
                0.1885242203229705,
                0.08319560427413797,
                1.0245849046952515,
                1.460822329157775,
                1.460822329157775,
                0.27443190429513764,
                0.5800728613431418,
                0.7696151241563265,
                0.665572912047945,
                0.3108508729842129,
                0.9519553679904822,
                0.5109989100000001,
                1.0887148073753314,
                0.2575098079089887,
                0.2928843812188022,
                0.11962266251166288,
                1.0994463870098756,
                1.460822329157775,
                0.6669444828445996,
                0.2256215389899594,
                1.4608223291577749,
                1.1154299154190395,
                0.38729118664168083,
                0.3219752449305194,
                0.5397940673986925,
                1.460822329157775,
                0.7605250031671412,
                1.4608223291577753,
                1.460822329157775,
                0.3219498277899637,
                0.583664464775319,
                0.9101826696920298,
                0.06511986285470737,
                1.4608223291577749,
                0.08765569999999999,
                0.18040617849020446,
                0.33328345223730294,
                0.30448295760561256,
                1.460822329157775,
                0.2671989051016174,
                0.2036934312293631,
                0.0469435,
                0.31391297249777517,
                0.4077110616784587,
                0.5226843429585614,
                0.009346544919974664,
                0.6851700059071734,
                0.8057139045360432,
                0.09304780965025428,
                0.7919368995524599,
                0.17825816795449956,
                0.24895149324508375,
                0.7121330282869843,
                1.1799852927016767,
                1.1203677205688667,
                0.3004089935798618,
                0.25169203955448094,
                0.33738175793514563,
                0.37729743102789065,
                0.4999078556521789,
                0.5281384498455304,
                0.17807773812654434,
                0.5756270878230108,
                0.8586052043537213,
                0.35165938870088886,
                0.39670747413651375,
                0.2823461912691483,
                0.12111296608253098,
                0.2112325716430418,
                0.552074555429631,
                0.24526390135658777,
                0.8897063330981501,
                1.4608223291577753,
                0.1638573807186589,
                1.4608223291577749,
                0.49281231313219165,
                1.460822329157775,
                0.8768545156301182,
                0.09473407579635973,
                1.4608223291577753,
                0.5870315253554739,
                0.6169069846342474,
                0.3703387772046764,
                0.5531991740442571,
                1.2225970989098651,
                0.3319118554623342,
                0.8849382725936776,
                1.460822329157775,
                0.12825515410363275,
                0.21779163151994374,
                0.3147061168366089,
                0.25017042351302793,
                0.33573932329172196,
                1.460822329157775,
                1.4608223291577749,
                1.1265360724423452,
                0.8640372721129637,
                0.08523539999999999,
                0.39073931626355674,
                0.28158262657958755,
                0.38919845672561393,
                0.20615239655858986,
                0.2123257792884592,
                0.5115530623113362,
                0.6189841330818033,
                0.31305606395951424,
                0.6325240232922443,
                0.1878937376231031,
                1.0039458100587715,
                0.317946274514624,
                0.14072940191447691,
                1.460822329157775,
                1.2138092520413772,
                0.9084147355317541,
                0.3503337569254348,
                1.0046120206846654,
                0.9509337576281558,
                0.1805476952927534,
                0.8884667780813643,
                0.07801113645568758,
                0.3096555532354868,
                0.5109989100000001,
                1.460822329157775,
                0.04092907892069736,
                0.07525000000000001,
                0.20387026985790418,
                0.7156023068816897,
                0.45031769756827783,
                1.1623519945953429,
                0.7261051206080387,
                0.4638249068528834,
                0.5372963165935525,
                1.247114132901051,
                1.0819077075262324,
                0.07303899999999999,
                0.212000526966086,
                0.41238336796119035,
                0.8162124476634642,
                0.20143140297990064,
                1.2764334883009814,
                0.340728192948087,
                0.2052544964266082,
                1.2673080447148226,
                0.48953023712395516,
                1.4608223291577749,
                0.8347311923539169,
                0.6561183514149975,
                1.1764899352255815,
                0.07525,
                1.4608223291577749,
                0.6975687403171256,
                1.4608223291577749,
                0.33659333500170463,
                1.245046786449512,
                0.34826475764398246,
                0.23723049513869277,
                0.07524999999999998,
                1.083287229693119,
                0.9692951704278098,
                1.460822329157775,
                0.2611934455683979,
                0.9036375963207248,
                1.4608223291577753,
                0.4568828357530606,
                1.460822329157775,
                1.460822329157775,
                1.460822329157775,
                0.2845439605683572,
                0.05118166408610261,
                0.51099891,
                1.4608223291577749,
                0.0985916917274583,
                0.08523539999999999,
                1.460822329157775,
                0.9886527890648877,
                1.460822329157775,
                0.42856611144452106,
                1.1480438983946666,
                1.460822329157775,
                0.4450216446519242,
                1.2861515197479996,
                1.460822329157775,
                0.07636464002108112,
                0.7242009206002386,
                1.4608223291577747,
                0.12541222484767656,
                0.022513402668115634,
                0.7259139498880179,
                0.14821851295831295,
                0.46353242730537714,
                0.1940549193950091,
                0.515272070552171,
                0.25729769779898337,
                0.4816900963729919,
                0.05026663250443486,
                0.8955182403811219,
                0.9998369112391292,
                0.452210689373871,
                0.46034579932107206,
                0.21053276163007076,
                0.8188235135429615,
                0.8428174507062756,
                1.460822329157775,
                0.49785691661716913,
                0.9119667015811389,
                0.42700313806689416,
                0.49496598720144686,
                1.460822329157775,
                0.027013653029460516,
                1.232667358127433,
                0.0852354,
                0.3098537828088265,
                0.2651374273220096,
                0.073039,
                1.0849310448349656,
                0.22711561305969943,
                1.2004893790912026,
                0.0882024,
                0.06436103290424117,
                1.2438848689298698,
                1.1896857463876613,
                1.1366511156390888,
                0.0011897400972616379,
                0.32349357218742164,
                0.8332005906035926,
                0.509606206519371,
                1.4608223291577753,
                0.33829683641920427,
                0.6163272036480638,
                0.38052529511690303,
                0.2239163112352729,
                0.9815273412127763,
                0.24527357742931066,
                0.2640245588559553,
                1.460822329157775,
                1.4608223291577749,
                0.6290552197822445,
                0.2601863880387673,
                0.25662687751399327,
                0.7163964045572607,
                1.227602460887268,
                1.4608223291577753,
                0.5714651818202081,
                1.0070256560306423,
                0.44375365445731974,
                0.6611466685509914,
                0.07158398988228121,
                0.3322895949702855,
                0.39065442368850845,
                0.056377477607119975,
                0.38992940707214363,
                0.3147577849908142,
                1.4608223291577749,
                0.18312553979821172,
                0.3429734140378796,
                1.4608223291577749,
                1.460822329157775,
                1.2014114666498243,
                1.4608223291577753,
                1.460822329157775,
                0.050807797931908205,
                0.26725342563298443,
                0.05239775264886182,
                0.23066884995842654,
                0.0566259,
                0.027201843197582454,
                1.460822329157775,
                0.868465296435229,
                1.460822329157775,
                0.8336866219907433,
                1.0048636123935388,
                0.26655153538933785,
                0.30607059101328304,
                0.9957261083095884,
                1.1983555018790748,
                0.5014606843388969,
                0.6352339247397027,
                1.460822329157775,
                0.3067523971307029,
                0.1706493666900119,
                1.460822329157775,
                0.7956267200056295,
                0.2850894131476894,
                0.34481359252332155,
                1.0358605914429233,
                0.5711931216431648,
                0.9088825718066923,
                1.4608223291577749,
                0.2722144019730448,
                1.460822329157775,
                0.627776002125169,
                0.24567354369987338,
                0.5427737683750814,
                0.3544437961173565,
                1.1808719125449962,
                0.8002113769711123,
                0.6475111759607866,
                1.0024651319639708,
                0.0612824919665067,
                1.460822329157775,
                1.151790122915656,
                0.6317388905605763,
                0.290137034389725,
                0.2903640952645308,
                0.6219401042437678,
                1.2445836560664296,
                0.51099891,
                1.0638547948260002,
                0.6544068805188962,
                0.024632538131837134,
                1.4608223291577749,
                1.125327539017143,
                0.7364218263798058,
                0.4367299087809081,
                0.06589187869863855,
                0.08523540000000002,
                1.4608223291577753,
                1.0581629852199224,
                1.460822329157775,
                1.2957356480948579,
                1.460822329157775,
                0.7969744774741649,
                0.5482458517038568,
                1.1712368241439974,
                0.8336758554244843,
                1.1397729514619561,
                0.51099891,
                0.040882195622716305,
                0.23275313912534573,
                0.0408022,
                0.24286174936385319,
                0.2827909351102771,
                0.4569046719075314,
                1.4608223291577749,
                0.23145637118541293,
                0.9978394671949921,
                1.460822329157775,
                0.018977477677074143,
                0.2799168741412259,
                1.0813645989718783,
                0.6879807839965597,
                0.0017388815232670662,
                1.4608223291577753,
                0.4286644377758928,
                0.08523539999999999,
                1.144239716543993,
                1.0415028809970202,
                0.2161585923779723,
                1.2417868879120182,
                0.3461993062374287,
                0.28817337804646803,
                0.20364140858536173,
                0.6669100883411558,
                0.0852354,
                0.24041536332966823,
                0.1707626907569721,
                0.8287692012442283,
                0.8103681911502016,
                0.0869076054440549,
                0.5041969085343847,
                1.216854476687685,
                0.4092269349971508,
                0.7891081977889025,
                1.460822329157775,
                0.3388211794142225,
                0.1697853204406535,
                1.268901472985192,
                0.04531263968886634,
                0.19316774482024046,
                0.09237209408343697,
                0.07807215983452376,
                0.22486931794407322,
                0.29788253329041314,
                0.0025236128107635203,
                0.10583547176283782,
                0.2704336523739552,
                1.4608223291577749,
                0.7193943921831679,
                0.6011139173724955,
                0.22188559612019487,
                0.2819337300726652,
                1.127626374341395,
                1.460822329157775,
                1.4608223291577755,
                1.460822329157775,
                0.05062655348528394,
                0.871621826713512,
                0.402786407624405,
                1.1759865494202928,
                0.31250197042686223,
                1.460822329157775,
                0.9639183313457828,
                0.745279276469955,
                0.34206761200159413,
                0.013356270977827878,
                1.1078607628888768,
                0.3272429067995206,
                0.07446455653285314,
                0.8692506109457645,
                0.2413389184636528,
                1.4608223291577749,
                0.8255821059396135,
                1.0118726244550014,
                0.8536351820879053,
                1.1837187001313272,
                0.42118700792157915,
                0.45996192934512276,
                1.217411731488116,
                0.46291093669816086,
                0.9265068420745449,
                0.15772955291941904,
                0.949823419157775,
                0.4462554697226431,
                0.7815841929434653,
                0.781840049611077,
                0.42473884429290454,
                0.36677170479434723,
                0.30622429528600614,
                0.32868476936772695,
                0.1674572671113136,
                1.460822329157775,
                0.7420477311382365,
                0.07525,
                0.6482613888553288,
                0.373170287014643,
                1.460822329157775,
                0.4649791411955295,
                1.460822329157775,
                0.29371212939688085,
                0.9257922705235777,
                0.2873934575980823,
                1.460822329157775,
                1.4608223291577753,
                0.7676409460029763,
                1.1579354519224188,
                0.20352805208718505,
                0.15999573179719417,
                0.28247883504618776,
                0.048667810356280095,
                1.1857142440627682,
                1.0668808567022645,
                1.4608223291577749,
                0.851751174092582,
                0.02318776811273504,
                0.453405602074258,
                0.8435016154272138,
                1.4608223291577749,
                0.9498234191577749,
                0.1996915543319432
            ],
            "photocathode": [
                10288,
                8642,
                10404,
                6259,
                2895,
                3119,
                10191,
                4749,
                8085,
                6641,
                4009,
                500,
                6909,
                5574,
                9932,
                52,
                5020,
                10248,
                1315,
                1693,
                545,
                1825,
                1580,
                10241,
                5664,
                7574,
                1206,
                1122,
                4147,
                5641,
                4067,
                6938,
                2092,
                1257,
                2872,
                3723,
                2036,
                2368,
                3317,
                5699,
                4350,
                4399,
                494,
                2022,
                2195,
                10212,
                2359,
                4353,
                7605,
                3515,
                8996,
                1316,
                585,
                7210,
                10106,
                10145,
                1897,
                4073,
                5396,
                4632,
                2233,
                6477,
                3569,
                8022,
                1725,
                2044,
                852,
                7827,
                10282,
                4594,
                1585,
                10321,
                7966,
                2764,
                2327,
                3753,
                10308,
                5225,
                10165,
                10314,
                2278,
                3977,
                6429,
                459,
                10250,
                609,
                1277,
                2320,
                2059,
                10267,
                1784,
                1398,
                334,
                2199,
                2806,
                3627,
                69,
                4912,
                5713,
                674,
                5652,
                1291,
                1755,
                4968,
                8507,
                7929,
                2068,
                1800,
                2335,
                2645,
                3670,
                3678,
                1237,
                4018,
                5975,
                2475,
                2668,
                2009,
                804,
                1443,
                3940,
                1711,
                6496,
                10312,
                1162,
                10485,
                3542,
                10124,
                6269,
                622,
                10031,
                4113,
                4220,
                2537,
                3888,
                8715,
                2369,
                6073,
                10205,
                950,
                1500,
                2221,
                1634,
                2381,
                10327,
                10174,
                7984,
                6111,
                597,
                2763,
                1935,
                2652,
                1496,
                1520,
                3559,
                4350,
                2182,
                4326,
                1303,
                7071,
                2186,
                1049,
                10065,
                8543,
                6356,
                2535,
                7111,
                6761,
                1238,
                6366,
                531,
                2188,
                3735,
                10589,
                255,
                550,
                1386,
                4946,
                3289,
                8190,
                4849,
                3239,
                3726,
                8781,
                7648,
                518,
                1434,
                3014,
                5913,
                1379,
                8845,
                2303,
                1541,
                8733,
                3450,
                10471,
                6013,
                4549,
                8137,
                565,
                10367,
                4769,
                10133,
                2433,
                8582,
                2341,
                1770,
                501,
                7617,
                6781,
                10396,
                1943,
                6450,
                10130,
                3180,
                10241,
                10165,
                10087,
                1916,
                368,
                3561,
                10360,
                739,
                567,
                10531,
                6971,
                10538,
                3021,
                7955,
                10059,
                3132,
                9217,
                10558,
                575,
                4971,
                10263,
                871,
                185,
                5023,
                1058,
                3235,
                1373,
                3626,
                1741,
                3448,
                350,
                6472,
                7232,
                3124,
                3369,
                1421,
                5708,
                5925,
                10314,
                3521,
                6471,
                3089,
                3404,
                10443,
                175,
                8671,
                617,
                2170,
                1796,
                499,
                7607,
                1554,
                8352,
                658,
                451,
                8735,
                8363,
                7852,
                9,
                2346,
                6020,
                3651,
                10212,
                2414,
                4239,
                2678,
                1537,
                6953,
                1692,
                1830,
                10007,
                10289,
                4466,
                1845,
                1904,
                4912,
                8717,
                10208,
                3996,
                7082,
                3206,
                4683,
                488,
                2339,
                2646,
                417,
                2684,
                2140,
                10068,
                1302,
                2466,
                10039,
                10253,
                8513,
                10589,
                10623,
                386,
                1876,
                389,
                1659,
                371,
                200,
                10134,
                6130,
                10265,
                5967,
                7095,
                1840,
                2206,
                6854,
                8293,
                3622,
                4490,
                10800,
                2208,
                1134,
                10363,
                5738,
                2033,
                2324,
                7183,
                4003,
                6435,
                10159,
                1804,
                10337,
                4306,
                1729,
                3798,
                2483,
                8291,
                5669,
                4519,
                7155,
                417,
                10194,
                8088,
                4451,
                1994,
                1996,
                4350,
                8721,
                3562,
                7538,
                4715,
                188,
                9904,
                8205,
                5334,
                3055,
                482,
                594,
                10291,
                7569,
                10710,
                9035,
                10315,
                5482,
                3819,
                8296,
                6006,
                8119,
                3724,
                279,
                1612,
                286,
                1693,
                1960,
                3230,
                10192,
                1597,
                7070,
                10268,
                123,
                2103,
                7548,
                4858,
                7,
                10455,
                3011,
                618,
                7859,
                7263,
                1557,
                8710,
                2510,
                2067,
                1482,
                4548,
                557,
                1632,
                1174,
                6015,
                5699,
                588,
                3563,
                8608,
                2773,
                5540,
                10221,
                2428,
                1152,
                9023,
                324,
                1367,
                692,
                538,
                1544,
                2035,
                15,
                756,
                1901,
                10216,
                4936,
                4229,
                1594,
                1965,
                7905,
                10217,
                10051,
                10497,
                384,
                6075,
                2800,
                8254,
                2177,
                10220,
                6830,
                5262,
                2262,
                77,
                7722,
                2374,
                550,
                6107,
                1612,
                10344,
                5797,
                7118,
                6198,
                8423,
                2850,
                3214,
                8552,
                3311,
                6752,
                1152,
                6644,
                3200,
                5506,
                5523,
                2976,
                2606,
                2200,
                2320,
                1182,
                10271,
                5109,
                504,
                4574,
                2688,
                10363,
                3304,
                10082,
                2048,
                6590,
                1912,
                10033,
                10196,
                5432,
                8182,
                1358,
                1126,
                2038,
                342,
                8064,
                7509,
                10469,
                5933,
                159,
                3256,
                5929,
                10279,
                6604,
                1303
            ]
        },
        "detections": 500,
        "events": 871702
    }
}