{
    "job_args": {
        "metric_limit": 500,
        "seed": 1879484779
    },
    "job_id": "batch_76_do_500",
    "result": {
        "collections": {
            "crystal": [
                0.34838995999372935,
                1.460822329157775,
                0.41635724949332814,
                1.4608223291577749,
                0.24222050607220463,
                0.33223359755500925,
                0.32507155378923536,
                0.4629849194906638,
                1.4608223291577747,
                1.460822329157775,
                0.637950626293568,
                0.31498742835697985,
                0.2652841972159974,
                1.2286255413821219,
                0.2717995779084069,
                1.4608223291577749,
                0.21292169521463344,
                0.29175718653662647,
                1.4608223291577749,
                0.19789572406567438,
                1.0682494796965927,
                1.460822329157775,
                1.1623519311101196,
                0.233658144990179,
                0.6048851052265432,
                0.8261010256028846,
                0.51099891,
                1.0626979169609816,
                0.25597963753478,
                0.19843158429356839,
                0.07525,
                0.4510566757955191,
                0.07525,
                0.08336474175492364,
                0.5146268611230537,
                0.3722679870960165,
                1.460822329157775,
                0.6074170558849753,
                0.07524999999999998,
                0.35131600971153754,
                0.008883723973359237,
                1.2405955072674026,
                0.6195584078626636,
                0.07525,
                1.1711253282088805,
                1.460822329157775,
                0.1993475394573562,
                0.29380757424015363,
                0.4476990366913801,
                1.460822329157775,
                0.2910092687569096,
                1.0307209442376517,
                0.08523540000000002,
                0.39719647388036544,
                1.0319284011345267,
                0.34134892267128014,
                0.7235457425145663,
                1.4608223291577749,
                1.4608223291577753,
                1.4608223291577753,
                0.18028723976406763,
                0.8378374356254281,
                0.0847407,
                0.20334879061579508,
                1.4608223291577753,
                0.9411010305233678,
                0.331810177198643,
                1.460822329157775,
                0.23444596344473678,
                0.2836509739664895,
                0.24111733659360435,
                0.7895725246232062,
                0.44566547683622426,
                1.460822329157775,
                0.09426859714660202,
                0.6391299037637228,
                0.2687548362030697,
                1.460822329157775,
                0.39382043954638035,
                0.738060295774644,
                1.460822329157775,
                0.18229561691884777,
                0.35922899208726067,
                0.22776709352689511,
                1.4608223291577753,
                1.4608223291577749,
                1.460822329157775,
                0.24356001684661305,
                0.9041669519603186,
                0.3959792990035691,
                0.2593922531475042,
                0.1391085851093394,
                0.8647033397889745,
                0.930031543999256,
                0.26628352553453427,
                0.43846975070353045,
                1.4608223291577749,
                0.9355020225428912,
                0.51099891,
                1.460822329157775,
                1.4608223291577749,
                0.4456384793964253,
                0.13467150403131412,
                0.33496446119523937,
                0.7270373042557114,
                1.097228484978939,
                1.0804526056692254,
                1.28206090416338,
                1.4608223291577749,
                1.460822329157775,
                0.8699109920069987,
                1.460822329157775,
                0.21668883799983715,
                0.22051395806319252,
                0.06678082404859115,
                0.2638327696204997,
                0.5048027185948829,
                0.6882221372073729,
                0.0498436439091213,
                0.06129842873275987,
                0.23085160663539717,
                0.21542031043783183,
                0.33282221210166674,
                0.4219753373050709,
                1.4608223291577749,
                0.42938096300041007,
                0.7507830435932664,
                1.460822329157775,
                0.20781263324820298,
                0.33143412086516494,
                0.8382282426176263,
                0.14577330126791277,
                0.18549910602950825,
                1.4608223291577753,
                1.460822329157775,
                1.035507748945695,
                0.8234582536658387,
                0.9350439904480937,
                1.460822329157775,
                1.1912370115280846,
                0.5441881104654068,
                1.460822329157775,
                1.0446011793571928,
                0.2452286349417627,
                0.2361190190458007,
                0.22426814574100168,
                1.1577423756095744,
                1.460822329157775,
                1.2834192896581171,
                0.8881414724246246,
                0.1789648360979345,
                0.3601832663548923,
                0.24450929451776726,
                1.24011333034999,
                0.8390934108881212,
                0.10894386465178219,
                0.5046355946515061,
                0.9241237956289096,
                0.39592255817207483,
                0.45600131610702244,
                0.16562422614764272,
                0.566608876450294,
                0.1679789309938144,
                1.460822329157775,
                0.31966934477496517,
                0.07524999999999998,
                0.0599720489850164,
                0.593521913189655,
                1.460822329157775,
                1.0330406915243595,
                0.2867151681717645,
                1.170960852437349,
                1.460822329157775,
                0.476134272007083,
                0.4105424222823935,
                0.7459606969259658,
                0.3697705168037456,
                0.9151530988216252,
                0.2979394254696255,
                0.6853311263953747,
                0.23064290554797806,
                0.7428227845251145,
                0.23949351952188053,
                0.8203974951482751,
                0.6606481717815562,
                0.7731653208882111,
                1.460822329157775,
                0.23744422301703644,
                1.460822329157775,
                1.1445532990478675,
                0.37328442725572464,
                1.0154047354917584,
                1.460822329157775,
                1.460822329157775,
                0.14478902723404982,
                0.5537947305432048,
                0.1571190003374874,
                0.07525,
                0.0940099974918365,
                0.4191955174421902,
                0.2547725883682468,
                0.7409914262300974,
                1.460822329157775,
                1.0533769656558851,
                0.6436464092505937,
                0.6105111244847452,
                0.3018318013010272,
                0.6940653140778671,
                0.5873504947700163,
                0.9285514760624363,
                0.25901676534015794,
                0.017974094960168663,
                0.6897886271816277,
                0.06659013521754648,
                0.26764908855545405,
                0.09924437827999677,
                0.836034029199315,
                0.9135985597216258,
                1.1236671575257982,
                1.460822329157775,
                1.460822329157775,
                0.16336469349947577,
                1.4608223291577749,
                0.3939200020447001,
                1.4608223291577749,
                1.4608223291577749,
                0.04092424555085028,
                0.4009113625691975,
                0.3264632258933329,
                0.4128492641402146,
                0.20250869465315124,
                0.815821865447835,
                0.4778376127956629,
                1.4608223291577749,
                0.7179347166996239,
                0.8742099728543896,
                0.6051352034704203,
                0.4067292982639994,
                0.0852354,
                0.2449024109236305,
                1.0539780574357533,
                0.8164068700965124,
                0.17139020779841618,
                0.4732693179908307,
                0.9149506033890182,
                1.2413499918101858,
                0.7775653613131395,
                0.528122745347642,
                0.30359698565498006,
                0.24786195422486298,
                1.121041081448282,
                1.1330273488277787,
                0.3455814702654918,
                1.460822329157775,
                0.30018800358489495,
                0.7872039177206416,
                0.3426701525558688,
                0.45556341277706347,
                0.19682116025237317,
                1.2873690836345908,
                1.460822329157775,
                1.4608223291577755,
                0.2877126712733056,
                0.01990295075986004,
                0.6807626929091982,
                0.2060059235165936,
                0.2728111970118835,
                1.1014003562980652,
                0.6730287091680319,
                0.13608111801127015,
                0.3177747525296961,
                0.2462018198026848,
                0.38498322940267315,
                1.0650746955057135,
                0.2308257721874843,
                0.2970000292780769,
                0.4804770702088638,
                0.29416955777239734,
                1.0471568998801566,
                0.26982879362348855,
                0.9778426580980075,
                0.07525000000000001,
                1.132936606194347,
                1.1860735386461598,
                0.41271423180275035,
                1.0177471937526335,
                0.04228538012443672,
                0.7627345645971148,
                0.3211779120303525,
                0.3697844266266788,
                0.7761948803470958,
                1.4372443381962927,
                0.04495567737391237,
                0.3645922314036533,
                0.09188286919275646,
                0.35690114435492176,
                0.18366704123998162,
                0.18746731719856363,
                0.6729910999472855,
                1.251454941317068,
                0.8089962463279539,
                1.049806444964462,
                1.460822329157775,
                1.2136678155192382,
                0.7192777631841667,
                0.4587657718630994,
                1.460822329157775,
                0.13235313892705625,
                0.17478155409373175,
                0.17323582974226165,
                0.35133790104538787,
                0.09129989231234016,
                0.19346505728981148,
                1.4608223291577753,
                1.0146997984219395,
                0.6224962545451926,
                0.5218742198567544,
                0.15716571227464474,
                0.935612596100219,
                0.2246685782537537,
                0.9877951377908327,
                0.1003241358530347,
                1.460822329157775,
                0.4158347146100386,
                0.02127143330246173,
                1.4608223291577749,
                0.8775623168128937,
                0.9498234191577752,
                0.48318343588995066,
                0.7442503657385179,
                0.24034994968707765,
                1.1746862220475827,
                0.1239476301781961,
                0.9377987303524775,
                0.18578011493366914,
                0.10065506828044146,
                1.460822329157775,
                0.27525440604603324,
                0.2886398644947969,
                1.4608223291577749,
                0.24022733305920363,
                0.2749484091312003,
                1.460822329157775,
                1.460822329157775,
                0.24362608776275738,
                1.4608223291577749,
                1.0807724397849927,
                0.27279240043468417,
                0.0876557,
                0.11540010119133282,
                0.1507234752363031,
                0.3333788980931918,
                1.0496304258277744,
                0.4255009028212159,
                0.07524999999999998,
                0.07524999999999998,
                0.006011035688049837,
                0.7935758367644623,
                0.6009302613807147,
                0.4263598819063426,
                0.7882247043132546,
                0.3328893306491785,
                0.45297908524210984,
                0.5380628541948242,
                0.2498472244117625,
                0.47762158431084517,
                1.1339114345311188,
                1.2460801175580702,
                0.8493032337598154,
                0.3114325365389591,
                0.7469909588142429,
                1.4608223291577749,
                0.6875380358379005,
                1.4608223291577753,
                1.460822329157775,
                1.1902219473858184,
                1.460822329157775,
                0.6109851716677964,
                1.4608223291577749,
                0.3987777514822472,
                0.16569651499149687,
                0.400277195893045,
                0.2832852756628318,
                0.5038039254085578,
                1.2331084910295778,
                0.9013923701420542,
                0.5394389941013533,
                0.7513319068564351,
                0.8070499869978971,
                1.4608223291577749,
                0.7487231545655535,
                0.5463818106756684,
                0.3635526401503706,
                0.43157698316772275,
                1.460822329157775,
                0.23995296039765315,
                0.5761052544661234,
                0.2843308944077523,
                1.460822329157775,
                0.23619663666607674,
                0.2976323193430513,
                0.07303899999999999,
                1.460822329157775,
                1.460822329157775,
                0.21415887692827046,
                0.07525,
                0.17646623950388496,
                0.18328135347517546,
                1.460822329157775,
                0.07524999999999998,
                1.178452786249624,
                0.4438384179147019,
                0.20684165677171057,
                0.5228738848685657,
                0.12172580952442069,
                1.4608223291577749,
                1.3067090836889468,
                0.07525,
                0.202158201707281,
                0.27625131392139013,
                0.2706516437773594,
                0.016858975276504262,
                0.5494444871415334,
                0.07525,
                0.7848702139404438,
                1.460822329157775,
                0.9498234191577751,
                1.460822329157775,
                1.2602818102112552,
                0.1555213888667878,
                1.4608223291577749,
                0.6535144684817403,
                0.4923455601617447,
                0.2551863590552921,
                0.3153275503332389,
                0.14651239026684057,
                0.085801,
                0.5006415823697038,
                1.4608223291577749,
                1.4608223291577753,
                0.3788479807689387,
                0.5169719991427181,
                1.460822329157775,
                0.2710236054943195,
                1.460822329157775,
                0.23595581012485042,
                1.065920968546659,
                0.3506256726871015,
                0.8999165687190762,
                0.243288497713221,
                0.6486384471555964,
                0.29690974159230726,
                0.9498234191577751,
                0.32886736188218274,
                0.3480112620810532,
                0.09001102363910019,
                0.48845322598038027,
                0.2647451736180098,
                1.183453681000545,
                1.0627260359352695,
                1.2487836758933037,
                1.4608223291577749,
                0.3912522790752499,
                1.460822329157775,
                0.27453197347310754,
                0.615128108695642,
                1.4608223291577749,
                1.460822329157775,
                0.41298006805294907,
                0.16764327287693592,
                0.23731917587034174,
                0.21748569914693971,
                0.9532913628766537,
                0.33136933125379714,
                0.28904515240708795,
                0.07525,
                0.2759162648676592,
                1.1724291822118817,
                1.460822329157775,
                0.21332010695407724,
                0.37882651470771134,
                0.5957591173483201,
                0.37434031651575883,
                0.924804118582901,
                1.255145134905535,
                0.2597654415920557,
                1.4608223291577753,
                0.2680854310164598,
                1.1940735858635778,
                0.5705862001079273,
                1.4608223291577753,
                0.4475615035406597,
                0.2968230304972669,
                0.41042528151050783,
                0.701135277988053,
                0.12441039143115507,
                0.07524999999999998,
                0.2716359131645696,
                0.7357191557987255,
                1.4608223291577755
            ],
            "photocathode": [
                2352,
                10460,
                2922,
                10619,
                1732,
                2281,
                2239,
                3369,
                10470,
                10452,
                4407,
                2194,
                1825,
                8892,
                1836,
                10334,
                1451,
                2085,
                10335,
                1460,
                7421,
                9941,
                8034,
                1623,
                4276,
                5846,
                3657,
                7254,
                1734,
                1456,
                520,
                3129,
                517,
                587,
                3818,
                2555,
                10177,
                4148,
                527,
                2525,
                67,
                8667,
                4282,
                563,
                8269,
                10341,
                1402,
                1971,
                3147,
                10505,
                1935,
                7131,
                579,
                2783,
                7279,
                2460,
                5088,
                10363,
                10208,
                10229,
                1219,
                5888,
                565,
                1524,
                10258,
                6551,
                2272,
                10206,
                1636,
                2006,
                1684,
                5586,
                3146,
                10481,
                712,
                4557,
                1906,
                10265,
                2804,
                5280,
                10160,
                1277,
                2532,
                1586,
                10611,
                10294,
                10502,
                1677,
                6252,
                2793,
                1827,
                1014,
                5979,
                6470,
                1811,
                3039,
                9986,
                6506,
                3676,
                10178,
                10300,
                3226,
                933,
                2385,
                5123,
                7796,
                7323,
                9011,
                9971,
                10174,
                6021,
                10356,
                1530,
                1593,
                410,
                1792,
                3585,
                4796,
                342,
                435,
                1580,
                1520,
                2377,
                2927,
                10326,
                2943,
                5264,
                10435,
                1464,
                2351,
                5940,
                997,
                1316,
                9984,
                10310,
                7366,
                5763,
                6417,
                10235,
                8208,
                3857,
                10217,
                7333,
                1683,
                1661,
                1556,
                8082,
                10467,
                8949,
                6258,
                1215,
                2494,
                1718,
                8832,
                5916,
                749,
                3727,
                6565,
                2751,
                3236,
                1166,
                3919,
                1233,
                10211,
                2319,
                488,
                424,
                4282,
                10207,
                7296,
                2086,
                8254,
                10216,
                3365,
                2932,
                5195,
                2599,
                6622,
                2059,
                4834,
                1596,
                5133,
                1733,
                5659,
                4675,
                5430,
                10090,
                1749,
                10352,
                8108,
                2609,
                7015,
                10228,
                10475,
                1015,
                3814,
                1101,
                515,
                660,
                2831,
                1827,
                5280,
                10389,
                7403,
                4539,
                4382,
                2165,
                4815,
                4066,
                6520,
                1840,
                143,
                4949,
                469,
                1877,
                698,
                5757,
                6404,
                8000,
                10096,
                10292,
                1142,
                10352,
                2780,
                10001,
                10112,
                293,
                2841,
                2415,
                2883,
                1384,
                5605,
                3281,
                9918,
                5054,
                6348,
                4196,
                2854,
                620,
                1715,
                7504,
                5787,
                1172,
                3292,
                6545,
                8755,
                5365,
                3718,
                2107,
                1644,
                7788,
                7986,
                2488,
                10328,
                2174,
                5533,
                2397,
                3324,
                1397,
                9006,
                10239,
                10212,
                1958,
                160,
                4715,
                1454,
                1934,
                7779,
                4828,
                897,
                2352,
                1762,
                2593,
                7430,
                1534,
                2041,
                3233,
                2074,
                7382,
                1925,
                6655,
                510,
                8087,
                8484,
                2890,
                7031,
                297,
                5228,
                2227,
                2581,
                5368,
                10100,
                352,
                2656,
                671,
                2498,
                1311,
                1376,
                4728,
                8755,
                5826,
                7471,
                10133,
                8493,
                5002,
                3269,
                10290,
                950,
                1195,
                1229,
                2455,
                690,
                1317,
                10307,
                7290,
                4268,
                3677,
                1119,
                6610,
                1613,
                6886,
                660,
                10291,
                2935,
                136,
                10392,
                6107,
                6653,
                3387,
                5368,
                1707,
                8272,
                837,
                6451,
                1361,
                740,
                10167,
                1942,
                2065,
                10220,
                1611,
                1853,
                10181,
                10498,
                1727,
                10185,
                7651,
                1963,
                658,
                825,
                1022,
                2354,
                7402,
                3089,
                502,
                504,
                45,
                5594,
                4211,
                3018,
                5500,
                2347,
                3251,
                3725,
                1788,
                3414,
                7885,
                8749,
                5989,
                2168,
                5296,
                10119,
                4724,
                10385,
                10143,
                8482,
                10342,
                4155,
                10274,
                2739,
                1157,
                2757,
                2007,
                3572,
                8735,
                6427,
                3827,
                5331,
                5837,
                10456,
                5286,
                3738,
                2444,
                2922,
                10083,
                1680,
                3998,
                1945,
                10296,
                1643,
                2116,
                515,
                10270,
                10251,
                1563,
                529,
                1251,
                1222,
                10247,
                565,
                8044,
                3075,
                1351,
                3609,
                908,
                10341,
                9394,
                551,
                1416,
                1871,
                1865,
                116,
                3935,
                536,
                5529,
                10263,
                6654,
                10345,
                8717,
                1133,
                10187,
                4632,
                3415,
                1740,
                2125,
                1069,
                598,
                3556,
                10213,
                10439,
                2697,
                3521,
                10541,
                1842,
                10239,
                1671,
                7472,
                2469,
                6305,
                1733,
                4614,
                2037,
                6661,
                2232,
                2435,
                656,
                3355,
                1864,
                8310,
                7817,
                8934,
                10235,
                2742,
                9916,
                1996,
                4413,
                10320,
                10169,
                2862,
                1130,
                1662,
                1491,
                6598,
                2224,
                2059,
                532,
                1934,
                8350,
                10206,
                1489,
                2674,
                4078,
                2615,
                6601,
                8693,
                1855,
                10140,
                1880,
                8349,
                4076,
                10169,
                3054,
                2060,
                2831,
                4877,
                823,
                522,
                1959,
                5094,
                10422
            ]
        },
        "detections": 500,
        "events": 851951
    }
}