{
    "job_args": {
        "metric_limit": 500,
        "seed": 2760696686
    },
    "job_id": "batch_154_do_500",
    "result": {
        "collections": {
            "crystal": [
                1.2207005948582237,
                0.07189971467469847,
                0.8627384427136117,
                0.30435462889701026,
                0.04175397453874019,
                0.07303900000000002,
                0.2434770680038275,
                0.9064595996394983,
                0.47183075039545425,
                1.460822329157775,
                1.4608223291577753,
                0.24404343927607997,
                0.44172065891100376,
                0.192718161630893,
                0.2413446049913,
                0.9458572977281278,
                0.09772942620855929,
                1.460822329157775,
                0.6548708546406388,
                0.8206395349954603,
                0.1554230431640382,
                0.32291724793905463,
                1.4608223291577753,
                1.460822329157775,
                1.4608223291577755,
                0.39139171026404307,
                0.603302795667678,
                0.6747747721003055,
                0.5845087641237288,
                1.0204986123688928,
                1.460822329157775,
                1.460822329157775,
                0.9794636015655462,
                0.5563829755376889,
                0.07525,
                1.460822329157775,
                1.4608223291577747,
                0.073039,
                0.2065307436667741,
                0.2692540932593435,
                1.1902545133289686,
                0.2076205980182485,
                0.2722899286754056,
                1.1016316655036986,
                0.04928369010657485,
                0.83725148755406,
                1.4608223291577749,
                1.460822329157775,
                0.8681367421515813,
                1.460822329157775,
                1.4608223291577753,
                0.040676146425858484,
                0.19318048786178343,
                0.5656063131073414,
                0.5109989099999999,
                1.4608223291577749,
                1.2192308931507476,
                0.7538493221343955,
                0.14131740624871325,
                0.12621104109774994,
                0.10690880545820448,
                0.29919855826473674,
                1.4608223291577749,
                0.19315151850479895,
                0.6990964025207886,
                0.7300906330783091,
                1.460822329157775,
                0.22025334647864603,
                1.4608223291577753,
                0.9296467142684064,
                0.8344229748733091,
                0.8274352724694849,
                0.6197241626054664,
                0.36391429682131315,
                0.07525,
                0.4750808731001165,
                1.460822329157775,
                0.07525,
                0.1125066257352755,
                0.5749863454225729,
                0.17735603469953454,
                1.4608223291577753,
                1.4608223291577753,
                0.8788824825241034,
                0.3024001309561328,
                0.3402121631129609,
                1.2189454051764927,
                1.460822329157775,
                1.0045580759148458,
                0.22491017967945157,
                0.5191043446599439,
                1.1941860774749196,
                1.0573928208654058,
                1.460822329157775,
                1.146299843817273,
                0.007775814070892492,
                0.12346259628772577,
                0.5511265543805011,
                0.7822505184426383,
                1.1942934385075987,
                0.4459757725047385,
                1.460822329157775,
                1.237265323916074,
                0.23854387712816993,
                0.2969047871797441,
                0.5554689813204441,
                1.4608223291577749,
                0.5378985560131951,
                0.42655090846179977,
                0.23381636653341595,
                1.4608223291577753,
                1.0716705349822908,
                0.8452596374467835,
                1.460822329157775,
                0.2361870324100576,
                0.2692756381030706,
                1.460822329157775,
                0.12572897217314116,
                0.08222860110179264,
                0.2463986317241501,
                0.583154079441597,
                0.6291196870161015,
                1.460822329157775,
                0.7877515107763031,
                0.5994459435277,
                0.07525,
                1.2206531730447256,
                1.4608223291577749,
                0.23768002880263583,
                0.25912394187172194,
                0.8071853919760381,
                0.07524999999999998,
                0.2124148885593652,
                1.0456314588244904,
                0.37847416568264935,
                0.057625117422682386,
                1.4608223291577749,
                1.460822329157775,
                0.07668260164201435,
                0.49163527659844897,
                0.9957156062951433,
                0.5870605824089824,
                1.2280432119496627,
                1.0380558665622492,
                1.460822329157775,
                0.9498234191577751,
                0.13973986351561257,
                1.0587166341731826,
                1.0156675931047725,
                0.073039,
                1.4608223291577749,
                0.02702157459050264,
                0.09364485701851044,
                0.40151668338517765,
                0.037339850079065595,
                0.12234594928148623,
                0.5333535671715377,
                1.4608223291577749,
                0.8678583948156711,
                1.1486396870853541,
                0.09296020301044267,
                1.4608223291577753,
                1.2060358090473753,
                0.7439491164462084,
                1.3083482122831316,
                0.1460483442784666,
                0.22697608286888507,
                0.37476108006258113,
                1.0170157984818595,
                0.9266950806638263,
                1.4608223291577753,
                0.40585161533636804,
                0.9778445779970213,
                0.06764907872485426,
                1.4608223291577749,
                1.3958793050875455,
                0.07823897460166178,
                0.073039,
                0.543014907393565,
                0.3201076686796065,
                0.9463455927644598,
                1.460822329157775,
                0.6538593591789207,
                0.6747643892645327,
                0.02255365758165373,
                0.806288814985635,
                0.21190252880514768,
                0.6436301738948488,
                0.3143794950448099,
                0.2965847757855964,
                1.4608223291577753,
                0.07525,
                0.4705294434128172,
                0.5176603078208899,
                0.890070732231958,
                1.4608223291577753,
                1.4608223291577755,
                1.235923889513071,
                0.5322979432788192,
                0.2825057792692455,
                0.5685298062367128,
                0.31546004063699973,
                0.07524999999999998,
                0.49276379333407,
                0.5203108696272549,
                0.06301456549345613,
                0.6805419025473252,
                1.1421311019758673,
                0.05660764581020872,
                0.6552699723143124,
                1.460822329157775,
                1.126741573742534,
                1.0476139128580348,
                1.4608223291577749,
                1.460822329157775,
                0.6917044331269319,
                0.32115997114383676,
                1.4608223291577749,
                0.34774560454537606,
                1.4608223291577753,
                0.2518135214884953,
                0.07525,
                0.7182197345838144,
                1.3472376656637175,
                0.7829741361197804,
                0.1804258942224971,
                0.51099891,
                1.460822329157775,
                0.26151825925065775,
                1.460822329157775,
                0.11991583723586154,
                0.2598097997329133,
                0.15880534081055853,
                0.24778101211528933,
                0.45134695761135873,
                0.03072769322465385,
                0.2032453159732862,
                0.18276535154585008,
                1.104342839852542,
                0.1648670796371208,
                0.9498234191577751,
                0.6381700980989972,
                1.4608223291577753,
                1.460822329157775,
                1.4608223291577747,
                1.4608223291577749,
                1.460822329157775,
                1.460822329157775,
                0.810751900030551,
                0.22189933453171035,
                0.23744960119219166,
                0.2332490394415503,
                1.460822329157775,
                0.37578571656961873,
                0.1823936785173809,
                1.1341304394438194,
                0.5895555441894486,
                0.3084972187288828,
                0.22105149238539334,
                0.9498234191577751,
                1.4608223291577749,
                0.07524999999999998,
                0.5349865594185532,
                0.8453794844587309,
                0.2552202723408252,
                0.39878082607035,
                0.9194009520603672,
                1.460822329157775,
                0.25403121037583,
                1.0870439920440775,
                0.27186014046839596,
                1.2058770158130427,
                0.2761323158424299,
                0.31688494245709586,
                1.460822329157775,
                1.460822329157775,
                0.5532420685828411,
                0.1607045559129026,
                0.8229639550960595,
                1.2649544318752817,
                0.47502976467601,
                0.9924491268742327,
                0.35447273979096283,
                0.11093489942379542,
                0.9546644010509694,
                0.33798607123339297,
                0.2515927166816203,
                1.460822329157775,
                1.460822329157775,
                0.22602167370662316,
                0.979411516719402,
                1.460822329157775,
                1.460822329157775,
                0.2747402073197691,
                0.4259668523594049,
                0.07303899999999999,
                0.5346636688775959,
                0.4888119845516814,
                0.09058228458278506,
                1.2493694794869679,
                0.5399931069385752,
                1.0416435932985886,
                0.08777290022803141,
                0.09669522378599837,
                0.23748406132239963,
                0.4822625394179498,
                0.0847407,
                0.5806641920532669,
                0.7254496424913754,
                1.2054114647605931,
                0.3180042393307523,
                1.0827099961754796,
                0.2952720256491681,
                0.056704723152351755,
                0.3746963076471248,
                0.2856994900162639,
                0.2470334386870537,
                0.029007135923912603,
                0.36280988196051656,
                1.460822329157775,
                1.4608223291577749,
                1.460822329157775,
                0.6364515469405425,
                0.42847910647029847,
                0.532780878440863,
                1.4442008769219783,
                1.4608223291577753,
                0.2457487006496683,
                1.0702666690986304,
                1.2433888445928303,
                0.07303900000000002,
                0.8963665061512803,
                0.37723212023175073,
                1.460822329157775,
                0.47051213244333745,
                0.9498234191577752,
                1.4608223291577753,
                0.20371094275607066,
                0.18434540301445587,
                0.3438544046413876,
                0.3436250790957454,
                0.617188540560524,
                1.0276380095146052,
                1.4608223291577749,
                1.0922846326005815,
                0.51099891,
                0.2574872594306714,
                0.1708141030889913,
                0.899007366921133,
                0.3852077070878621,
                0.4863596528693357,
                0.7151551645994878,
                0.6091845737207708,
                0.7377247892138358,
                0.0881791,
                1.1696661248100526,
                0.7694430466185752,
                0.4124840271876784,
                1.2704064304777762,
                0.07525000000000001,
                0.07524999999999998,
                1.4608223291577753,
                0.32025100399600026,
                0.23788157589643483,
                1.4608223291577747,
                0.4719138012809878,
                0.8295552093153261,
                0.33756171391341633,
                0.708363692263162,
                0.9498234191577752,
                1.231479124143847,
                0.4865519739268691,
                0.2491183542657597,
                0.5945435698408772,
                0.23376933824431442,
                0.6347857632595937,
                1.2118839472984868,
                1.460822329157775,
                0.190005448313675,
                0.7499539316209031,
                1.4608223291577753,
                1.460822329157775,
                0.06598418055866206,
                1.4608223291577753,
                1.0766976471632337,
                0.2919182196272906,
                0.49775570202311026,
                0.01537269255697915,
                0.06002180781811789,
                1.4608223291577749,
                1.4608223291577747,
                0.5109989099999999,
                1.0677487739017455,
                0.6357158386166477,
                1.2034910722406775,
                1.0434232853345358,
                1.1347861600445968,
                0.16810651086781292,
                0.4623040128577989,
                0.46009104346076407,
                0.8835687725569282,
                0.2902735295267118,
                1.460822329157775,
                0.5620691948909905,
                1.4608223291577753,
                1.1293216018984449,
                0.33403895013165374,
                0.608183760470917,
                1.460822329157775,
                1.4212335594062893,
                1.1030436638278365,
                1.460822329157775,
                0.08474069999999999,
                0.5824166376312798,
                1.079268757003277,
                1.2495168364895197,
                1.1913231969761948,
                1.4608223291577753,
                1.460822329157775,
                1.0302167599493375,
                0.38625185466355916,
                1.460822329157775,
                0.18748921611194885,
                0.21498138513394416,
                1.460822329157775,
                0.38921634108247033,
                0.046943499999999985,
                0.0326614992352412,
                0.4106595029324255,
                0.564605923156285,
                0.7604981263667615,
                0.36109507102257865,
                0.21885690380485673,
                1.460822329157775,
                0.123472137785592,
                0.7713597419011847,
                0.5308390717066502,
                1.460822329157775,
                0.9472093337291411,
                1.2370435744039086,
                0.5046405559379858,
                1.460822329157775,
                1.460822329157775,
                1.4608223291577753,
                0.2612544618200252,
                0.19124822355409424,
                0.3174905907855138,
                0.14997865696681,
                0.2778926182898145,
                0.8858978650399196,
                0.33761639653039865,
                0.777942212080358,
                0.700252409186874,
                1.460822329157775,
                1.4608223291577749,
                0.25401558273922664,
                0.31904897117321057,
                0.1814244933994906,
                0.8203851843776984,
                0.16081190363093562,
                1.1649224153936952,
                0.20207916182310748,
                0.4737749750825847,
                0.35220394129983196,
                0.07525000000000001,
                1.1735686677471318,
                0.6036333451947443,
                1.4608223291577749,
                0.7354815996471534,
                1.4608223291577755,
                1.4608223291577749,
                1.460822329157775,
                0.20867555574725052,
                0.2260526330853322,
                0.27077595501526797,
                0.51099891,
                0.48146432687715757,
                1.4608223291577753,
                0.07525,
                1.4608223291577753,
                1.4608223291577753,
                1.460822329157775,
                0.22625055296769947,
                1.460822329157775,
                0.073039,
                0.3697319890455632,
                0.42803309709061144,
                0.15389105085376992,
                0.7467128229343679,
                0.0722695966087605,
                0.32575702559400704,
                1.242711883474158,
                0.6549546982129573,
                0.1627652795209648,
                0.24814060651583444,
                0.34711294399618037,
                0.5729225366016664,
                1.460822329157775,
                0.7720880940995252,
                0.8450202129115454
            ],
            "photocathode": [
                8513,
                480,
                6102,
                2056,
                305,
                488,
                1744,
                6330,
                3287,
                10365,
                10304,
                1711,
                3110,
                1314,
                1702,
                6637,
                708,
                10265,
                4531,
                5934,
                1078,
                2226,
                10215,
                10406,
                10249,
                2815,
                4189,
                4748,
                4060,
                7142,
                10310,
                10154,
                7060,
                3907,
                517,
                10246,
                10255,
                480,
                1449,
                1816,
                8585,
                1452,
                1887,
                7611,
                337,
                5741,
                10430,
                10377,
                6120,
                10752,
                10296,
                285,
                1337,
                3932,
                3622,
                10352,
                8558,
                5393,
                966,
                892,
                728,
                2124,
                10182,
                1318,
                4968,
                5209,
                10202,
                1556,
                10196,
                6464,
                5745,
                5872,
                4455,
                2599,
                506,
                3335,
                10509,
                511,
                766,
                3967,
                1227,
                10192,
                10291,
                6158,
                2226,
                2377,
                8495,
                10515,
                7079,
                1626,
                3755,
                8380,
                7535,
                10155,
                7946,
                61,
                846,
                3834,
                5435,
                8311,
                3166,
                10305,
                8955,
                1627,
                2028,
                4046,
                10222,
                3895,
                3002,
                1615,
                10327,
                7520,
                5924,
                10121,
                1660,
                1897,
                10107,
                886,
                544,
                1733,
                4038,
                4386,
                10404,
                5713,
                4125,
                520,
                8591,
                10091,
                1662,
                1922,
                5490,
                515,
                1439,
                7502,
                2716,
                411,
                10361,
                10300,
                509,
                3483,
                7042,
                4167,
                8702,
                7076,
                10565,
                6590,
                973,
                7449,
                7091,
                515,
                10063,
                186,
                669,
                2736,
                257,
                848,
                3735,
                10417,
                6036,
                7829,
                634,
                10065,
                8272,
                5194,
                9691,
                1047,
                1577,
                2702,
                7292,
                6371,
                10151,
                2928,
                6941,
                497,
                10483,
                9770,
                527,
                485,
                3713,
                2230,
                6657,
                10010,
                4550,
                4729,
                157,
                5670,
                1492,
                4470,
                2208,
                1990,
                10421,
                543,
                3363,
                3671,
                6301,
                10269,
                10110,
                8699,
                3820,
                1982,
                4251,
                2155,
                490,
                3491,
                3776,
                430,
                4772,
                8063,
                405,
                4536,
                10198,
                8234,
                7323,
                9989,
                10567,
                4975,
                2271,
                10247,
                2356,
                10390,
                1734,
                496,
                4996,
                9723,
                5508,
                1297,
                3562,
                10204,
                1823,
                10570,
                899,
                1774,
                1055,
                1829,
                3118,
                207,
                1371,
                1332,
                7750,
                1167,
                6763,
                4370,
                10104,
                10135,
                10229,
                10165,
                10570,
                10265,
                5869,
                1558,
                1614,
                1679,
                10299,
                2534,
                1285,
                8080,
                4186,
                2223,
                1521,
                6954,
                10327,
                540,
                3750,
                5913,
                1782,
                2890,
                6570,
                10165,
                1785,
                7715,
                1923,
                8465,
                1981,
                2258,
                10120,
                10641,
                3791,
                1112,
                6000,
                9150,
                3505,
                6886,
                2469,
                836,
                6627,
                2390,
                1734,
                10228,
                10192,
                1592,
                7025,
                10071,
                10137,
                1937,
                2979,
                528,
                3773,
                3450,
                668,
                8825,
                3794,
                7162,
                574,
                664,
                1635,
                3361,
                570,
                4078,
                5227,
                8493,
                2217,
                7646,
                2053,
                403,
                2697,
                1940,
                1805,
                208,
                2477,
                10105,
                10207,
                10303,
                4396,
                2964,
                3723,
                10056,
                10241,
                1761,
                7399,
                8569,
                527,
                6487,
                2612,
                10447,
                3305,
                6719,
                10544,
                1412,
                1284,
                2399,
                2419,
                4466,
                7201,
                9913,
                7598,
                3553,
                1796,
                1176,
                6300,
                2767,
                3403,
                5180,
                4374,
                5155,
                645,
                8415,
                5457,
                2834,
                8889,
                493,
                486,
                10304,
                2126,
                1673,
                10164,
                3527,
                5760,
                2345,
                4810,
                6645,
                8717,
                3338,
                1732,
                4171,
                1649,
                4500,
                8775,
                10311,
                1341,
                5285,
                10470,
                10401,
                426,
                10308,
                7522,
                2131,
                3536,
                125,
                415,
                10759,
                10099,
                3480,
                7480,
                4455,
                8406,
                7085,
                7994,
                1247,
                3172,
                3242,
                6105,
                2097,
                10446,
                3983,
                10276,
                7799,
                2332,
                4551,
                10211,
                9942,
                7795,
                10300,
                570,
                4189,
                7612,
                9040,
                8443,
                10223,
                10164,
                7269,
                2781,
                10273,
                1270,
                1424,
                10072,
                2699,
                306,
                210,
                3011,
                3909,
                5413,
                2507,
                1505,
                10640,
                883,
                5754,
                3719,
                10222,
                6667,
                8723,
                3485,
                10217,
                10404,
                10413,
                1779,
                1336,
                2207,
                1135,
                2004,
                6269,
                2317,
                5444,
                5030,
                10265,
                10086,
                1693,
                2197,
                1223,
                5868,
                1115,
                8068,
                1483,
                3251,
                2462,
                518,
                8616,
                4082,
                10213,
                5152,
                10012,
                10202,
                10256,
                1500,
                1575,
                1895,
                3608,
                3412,
                10276,
                547,
                10384,
                10320,
                10290,
                1516,
                10255,
                489,
                2553,
                2974,
                1082,
                5211,
                533,
                2269,
                8757,
                4677,
                1194,
                1676,
                2454,
                4015,
                10218,
                5549,
                6044
            ]
        },
        "detections": 500,
        "events": 906770
    }
}