{
    "job_args": {
        "metric_limit": 500,
        "seed": 2922212444
    },
    "job_id": "batch_100_do_500",
    "result": {
        "collections": {
            "crystal": [
                0.030621817352729168,
                0.030621831346496497,
                0.0274797794834606,
                0.38384850480360905,
                0.35601288882209825,
                0.030621803694685243,
                0.3560128888220983,
                0.03499424503847589,
                0.15879535042093,
                0.3560128888220983,
                0.030621780808830767,
                0.030621789635731513,
                0.03097888854064553,
                0.08099787350132077,
                0.35601288882209825,
                0.35601288882209825,
                0.030978860460895784,
                0.3560128888220983,
                0.2763988850658642,
                0.3560128888220983,
                0.03062179986463122,
                0.03097889749348706,
                0.03097893683891228,
                0.08099787350132079,
                0.03097893258037659,
                0.30285083031938215,
                0.3560128888220983,
                0.030621787088331166,
                0.3560128888220983,
                0.35601288882209825,
                0.35601288882209836,
                0.03097889788446763,
                0.030978859300192008,
                0.3560128888220983,
                0.030621808034578805,
                0.030978936977998174,
                0.35601288882209825,
                0.030978898032765805,
                0.030978953193839167,
                0.034994326489156444,
                0.1843761974045417,
                0.08099787350132079,
                0.03062182688748516,
                0.3028508303193821,
                0.03097887129255339,
                0.03580301249706084,
                0.35601288882209825,
                0.030978914533346356,
                0.27639888506586413,
                0.030978907546054223,
                0.030978868209130383,
                0.030621808809295246,
                0.08099787350132077,
                0.034994272332919366,
                0.030621802718547603,
                0.03097893445092708,
                0.3560128888220983,
                0.030978894934760793,
                0.030621806456486808,
                0.3028508303193821,
                0.03499430159684527,
                0.03492553993470791,
                0.35601288882209825,
                0.08099787350132079,
                0.030978889445276735,
                0.30285083031938215,
                0.030978900740907995,
                0.3028508303193821,
                0.030978911107861537,
                0.3560128888220983,
                0.14815361192958942,
                0.08099787350132079,
                0.030978897865439895,
                0.08099787350132076,
                0.030978891971584287,
                0.08099787350132079,
                0.08099787350132077,
                0.08099787350132079,
                0.3028508303193821,
                0.03097891136118261,
                0.35601288882209836,
                0.3560128888220983,
                0.014815800000000004,
                0.3028508303193821,
                0.08099787350132079,
                0.03097889005401923,
                0.08099787350132077,
                0.053162204209861535,
                0.08099787350132076,
                0.17661105599302082,
                0.03097893617096424,
                0.3560128888220983,
                0.006315998801974143,
                0.30285083031938215,
                0.053162204209861535,
                0.034994295240477334,
                0.35601288882209825,
                0.03097892767340015,
                0.3838485048036091,
                0.030621818018899447,
                0.03062181010141142,
                0.35601288882209836,
                0.0309788759894661,
                0.03062180892808676,
                0.030621883046280683,
                0.08099787350132077,
                0.029507915881777497,
                0.030621803543386006,
                0.040674813618695405,
                0.07524999999999998,
                0.19277051041607324,
                0.35601288882209825,
                0.03097890110354955,
                0.35601288882209836,
                0.08099787350132079,
                0.3560128888220982,
                0.07525,
                0.3560128888220983,
                0.030978892425800965,
                0.2763988850658642,
                0.03062179549781981,
                0.3560128888220983,
                0.030978879539638782,
                0.030978911855246406,
                0.35601288882209825,
                0.3028508303193821,
                0.3560128888220983,
                0.30285083031938215,
                0.030621800544524166,
                0.030621786940336907,
                0.030621846413222617,
                0.3560128888220983,
                0.08099787350132079,
                0.030978909796790334,
                0.27639888506586413,
                0.35601288882209836,
                0.030978951934307174,
                0.07303899999999999,
                0.030978911013496813,
                0.030621834681045883,
                0.35601288882209825,
                0.35601288882209836,
                0.03062178541500912,
                0.030978907506938422,
                0.030978900115537118,
                0.030621799317187986,
                0.030621809113753718,
                0.03499434097200908,
                0.0852354,
                0.03097890501394124,
                0.030621814243616985,
                0.35601288882209825,
                0.35601288882209825,
                0.35601288882209836,
                0.35601288882209836,
                0.2920121523477988,
                0.035802990213423584,
                0.08099787350132079,
                0.35601288882209825,
                0.03032521392235099,
                0.030978903015417565,
                0.3560128888220983,
                0.08099787350132079,
                0.030621807754055423,
                0.35601288882209825,
                0.034994298167475714,
                0.030621795118145168,
                0.3560128888220983,
                0.03062184664602749,
                0.03097887864031195,
                0.3028508303193821,
                0.030978898234406544,
                0.3560128888220983,
                0.08099787350132079,
                0.0349254985223384,
                0.030978900513297106,
                0.03062179729148085,
                0.030621786193001453,
                0.06195792195071762,
                0.09250578393885311,
                0.35601288882209825,
                0.030978910301507713,
                0.3028508303193821,
                0.35601288882209836,
                0.035802990344311315,
                0.3560128888220983,
                0.27639888506586413,
                0.03062179009806488,
                0.053162204209861515,
                0.03062181013621048,
                0.03062179392580603,
                0.0349942979271333,
                0.030978917764188027,
                0.03097891053712517,
                0.03097889611403246,
                0.3560128888220983,
                0.19243608369551438,
                0.35601288882209825,
                0.08099787350132079,
                0.3560128888220983,
                0.03097889567040703,
                0.08099787350132079,
                0.08099787350132079,
                0.35601288882209836,
                0.35109437692892187,
                0.07146058917729262,
                0.030978951385329738,
                0.030978879293727165,
                0.30285083031938204,
                0.03097889063289506,
                0.03097889180166813,
                0.013473225351872625,
                0.030978893999644045,
                0.3560128888220983,
                0.03499431085948755,
                0.05370063069207065,
                0.030978938766690046,
                0.023558221102658927,
                0.03220518927936583,
                0.35601288882209836,
                0.08099787350132079,
                0.1287360984022812,
                0.08099787350132077,
                0.03097890738577688,
                0.27639888506586413,
                0.030621765223424663,
                0.030978922205180597,
                0.35601288882209836,
                0.35601288882209836,
                0.08765570000000002,
                0.030978948931663843,
                0.3028508303193821,
                0.034925493785924674,
                0.08099787350132077,
                0.3560128888220983,
                0.030978890640246493,
                0.030621770291023982,
                0.03062180170449017,
                0.03097889700308481,
                0.05890741501367164,
                0.030621792389098963,
                0.03097889363623276,
                0.030621822182798686,
                0.030978860157940453,
                0.05304155062302211,
                0.045375270099042915,
                0.030978900747341012,
                0.08099787350132079,
                0.0306218083292879,
                0.030978899701190353,
                0.034925504650450336,
                0.3028508303193821,
                0.3838485048036091,
                0.35601288882209825,
                0.2032368059239107,
                0.35601288882209825,
                0.35601288882209825,
                0.35601288882209825,
                0.08099787350132079,
                0.38384850480360905,
                0.3560128888220983,
                0.03062182285797238,
                0.08099787350132079,
                0.08099787350132079,
                0.030978928900623863,
                0.030978942622918046,
                0.04478958495919422,
                0.04997835474355938,
                0.08099787350132079,
                0.35601288882209836,
                0.13253644508625614,
                0.3838485048036091,
                0.03097888629125168,
                0.08099787350132079,
                0.03097889619935336,
                0.030978893141785542,
                0.3560128888220983,
                0.3028508303193821,
                0.07525,
                0.35601288882209836,
                0.030621779290330352,
                0.030621839437569534,
                0.030621791482843646,
                0.35601288882209825,
                0.07525,
                0.3028508303193821,
                0.35601288882209825,
                0.030621810003548668,
                0.08099787350132079,
                0.10595475553123164,
                0.30285083031938215,
                0.030978898374292373,
                0.08099787350132079,
                0.35601288882209825,
                0.3028508303193821,
                0.194076054148621,
                0.030621789272248436,
                0.08099787350132079,
                0.3028508303193821,
                0.3560128888220983,
                0.030621751070404626,
                0.03097894024333099,
                0.0658330152081642,
                0.03492544905187836,
                0.03062181482435895,
                0.073039,
                0.030978894825415427,
                0.03062179665478287,
                0.27639888506586413,
                0.31372545784048145,
                0.030978859939656815,
                0.012656300000000002,
                0.3838485048036091,
                0.08099787350132079,
                0.030952114754189394,
                0.0309788707869417,
                0.07961417521342574,
                0.030621813378510273,
                0.030978934089352043,
                0.08099787350132079,
                0.03062179059493698,
                0.03499427183852539,
                0.03097890146232819,
                0.2015101966828035,
                0.30285083031938215,
                0.085548508476047,
                0.3028508303193821,
                0.27639888506586413,
                0.35601288882209836,
                0.030978875787217003,
                0.2763988850658641,
                0.07303899999999999,
                0.030621747494643324,
                0.3560128888220983,
                0.03062180432584094,
                0.030978892209408106,
                0.03062178968233157,
                0.030978909646484244,
                0.07961417521342577,
                0.030978896520300867,
                0.3004141105753591,
                0.0349942940601191,
                0.030621812706212267,
                0.38384850480360905,
                0.3028508303193821,
                0.030621841251282336,
                0.030978880949531128,
                0.35601288882209825,
                0.3560128888220983,
                0.015190523423259772,
                0.3028508303193821,
                0.07961417521342577,
                0.07961417521342577,
                0.08099787350132079,
                0.3560128888220983,
                0.38384850480360916,
                0.030978912946028433,
                0.03097889428111101,
                0.030978898371422873,
                0.3028508303193821,
                0.08099787350132079,
                0.030978900404207192,
                0.0035191636055914126,
                0.08099787350132079,
                0.22041222909988112,
                0.03492549075917599,
                0.030978892107370357,
                0.35601288882209825,
                0.08099787350132079,
                0.3560128888220982,
                0.08099787350132079,
                0.030978909996435256,
                0.08099787350132079,
                0.03062179773106626,
                0.030978918941322584,
                0.08099787350132079,
                0.030621791014892687,
                0.08099787350132077,
                0.030978953049002667,
                0.0126563,
                0.03097889794506998,
                0.2763988850658641,
                0.03062180437092925,
                0.03580300269678189,
                0.030978920419191633,
                0.03492552485188627,
                0.03097887495164866,
                0.07525,
                0.08099787350132079,
                0.052388373501320785,
                0.13269024229749918,
                0.02923443265884746,
                0.35601288882209825,
                0.030621789803935828,
                0.2763988850658642,
                0.23334618844181007,
                0.03492544005946419,
                0.24333655999578852,
                0.3028508303193821,
                0.034925545493151196,
                0.08099787350132079,
                0.08099787350132079,
                0.08099787350132079,
                0.030978965120082472,
                0.15447603079237143,
                0.03062181130580042,
                0.07524999999999998,
                0.030978850499314866,
                0.08099787350132079,
                0.3560128888220983,
                0.08099787350132079,
                0.08099787350132079,
                0.030621807893597024,
                0.08099787350132079,
                0.27639888506586413,
                0.0809978735013208,
                0.030978899946102506,
                0.3028508303193821,
                0.35601288882209825,
                0.3560128888220983,
                0.030978906601774554,
                0.030978851666616965,
                0.3560128888220983,
                0.0809978735013208,
                0.030621820146978517,
                0.35601288882209825,
                0.1146428248822278,
                0.08099787350132079,
                0.03097889441878128,
                0.08099787350132079,
                0.08099787350132079,
                0.35601288882209825,
                0.1800071723578231,
                0.08099787350132079,
                0.12073659900921915,
                0.034925440595552186,
                0.030978892497835538,
                0.08099787350132079,
                0.030978902225918974,
                0.03499429686695457,
                0.3560128888220983,
                0.04314611991596912,
                0.05316220420986153,
                0.030978907597740298,
                0.35601288882209836,
                0.30285083031938215,
                0.35601288882209836,
                0.034925493573995,
                0.03492549382810136,
                0.28929990596689226,
                0.030621803448152362,
                0.08099787350132079,
                0.08099787350132079,
                0.04664049999999999,
                0.3560128888220983,
                0.0309788534289519,
                0.35601288882209836,
                0.08099787350132079,
                0.030978908108999663,
                0.0466405,
                0.03062181253564063,
                0.030978900880194917,
                0.27639888506586413,
                0.3560128888220983,
                0.08099787350132079,
                0.03097888974318293,
                0.030621798346684284,
                0.3028508303193821,
                0.08099787350132079,
                0.08099787350132079,
                0.08099787350132077,
                0.03097890089549765,
                0.3560128888220983,
                0.030978898063844046,
                0.2626778860325931,
                0.030978859538258317,
                0.030978906082988502,
                0.030978898532333987,
                0.3560128888220983,
                0.053162204209861535,
                0.08099787350132079,
                0.034994348106238915,
                0.35601288882209825,
                0.029303454665745122,
                0.3560128888220983,
                0.03097887882178788,
                0.16061199578518537,
                0.08099787350132079,
                0.07525,
                0.03097889454144482,
                0.030978899726773607,
                0.030978887904600568,
                0.03097895965115541,
                0.03097890042241489,
                0.030978882754292284,
                0.39053628711384086,
                0.030621750006210965,
                0.03492554875463395,
                0.3838485048036091,
                0.08099787350132079
            ],
            "photocathode": [
                199,
                183,
                206,
                2753,
                2506,
                189,
                2567,
                229,
                1108,
                2469,
                197,
                223,
                201,
                571,
                2582,
                2499,
                231,
                2459,
                2020,
                2393,
                242,
                242,
                173,
                525,
                237,
                2160,
                2529,
                224,
                2549,
                2509,
                2488,
                216,
                221,
                2598,
                217,
                228,
                2445,
                193,
                256,
                264,
                1245,
                556,
                214,
                2074,
                216,
                255,
                2536,
                193,
                1961,
                218,
                191,
                205,
                551,
                222,
                211,
                204,
                2403,
                198,
                193,
                2031,
                249,
                248,
                2452,
                576,
                208,
                2106,
                251,
                2101,
                214,
                2508,
                1023,
                515,
                211,
                576,
                216,
                565,
                584,
                584,
                1994,
                232,
                2569,
                2453,
                98,
                2206,
                581,
                193,
                573,
                403,
                521,
                1150,
                191,
                2585,
                35,
                2088,
                355,
                258,
                2515,
                205,
                2731,
                215,
                203,
                2543,
                223,
                203,
                231,
                566,
                232,
                202,
                280,
                531,
                1345,
                2468,
                196,
                2484,
                576,
                2503,
                522,
                2480,
                233,
                1997,
                212,
                2517,
                195,
                220,
                2446,
                2084,
                2598,
                2066,
                205,
                208,
                215,
                2486,
                567,
                209,
                1903,
                2463,
                232,
                477,
                232,
                243,
                2427,
                2520,
                230,
                214,
                218,
                205,
                213,
                248,
                593,
                200,
                202,
                2408,
                2473,
                2444,
                2451,
                1978,
                229,
                575,
                2447,
                204,
                207,
                2440,
                555,
                185,
                2525,
                223,
                191,
                2459,
                250,
                209,
                2052,
                208,
                2426,
                566,
                236,
                209,
                233,
                198,
                458,
                670,
                2455,
                223,
                2130,
                2523,
                248,
                2507,
                1942,
                221,
                369,
                215,
                215,
                260,
                234,
                211,
                226,
                2392,
                1337,
                2502,
                558,
                2441,
                224,
                587,
                530,
                2459,
                2534,
                495,
                224,
                224,
                2096,
                212,
                225,
                75,
                216,
                2544,
                217,
                387,
                190,
                162,
                227,
                2454,
                564,
                913,
                570,
                216,
                1919,
                180,
                238,
                2510,
                2472,
                592,
                224,
                2148,
                194,
                566,
                2499,
                207,
                201,
                225,
                216,
                436,
                213,
                209,
                197,
                197,
                350,
                309,
                214,
                526,
                198,
                193,
                247,
                2133,
                2713,
                2531,
                1436,
                2480,
                2491,
                2473,
                573,
                2701,
                2590,
                201,
                551,
                561,
                200,
                230,
                281,
                370,
                541,
                2449,
                1003,
                2665,
                233,
                557,
                233,
                193,
                2413,
                2165,
                480,
                2507,
                203,
                208,
                211,
                2606,
                489,
                2087,
                2525,
                209,
                565,
                735,
                2116,
                221,
                554,
                2500,
                2110,
                1398,
                215,
                559,
                2139,
                2560,
                217,
                234,
                457,
                240,
                199,
                504,
                233,
                224,
                1877,
                2276,
                229,
                83,
                2607,
                563,
                208,
                198,
                540,
                229,
                216,
                530,
                198,
                214,
                215,
                1433,
                2063,
                613,
                2114,
                1892,
                2524,
                229,
                1936,
                460,
                203,
                2440,
                209,
                223,
                209,
                214,
                530,
                201,
                2227,
                214,
                250,
                2626,
                2132,
                221,
                197,
                2501,
                2435,
                109,
                2140,
                533,
                558,
                571,
                2325,
                2752,
                199,
                211,
                213,
                2080,
                542,
                199,
                22,
                600,
                1603,
                231,
                218,
                2415,
                566,
                2504,
                533,
                215,
                569,
                214,
                186,
                580,
                200,
                546,
                210,
                105,
                222,
                1874,
                194,
                260,
                221,
                241,
                215,
                533,
                592,
                397,
                933,
                207,
                2441,
                216,
                1958,
                1596,
                233,
                1656,
                2145,
                234,
                597,
                577,
                574,
                246,
                1156,
                187,
                531,
                186,
                577,
                2461,
                520,
                543,
                209,
                554,
                1894,
                596,
                220,
                2129,
                2572,
                2494,
                203,
                197,
                2439,
                550,
                223,
                2470,
                750,
                565,
                221,
                596,
                586,
                2479,
                1214,
                561,
                868,
                231,
                239,
                554,
                221,
                251,
                2491,
                300,
                373,
                210,
                2471,
                2179,
                2584,
                231,
                263,
                2019,
                193,
                546,
                552,
                318,
                2464,
                226,
                2516,
                566,
                235,
                336,
                204,
                221,
                1868,
                2486,
                533,
                224,
                196,
                2181,
                544,
                525,
                538,
                223,
                2456,
                212,
                1891,
                205,
                220,
                213,
                2475,
                357,
                579,
                219,
                2503,
                203,
                2584,
                212,
                1186,
                599,
                506,
                226,
                199,
                173,
                210,
                211,
                222,
                2733,
                226,
                227,
                2556,
                526
            ]
        },
        "detections": 500,
        "events": 43526
    }
}