{
    "job_args": {
        "metric_limit": 500,
        "seed": 712024752
    },
    "job_id": "batch_143_do_500",
    "result": {
        "collections": {
            "crystal": [
                0.3560128888220983,
                0.03492553489533832,
                0.030978907424435053,
                0.3560128888220983,
                0.03097890284992007,
                0.19004582618869342,
                0.25566506617466367,
                0.07525,
                0.08099787350132079,
                0.03097884759033669,
                0.08099787350132077,
                0.08099787350132079,
                0.08099787350132079,
                0.35601288882209825,
                0.30636746356284733,
                0.0126563,
                0.05316220420986152,
                0.07525,
                0.030621783938923407,
                0.052691373501320776,
                0.13416007771118232,
                0.3028508303193821,
                0.08099787350132079,
                0.03062179823266297,
                0.030978904906977453,
                0.35601288882209825,
                0.35601288882209825,
                0.35601288882209825,
                0.13231270652452207,
                0.27639888506586413,
                0.034994311832995124,
                0.04694349999999999,
                0.35601288882209836,
                0.35601288882209825,
                0.002757495901147359,
                0.03097890678046087,
                0.030978906601274895,
                0.034925482683145465,
                0.030978903600657658,
                0.08099787350132079,
                0.08099787350132079,
                0.30285083031938215,
                0.034994289508640905,
                0.034994278268991555,
                0.030978902445372866,
                0.08523539999999999,
                0.030621777809971166,
                0.0847407,
                0.03499432097179806,
                0.030978887213719393,
                0.3560128888220983,
                0.08099787350132079,
                0.35601288882209836,
                0.08099787350132079,
                0.3466693270496201,
                0.030978779744228965,
                0.24790085326750536,
                0.030978890869246246,
                0.35601288882209825,
                0.03097894391839324,
                0.034994289703891186,
                0.030978903042825634,
                0.03097889084789159,
                0.030978900115258105,
                0.35601288882209825,
                0.3560128888220983,
                0.07525,
                0.35601288882209825,
                0.3838485048036091,
                0.35601288882209825,
                0.3070206890834131,
                0.35601288882209836,
                0.208624867930826,
                0.35601288882209836,
                0.08099787350132079,
                0.3560128888220983,
                0.3028508303193821,
                0.08099787350132079,
                0.07961417521342579,
                0.35601288882209836,
                0.10628141964226631,
                0.03499430882888538,
                0.03062177664744475,
                0.3560128888220983,
                0.08099787350132079,
                0.030978879302735914,
                0.03097891880891042,
                0.08099787350132079,
                0.2758409537348709,
                0.07961417521342577,
                0.030978897100809324,
                0.08099787350132079,
                0.29055898964060717,
                0.35601288882209825,
                0.030978858923922825,
                0.030621817691966403,
                0.35601288882209836,
                0.08099787350132079,
                0.030978905589584885,
                0.034994304690500196,
                0.08099787350132077,
                0.073039,
                0.030621784705083557,
                0.35601288882209836,
                0.030978880744303192,
                0.13268170958656023,
                0.030621761066463568,
                0.03499434119661083,
                0.030978893437695162,
                0.006315973702320074,
                0.030978946668267286,
                0.034925487316847345,
                0.08099787350132079,
                0.07961417521342577,
                0.030978908468673332,
                0.030445758352943494,
                0.35601288882209836,
                0.030978894171992875,
                0.073039,
                0.034994295282916144,
                0.07816373210302255,
                0.006384831049615406,
                0.3838485048036091,
                0.030978904805508096,
                0.03492549670572005,
                0.22794095281131244,
                0.030621795153860727,
                0.0349943021749257,
                0.03097890037036278,
                0.3560128888220983,
                0.3560128888220983,
                0.08099787350132079,
                0.030621747428178258,
                0.030978915036949693,
                0.35601288882209836,
                0.030978890480697303,
                0.073039,
                0.3560128888220983,
                0.03499429810918666,
                0.006315990134555511,
                0.030621778132410207,
                0.034994312660557546,
                0.0309789072623411,
                0.08099787350132079,
                0.04870367350132079,
                0.0309789065251756,
                0.08099787350132079,
                0.3560128888220983,
                0.002941883006982237,
                0.30285083031938215,
                0.030978904101092664,
                0.06956959513080217,
                0.030978908826574378,
                0.03062180245195834,
                0.05269137350132079,
                0.030978871275764132,
                0.3560128888220983,
                0.35601288882209825,
                0.030621810034862404,
                0.35601288882209836,
                0.030978924802194475,
                0.3560128888220983,
                0.07524999999999998,
                0.11343172940303718,
                0.08099787350132079,
                0.08099787350132079,
                0.04567907323302198,
                0.08099787350132079,
                0.07888477609001299,
                0.08099787350132079,
                0.07303899999999999,
                0.030978936748292694,
                0.030978833185763943,
                0.35601288882209836,
                0.073039,
                0.17117938042147518,
                0.030978909697964047,
                0.03062176437549606,
                0.38384850480360916,
                0.034994287871542386,
                0.35601288882209825,
                0.27639888506586413,
                0.35601288882209825,
                0.14406412266604815,
                0.3560128888220983,
                0.073039,
                0.03097892266182023,
                0.3560128888220983,
                0.00661899100432389,
                0.24424081084169988,
                0.03062180290757572,
                0.08099787350132079,
                0.35601288882209825,
                0.030978927893208205,
                0.08099787350132077,
                0.3560128888220983,
                0.35601288882209825,
                0.030978910662254958,
                0.030978899973892856,
                0.35601288882209825,
                0.3560128888220982,
                0.03062172364050054,
                0.3560128888220983,
                0.08099787350132079,
                0.03097890113906204,
                0.3169531924826096,
                0.08099787350132079,
                0.08099787350132079,
                0.27931158806985057,
                0.2016913077895524,
                0.3028508303193821,
                0.030621795512641718,
                0.35601288882209825,
                0.030621801737280203,
                0.029006432449987164,
                0.38384850480360916,
                0.35601288882209836,
                0.03062179841083583,
                0.08099787350132079,
                0.0630416394940882,
                0.24977164276212,
                0.3028508303193821,
                0.030978902539643517,
                0.030978950451046795,
                0.030978883290475264,
                0.08099787350132079,
                0.030978909435204573,
                0.23675960391323217,
                0.07524999999999998,
                0.030978898403145102,
                0.35601288882209836,
                0.08099787350132079,
                0.0721132900938985,
                0.35601288882209836,
                0.2763988850658641,
                0.034925496071719235,
                0.03499425696900605,
                0.04870367350132078,
                0.08099787350132079,
                0.13281563201913038,
                0.07525,
                0.030621816452923774,
                0.030621816716736062,
                0.03007275823244981,
                0.012656300000000002,
                0.06494684842810394,
                0.3028508303193821,
                0.030978904495121553,
                0.148332293700981,
                0.030978894490225305,
                0.030621792115682545,
                0.25156473248452643,
                0.08099787350132077,
                0.10499136278907469,
                0.03097895313008637,
                0.030978904766895955,
                0.2893002559450462,
                0.3560128888220983,
                0.03062178080262972,
                0.35601288882209836,
                0.07961417521342579,
                0.3560128888220983,
                0.03499435466841999,
                0.030978885179491353,
                0.08099787350132079,
                0.3560128888220983,
                0.030978900752150703,
                0.08099787350132079,
                0.35601288882209825,
                0.35601288882209825,
                0.35601288882209825,
                0.03062178989845281,
                0.08099787350132077,
                0.35601288882209836,
                0.030621812862029644,
                0.030978899979774207,
                0.030621790636127084,
                0.03062177968846546,
                0.21709561094221153,
                0.35601288882209825,
                0.35601288882209825,
                0.08099787350132079,
                0.030978904212151954,
                0.030621823270614558,
                0.30285083031938215,
                0.03097890562834765,
                0.05316220420986154,
                0.17875837241158682,
                0.03097889567580836,
                0.03097888465201743,
                0.087534,
                0.03097891207950853,
                0.3560128888220983,
                0.03097893325024255,
                0.3838485048036091,
                0.030621810419524678,
                0.073039,
                0.03581724074728248,
                0.03581719091266244,
                0.030978911710684946,
                0.03097889311405133,
                0.3560128888220983,
                0.3560128888220983,
                0.38663470747438716,
                0.14939908209077085,
                0.07525,
                0.35601288882209825,
                0.030978903882170415,
                0.35601288882209825,
                0.10062591061636533,
                0.0809978735013208,
                0.3028508303193821,
                0.08099787350132079,
                0.073039,
                0.2763988850658642,
                0.27639888506586413,
                0.35601288882209836,
                0.35601288882209825,
                0.03062180467840958,
                0.3560128888220983,
                0.03499431024949704,
                0.03062180755927353,
                0.03062179224408094,
                0.08099787350132079,
                0.08099787350132079,
                0.07524999999999998,
                0.3560128888220983,
                0.23808415339640282,
                0.35601288882209825,
                0.3028508303193821,
                0.2641346398390399,
                0.03062180184941252,
                0.08099787350132079,
                0.3028508303193821,
                0.0779956745728442,
                0.030978889008432813,
                0.03580298013250375,
                0.030621812926154846,
                0.28008301724444756,
                0.034994347377867815,
                0.03315212381749809,
                0.03097887934729436,
                0.03062182450172586,
                0.030394149848976426,
                0.35601288882209825,
                0.03499427738659222,
                0.3838485048036091,
                0.073039,
                0.3560128888220983,
                0.35601288882209825,
                0.08099787350132079,
                0.3560128888220983,
                0.08099787350132079,
                0.030978907738557552,
                0.35601288882209825,
                0.3028508303193821,
                0.03062179992946046,
                0.3560128888220983,
                0.19045253616923097,
                0.03492549587511154,
                0.030978880629367603,
                0.0019069889634461242,
                0.030978897126582465,
                0.19738704667765805,
                0.35601288882209836,
                0.030978893942506195,
                0.08523539999999999,
                0.03062179448945682,
                0.07525,
                0.19980244314116713,
                0.24782445302486267,
                0.030978894040931067,
                0.056434200000000004,
                0.030978864970212953,
                0.25254423948666593,
                0.030621790415948882,
                0.08099787350132079,
                0.030978909420786738,
                0.03499430089133745,
                0.07525000000000001,
                0.08099787350132079,
                0.0349943059987217,
                0.30285083031938215,
                0.27639888506586413,
                0.08099787350132079,
                0.02486031568588326,
                0.35601288882209825,
                0.35601288882209836,
                0.08820240000000001,
                0.05316220420986153,
                0.35601288882209825,
                0.0349942923073581,
                0.020491002267102043,
                0.0309789432874046,
                0.05316220420986154,
                0.03097894227546314,
                0.030978892934067404,
                0.0566259,
                0.35601288882209836,
                0.35601288882209836,
                0.030978899091476043,
                0.3560128888220983,
                0.35601288882209825,
                0.0309789103610881,
                0.030621684976658483,
                0.03097892103027266,
                0.030621829092870125,
                0.08496445291897844,
                0.27639888506586413,
                0.03097893962526323,
                0.38384850480360905,
                0.09068054440990957,
                0.08099787350132079,
                0.030978893468753252,
                0.15538883248366164,
                0.35601288882209836,
                0.053162204209861535,
                0.08099787350132079,
                0.0349943484997765,
                0.08099787350132079,
                0.35601288882209825,
                0.3028508303193821,
                0.08099787350132079,
                0.03097888539734838,
                0.35601288882209836,
                0.30285083031938215,
                0.073039,
                0.3560128888220983,
                0.35601288882209836,
                0.2894716819644101,
                0.044497521184476474,
                0.35601288882209825,
                0.030978848072522998,
                0.0306218013469945,
                0.03097890028134213,
                0.1339787399146326,
                0.025224381172486984,
                0.006653169573460668,
                0.38384850480360905,
                0.030621789041009977,
                0.3838485048036091,
                0.07847656712907913,
                0.030978905463321448,
                0.030978908693003696,
                0.03097890610214013,
                0.034994307143806504,
                0.08099787350132079,
                0.08099787350132077,
                0.030978907829376578,
                0.03062180968096937,
                0.03097889000039769,
                0.35601288882209825,
                0.35601288882209825,
                0.3560128888220983,
                0.04521563161264486,
                0.030978912204728537,
                0.03097889015186676,
                0.030978910550087477,
                0.35601288882209836,
                0.030978856675990835,
                0.030978888488824588,
                0.3838485048036091,
                0.030621795841782245,
                0.08099787350132079,
                0.034994312378596196,
                0.3560128888220983,
                0.030978881776140166,
                0.08099787350132077,
                0.03499429091363185,
                0.2232367923678767,
                0.3560128888220982,
                0.030978903588756206,
                0.08099787350132079,
                0.030978877127029614,
                0.03499430775495612,
                0.03581720373516545,
                0.035817197610805006,
                0.32371868882209826,
                0.030978951692546806,
                0.30285083031938215,
                0.08099787350132077,
                0.3560128888220983,
                0.04295579999999999,
                0.3028508303193821,
                0.3028508303193821,
                0.30285083031938215,
                0.073039,
                0.030978902415729957,
                0.3838485048036091,
                0.08099787350132079,
                0.35601288882209836,
                0.08099787350132079,
                0.03097884997188788,
                0.03097889139139704,
                0.030978924972674148,
                0.0847407,
                0.030978888138206727,
                0.3028508303193821,
                0.03492547542570182,
                0.27639888506586413
            ],
            "photocathode": [
                2420,
                257,
                218,
                2525,
                227,
                1301,
                1764,
                504,
                543,
                237,
                582,
                585,
                585,
                2517,
                2110,
                96,
                352,
                493,
                180,
                355,
                914,
                2045,
                547,
                208,
                219,
                2417,
                2303,
                2486,
                977,
                1937,
                263,
                335,
                2498,
                2487,
                25,
                213,
                214,
                252,
                216,
                564,
                594,
                2151,
                243,
                245,
                228,
                605,
                207,
                576,
                273,
                218,
                2474,
                600,
                2485,
                532,
                2338,
                233,
                1694,
                216,
                2613,
                224,
                235,
                208,
                225,
                196,
                2552,
                2494,
                514,
                2544,
                2685,
                2395,
                2108,
                2476,
                1505,
                2439,
                552,
                2556,
                2071,
                551,
                564,
                2554,
                667,
                241,
                214,
                2449,
                553,
                207,
                201,
                563,
                1948,
                521,
                214,
                562,
                2142,
                2458,
                206,
                207,
                2408,
                567,
                219,
                242,
                567,
                522,
                220,
                2505,
                230,
                979,
                222,
                222,
                215,
                37,
                197,
                236,
                536,
                533,
                193,
                199,
                2541,
                198,
                499,
                237,
                561,
                37,
                2726,
                245,
                254,
                1578,
                208,
                245,
                195,
                2496,
                2470,
                541,
                175,
                220,
                2484,
                218,
                486,
                2529,
                238,
                52,
                230,
                238,
                216,
                565,
                345,
                208,
                536,
                2464,
                23,
                2024,
                207,
                469,
                184,
                192,
                364,
                219,
                2517,
                2491,
                199,
                2586,
                255,
                2440,
                532,
                788,
                551,
                601,
                300,
                578,
                512,
                556,
                540,
                222,
                198,
                2566,
                504,
                1238,
                218,
                205,
                2632,
                222,
                2495,
                1891,
                2463,
                1013,
                2571,
                512,
                202,
                2361,
                48,
                1759,
                209,
                532,
                2379,
                222,
                566,
                2489,
                2538,
                195,
                199,
                2408,
                2359,
                213,
                2514,
                577,
                204,
                2160,
                565,
                599,
                2011,
                1430,
                2087,
                219,
                2468,
                186,
                182,
                2692,
                2442,
                217,
                547,
                465,
                1720,
                2157,
                195,
                253,
                211,
                598,
                184,
                1625,
                505,
                195,
                2437,
                537,
                534,
                2508,
                1913,
                212,
                248,
                306,
                578,
                902,
                530,
                222,
                204,
                205,
                74,
                437,
                2126,
                195,
                1005,
                205,
                225,
                1831,
                594,
                703,
                215,
                216,
                2068,
                2502,
                213,
                2494,
                527,
                2475,
                230,
                179,
                583,
                2430,
                209,
                594,
                2507,
                2483,
                2613,
                226,
                569,
                2356,
                225,
                217,
                186,
                185,
                1582,
                2522,
                2494,
                535,
                217,
                225,
                2150,
                204,
                395,
                1257,
                216,
                213,
                622,
                227,
                2406,
                198,
                2792,
                185,
                471,
                249,
                247,
                220,
                208,
                2477,
                2363,
                2672,
                1044,
                565,
                2577,
                210,
                2437,
                690,
                519,
                1998,
                553,
                517,
                1919,
                1924,
                2518,
                2456,
                193,
                2518,
                225,
                189,
                191,
                580,
                517,
                527,
                2462,
                1681,
                2477,
                2143,
                1868,
                198,
                563,
                2096,
                540,
                233,
                234,
                216,
                1988,
                235,
                237,
                231,
                202,
                194,
                2403,
                256,
                2580,
                551,
                2482,
                2437,
                543,
                2429,
                571,
                208,
                2492,
                2103,
                229,
                2526,
                1387,
                213,
                222,
                11,
                223,
                1439,
                2501,
                200,
                605,
                219,
                506,
                1401,
                1682,
                223,
                398,
                223,
                1774,
                230,
                495,
                238,
                249,
                531,
                593,
                253,
                2148,
                1925,
                569,
                170,
                2593,
                2479,
                619,
                336,
                2466,
                263,
                153,
                221,
                393,
                199,
                227,
                432,
                2421,
                2480,
                226,
                2479,
                2459,
                209,
                219,
                209,
                223,
                629,
                1938,
                247,
                2645,
                615,
                535,
                216,
                1063,
                2424,
                390,
                563,
                248,
                537,
                2441,
                2158,
                597,
                204,
                2583,
                2221,
                544,
                2612,
                2534,
                2062,
                310,
                2515,
                206,
                212,
                241,
                957,
                180,
                32,
                2766,
                213,
                2651,
                519,
                227,
                231,
                206,
                245,
                557,
                574,
                244,
                247,
                203,
                2472,
                2512,
                2615,
                299,
                206,
                197,
                218,
                2526,
                207,
                222,
                2709,
                201,
                566,
                239,
                2598,
                193,
                570,
                211,
                1542,
                2481,
                246,
                549,
                234,
                230,
                204,
                242,
                2291,
                210,
                2090,
                530,
                2386,
                284,
                2103,
                2101,
                2150,
                506,
                195,
                2636,
                567,
                2454,
                546,
                196,
                209,
                209,
                580,
                229,
                2114,
                234,
                1923
            ]
        },
        "detections": 500,
        "events": 40048
    }
}