{
    "job_args": {
        "metric_limit": 500,
        "seed": 2223151277
    },
    "job_id": "batch_70_do_500",
    "result": {
        "collections": {
            "crystal": [
                0.2763988850658642,
                0.35601288882209825,
                0.3028508303193821,
                0.3560128888220983,
                0.03097890333569723,
                0.3560128888220983,
                0.030978948589894483,
                0.03097885251092419,
                0.08099787350132079,
                0.03097890713152157,
                0.35601288882209836,
                0.08099787350132077,
                0.03062176887767038,
                0.23050094522744255,
                0.35601288882209825,
                0.053162204209861535,
                0.030978908796548008,
                0.030621798230495288,
                0.030978909248732495,
                0.3838485048036091,
                0.3560128888220983,
                0.034925496993827077,
                0.0309789085270036,
                0.2670365357854374,
                0.3560128888220983,
                0.08099787350132079,
                0.24920197364957636,
                0.35601288882209825,
                0.087534,
                0.03499431311829382,
                0.07961417521342577,
                0.03097887763825138,
                0.030621791744278995,
                0.3028508303193821,
                0.3560128888220983,
                0.030978847264865324,
                0.1940345289771503,
                0.27639888506586413,
                0.3028508303193821,
                0.3560128888220983,
                0.030621791531768503,
                0.35601288882209825,
                0.35601288882209836,
                0.2269442420852735,
                0.03008519422817416,
                0.3838485048036091,
                0.030978902044621167,
                0.3560128888220983,
                0.08523539999999999,
                0.03097890289482333,
                0.27639888506586413,
                0.01647530885029802,
                0.03499430126037856,
                0.35601288882209825,
                0.03062181013863581,
                0.03097889821450175,
                0.08099787350132077,
                0.030978856809579396,
                0.07961417521342576,
                0.08099787350132079,
                0.11114550332467998,
                0.030621809471996712,
                0.07303899999999999,
                0.08099787350132077,
                0.030621757227095543,
                0.08099787350132079,
                0.3028508303193821,
                0.046640499999999994,
                0.07525000000000001,
                0.08099787350132079,
                0.07524999999999998,
                0.3028508303193821,
                0.030978856085549372,
                0.030978923457346198,
                0.27639888506586413,
                0.04206590217190431,
                0.30285083031938215,
                0.35601288882209836,
                0.03062180233402374,
                0.030978895881410253,
                0.35601288882209825,
                0.21192318898162615,
                0.35601288882209836,
                0.3838485048036091,
                0.08099787350132079,
                0.3838485048036091,
                0.30285083031938215,
                0.030978908620415573,
                0.07184164073227044,
                0.3028508303193821,
                0.007193480349957116,
                0.05662589999999999,
                0.2763988850658641,
                0.030978906839032573,
                0.006384804591916103,
                0.35601288882209825,
                0.03097889229301983,
                0.3838485048036091,
                0.030978891068647346,
                0.03097889905611246,
                0.03097886068446566,
                0.08099787350132079,
                0.030621805825026993,
                0.27639888506586413,
                0.030621756422793512,
                0.0809978735013208,
                0.35601288882209825,
                0.030621809845825854,
                0.030621830703695466,
                0.03581720463937121,
                0.03097895100392231,
                0.030978895207432838,
                0.08099787350132079,
                0.03097889651353925,
                0.030978945700188585,
                0.030621808241583323,
                0.030978945198623483,
                0.06223933494238128,
                0.35601288882209825,
                0.024552704209861526,
                0.0852354,
                0.08099787350132079,
                0.030978908999762862,
                0.030978879230999217,
                0.03062179639077939,
                0.3838485048036091,
                0.08099787350132079,
                0.35601288882209825,
                0.3028508303193821,
                0.10400180191881882,
                0.03499429530684349,
                0.07524999999999998,
                0.030978910618388165,
                0.3560128888220983,
                0.030621798208859175,
                0.030978887391485774,
                0.030621803194682818,
                0.030978892980118897,
                0.0809978735013208,
                0.03492550937305122,
                0.030621797296597728,
                0.030621802318392375,
                0.3560128888220983,
                0.08099787350132079,
                0.3560128888220983,
                0.0573742885572327,
                0.03960845160176846,
                0.27639888506586413,
                0.034994339714759966,
                0.030978933860872148,
                0.034994304691214076,
                0.07525,
                0.3560128888220983,
                0.22321478126018368,
                0.024552704209861543,
                0.03097889391078502,
                0.35601288882209836,
                0.35601288882209825,
                0.03062181527195147,
                0.03062181043903075,
                0.030978893059382874,
                0.030978925015137666,
                0.3838485048036091,
                0.08099787350132079,
                0.0309789315168025,
                0.23568556180692557,
                0.3028508303193821,
                0.030978904280870603,
                0.030621791427218815,
                0.03492549305363753,
                0.03499429546349598,
                0.03097888073871174,
                0.08099787350132079,
                0.03062176193920686,
                0.04797937350132078,
                0.030621792095911503,
                0.35601288882209825,
                0.3560128888220983,
                0.10147302915608487,
                0.00668780167783843,
                0.07524999999999998,
                0.3560128888220983,
                0.03097890838069842,
                0.08099787350132079,
                0.35601288882209825,
                0.030621789114942597,
                0.0309789109251188,
                0.030621755720539184,
                0.030978879947030406,
                0.3028508303193821,
                0.03097889108479382,
                0.0749773087293909,
                0.07243738437217148,
                0.03492551980091939,
                0.35601288882209825,
                0.030621791193915192,
                0.35601288882209836,
                0.3560128888220983,
                0.35601288882209825,
                0.38384850480360916,
                0.11621429446662408,
                0.08099787350132079,
                0.3838485048036091,
                0.07525,
                0.07714024511857068,
                0.3028508303193821,
                0.030978888684945007,
                0.03062180726602988,
                0.3838485048036091,
                0.030621779570143007,
                0.030621767700020893,
                0.22323679236787666,
                0.030978877859477897,
                0.030621828665846475,
                0.034994305746944454,
                0.08099787350132079,
                0.35601288882209825,
                0.03097893950011727,
                0.07525,
                0.03499432290096067,
                0.030621758978454195,
                0.030621775811032474,
                0.07525,
                0.03062179515066451,
                0.3560128888220983,
                0.3028508303193821,
                0.2149905585088467,
                0.030978849578705787,
                0.35601288882209825,
                0.0309789031784793,
                0.30285083031938215,
                0.006384802257833732,
                0.030978909624578436,
                0.3028508303193821,
                0.03097890856091673,
                0.03492555489471135,
                0.030621806136873903,
                0.3028508303193821,
                0.030621771363845675,
                0.35601288882209836,
                0.08099787350132077,
                0.0852354,
                0.2763988850658641,
                0.35601288882209825,
                0.006687837213888454,
                0.08099787350132079,
                0.03062177162503664,
                0.030297639996378644,
                0.22639344578480042,
                0.3560128888220983,
                0.03097889930616008,
                0.002700071708931937,
                0.08099787350132079,
                0.08099787350132079,
                0.35601288882209836,
                0.08099787350132079,
                0.030621773015595984,
                0.04187575907373853,
                0.03062183182852271,
                0.030978889279050174,
                0.07961417521342577,
                0.03492550459785089,
                0.24658679472074227,
                0.03097889369442971,
                0.0027001140979814203,
                0.0027001083276150346,
                0.03097891972340912,
                0.030978904604478393,
                0.030621804816424236,
                0.3838485048036091,
                0.08099787350132079,
                0.030978850948437775,
                0.030978906159502283,
                0.030621816951270003,
                0.03062179781422592,
                0.35601288882209825,
                0.034994245017425284,
                0.03499428779287681,
                0.0517649685115974,
                0.05269137350132079,
                0.3838485048036091,
                0.030978895131014948,
                0.3028508303193821,
                0.030978893583013672,
                0.030978909233301464,
                0.3560128888220983,
                0.030978906407269247,
                0.08099787350132079,
                0.27937628858348074,
                0.03062175772888255,
                0.08099787350132079,
                0.030621834164093586,
                0.03062180397235042,
                0.03097892437145295,
                0.030978789434322626,
                0.030978896849849138,
                0.24128896172181896,
                0.007207720466939494,
                0.08099787350132079,
                0.3028508303193821,
                0.030978881272682033,
                0.08099787350132077,
                0.030978906532053693,
                0.03097887764222003,
                0.16478983556001264,
                0.21209134907549843,
                0.08099787350132079,
                0.3560128888220983,
                0.3028508303193821,
                0.27639888506586413,
                0.087534,
                0.07690754499229548,
                0.034994307094796645,
                0.07303899999999999,
                0.30285083031938215,
                0.30285083031938215,
                0.3560128888220983,
                0.35601288882209836,
                0.0309788890895994,
                0.030978904914552758,
                0.034994314787023126,
                0.3560128888220983,
                0.0358172072955276,
                0.030621774796224608,
                0.3838485048036091,
                0.030621782947702413,
                0.35601288882209825,
                0.35601288882209825,
                0.27639888506586413,
                0.030978884039337407,
                0.030978889883866108,
                0.30285083031938204,
                0.35601288882209825,
                0.35601288882209825,
                0.035901365517532036,
                0.2763988850658642,
                0.35601288882209825,
                0.08099787350132079,
                0.030978851328887697,
                0.073039,
                0.07525,
                0.27639888506586413,
                0.0063848064960093705,
                0.030978927601907243,
                0.3560128888220983,
                0.35601288882209825,
                0.2763988850658641,
                0.35601288882209825,
                0.03097889641304976,
                0.08099787350132077,
                0.08099787350132079,
                0.07524999999999998,
                0.03499428791690907,
                0.0126275,
                0.3560128888220983,
                0.030621791274611447,
                0.3838485048036091,
                0.030621814206190635,
                0.030621756178005773,
                0.08099787350132079,
                0.3560128888220983,
                0.35601288882209825,
                0.000570914775046838,
                0.35601288882209825,
                0.03097893882329831,
                0.08099787350132077,
                0.08099787350132079,
                0.08099787350132079,
                0.35601288882209825,
                0.35601288882209825,
                0.03097885017503634,
                0.3560128888220983,
                0.27639888506586413,
                0.030978911414555495,
                0.030978935023499778,
                0.3560128888220984,
                0.03062180600096849,
                0.030978909671338345,
                0.029775208207420183,
                0.07521518328221893,
                0.35601288882209825,
                0.03062177698417552,
                0.05238837350132079,
                0.030621765750121856,
                0.35601288882209825,
                0.08099787350132079,
                0.03097890065303857,
                0.01807232730682313,
                0.03062180298470571,
                0.03062179196713227,
                0.3028508303193821,
                0.03097901553371438,
                0.35601288882209825,
                0.03062184128894984,
                0.030621788064500912,
                0.2854946357263204,
                0.07525,
                0.3838485048036091,
                0.18494175870823432,
                0.0876557,
                0.35601288882209825,
                0.03097889947294615,
                0.08099787350132079,
                0.05316220420986153,
                0.03062179248565353,
                0.030978905961627605,
                0.08099787350132079,
                0.03097889698278597,
                0.08099787350132079,
                0.35601288882209825,
                0.05130767521342577,
                0.05244649999999999,
                0.030978868830510115,
                0.3317980338760492,
                0.3028508303193821,
                0.030621751393512146,
                0.27639888506586413,
                0.35601288882209825,
                0.03097889631999503,
                0.3236759630545758,
                0.14880110263164786,
                0.06391791506923467,
                0.08099787350132079,
                0.006642505080200573,
                0.03097890162995112,
                0.030978910477960114,
                0.030621804834214797,
                0.030978899297925327,
                0.18825521527699318,
                0.30285083031938215,
                0.030621790257474513,
                0.2883006506605153,
                0.08099787350132079,
                0.3028508303193821,
                0.07961417521342576,
                0.03062177614192263,
                0.030978903045843335,
                0.03581716023501482,
                0.15964659180886223,
                0.08099787350132079,
                0.03492551340978493,
                0.17647213590562064,
                0.3560128888220983,
                0.08099787350132079,
                0.0027001150963956305,
                0.03097895657213999,
                0.0306218044634375,
                0.07632985890239943,
                0.0763192345912189,
                0.073039,
                0.030978903252640345,
                0.034994190353530366,
                0.35601288882209836,
                0.03062180453922603,
                0.30285083031938204,
                0.03499435381199025,
                0.030978886252307557,
                0.08099787350132079,
                0.046640499999999994,
                0.034994293995226765,
                0.030979045189476657,
                0.030621767048135837,
                0.03097889489691061,
                0.27639888506586413,
                0.3560128888220983,
                0.08099787350132079,
                0.35601288882209825,
                0.030978894480672255,
                0.3560128888220983,
                0.35601288882209825,
                0.38384850480360905,
                0.03097889817598398,
                0.3560128888220983,
                0.08099787350132079,
                0.03097884803532083,
                0.30285083031938215,
                0.030978891855179203,
                0.08099787350132079,
                0.030978901649247437,
                0.19159088973108376,
                0.2919446563969139,
                0.030978893988271142,
                0.08099787350132079,
                0.030621807342357612,
                0.03062178882279412,
                0.030621804259100528,
                0.030978909260415945,
                0.3560128888220983,
                0.030978860048312074,
                0.3560128888220983,
                0.08099787350132079,
                0.32570596918632005,
                0.034994322086142865,
                0.08099787350132079,
                0.3028508303193821,
                0.27639888506586413,
                0.16991774608981952,
                0.35601288882209825,
                0.073039,
                0.035968590208570475
            ],
            "photocathode": [
                1951,
                2449,
                2083,
                2432,
                196,
                2559,
                206,
                188,
                545,
                199,
                2430,
                566,
                189,
                1603,
                2487,
                370,
                190,
                221,
                225,
                2748,
                2466,
                234,
                215,
                1849,
                2513,
                555,
                1742,
                2431,
                609,
                266,
                577,
                230,
                218,
                2114,
                2523,
                218,
                1393,
                1914,
                2075,
                2578,
                228,
                2551,
                2595,
                1574,
                188,
                2703,
                214,
                2442,
                585,
                218,
                1937,
                114,
                244,
                2488,
                222,
                208,
                578,
                232,
                564,
                544,
                781,
                261,
                522,
                560,
                200,
                553,
                2179,
                313,
                543,
                563,
                582,
                2097,
                195,
                227,
                1939,
                298,
                2111,
                2436,
                198,
                224,
                2450,
                1451,
                2491,
                2621,
                523,
                2724,
                2035,
                200,
                494,
                2038,
                56,
                414,
                1890,
                220,
                34,
                2424,
                203,
                2733,
                213,
                219,
                201,
                566,
                200,
                2007,
                173,
                547,
                2404,
                223,
                226,
                243,
                208,
                213,
                532,
                219,
                203,
                193,
                221,
                440,
                2518,
                172,
                586,
                577,
                211,
                232,
                216,
                2708,
                567,
                2439,
                2168,
                770,
                248,
                507,
                223,
                2434,
                203,
                199,
                226,
                211,
                567,
                254,
                202,
                206,
                2467,
                529,
                2462,
                405,
                277,
                1915,
                216,
                218,
                259,
                508,
                2566,
                1477,
                168,
                208,
                2441,
                2537,
                217,
                213,
                197,
                207,
                2599,
                552,
                189,
                1542,
                2189,
                197,
                212,
                247,
                220,
                244,
                597,
                205,
                347,
                224,
                2499,
                2477,
                755,
                46,
                511,
                2411,
                203,
                601,
                2413,
                226,
                211,
                227,
                210,
                2152,
                184,
                516,
                459,
                270,
                2524,
                226,
                2565,
                2586,
                2526,
                2694,
                804,
                482,
                2679,
                505,
                526,
                1983,
                200,
                200,
                2675,
                190,
                228,
                1519,
                224,
                186,
                242,
                558,
                2479,
                208,
                520,
                212,
                245,
                181,
                536,
                220,
                2583,
                2098,
                1484,
                205,
                2494,
                222,
                2146,
                46,
                203,
                2065,
                225,
                203,
                204,
                2128,
                211,
                2519,
                552,
                591,
                1924,
                2493,
                42,
                550,
                215,
                215,
                1588,
                2497,
                201,
                20,
                606,
                608,
                2496,
                550,
                226,
                299,
                209,
                243,
                533,
                225,
                1619,
                211,
                15,
                17,
                194,
                205,
                206,
                2667,
                587,
                225,
                222,
                210,
                207,
                2450,
                234,
                247,
                351,
                336,
                2649,
                222,
                2095,
                220,
                200,
                2430,
                230,
                573,
                1955,
                211,
                567,
                195,
                195,
                206,
                231,
                229,
                1744,
                47,
                557,
                1998,
                216,
                624,
                237,
                202,
                1176,
                1442,
                568,
                2437,
                2092,
                1957,
                627,
                528,
                229,
                514,
                2100,
                2024,
                2468,
                2434,
                219,
                223,
                257,
                2440,
                246,
                205,
                2645,
                176,
                2527,
                2465,
                1971,
                225,
                213,
                2121,
                2454,
                2460,
                218,
                1929,
                2502,
                543,
                219,
                479,
                476,
                1904,
                52,
                218,
                2426,
                2414,
                1892,
                2426,
                213,
                570,
                534,
                513,
                233,
                81,
                2466,
                218,
                2677,
                213,
                215,
                582,
                2524,
                2511,
                6,
                2478,
                225,
                528,
                542,
                583,
                2453,
                2542,
                232,
                2495,
                1956,
                208,
                196,
                2420,
                217,
                238,
                191,
                500,
                2464,
                180,
                374,
                239,
                2373,
                591,
                233,
                109,
                213,
                206,
                2010,
                214,
                2445,
                215,
                230,
                1995,
                566,
                2617,
                1336,
                607,
                2538,
                206,
                563,
                404,
                227,
                225,
                556,
                213,
                559,
                2586,
                352,
                351,
                213,
                2317,
                2117,
                225,
                1962,
                2528,
                213,
                2243,
                1064,
                480,
                558,
                49,
                221,
                193,
                215,
                237,
                1296,
                2094,
                216,
                2081,
                528,
                2213,
                546,
                201,
                203,
                275,
                1105,
                538,
                206,
                1199,
                2598,
                545,
                24,
                230,
                219,
                523,
                505,
                487,
                200,
                255,
                2585,
                191,
                2110,
                220,
                240,
                570,
                321,
                238,
                192,
                213,
                213,
                1857,
                2496,
                537,
                2412,
                201,
                2386,
                2390,
                2705,
                219,
                2422,
                535,
                203,
                2159,
                228,
                570,
                214,
                1334,
                1990,
                214,
                603,
                231,
                227,
                178,
                229,
                2482,
                197,
                2497,
                597,
                2352,
                233,
                573,
                2075,
                1865,
                1207,
                2409,
                537,
                270
            ]
        },
        "detections": 500,
        "events": 38283
    }
}