{
    "job_args": {
        "metric_limit": 500,
        "seed": 506117735
    },
    "job_id": "batch_131_do_500",
    "result": {
        "collections": {
            "crystal": [
                0.35601288882209825,
                0.03492549211655695,
                0.3560128888220983,
                0.03062183536467082,
                0.3560128888220983,
                0.006687815915478575,
                0.030978893303242085,
                0.09222869384557347,
                0.08099787350132079,
                0.030978929787000165,
                0.03097887940099705,
                0.03097887243350192,
                0.03062180563131683,
                0.3028508303193821,
                0.048703673501320786,
                0.030978900740499814,
                0.3560128888220983,
                0.03097890063208888,
                0.38384850480360916,
                0.3560128888220983,
                0.041882551234610044,
                0.030978899079421248,
                0.03523729522567498,
                0.03499432328401457,
                0.03499427120711884,
                0.21387735397164928,
                0.25682188606537754,
                0.07525000000000001,
                0.24556493493410053,
                0.35601288882209825,
                0.30285083031938215,
                0.35601288882209825,
                0.014815800000000002,
                0.30285083031938215,
                0.2926827436395435,
                0.030978902746301926,
                0.03062180324776127,
                0.03062180493424361,
                0.35601288882209836,
                0.030978898429508475,
                0.03097890433018304,
                0.3073777886038922,
                0.10055394462769057,
                0.035803007802374186,
                0.3028508303193821,
                0.03097890502698713,
                0.030978867481871224,
                0.3028508303193821,
                0.028925084498288765,
                0.030978891355467657,
                0.030978875807733165,
                0.08099787350132079,
                0.002757547260200898,
                0.08099787350132077,
                0.030978899065666015,
                0.073039,
                0.38384850480360916,
                0.35601288882209825,
                0.030978898534702554,
                0.030978890346833755,
                0.08099787350132076,
                0.07961417521342576,
                0.03097890506129334,
                0.08099787350132079,
                0.3028508303193821,
                0.08099787350132079,
                0.05316220420986153,
                0.034994274085156735,
                0.3560128888220983,
                0.35601288882209825,
                0.030978902218985412,
                0.03499431142350947,
                0.07303899999999999,
                0.0309788847622517,
                0.035817194935880536,
                0.07524999999999998,
                0.2533413245681825,
                0.03581721044358687,
                0.3560128888220983,
                0.19483356279151576,
                0.35601288882209825,
                0.27639888506586413,
                0.3838485048036091,
                0.35601288882209825,
                0.030621808407130982,
                0.18330462361952107,
                0.16996108849987568,
                0.0298922670255422,
                0.03499428160369989,
                0.030621834142479994,
                0.2082137931825385,
                0.030978925229725805,
                0.030978954077676684,
                0.03097890458699786,
                0.27479193115371847,
                0.08099787350132079,
                0.35601288882209836,
                0.03062180846188623,
                0.030978889292276546,
                0.030978896794350324,
                0.1893359544641724,
                0.030978876308468243,
                0.030621801182285868,
                0.3560128888220983,
                0.35601288882209825,
                0.27639888506586413,
                0.2763988850658642,
                0.0590462,
                0.02981780128219285,
                0.3838485048036091,
                0.03499425738242957,
                0.03062180617950458,
                0.07523144051993572,
                0.03097887117236012,
                0.030978912869742255,
                0.2813256198665863,
                0.030978907033635122,
                0.006687895538656948,
                0.030978888428007265,
                0.030978901073430057,
                0.030978889677255195,
                0.08099787350132079,
                0.24943059308691706,
                0.08099787350132079,
                0.03097889584581983,
                0.053162204209861535,
                0.27639888506586413,
                0.08099787350132077,
                0.03097890519902107,
                0.0809978735013208,
                0.30285083031938215,
                0.030978892550545076,
                0.35601288882209825,
                0.02796632245290054,
                0.35601288882209825,
                0.030978898011137863,
                0.030978891406876003,
                0.3028508303193821,
                0.030978898247261757,
                0.18745350724897525,
                0.030978869519579323,
                0.08099787350132079,
                0.3028508303193821,
                0.3028508303193821,
                0.35601288882209825,
                0.030978918488715583,
                0.35601288882209836,
                0.3560128888220983,
                0.3560128888220983,
                0.030621808284223534,
                0.030978864504370873,
                0.03581723109072332,
                0.08099787350132077,
                0.046640499999999994,
                0.03596859446967263,
                0.034994261584273906,
                0.3560128888220983,
                0.35601288882209836,
                0.05734100593679581,
                0.03062178218388882,
                0.030978897421405308,
                0.03097890653823751,
                0.3028508303193821,
                0.030978873451844333,
                0.08099787350132079,
                0.030621822845376092,
                0.08099787350132079,
                0.030978923198649855,
                0.07961417521342577,
                0.030978935656946857,
                0.3028508303193821,
                0.03499433520287116,
                0.3028508303193821,
                0.3838485048036091,
                0.16061199578518534,
                0.3560128888220983,
                0.035817165199878334,
                0.2955118881310206,
                0.030621791231889375,
                0.17547078869825955,
                0.030621805646797614,
                0.03062175855963488,
                0.26597480837173826,
                0.3028508303193821,
                0.08099787350132079,
                0.03499428244305041,
                0.35601288882209825,
                0.3838485048036091,
                0.14571982263070865,
                0.030621832124416434,
                0.05269137350132079,
                0.030978874799641582,
                0.38384850480360916,
                0.16757064928937734,
                0.03062185638792776,
                0.030621794786130876,
                0.087534,
                0.35601288882209825,
                0.3028508303193821,
                0.3560128888220983,
                0.0027574760369311955,
                0.03062183221489341,
                0.08523539999999999,
                0.030978874630132616,
                0.030621810840129656,
                0.03097893056741944,
                0.3028508303193821,
                0.030621775834074768,
                0.03062179522211226,
                0.030978890218635632,
                0.35601288882209836,
                0.07525,
                0.030621797354165033,
                0.2216939830205208,
                0.27639888506586413,
                0.35601288882209825,
                0.3560128888220983,
                0.38384850480360916,
                0.232972321781092,
                0.030978905015540917,
                0.3560128888220983,
                0.030978895029996206,
                0.07303899999999999,
                0.07525,
                0.030978907939754274,
                0.07303899999999999,
                0.030978907797671103,
                0.08099787350132079,
                0.214271244651358,
                0.17856249915030498,
                0.03062179083828132,
                0.3028508303193821,
                0.030621871578559497,
                0.35601288882209825,
                0.23567143066793889,
                0.08099787350132079,
                0.03097884568470965,
                0.03097890865066164,
                0.13897394478432215,
                0.35601288882209825,
                0.087534,
                0.030978908935626354,
                0.030978896790379483,
                0.030978904957951723,
                0.35601288882209836,
                0.35601288882209825,
                0.03097889798541868,
                0.30285083031938215,
                0.03097889259917521,
                0.35601288882209836,
                0.030978903256929497,
                0.030621810398897387,
                0.08603305111142118,
                0.08099787350132079,
                0.08099787350132079,
                0.24704824225815508,
                0.35601288882209825,
                0.35601288882209825,
                0.19382032214042044,
                0.030978928244343305,
                0.3838485048036091,
                0.08099787350132079,
                0.03097890881796238,
                0.27639888506586413,
                0.03097891229149033,
                0.27239731637701603,
                0.35601288882209825,
                0.030978908489663667,
                0.03097890484127426,
                0.06825627388197436,
                0.006316004968766269,
                0.03097889409695898,
                0.07525,
                0.3560128888220984,
                0.030978879185018616,
                0.03062179627363642,
                0.030978846146994338,
                0.08099787350132079,
                0.030978878005571787,
                0.03492547706747326,
                0.030978900477209918,
                0.030978900033604404,
                0.3838485048036091,
                0.030621794961634047,
                0.3560128888220983,
                0.35601288882209836,
                0.3560128888220983,
                0.35601288882209825,
                0.3560128888220983,
                0.03097887600792059,
                0.3838485048036091,
                0.3838485048036091,
                0.030978904567304424,
                0.3838485048036091,
                0.03097890392275321,
                0.03499426734573278,
                0.08099787350132079,
                0.04869939238867903,
                0.006687805235264752,
                0.08099787350132079,
                0.35601288882209825,
                0.05238837350132077,
                0.08099787350132079,
                0.030978867238857788,
                0.08099787350132079,
                0.030621758210279824,
                0.03097890724288412,
                0.03499427776085815,
                0.35601288882209825,
                0.030978894029309118,
                0.030978916002273413,
                0.03097887765826743,
                0.08099787350132079,
                0.3838485048036091,
                0.07961417521342577,
                0.27639888506586413,
                0.030978862786561284,
                0.3560128888220983,
                0.35601288882209825,
                0.03062180658215425,
                0.030978823019393295,
                0.35601288882209825,
                0.3560128888220983,
                0.2722512869616661,
                0.38384850480360905,
                0.03097888638852061,
                0.08099787350132079,
                0.030978906459736517,
                0.030978931210096844,
                0.030978855418535022,
                0.3560128888220983,
                0.034994323271626326,
                0.2763988850658642,
                0.35601288882209825,
                0.08099787350132079,
                0.03499429904789669,
                0.030621800403768596,
                0.030621787421112327,
                0.07876494437396293,
                0.035817262835309324,
                0.38384850480360916,
                0.35601288882209836,
                0.3838485048036091,
                0.35601288882209836,
                0.35601288882209836,
                0.05621703647493714,
                0.35601288882209825,
                0.030621784763240095,
                0.08099787350132079,
                0.3560128888220983,
                0.030621807335961655,
                0.0349943006947769,
                0.030978925890204498,
                0.030978924227488387,
                0.03062179822020283,
                0.030978871926831637,
                0.030978893724144745,
                0.030978900646718925,
                0.030621820595995428,
                0.3838485048036091,
                0.030978890326518724,
                0.030621775238594905,
                0.030621801245265038,
                0.3838485048036091,
                0.061957852687010304,
                0.08099787350132079,
                0.08099787350132079,
                0.3838485048036091,
                0.27639888506586413,
                0.08099787350132079,
                0.3560128888220983,
                0.03062183291347748,
                0.030978920361663664,
                0.35601288882209825,
                0.03097886971017191,
                0.034994305772067844,
                0.3560128888220983,
                0.08099787350132079,
                0.3560128888220983,
                0.07525,
                0.3028508303193821,
                0.3028508303193821,
                0.3838485048036091,
                0.030621790111210877,
                0.08099787350132079,
                0.030978933294186932,
                0.3028508303193821,
                0.4370107623234191,
                0.35601288882209836,
                0.030978895358532415,
                0.03596854800469954,
                0.030978919135962082,
                0.03499429930539407,
                0.030978933364708992,
                0.12708757375036966,
                0.03097893897232496,
                0.35601288882209836,
                0.00303182721049109,
                0.030978891589128567,
                0.034925549621192126,
                0.030621759037243255,
                0.3560128888220983,
                0.3560128888220983,
                0.3028508303193821,
                0.030978904332525575,
                0.006252734036627801,
                0.030621828008202588,
                0.030978892636350848,
                0.35601288882209836,
                0.042955799999999995,
                0.27639888506586413,
                0.030978907768407424,
                0.3560128888220983,
                0.030621774182444647,
                0.13534525037882345,
                0.006687797112452676,
                0.2060825237455987,
                0.3028508303193821,
                0.08099787350132079,
                0.08099787350132079,
                0.03499431399527372,
                0.35601288882209825,
                0.1606119957851853,
                0.0349943134392023,
                0.035817192305554156,
                0.0349255070167784,
                0.03097890611240444,
                0.08099787350132079,
                0.030621801584931937,
                0.19885670685701068,
                0.30285083031938215,
                0.11664697360438091,
                0.08099787350132079,
                0.3560128888220983,
                0.08099787350132079,
                0.35601288882209825,
                0.16643652819983562,
                0.08099787350132077,
                0.10427888530703239,
                0.030978887240421325,
                0.07525,
                0.08099787350132079,
                0.24188809326656954,
                0.23172957322035334,
                0.0809978735013208,
                0.07961417521342576,
                0.08099787350132077,
                0.03580301635388319,
                0.007207669357198018,
                0.03062179402378223,
                0.030621833104724435,
                0.06765198070718229,
                0.030978902325479705,
                0.03492549101675519,
                0.03097892524259824,
                0.030978848170567577,
                0.030978905679980608,
                0.3028508303193821,
                0.0349942833432295,
                0.08099787350132079,
                0.08099787350132079,
                0.3028508303193821,
                0.030978890240651653,
                0.30285083031938204,
                0.38699179260102,
                0.08099787350132077,
                0.030621816638847808,
                0.030978910116234153,
                0.030978898498735592,
                0.3028508303193821,
                0.27639888506586413,
                0.35601288882209836,
                0.03492548795928732,
                0.03492549190677649,
                0.08099787350132077,
                0.030621822173375432,
                0.3560128888220983,
                0.08099787350132079,
                0.0066877937389785225,
                0.03062179472714263,
                0.35601288882209825,
                0.3028508303193821,
                0.35601288882209836,
                0.16055732169079723,
                0.0466405,
                0.03581721774656392,
                0.030978911632203385,
                0.0852354,
                0.08099787350132079,
                0.030978932847323545,
                0.08099787350132079,
                0.030978917320327672,
                0.08099787350132079,
                0.27639888506586413,
                0.3560128888220983,
                0.030978913795168067,
                0.08099787350132079,
                0.03097893120208263,
                0.31084762632055135,
                0.03097889217901694
            ],
            "photocathode": [
                2510,
                256,
                2505,
                199,
                2516,
                47,
                220,
                607,
                545,
                222,
                208,
                201,
                191,
                2112,
                299,
                197,
                2566,
                203,
                2719,
                2495,
                320,
                215,
                228,
                238,
                237,
                1541,
                1600,
                490,
                1745,
                2496,
                2080,
                2381,
                113,
                2069,
                1967,
                223,
                214,
                212,
                2581,
                225,
                199,
                2152,
                718,
                275,
                2095,
                201,
                212,
                2052,
                217,
                191,
                201,
                553,
                18,
                542,
                191,
                492,
                2693,
                2541,
                230,
                218,
                559,
                497,
                235,
                541,
                2154,
                552,
                382,
                253,
                2497,
                2532,
                212,
                281,
                541,
                186,
                272,
                511,
                1778,
                219,
                2525,
                1368,
                2511,
                1946,
                2697,
                2495,
                200,
                1280,
                1217,
                172,
                223,
                218,
                1405,
                250,
                206,
                189,
                1910,
                565,
                2512,
                212,
                216,
                218,
                1361,
                230,
                233,
                2463,
                2547,
                1922,
                1925,
                409,
                185,
                2849,
                221,
                191,
                498,
                221,
                209,
                1965,
                241,
                54,
                227,
                218,
                199,
                578,
                1719,
                575,
                211,
                344,
                1936,
                611,
                247,
                533,
                2133,
                238,
                2448,
                175,
                2421,
                202,
                220,
                2100,
                219,
                1351,
                198,
                570,
                2155,
                2141,
                2529,
                197,
                2557,
                2517,
                2398,
                202,
                205,
                261,
                621,
                349,
                238,
                229,
                2457,
                2596,
                399,
                223,
                220,
                217,
                2111,
                198,
                529,
                211,
                552,
                226,
                564,
                165,
                2185,
                237,
                2091,
                2556,
                1148,
                2429,
                239,
                2111,
                184,
                1215,
                222,
                204,
                1796,
                2182,
                569,
                230,
                2476,
                2671,
                997,
                209,
                338,
                221,
                2729,
                1190,
                197,
                199,
                664,
                2502,
                2132,
                2431,
                25,
                214,
                574,
                244,
                207,
                220,
                2084,
                227,
                201,
                205,
                2498,
                490,
                211,
                1536,
                2003,
                2571,
                2525,
                2651,
                1631,
                215,
                2494,
                197,
                499,
                495,
                229,
                512,
                208,
                551,
                1510,
                1253,
                222,
                2150,
                240,
                2437,
                1667,
                539,
                205,
                201,
                991,
                2518,
                618,
                210,
                229,
                233,
                2476,
                2565,
                229,
                2194,
                226,
                2353,
                199,
                198,
                614,
                537,
                574,
                1778,
                2551,
                2402,
                1381,
                235,
                2705,
                553,
                226,
                1951,
                211,
                1965,
                2487,
                217,
                214,
                483,
                45,
                220,
                530,
                2379,
                212,
                227,
                217,
                572,
                207,
                244,
                226,
                233,
                2791,
                221,
                2546,
                2524,
                2539,
                2588,
                2422,
                202,
                2807,
                2649,
                241,
                2613,
                194,
                226,
                578,
                348,
                29,
                620,
                2551,
                389,
                602,
                229,
                584,
                199,
                218,
                235,
                2575,
                226,
                212,
                213,
                584,
                2744,
                574,
                1911,
                225,
                2410,
                2449,
                232,
                227,
                2375,
                2494,
                1884,
                2703,
                185,
                555,
                238,
                202,
                203,
                2516,
                255,
                2024,
                2429,
                566,
                268,
                205,
                233,
                582,
                264,
                2607,
                2416,
                2762,
                2410,
                2455,
                420,
                2534,
                203,
                546,
                2475,
                219,
                238,
                215,
                214,
                239,
                240,
                230,
                214,
                214,
                2680,
                220,
                203,
                199,
                2635,
                426,
                533,
                620,
                2638,
                1947,
                573,
                2474,
                206,
                201,
                2374,
                222,
                242,
                2492,
                524,
                2499,
                492,
                2077,
                2158,
                2667,
                209,
                561,
                214,
                2161,
                2980,
                2417,
                216,
                254,
                224,
                287,
                219,
                854,
                221,
                2481,
                24,
                219,
                238,
                221,
                2547,
                2573,
                2163,
                238,
                45,
                232,
                212,
                2477,
                277,
                1927,
                193,
                2467,
                203,
                909,
                43,
                1494,
                2105,
                547,
                547,
                257,
                2438,
                1112,
                245,
                259,
                232,
                204,
                544,
                214,
                1377,
                2075,
                786,
                564,
                2480,
                586,
                2421,
                1186,
                548,
                716,
                237,
                494,
                569,
                1593,
                1548,
                531,
                512,
                574,
                264,
                53,
                213,
                222,
                460,
                233,
                235,
                205,
                217,
                214,
                2119,
                264,
                553,
                556,
                2063,
                227,
                2131,
                2773,
                565,
                215,
                202,
                207,
                2037,
                1956,
                2513,
                266,
                225,
                570,
                225,
                2473,
                547,
                39,
                209,
                2397,
                2154,
                2471,
                1198,
                296,
                252,
                219,
                608,
                588,
                240,
                607,
                235,
                577,
                1920,
                2446,
                219,
                543,
                209,
                2168,
                222
            ]
        },
        "detections": 500,
        "events": 41265
    }
}