{
    "job_args": {
        "metric_limit": 500,
        "seed": 857861930
    },
    "job_id": "batch_21_do_500",
    "result": {
        "collections": {
            "crystal": [
                0.03427182264429965,
                0.7224956049052971,
                0.04642960254964958,
                0.5079464769931425,
                0.23088692115199597,
                0.4357514704456604,
                0.4510305327562888,
                1.4608223291577753,
                0.5961577159143366,
                0.3225310226957943,
                0.22161758159849887,
                0.12132124154161758,
                0.3824581540685991,
                0.7410152968335039,
                0.07303899999999999,
                0.09283521921392299,
                0.6735406251910306,
                0.17455729443336548,
                0.02197847638532899,
                0.06346683144078978,
                0.6252627050487458,
                0.011238756941301886,
                0.039417242657654825,
                0.43775533544582707,
                0.05402845385767178,
                0.30757380939254386,
                0.3497284850333434,
                0.39372848472040833,
                0.1598234883075761,
                0.16220218427018554,
                0.5289164322989177,
                0.14385679045101604,
                0.4973121732278287,
                0.10672911269377375,
                0.5049033898085904,
                1.4608223291577753,
                0.16873833551612094,
                0.8926290300694933,
                0.24293382714234865,
                0.019688534126465863,
                0.7032132481273088,
                0.22840196598861673,
                0.11553275358073262,
                0.3415496401204865,
                0.10264878134730322,
                0.45875714216577923,
                0.2059565771338151,
                1.460822329157775,
                0.24624113165036152,
                0.048019496631734576,
                0.32065078245284667,
                0.13968937810482068,
                0.11377530026664247,
                1.460822329157775,
                0.021144640914471824,
                0.4618480953130191,
                0.39206300909439307,
                0.52059100965929,
                0.3706350249950371,
                0.6117915824859312,
                0.7340987444521493,
                0.21224894451062337,
                1.2839377520187263,
                0.0852354,
                0.16090777373110793,
                0.7433524949031856,
                0.33956289151193075,
                0.30952760287401554,
                0.7787557355883299,
                0.01585743966956768,
                0.07525,
                0.4367546052860444,
                0.09333769317714019,
                0.3751978006011355,
                0.4028433964273984,
                0.11708380685632974,
                0.6780112610447326,
                0.4779614837733935,
                0.014899620220210559,
                0.5991094085350788,
                0.06996997977543082,
                0.039149235219089196,
                0.12472655989230104,
                0.09334078236711356,
                0.3344172130026203,
                0.03555980374557204,
                0.68823953804949,
                1.1853356523558143,
                0.18114628388629778,
                0.03696731988046518,
                0.12089056144119517,
                0.2002466736550407,
                0.2964704316943035,
                0.06570953841322828,
                0.6679235416601078,
                0.3365538466169299,
                0.16925904628522156,
                0.21299600137395913,
                0.11774267807393096,
                0.04501621196572902,
                0.6281346400978192,
                0.14602383837011745,
                0.019090835748478353,
                0.5274749052493546,
                0.14648870019988242,
                0.5185686027155647,
                0.7218995407024192,
                0.17717199645477588,
                0.420813567161597,
                0.1791990196866009,
                0.26223497692798037,
                0.1230815044901569,
                1.460822329157775,
                0.08413007064710787,
                0.7516679531042961,
                0.17918417019176042,
                0.7392599507727058,
                0.7820451315794406,
                0.16600715048630488,
                0.12904607466108542,
                0.5153840895845748,
                0.026086926401191517,
                1.460822329157775,
                0.7318113000788594,
                0.0847407,
                0.10300956902080252,
                0.2852044483164842,
                0.49180081514543134,
                0.725303471724469,
                0.21975874975971002,
                0.33018755679554057,
                0.08529975809229311,
                0.11570169631366833,
                0.6175971734149023,
                0.08194786664736725,
                0.30442354547277933,
                0.392065523567223,
                0.8119309681044551,
                0.23377346424301293,
                0.3746826976019231,
                0.13181347525193685,
                0.05662590000000001,
                0.15137131296681733,
                0.12582593059985164,
                0.21745347736125337,
                0.5638877095765699,
                0.3070215606068386,
                0.648012565161086,
                0.09377089979334173,
                0.42969462348510923,
                0.21546685337178217,
                0.46095692557290063,
                0.16382868185369118,
                0.33522273517480516,
                0.0189082965409279,
                0.27177645735968614,
                0.051803810035084136,
                0.4293799432559653,
                0.17259419302836776,
                0.4164327171955124,
                0.6218752169133437,
                0.10837245152300401,
                0.520690955113207,
                0.190047149342451,
                0.3708719981824542,
                1.460822329157775,
                0.5360923159175777,
                0.4101330150451747,
                0.2574497261697224,
                0.326337033109323,
                0.3384540854037087,
                0.1574371480792879,
                0.42560900466293483,
                0.15619140770309,
                0.1517988984590867,
                1.460822329157775,
                0.08456534946662633,
                0.317892159422721,
                0.0447325,
                0.03039239829703233,
                0.22371908141396527,
                0.7287855757001281,
                0.6105598550748965,
                0.6923575899368918,
                0.1872035708904713,
                0.22682890007100906,
                0.3185893467135148,
                0.19673149279461538,
                1.460822329157775,
                0.0677984664373407,
                1.460822329157775,
                0.012615598522178972,
                0.819731364003644,
                1.460822329157775,
                0.18927912895320323,
                0.8285686009678955,
                0.5329405363255904,
                0.22859365383295227,
                0.5887277761239528,
                0.08006827994270879,
                0.5762978124992107,
                0.03669387522396379,
                0.6038054669385466,
                0.11200705928728871,
                0.19748859747487402,
                0.1631615250683531,
                0.3230661253796808,
                0.23370510748539033,
                0.19878452476941721,
                0.09534343914605174,
                0.16364598487026688,
                0.27813294542010547,
                0.3322046717750077,
                1.460822329157775,
                0.09261326567975013,
                0.8114087369694841,
                0.042694750052872626,
                0.51099891,
                0.04775066586514487,
                0.056633868632946796,
                0.5022452000797395,
                0.013234751972018843,
                0.05061034928094314,
                0.3385058965371649,
                0.4578282426255721,
                0.51099891,
                0.21820948405618618,
                0.16521231871887043,
                0.5317121018588338,
                0.14822203177588944,
                0.07985172271238396,
                0.04618719970477419,
                0.7908103260567958,
                0.20504699870250517,
                0.07525,
                0.07525000000000001,
                0.3502052599393597,
                0.0852354,
                0.03632765078686642,
                0.6103641861367278,
                0.08922042628131117,
                0.30942584024493824,
                0.02847643364882843,
                0.18210777203993844,
                0.10407316500888145,
                0.10280285363134002,
                1.00130627978278,
                0.7650698440584093,
                0.32769035589050277,
                0.07713252015490657,
                1.4608223291577755,
                0.09174050777739193,
                0.4470934686076138,
                0.06603754427745287,
                0.0511809122833999,
                0.3226380179042889,
                0.07303899999999999,
                0.16370400720585707,
                0.19539251655044781,
                0.7846615002063698,
                0.33302622539497423,
                0.19932807164439242,
                0.21920407896065827,
                0.6549766557094597,
                0.18471333612918953,
                0.3904404377462233,
                0.27393424312747533,
                0.29883527401493676,
                0.045582676448370885,
                0.10873188264929678,
                0.06341234237797858,
                0.1770536213807958,
                0.07333553241372058,
                0.28419405814958665,
                1.4608223291577753,
                0.08742507571569208,
                0.04099296850822798,
                0.7877092926078013,
                0.059018743442643413,
                0.01566111220158994,
                1.0322560696333456,
                0.03267530676501628,
                0.0021563517801883474,
                0.129955238021125,
                0.4884328179798655,
                0.48968804605113736,
                0.9518389285194524,
                1.460822329157775,
                0.06845639522346957,
                0.47248331280550804,
                0.28233820158827866,
                0.2310440275826863,
                0.5676423267476224,
                0.365846139703527,
                1.2986227076564945,
                0.035442507240550744,
                0.07279030288017978,
                0.1504609848634831,
                0.5349124301672766,
                1.460822329157775,
                0.26853864866696103,
                0.04249695554527936,
                0.4187944494146921,
                0.8430193623805955,
                0.006393624588252808,
                0.6369078000695877,
                0.15523688549537554,
                0.03732653082519377,
                0.41418741213683796,
                0.22876566453270383,
                0.21923500696376974,
                0.07219395733244047,
                0.20322205660731119,
                0.23640118549851064,
                0.40663123330117157,
                0.9751750573923812,
                0.06140748663936001,
                0.1966002759502351,
                0.03478416252924471,
                0.034453058519926416,
                0.5035674067159591,
                0.3978766737625232,
                0.4479552461307692,
                0.20050962903508518,
                0.09001194474785311,
                0.7967546170834973,
                0.06499554427202739,
                0.016987579119771598,
                0.056619335268066624,
                0.7083655631138197,
                0.5275078973032477,
                0.6754053017112966,
                0.9635205977249179,
                0.632848308253553,
                0.07753108699931524,
                0.03757925548465857,
                0.08281933358529486,
                0.12958702225381474,
                0.5574970306965689,
                0.058358955512841426,
                0.0811812445572928,
                0.2844301746503529,
                0.4711161500919753,
                0.275113849826739,
                0.0095034929424687,
                0.31155147100986796,
                0.07252546640393859,
                0.4213721660660819,
                0.7737085860956866,
                0.42755531418850024,
                0.2090355367407185,
                0.6717825701090849,
                0.24790054663821443,
                1.4608223291577753,
                0.020840170825099348,
                0.24184151080426974,
                0.09789450553487293,
                0.5890740094425277,
                0.14915732876919185,
                0.16202030155968036,
                0.7382050365111711,
                0.04146202710952965,
                0.6459382286969083,
                0.13509490516045924,
                0.16231238724269337,
                0.17489923310971855,
                0.2559590782811959,
                0.43972581835756874,
                1.4608223291577753,
                0.43161247786043744,
                0.37368423207275514,
                0.44121913581499855,
                0.051604165151287885,
                0.009412366479436473,
                0.10508230356883719,
                0.024823514554986072,
                0.7312369031931956,
                0.5876620481359183,
                0.36012952476096516,
                0.16063622570825978,
                0.2559718180551085,
                0.7346852585164325,
                0.29125941724902066,
                0.5610344360210882,
                0.11375517694521756,
                0.67256232480368,
                0.4037435115003106,
                0.056131200000000006,
                0.8346061018774364,
                0.5403287019019904,
                0.15379943797672696,
                0.393921917368827,
                0.2847848135201857,
                0.1792082363082896,
                0.2093991540536222,
                0.19801461463339248,
                0.17679979087840111,
                0.37840052229320187,
                0.062336234211646024,
                0.7663355440210528,
                0.06357773600866957,
                1.061897572589838,
                0.22568226464556007,
                0.49349944756200953,
                1.4608223291577753,
                0.10109338765852524,
                0.020411252549913793,
                0.09186151273460164,
                1.4608223291577753,
                0.08962647546569538,
                0.1788260475882758,
                0.17896640756876506,
                0.1277844569067037,
                0.6005017864157521,
                0.22054777947073345,
                0.7837592683182014,
                0.03669266467869262,
                0.5427373448728497,
                0.643451026392422,
                0.073039,
                0.07318116331130524,
                0.2601353279160466,
                0.22792730873159509,
                1.0787618850512102,
                0.14896999944750244,
                0.16981289081564338,
                0.12939114238663918,
                0.1231741015940624,
                0.16291742303230541,
                0.6875921579236097,
                0.5779973991003547,
                0.2717956741981716,
                0.01741668364027852,
                0.2203083090371288,
                0.2790947533919377,
                0.05928666299754655,
                0.031169320065861206,
                0.01821860122906391,
                0.17538070568333583,
                0.035150970247030885,
                0.04904208486242705,
                0.03154095243531115,
                0.13415834453731038,
                1.460822329157775,
                0.054774876527439155,
                0.3855834528542543,
                0.07525,
                1.4608223291577753,
                0.9086971926012459,
                0.01482278527717007,
                0.06214645726032465,
                0.25655507950323236,
                0.6662114422459693,
                0.8057037190437744,
                0.16522309349780984,
                0.1362484290506124,
                0.07524999999999998,
                0.3511789593891166,
                0.10675585432807662,
                0.3965112253908634,
                0.2498583790784745,
                0.4723468945078335,
                0.0628317834287932,
                0.0514762853811388,
                0.02866798577751685,
                0.0876557,
                0.20179395902387,
                0.19197319595620438,
                0.17258862727433186,
                0.010423060197631255,
                0.529727377296476,
                0.16635360175014224,
                0.20435965998292374,
                0.8891133155369089,
                0.041391883927386054,
                0.1804371452682495,
                0.5263605513197085,
                0.2190939738935683,
                0.1002751590721232,
                1.460822329157775,
                0.26444440068023367,
                0.7156863114962063,
                0.5358130704548949,
                0.6755207319269505,
                0.07260923163395422,
                0.03538398602617243,
                0.21202479255634332,
                0.5482468477255465,
                0.052505483752192966,
                0.8691034272349696,
                0.29781640167001044,
                0.21487317174574305,
                0.2506648116974173,
                0.005240731516309129,
                0.060193709024308414,
                0.055319274919530856,
                0.5790589254750509,
                0.5542253670634866,
                0.6917187101779146,
                0.2022452301184997
            ],
            "photocathode": [
                243,
                5053,
                325,
                3499,
                1592,
                3179,
                3137,
                10223,
                4264,
                2295,
                1497,
                823,
                2703,
                5255,
                474,
                617,
                4708,
                1234,
                167,
                452,
                4462,
                73,
                265,
                2983,
                358,
                2083,
                2586,
                2691,
                1139,
                1132,
                3750,
                1036,
                3430,
                791,
                3535,
                10304,
                1200,
                6218,
                1683,
                121,
                4771,
                1632,
                867,
                2388,
                674,
                3216,
                1445,
                10120,
                1788,
                306,
                2180,
                913,
                759,
                10278,
                144,
                3300,
                2647,
                3661,
                2566,
                4267,
                5091,
                1519,
                8879,
                612,
                1122,
                5199,
                2375,
                2146,
                5471,
                121,
                543,
                3159,
                710,
                2627,
                2799,
                807,
                4830,
                3398,
                112,
                4190,
                498,
                259,
                856,
                735,
                2302,
                272,
                4944,
                8536,
                1276,
                272,
                842,
                1456,
                2015,
                472,
                4621,
                2255,
                1208,
                1489,
                866,
                304,
                4455,
                1063,
                140,
                3922,
                939,
                3589,
                5201,
                1302,
                2839,
                1304,
                1865,
                870,
                9942,
                576,
                5296,
                1256,
                5101,
                5568,
                1182,
                943,
                3582,
                184,
                10369,
                5204,
                591,
                766,
                2025,
                3343,
                5056,
                1575,
                2320,
                653,
                814,
                4189,
                557,
                2174,
                2588,
                5555,
                1662,
                2639,
                925,
                368,
                1053,
                919,
                1529,
                4011,
                2142,
                4539,
                657,
                3079,
                1531,
                3223,
                1127,
                2292,
                110,
                1936,
                343,
                3068,
                1177,
                2886,
                4392,
                750,
                3634,
                1300,
                2652,
                10150,
                3838,
                2850,
                1781,
                2332,
                2366,
                1097,
                3029,
                1113,
                1030,
                10576,
                568,
                2198,
                300,
                186,
                1609,
                5134,
                4246,
                4781,
                1336,
                1650,
                2194,
                1369,
                10160,
                436,
                10498,
                84,
                5889,
                10109,
                1288,
                5692,
                3829,
                1593,
                4200,
                579,
                3898,
                248,
                4294,
                748,
                1354,
                1167,
                2226,
                1636,
                1362,
                653,
                1142,
                1947,
                2544,
                10277,
                648,
                5705,
                303,
                3520,
                353,
                391,
                3658,
                98,
                382,
                2478,
                3204,
                3494,
                1578,
                1161,
                3731,
                997,
                568,
                356,
                5602,
                1441,
                522,
                513,
                2444,
                602,
                249,
                4271,
                686,
                2119,
                217,
                1262,
                729,
                722,
                7103,
                5236,
                2299,
                568,
                10682,
                651,
                3216,
                466,
                376,
                2367,
                487,
                1118,
                1425,
                5518,
                2426,
                1412,
                1548,
                4621,
                1241,
                2823,
                1948,
                2076,
                325,
                820,
                458,
                1199,
                476,
                1942,
                10270,
                591,
                296,
                5421,
                416,
                92,
                7368,
                243,
                20,
                929,
                3523,
                3496,
                6682,
                10326,
                503,
                3308,
                2034,
                1593,
                3974,
                2553,
                9116,
                238,
                489,
                1092,
                3806,
                10379,
                1785,
                288,
                2946,
                5995,
                44,
                4528,
                1096,
                246,
                2984,
                1658,
                1514,
                524,
                1411,
                1664,
                2780,
                6858,
                450,
                1406,
                218,
                259,
                3538,
                2900,
                3129,
                1493,
                663,
                5547,
                467,
                112,
                358,
                5072,
                3785,
                4771,
                6686,
                4420,
                523,
                275,
                551,
                939,
                3995,
                398,
                599,
                1932,
                3242,
                1938,
                68,
                2135,
                560,
                3009,
                5504,
                2927,
                1457,
                4704,
                1853,
                10135,
                140,
                1740,
                694,
                4166,
                1075,
                1116,
                5132,
                305,
                4553,
                967,
                1070,
                1227,
                1773,
                3067,
                10022,
                3060,
                2538,
                3081,
                389,
                67,
                703,
                151,
                5228,
                4072,
                2591,
                1115,
                1682,
                5189,
                2057,
                4090,
                821,
                4907,
                2902,
                332,
                5673,
                3831,
                1139,
                2819,
                2015,
                1210,
                1478,
                1414,
                1239,
                2643,
                438,
                5298,
                457,
                7310,
                1581,
                3431,
                10274,
                699,
                141,
                706,
                10131,
                610,
                1261,
                1231,
                900,
                4205,
                1591,
                5530,
                269,
                3821,
                4561,
                488,
                487,
                1884,
                1546,
                7697,
                1071,
                1192,
                918,
                906,
                1172,
                4981,
                4074,
                1942,
                127,
                1481,
                1973,
                445,
                205,
                122,
                1244,
                261,
                372,
                224,
                885,
                10320,
                376,
                2749,
                528,
                10362,
                6352,
                119,
                425,
                1769,
                4661,
                5563,
                1160,
                942,
                530,
                2466,
                751,
                2854,
                1732,
                3310,
                454,
                349,
                197,
                652,
                1386,
                1315,
                1277,
                87,
                3663,
                1227,
                1433,
                6349,
                302,
                1305,
                3750,
                1604,
                651,
                10318,
                1793,
                5180,
                3800,
                4708,
                518,
                253,
                1533,
                3886,
                381,
                5948,
                2027,
                1546,
                1757,
                38,
                411,
                370,
                4043,
                3821,
                4855,
                1467
            ]
        },
        "detections": 500,
        "events": 182445
    }
}