{
    "job_args": {
        "metric_limit": 500,
        "seed": 3366178716
    },
    "job_id": "batch_16_do_500",
    "result": {
        "collections": {
            "crystal": [
                0.05956166979496896,
                0.05951523759822331,
                0.03128225670723224,
                0.059556355641051904,
                0.0595740562354754,
                0.05950849776294887,
                0.05959283021346778,
                0.05952013973497471,
                0.05953387400393095,
                0.059582183939510744,
                0.059507265693830566,
                0.059577309389191244,
                0.02725061469618117,
                0.05501708371401499,
                0.059590478676231025,
                0.05957174615748757,
                0.059508115203479865,
                0.059588425813398474,
                0.059549406418206004,
                0.05956778837361559,
                0.05951654327566615,
                0.05952616680957712,
                0.0309439878889627,
                0.059554272284276774,
                0.05958728796890865,
                0.059548376088831796,
                0.027222282339687463,
                0.05951937672437069,
                0.059560399773487455,
                0.04861536676838117,
                0.05950722202344639,
                0.030904426707674473,
                0.05957623122883499,
                0.05951925800178328,
                0.059573608662245245,
                0.05951596836028883,
                0.0595797738854195,
                0.05949710965919708,
                0.05955264320926971,
                0.04295579999999999,
                0.05957527230076443,
                0.05956157651524599,
                0.059581105967815476,
                0.05951580016333458,
                0.0595564396412211,
                0.059506078327580106,
                0.059575440500317677,
                0.05954325855368484,
                0.0595621466916698,
                0.05954182000628738,
                0.05950469403085724,
                0.055288989683046914,
                0.05889172804814074,
                0.059503747734459385,
                0.0595814188112084,
                0.05950622986404016,
                0.02731886687099381,
                0.05952845175903106,
                0.059535098991386516,
                0.05950892965239587,
                0.07525,
                0.05948950117731372,
                0.059552383959677394,
                0.059489328056759716,
                0.05950982969977641,
                0.030918389737378395,
                0.059522279480421804,
                0.0595671472606491,
                0.05952726382399458,
                0.05949551531957085,
                0.05951100864108153,
                0.05953474081422685,
                0.059494425988664924,
                0.030908659300570053,
                0.03000577593895887,
                0.030980394137095513,
                0.030943561549797643,
                0.0595412341273577,
                0.05950282848540092,
                0.05954887136047162,
                0.05950791256143033,
                0.05952976427225193,
                0.05954692224145486,
                0.059594134379122116,
                0.05949331215268411,
                0.05956393781501742,
                0.059549528828859444,
                0.16959732334567956,
                0.059571985198961015,
                0.05958061369470745,
                0.05948903369821842,
                0.059571856338343186,
                0.059589475691567945,
                0.05949852622807857,
                0.05956866208041963,
                0.059574080548342324,
                0.05958927640335523,
                0.0312858192325684,
                0.05950789812482902,
                0.027267441545000097,
                0.05952933004452876,
                0.05949613642518595,
                0.05953173277528909,
                0.05953875165119309,
                0.059553087044007705,
                0.05955341965197414,
                0.05956398168723498,
                0.05953911997596915,
                0.05948669045993888,
                0.030949768901922452,
                0.05957916964186254,
                0.0595106421351856,
                0.047086986739458686,
                0.059544507720686014,
                0.05954130139055535,
                0.05954222804182895,
                0.05956570065479408,
                0.059567664772931656,
                0.05955409701149458,
                0.059507425815703605,
                0.05959300064245981,
                0.05954419818720607,
                0.059578622916977304,
                0.05956487832960022,
                0.05951908279258185,
                0.059507945100985,
                0.05949495827188006,
                0.05958879194768475,
                0.05952244075971193,
                0.05955516817727132,
                0.059538865116775065,
                0.05959106469637882,
                0.027268289167596257,
                0.031287775285893535,
                0.030962767751600045,
                0.05949734343975195,
                0.05952608204865819,
                0.059505757137815495,
                0.05952302759422329,
                0.059574441812154266,
                0.030956940395094022,
                0.05955460666062279,
                0.05955545241729837,
                0.0595262800091406,
                0.073039,
                0.0595359718536004,
                0.05957371280775126,
                0.059557880464240244,
                0.031182881211068537,
                0.05954393650294972,
                0.059574549857579095,
                0.05957068163806506,
                0.05952550974856091,
                0.057949957296656,
                0.05959176493541861,
                0.059554853224574066,
                0.05950230383097305,
                0.05659317874303583,
                0.0594873051438712,
                0.05957496398848284,
                0.059538273946564156,
                0.059522621997724345,
                0.05955890577710807,
                0.05951850276702194,
                0.027271836079018064,
                0.05953820114222707,
                0.059534519394903056,
                0.059492829046640376,
                0.05957141879082211,
                0.05952555530304446,
                0.059531466246805234,
                0.059537566466640324,
                0.05931865700691377,
                0.059542736567056116,
                0.059527738742753675,
                0.030973614084888062,
                0.05957077905599338,
                0.031227814966050413,
                0.023845001085822992,
                0.05952305605294413,
                0.0594890099663001,
                0.0595597540885084,
                0.059562651425186464,
                0.059558122540478264,
                0.03089060603055504,
                0.05949702553025695,
                0.059525641297656036,
                0.059550854712053354,
                0.05957069780563203,
                0.059520777492497165,
                0.030911662516944258,
                0.05954826320093571,
                0.05957340533437561,
                0.05959036354446927,
                0.059503634060173,
                0.059493341217131096,
                0.059509224724372235,
                0.059522466343003844,
                0.05957210923370166,
                0.05953664066551469,
                0.05954386022392557,
                0.030889272257684012,
                0.05950686743478947,
                0.059595021798204285,
                0.059590486613967,
                0.05951205719093584,
                0.05951382688607857,
                0.05957606649666875,
                0.059538115195768765,
                0.059573854924673715,
                0.05958634525151886,
                0.031192280309743865,
                0.059584518072531484,
                0.05957943901589564,
                0.05948978885202801,
                0.059513173925722467,
                0.05951316199215369,
                0.05952395400165836,
                0.05950105797168041,
                0.059585090235840084,
                0.0595842240678505,
                0.059514001446230654,
                0.0595458100736371,
                0.05955738949487252,
                0.0595826466481607,
                0.05952046633178772,
                0.059586893579194104,
                0.012656300000000002,
                0.059573838006989746,
                0.05955485651721668,
                0.02722984903813962,
                0.05953226922447764,
                0.05951755231875193,
                0.05953066382729505,
                0.059592707178375906,
                0.0595725681232627,
                0.05950009475325973,
                0.031212401890442533,
                0.05952369764182139,
                0.05951332616703706,
                0.05958604530679612,
                0.05835448537262018,
                0.059509732365224985,
                0.059546370542418334,
                0.059505666860822114,
                0.059533310485319395,
                0.05958259710237784,
                0.05951254293552683,
                0.05955631115099812,
                0.05955084980592411,
                0.059530551218457434,
                0.05958208917292344,
                0.05954277888657125,
                0.05959114161866701,
                0.031184433171895506,
                0.208083588683652,
                0.05958616319347427,
                0.05951315543101599,
                0.05952743375676059,
                0.059529003836282304,
                0.12307502864213152,
                0.073039,
                0.05956400270533212,
                0.030906906055228292,
                0.087534,
                0.059552886840698746,
                0.32255231792281414,
                0.05949460206172347,
                0.05955184154501609,
                0.059553308582064556,
                0.05770808176116355,
                0.059524888195794344,
                0.0595768811088266,
                0.059538063767937494,
                0.0595349648112766,
                0.05949352641794095,
                0.01845533215838531,
                0.030880365483555425,
                0.05953002247945328,
                0.05951558822952293,
                0.05959426662265111,
                0.0595459180002881,
                0.05956196863458122,
                0.059571418115543145,
                0.059491642228180895,
                0.05957175963512887,
                0.05950499786556935,
                0.05950190341660835,
                0.05958633194447066,
                0.059493127180091435,
                0.059578187976871734,
                0.05952012646704175,
                0.030915878716331783,
                0.05951451146308043,
                0.059537591442438996,
                0.059556328149654766,
                0.05955932789336088,
                0.05950816733352207,
                0.05952260829441669,
                0.05952942072270891,
                0.05955837424624036,
                0.05955644705451814,
                0.059564837494662744,
                0.05954030843731951,
                0.05952762303786199,
                0.059586021553544956,
                0.05948814059936192,
                0.03118157385911601,
                0.026491251236032926,
                0.05957672486611011,
                0.05951013400594352,
                0.05954979780182936,
                0.0595933625597631,
                0.0594954776448205,
                0.05949432186763893,
                0.05952217282204146,
                0.05953760790921131,
                0.059508219945876135,
                0.059503170188610184,
                0.05955064299377352,
                0.0594902859903679,
                0.05952981195606684,
                0.05951640781413184,
                0.059502236035300145,
                0.059590801274309754,
                0.05951223438856826,
                0.05956178221537868,
                0.030976568561105915,
                0.059583383530871545,
                0.059545993557045665,
                0.05956167571491583,
                0.059504763276076594,
                0.05956624612116547,
                0.05957186552265055,
                0.05953094979809566,
                0.0595835973906619,
                0.05954617746581792,
                0.059499028274712255,
                0.05954358609903024,
                0.059582847832152064,
                0.05957978654175608,
                0.024282285437036834,
                0.05952866145910011,
                0.05955747191349039,
                0.05956676814253398,
                0.059581917259698684,
                0.05650015537475534,
                0.03088479055863098,
                0.059552585745452385,
                0.03121952085287322,
                0.05958494275249515,
                0.05953592501815725,
                0.030898612199820756,
                0.05952461289866082,
                0.05952564287217904,
                0.05958455099765778,
                0.05953521914997305,
                0.05952268683142358,
                0.05955563953465552,
                0.05955769002700374,
                0.059496317405902444,
                0.05957764199392037,
                0.059525702394690565,
                0.05948658750487329,
                0.0595946688603922,
                0.05955288061026871,
                0.05953483536710884,
                0.05959141636653626,
                0.027257862419937655,
                0.05948748293479074,
                0.05952564356044846,
                0.05958881326319009,
                0.059540262656784436,
                0.059511636195001834,
                0.05957666352528068,
                0.05952132999130909,
                0.059547176163070696,
                0.0595504537499421,
                0.059553338253599576,
                0.0595273501152228,
                0.05949123860583347,
                0.05956466351186276,
                0.29991749707024185,
                0.07524999999999998,
                0.059510089802284394,
                0.05950202208884743,
                0.05957618986234885,
                0.05957172700213549,
                0.059505575956393844,
                0.059585517822983707,
                0.05958373979070923,
                0.05953392856283645,
                0.059500293738253524,
                0.05955398071869007,
                0.0595195199528747,
                0.05952627444938586,
                0.05957162595756951,
                0.059556111998672785,
                0.05959192889076097,
                0.05957404379852906,
                0.05950047934497932,
                0.05949388275156716,
                0.05951740570346047,
                0.05956693588431818,
                0.05955310581712765,
                0.05954952056237978,
                0.05954322576873058,
                0.05952936907849627,
                0.030953222167245626,
                0.059525256040701344,
                0.05954890338865011,
                0.059555734894355845,
                0.05828094636358767,
                0.05957485078372714,
                0.0594919180422105,
                0.05953585631929458,
                0.33538637797410953,
                0.0595088246616111,
                0.02079049125210746,
                0.05953674424725826,
                0.0595299558841013,
                0.059501320549164745,
                0.059492292731469006,
                0.05953151219297029,
                0.059565842069039386,
                0.05957778409365492,
                0.03127790787756744,
                0.05955631159483005,
                0.05951615367469551,
                0.05949264768155933,
                0.05954954581012709,
                0.03090523495437341,
                0.030957742157730166,
                0.05955734174938362,
                0.059504020816334914,
                0.05952880939723583,
                0.059550804091163,
                0.05957840277025762,
                0.05957365601559226,
                0.006642774406874517,
                0.059505633611430235,
                0.059582271642081186,
                0.03088913212236413,
                0.05951156410898941,
                0.05949305985627136,
                0.059507112040179194,
                0.05950392306628904,
                0.059578331928634265,
                0.05949666444908429,
                0.05953647590948182,
                0.026509305465807105,
                0.03088142843665127,
                0.05953088498014081,
                0.05955597558305839,
                0.05956618919703558,
                0.05956931395319892,
                0.05953868253927523,
                0.05949747245947585,
                0.059492127930692126,
                0.031266681908993114,
                0.031185012643027653,
                0.028161054025389123,
                0.027227501389394972,
                0.05952251570893283,
                0.05954201159597632,
                0.0595495493022326,
                0.030927763580993056,
                0.031203804739131792,
                0.02725674999796273,
                0.059530650434519994,
                0.05955289627074254,
                0.05955597588212228,
                0.030955547301456533,
                0.05953570548750532,
                0.02849963523528711,
                0.059590272612584844,
                0.05956738846665195,
                0.03127322737422131,
                0.059496347484872626,
                0.059511806553199126,
                0.05948917916931407,
                0.059552381060267834,
                0.3003710835590291,
                0.030947657410834994,
                0.05949053733700364,
                0.0595501489279869,
                0.05955566696588241,
                0.059515087393226654,
                0.059535535848854446,
                0.05949972733835917,
                0.05952009296210612,
                0.05959521619877653,
                0.050638652398804065,
                0.059560532090841146,
                0.05951944741003368,
                0.08523539999999998,
                0.05958712932869713,
                0.0595457720106948,
                0.05956475275077035,
                0.05957612721121719
            ],
            "photocathode": [
                391,
                415,
                210,
                395,
                419,
                402,
                422,
                404,
                410,
                438,
                370,
                400,
                187,
                412,
                410,
                402,
                406,
                439,
                409,
                380,
                400,
                413,
                233,
                408,
                442,
                382,
                173,
                391,
                396,
                353,
                413,
                218,
                372,
                434,
                405,
                390,
                437,
                446,
                431,
                302,
                422,
                457,
                404,
                400,
                388,
                440,
                442,
                405,
                421,
                445,
                450,
                372,
                413,
                405,
                395,
                421,
                182,
                436,
                421,
                432,
                531,
                420,
                363,
                399,
                404,
                212,
                405,
                398,
                419,
                401,
                422,
                423,
                424,
                220,
                182,
                232,
                207,
                389,
                412,
                418,
                407,
                387,
                428,
                400,
                406,
                385,
                393,
                1226,
                423,
                374,
                404,
                423,
                364,
                409,
                450,
                395,
                399,
                246,
                425,
                182,
                398,
                429,
                379,
                401,
                426,
                426,
                407,
                435,
                408,
                218,
                401,
                417,
                337,
                433,
                405,
                416,
                409,
                401,
                392,
                387,
                460,
                442,
                408,
                408,
                438,
                395,
                413,
                394,
                413,
                421,
                396,
                456,
                205,
                217,
                196,
                409,
                399,
                418,
                456,
                411,
                229,
                397,
                417,
                422,
                520,
                430,
                379,
                416,
                203,
                419,
                445,
                388,
                421,
                391,
                358,
                422,
                438,
                401,
                381,
                394,
                417,
                376,
                375,
                403,
                180,
                410,
                370,
                411,
                401,
                443,
                417,
                434,
                438,
                422,
                433,
                196,
                388,
                193,
                167,
                402,
                402,
                446,
                426,
                433,
                196,
                410,
                401,
                431,
                422,
                408,
                202,
                388,
                421,
                367,
                434,
                427,
                403,
                425,
                404,
                412,
                398,
                220,
                421,
                401,
                415,
                438,
                440,
                413,
                399,
                407,
                416,
                201,
                390,
                419,
                397,
                429,
                436,
                449,
                406,
                373,
                390,
                387,
                411,
                402,
                426,
                436,
                411,
                78,
                405,
                400,
                185,
                415,
                429,
                409,
                415,
                426,
                407,
                229,
                385,
                419,
                411,
                408,
                413,
                376,
                427,
                419,
                400,
                421,
                402,
                433,
                389,
                404,
                393,
                410,
                230,
                1443,
                382,
                411,
                372,
                430,
                852,
                520,
                410,
                215,
                645,
                399,
                2236,
                396,
                423,
                407,
                399,
                372,
                399,
                393,
                432,
                421,
                125,
                189,
                441,
                395,
                424,
                441,
                396,
                414,
                412,
                409,
                398,
                402,
                383,
                365,
                401,
                412,
                243,
                375,
                435,
                396,
                422,
                428,
                419,
                373,
                457,
                424,
                454,
                388,
                404,
                415,
                399,
                216,
                180,
                402,
                424,
                412,
                445,
                391,
                401,
                358,
                407,
                426,
                401,
                435,
                377,
                406,
                370,
                413,
                352,
                385,
                403,
                253,
                443,
                425,
                389,
                414,
                428,
                395,
                385,
                446,
                387,
                418,
                422,
                398,
                420,
                170,
                400,
                417,
                441,
                414,
                366,
                203,
                407,
                215,
                402,
                412,
                207,
                390,
                401,
                404,
                412,
                387,
                421,
                396,
                409,
                419,
                391,
                414,
                416,
                393,
                433,
                408,
                213,
                378,
                430,
                429,
                398,
                440,
                425,
                460,
                391,
                409,
                357,
                380,
                433,
                414,
                2094,
                490,
                423,
                431,
                406,
                442,
                436,
                426,
                427,
                408,
                413,
                435,
                393,
                407,
                436,
                419,
                382,
                413,
                410,
                428,
                422,
                401,
                408,
                435,
                417,
                408,
                230,
                408,
                390,
                442,
                404,
                389,
                428,
                403,
                2361,
                409,
                157,
                417,
                414,
                388,
                439,
                397,
                428,
                421,
                201,
                400,
                428,
                405,
                397,
                201,
                202,
                416,
                457,
                409,
                409,
                389,
                415,
                49,
                427,
                402,
                223,
                446,
                422,
                426,
                414,
                446,
                441,
                430,
                192,
                190,
                434,
                447,
                422,
                450,
                398,
                399,
                444,
                203,
                204,
                195,
                206,
                415,
                424,
                398,
                229,
                216,
                194,
                467,
                413,
                459,
                227,
                429,
                178,
                441,
                434,
                203,
                409,
                418,
                364,
                406,
                2068,
                202,
                436,
                399,
                457,
                413,
                461,
                449,
                410,
                421,
                318,
                404,
                409,
                547,
                395,
                458,
                393,
                449
            ]
        },
        "detections": 500,
        "events": 74718517
    }
}