{
    "job_args": {
        "metric_limit": 500,
        "seed": 2716403080
    },
    "job_id": "batch_54_do_500",
    "result": {
        "collections": {
            "crystal": [
                0.19848141884986292,
                1.1570026486409521,
                0.5109989100000001,
                0.09092133414093095,
                0.51099891,
                0.5886497106523371,
                0.34216155158603845,
                0.5109989099999999,
                0.51099891,
                0.0893533292150791,
                0.51099891,
                0.9412943124707305,
                0.483823352421178,
                0.5109989100000001,
                1.0127221258384007,
                0.51099891,
                0.39795771767682253,
                0.9431767372187794,
                0.2784542025367969,
                1.157002648640952,
                0.2884496166124206,
                1.1570026486409521,
                1.1570026486409521,
                0.7227399323096215,
                0.51099891,
                0.8319318914292394,
                0.5109989099999999,
                0.51099891,
                0.51099891,
                0.061647621431297324,
                0.4163439996935222,
                0.04662740169586754,
                0.00669767582366132,
                0.51099891,
                0.51099891,
                0.5109989099999999,
                0.8882742985962648,
                1.1570026486409521,
                0.43332506475944743,
                1.1570026486409521,
                0.5109989099999999,
                0.3944177378174418,
                0.6104930338229673,
                0.51099891,
                0.4403909408183383,
                0.5109989099999999,
                0.07382799845214372,
                0.22202954093651908,
                0.14285749080703222,
                0.07525,
                1.157002648640952,
                0.5109989100000001,
                0.7008265518841312,
                0.3108036767089755,
                0.26555394195579907,
                0.04120107532416533,
                0.5109989100000001,
                0.21834900641390992,
                0.7555159295993386,
                0.34065351330071214,
                0.51099891,
                0.51099891,
                0.5388100344883985,
                0.9367980374881193,
                1.1570026486409521,
                0.5109989099999999,
                0.3222541313988948,
                0.1809204981360359,
                0.11755900175872669,
                0.51099891,
                0.2893264381044215,
                0.17114282695649174,
                1.1570026486409521,
                0.5109989099999999,
                0.33593263876235524,
                0.51099891,
                0.12835127440895333,
                0.51099891,
                0.48168957990803946,
                1.1570026486409521,
                0.4974349899166979,
                0.4867816170911223,
                0.4067687053383737,
                0.263891394526007,
                0.12335107928984396,
                0.30233736106400083,
                0.3039178803884921,
                0.20198095671740088,
                0.2367130693721915,
                0.08483485488042825,
                0.35402431324849054,
                0.5109989100000001,
                0.36591407155023153,
                0.51099891,
                0.51099891,
                0.10965745435388063,
                0.3478248042652199,
                0.5109989100000001,
                0.51099891,
                0.19815264066360805,
                0.17749452564212537,
                0.8663508060981467,
                0.7675726750577486,
                0.2103201864149985,
                0.1629887419602753,
                0.07525,
                0.03654672265882364,
                0.51099891,
                0.51099891,
                0.51099891,
                0.03778338544121696,
                0.6138484562850075,
                0.32606633600891827,
                0.2868414585249472,
                0.31285374457222037,
                0.5109989099999999,
                1.157002648640952,
                0.27334139752369313,
                0.5109989100000001,
                0.5109989100000001,
                0.5109989099999999,
                0.5004084761287533,
                0.2552066170872369,
                0.51099891,
                0.8856675167291767,
                0.35796889524097464,
                0.07525,
                1.1570026486409521,
                0.6182513215335019,
                0.5109989100000001,
                0.51099891,
                0.33604225722661146,
                0.2510048280075382,
                0.4993356927805641,
                0.21231244393151888,
                0.29173254875552446,
                0.07614443618100461,
                0.7893295449990929,
                0.31476718080442784,
                0.23927437674488233,
                0.5109989099999999,
                0.14614801157552437,
                0.45445617100707,
                0.21011800168534955,
                0.19723351086845187,
                0.3583036720976268,
                0.3483439494660285,
                0.6921470456635517,
                1.157002648640952,
                0.10579483291502839,
                0.5716022128427585,
                0.3160812241679082,
                0.51099891,
                0.24258550389850503,
                0.5109989099999999,
                0.36176973504814425,
                0.09727424427961939,
                0.17591279121970937,
                0.5109989099999999,
                1.0163442672493337,
                0.8988794448707274,
                0.8674462469594791,
                0.3985118018948953,
                0.4848175869403124,
                0.10780911836284153,
                0.5530915891988855,
                0.24815172797111668,
                0.5109989100000001,
                0.4552184111167072,
                0.07814925255513056,
                0.5721095173148796,
                0.3653338036306578,
                0.4966618470682699,
                0.5109989100000001,
                0.3449240029451165,
                0.03670309025661166,
                0.4157908356326173,
                0.4123462567132536,
                0.4207633837813599,
                0.51099891,
                0.034076505967002096,
                0.6218562642056971,
                0.5109989100000001,
                0.1677481290943146,
                0.841328325904829,
                0.51099891,
                0.5580607224475925,
                0.8826275348887799,
                0.274706811460273,
                0.07088135911301024,
                0.6557315413892346,
                0.43246614047706,
                0.33868500472021085,
                0.5109989099999999,
                0.40586337158336466,
                0.5109989100000001,
                0.25724140382852667,
                0.51099891,
                0.51099891,
                0.13442697700394934,
                0.51099891,
                0.042967253581305154,
                0.5109989100000001,
                0.833828993963915,
                0.51099891,
                0.5109989099999999,
                1.1570026486409521,
                1.157002648640952,
                1.1570026486409521,
                0.8986784753647943,
                0.008493252091876125,
                0.37042805691130465,
                1.1570026486409524,
                0.4083219970242485,
                0.5466073371496842,
                0.30472885615280587,
                1.1570026486409524,
                0.5109989099999999,
                1.1570026486409524,
                0.51099891,
                0.6364657835399538,
                0.9378681952627251,
                0.6362423711556514,
                0.0995017957954416,
                1.1570026486409521,
                0.4533515106911008,
                0.5109989100000001,
                0.059062626839805565,
                0.37474078064202015,
                1.0991744272619872,
                1.1570026486409521,
                0.10927869195753637,
                0.42788421998351,
                0.24993115572230137,
                1.1570026486409521,
                0.8335826637739007,
                0.51099891,
                0.7296688454316554,
                0.1939263012612632,
                0.4705974596522611,
                0.07525000000000001,
                0.5109989099999999,
                0.51099891,
                0.3179124132194503,
                0.20589683998126876,
                0.5587947375257385,
                1.1570026486409521,
                0.5538920148675084,
                0.31479287479651175,
                0.246898467348068,
                0.9775133309447149,
                0.13825017668298223,
                1.1570026486409521,
                1.157002648640952,
                0.6784596001817462,
                0.51099891,
                0.51099891,
                0.07303899999999999,
                0.4834669251214154,
                0.13269563406170448,
                0.39175348548535516,
                0.3243636628120685,
                0.2446055124680226,
                0.51099891,
                0.51099891,
                0.5109989100000001,
                0.38008497615402953,
                0.4923681269493348,
                0.3772388193480281,
                0.5109989099999999,
                0.51099891,
                0.08451076211161418,
                0.07303900000000002,
                0.2261884600974552,
                0.016458224769965557,
                0.7645400203378496,
                0.5109989100000001,
                0.5109989100000001,
                0.5217168435925705,
                0.39772146600052666,
                0.5109989100000001,
                0.51099891,
                0.5109989099999999,
                0.25127527351118834,
                0.51099891,
                0.22765071764477085,
                0.08523540000000002,
                0.24698128023110685,
                0.7796016314388309,
                0.09697193046636415,
                1.1570026486409521,
                0.5109989100000001,
                0.21433592530054982,
                0.5997206592935587,
                0.04208963691836387,
                0.4496800283485187,
                0.403676579132158,
                1.157002648640952,
                0.6234372240940856,
                0.5441091347099729,
                0.3528051979407609,
                0.4544441525174635,
                0.51099891,
                0.319475890469632,
                1.1570026486409521,
                0.795423486157435,
                0.0936431749252189,
                1.0642019527158388,
                0.51099891,
                0.28427228418301687,
                0.48331186261340003,
                0.5109989100000001,
                1.0193682450124077,
                0.4693587584193083,
                0.11847901517471343,
                0.0852354,
                0.0847407,
                0.51099891,
                0.0035639303436515446,
                0.3015857091583907,
                0.51099891,
                1.1570026486409521,
                0.31946369683835113,
                1.157002648640952,
                0.4790614255851675,
                0.51099891,
                0.32608495701610823,
                1.1570026486409524,
                0.029625615587943854,
                0.045451822676547016,
                0.5109989100000001,
                1.0989775685787158,
                0.6585585577682642,
                0.5109989099999999,
                0.2229123241512392,
                0.13870636252039925,
                0.5109989099999999,
                1.157002648640952,
                0.5109989100000001,
                0.4151392669392629,
                0.5815945126865154,
                0.3417629204412784,
                0.2583014550914134,
                1.1570026486409521,
                0.12389442446579274,
                0.20786308613313434,
                0.51099891,
                0.5109989100000001,
                0.8888822982827739,
                0.41657744653501716,
                0.27675252558877045,
                0.46475434589467324,
                0.5109989100000001,
                0.07524999999999998,
                0.4823894100000001,
                0.2404537637958376,
                0.51099891,
                0.24008429677508974,
                0.34255327624620535,
                0.3205744537442051,
                1.1570026486409524,
                0.5109989099999999,
                0.5109989099999999,
                0.26168657308184584,
                0.4327989907152318,
                0.7229163449491629,
                0.5109989100000001,
                0.32060821524874783,
                0.07525,
                0.5109989100000001,
                1.1167164908176836,
                0.5109989099999999,
                0.44693021805873956,
                0.35098569473471886,
                0.3932177406634768,
                0.3221687092095687,
                1.1570026486409521,
                0.5109989100000001,
                0.2171242709046729,
                1.157002648640952,
                0.51099891,
                0.2188917854213958,
                0.51099891,
                0.2739204011328654,
                0.4486527577026906,
                0.26311529761103936,
                0.51099891,
                1.157002648640952,
                0.3662498434611921,
                0.51099891,
                1.1570026486409521,
                0.5525829055058735,
                0.056142839565801905,
                0.8044001855689986,
                0.51099891,
                0.014065910719266439,
                0.19658692794679022,
                0.26359202004781235,
                0.44223717202112034,
                0.17565219286503975,
                0.005066966594594158,
                0.51099891,
                0.10696638771972011,
                0.3420991053795751,
                0.07749919981320097,
                0.8178028664236048,
                1.1570026486409524,
                0.5109989100000001,
                1.1570026486409521,
                0.5109989099999999,
                0.38029227192218046,
                0.8191758438036401,
                0.0876557,
                0.5109989099999999,
                0.51099891,
                0.4847512835836908,
                0.51099891,
                0.5109989099999999,
                0.08523539999999999,
                1.1570026486409521,
                0.5109989100000001,
                1.157002648640952,
                0.51099891,
                0.34579596630584075,
                0.301125394371212,
                0.5566241925195293,
                0.51099891,
                0.5109989099999999,
                0.0022299340433331594,
                0.08523591521083135,
                0.501535675672566,
                1.0044450417929571,
                0.487889262790954,
                0.1919870408754556,
                0.07524999999999998,
                0.3510127474299204,
                0.353807752752793,
                0.2153352395908309,
                1.1570026486409521,
                0.5109989100000001,
                0.9130172506722914,
                0.5109989099999999,
                0.51099891,
                0.7486584096108416,
                0.07525,
                1.1570026486409521,
                0.42457138771233627,
                0.08940967327085309,
                0.51099891,
                0.13800871950956528,
                0.5109989100000001,
                0.8009694904271281,
                0.08694096829541786,
                0.18091009859941998,
                0.4151022514303681,
                0.19891652427209808,
                0.51099891,
                0.51099891,
                0.51099891,
                0.09471507144065922,
                0.7291249714080854,
                1.1570026486409521,
                0.11844352911974564,
                0.5264678189364944,
                0.5109989099999999,
                0.07525000000000001,
                0.35208716409237123,
                0.5109989100000001,
                0.5109989100000001,
                0.44501704583521073,
                0.8871754912185639,
                0.3239490166244037,
                1.0290519780156042,
                0.47995408860723027,
                0.23862728090052984,
                0.023536359309631827,
                0.45475729890422406,
                0.51099891,
                0.4845307960938692,
                0.51099891,
                0.6322202951618054,
                0.18635984969055838,
                0.3676195125783038,
                0.51099891,
                1.1570026486409521,
                0.40761560120935325,
                1.1570026486409521,
                0.5109989100000001,
                0.5109989099999999,
                0.2530426465519454,
                0.10647985943291136,
                1.1570026486409521,
                0.7446906553696435,
                0.0243350501948556,
                0.5109989100000001,
                0.8547872903290256,
                0.146616780799743,
                1.1570026486409521,
                0.7747650281898688,
                0.5109989100000001
            ],
            "photocathode": [
                1399,
                8056,
                3496,
                672,
                3558,
                3967,
                2350,
                3619,
                3575,
                640,
                3540,
                6614,
                3458,
                3514,
                7247,
                3561,
                2737,
                6675,
                1955,
                8086,
                1986,
                8167,
                7949,
                5210,
                3610,
                5935,
                3573,
                3656,
                3493,
                420,
                2997,
                295,
                43,
                3411,
                3491,
                3516,
                6360,
                8057,
                3096,
                8194,
                3473,
                2737,
                4231,
                3635,
                3088,
                3621,
                516,
                1575,
                1011,
                496,
                7990,
                3559,
                4860,
                2226,
                1916,
                287,
                3610,
                1537,
                5460,
                2464,
                3684,
                3580,
                3820,
                6698,
                8212,
                3575,
                2281,
                1198,
                806,
                3525,
                1948,
                1237,
                8320,
                3507,
                2422,
                3518,
                844,
                3568,
                3369,
                7997,
                3455,
                3321,
                2930,
                1896,
                891,
                2149,
                2124,
                1446,
                1664,
                596,
                2522,
                3590,
                2524,
                3554,
                3453,
                772,
                2377,
                3574,
                3568,
                1437,
                1220,
                6078,
                5402,
                1502,
                1161,
                526,
                225,
                3531,
                3626,
                3609,
                263,
                4404,
                2283,
                1993,
                2212,
                3563,
                7979,
                2036,
                3596,
                3487,
                3466,
                3374,
                1786,
                3579,
                6166,
                2530,
                507,
                8016,
                4279,
                3586,
                3574,
                2345,
                1693,
                3603,
                1525,
                2044,
                538,
                5608,
                2200,
                1629,
                3609,
                1050,
                3132,
                1487,
                1393,
                2596,
                2418,
                5100,
                8278,
                688,
                3928,
                2248,
                3537,
                1711,
                3491,
                2543,
                661,
                1301,
                3477,
                7015,
                6466,
                6456,
                2792,
                3450,
                760,
                3908,
                1831,
                3605,
                3313,
                558,
                3958,
                2533,
                3547,
                3707,
                2357,
                257,
                2925,
                2916,
                2971,
                3527,
                248,
                4290,
                3578,
                1184,
                5875,
                3479,
                3951,
                6280,
                1931,
                511,
                4613,
                3038,
                2286,
                3701,
                2845,
                3593,
                1785,
                3562,
                3712,
                902,
                3453,
                335,
                3639,
                6031,
                3685,
                3516,
                8099,
                8123,
                8131,
                6180,
                74,
                2651,
                8173,
                2898,
                3727,
                2174,
                8119,
                3623,
                8158,
                3553,
                4450,
                6726,
                4421,
                681,
                8025,
                3153,
                3581,
                413,
                2546,
                7595,
                8248,
                720,
                3006,
                1715,
                8249,
                5812,
                3639,
                5059,
                1431,
                3363,
                541,
                3585,
                3592,
                2205,
                1468,
                3940,
                7949,
                3822,
                2202,
                1819,
                6886,
                989,
                8013,
                8120,
                4806,
                3799,
                3563,
                528,
                3418,
                956,
                2672,
                2285,
                1766,
                3585,
                3547,
                3563,
                2665,
                3536,
                2668,
                3627,
                3468,
                571,
                481,
                1606,
                113,
                5390,
                3565,
                3635,
                3554,
                2829,
                3460,
                3606,
                3595,
                1781,
                3572,
                1642,
                600,
                1714,
                5361,
                703,
                8065,
                3503,
                1566,
                4150,
                299,
                3153,
                2864,
                8092,
                4303,
                3951,
                2340,
                3212,
                3456,
                2275,
                8134,
                5619,
                665,
                7523,
                3682,
                2023,
                3265,
                3563,
                7416,
                3161,
                835,
                569,
                571,
                3605,
                14,
                2137,
                3590,
                8192,
                2153,
                8230,
                3329,
                3625,
                2234,
                7961,
                196,
                328,
                3577,
                7608,
                4677,
                3644,
                1484,
                1009,
                3621,
                8017,
                3546,
                2904,
                4090,
                2382,
                1757,
                8323,
                905,
                1606,
                3606,
                3553,
                6097,
                3000,
                1903,
                3290,
                3594,
                513,
                3396,
                1644,
                3625,
                1719,
                2406,
                2266,
                8121,
                3526,
                3580,
                1922,
                3056,
                5092,
                3583,
                2165,
                543,
                3549,
                7738,
                3621,
                3137,
                2440,
                2767,
                2207,
                8124,
                3511,
                1539,
                8203,
                3502,
                1525,
                3460,
                1860,
                3123,
                1882,
                3608,
                7981,
                2484,
                3421,
                8174,
                3903,
                408,
                5720,
                3567,
                91,
                1434,
                1858,
                3235,
                1215,
                34,
                3489,
                781,
                2342,
                540,
                5695,
                8119,
                3569,
                8051,
                3601,
                2721,
                5698,
                608,
                3537,
                3575,
                3339,
                3519,
                3571,
                598,
                8167,
                3673,
                8008,
                3607,
                2435,
                2197,
                4000,
                3524,
                3565,
                13,
                614,
                3543,
                7024,
                3416,
                1323,
                512,
                2440,
                2398,
                1439,
                8334,
                3518,
                6259,
                3582,
                3619,
                5279,
                565,
                8134,
                2989,
                639,
                3610,
                973,
                3522,
                5686,
                633,
                1305,
                2861,
                1399,
                3461,
                3480,
                3643,
                660,
                5201,
                8132,
                839,
                3584,
                3610,
                574,
                2501,
                3597,
                3513,
                2976,
                6077,
                2188,
                7303,
                3473,
                1716,
                172,
                3168,
                3435,
                3403,
                3715,
                4376,
                1322,
                2677,
                3440,
                8072,
                2860,
                8094,
                3523,
                3487,
                1805,
                683,
                7878,
                5275,
                152,
                3624,
                6028,
                965,
                7922,
                5346,
                3585
            ]
        },
        "detections": 500,
        "events": 58642
    }
}