{
    "job_args": {
        "metric_limit": 500,
        "seed": 3110213987
    },
    "job_id": "batch_53_do_500",
    "result": {
        "collections": {
            "crystal": [
                0.12081264853515097,
                0.51099891,
                0.10780767859340412,
                0.51099891,
                0.1566626567871021,
                0.1309439123409392,
                0.51099891,
                0.5493602443516847,
                0.4371736976317211,
                0.5133229307034199,
                0.51099891,
                1.1570026486409524,
                0.07524999999999998,
                1.157002648640952,
                0.51099891,
                0.6460037386409523,
                0.36074208018738024,
                0.3290953617540744,
                0.9176754020925358,
                0.7898550251540759,
                1.1570026486409521,
                1.1570026486409521,
                0.3591595337661515,
                0.9339819520465973,
                0.41999203504367344,
                1.1570026486409521,
                0.51099891,
                0.5109989099999999,
                0.51099891,
                0.51099891,
                0.3062265189585033,
                1.1570026486409521,
                1.1570026486409521,
                0.43198168202539544,
                0.51099891,
                0.3909016968626368,
                0.5109989100000001,
                0.08238005630757383,
                0.03838818923567111,
                0.3127103108994598,
                0.51099891,
                0.7769129531565784,
                0.292575605381948,
                0.0910547861148327,
                1.1570026486409521,
                0.8299555851292698,
                0.3835668783932673,
                0.36660223386379776,
                0.3509192421554955,
                0.08941790187851134,
                0.17736618031988505,
                0.51099891,
                0.596717340185189,
                0.5109989100000001,
                0.5109989099999999,
                1.1570026486409521,
                0.51099891,
                0.4795553298277348,
                0.35856852330667,
                0.15033309067534123,
                1.1570026486409521,
                0.19520062267100174,
                0.2534068840903102,
                0.51099891,
                0.3836816563684579,
                0.09013749911240093,
                0.9986732058401179,
                0.073039,
                0.1845181802145348,
                0.0004231370413935176,
                1.1570026486409521,
                0.2922127046184027,
                0.51099891,
                0.6999421420944111,
                0.5109989100000001,
                0.4195818670267758,
                0.364942694930923,
                0.51099891,
                0.5109989100000001,
                0.38869309792353307,
                0.3967677799880994,
                0.17098424581585853,
                0.3460697732685316,
                1.1570026486409521,
                0.19019510872328238,
                0.07233557412472047,
                0.10451022535540029,
                0.10848190188337775,
                0.43440665748347307,
                1.1570026486409521,
                0.8939842757247813,
                0.04565805681147245,
                0.3627164606057345,
                0.5109989100000001,
                0.42360299078140595,
                0.3849244503558693,
                0.45320300128018176,
                0.0852354,
                1.1570026486409524,
                0.5109989099999999,
                0.08290598967848772,
                0.3587899691674357,
                0.17417815018108085,
                0.51099891,
                0.05017523440043914,
                0.51099891,
                0.5065302877216558,
                0.51099891,
                0.51099891,
                0.2463114544968029,
                0.51099891,
                0.5109989099999999,
                0.5109989100000001,
                0.51099891,
                0.6512291054273978,
                0.7511310390518537,
                0.07524999999999998,
                0.32865801756963087,
                0.340393825250327,
                0.51099891,
                0.47405706405945847,
                0.4884246941921916,
                1.1570026486409521,
                0.31916014179345786,
                0.12330661885477828,
                0.4308165620685648,
                1.1570026486409521,
                0.51099891,
                0.5109989099999999,
                0.29063293696517833,
                0.5109989100000001,
                0.26760995682806155,
                0.51099891,
                0.9422303257986381,
                1.157002648640952,
                0.1822026546718646,
                1.1570026486409521,
                0.1493728706779855,
                0.45697964851222184,
                0.8596561069387979,
                0.2944202029598774,
                0.4621414825806898,
                1.0125879857163884,
                0.18855166474859847,
                1.1570026486409524,
                0.014744434916414027,
                0.23557759118037264,
                0.12322867373295689,
                0.29138284126691183,
                0.51099891,
                0.5109989099999999,
                0.26100764208692473,
                1.017753775343602,
                1.0212860983923941,
                0.18622020631817304,
                0.4148610089378645,
                1.157002648640952,
                0.22298908662773564,
                0.5791544920675613,
                0.3833657454918422,
                1.1570026486409521,
                0.51099891,
                0.39645482270855015,
                0.51099891,
                0.5109989100000001,
                0.51099891,
                0.51099891,
                0.51099891,
                0.51099891,
                0.151671806184632,
                0.5109989099999999,
                0.36949611879272093,
                0.39152312807005885,
                0.51099891,
                0.9398708396502062,
                0.16656429846044607,
                0.9024326901857973,
                0.42854598415777173,
                0.5988063200251019,
                0.7488653096919683,
                0.51099891,
                0.07524999999999998,
                0.3131374911116391,
                1.1570026486409521,
                0.5109989099999999,
                0.8933551797083281,
                0.51099891,
                1.1570026486409524,
                1.157002648640952,
                0.13003257150158093,
                0.3777677460287019,
                0.4944213735690661,
                1.4994595182300836,
                0.34771391652053807,
                0.51099891,
                0.51099891,
                1.1570026486409521,
                1.157002648640952,
                0.5109989100000001,
                0.073039,
                0.5109989099999999,
                0.51099891,
                0.5708229604219711,
                0.2632714485256238,
                0.38494387410849534,
                0.5109989099999999,
                0.34796903117071387,
                1.1570026486409524,
                0.7950044895972614,
                0.23196651491836462,
                0.30611624625174383,
                0.51099891,
                0.39059047608572584,
                0.5481494019574785,
                0.51099891,
                0.073039,
                0.51099891,
                0.646098754098037,
                0.5109989099999999,
                0.51099891,
                0.5387797839146484,
                0.51099891,
                0.4560499973757697,
                0.7808844444262155,
                0.13856528217809194,
                1.157002648640952,
                0.5025236977284275,
                0.895130143455265,
                0.51099891,
                0.25642951602236796,
                0.05817365319578954,
                0.24789584350026844,
                1.157002648640952,
                0.38108066759206727,
                1.1570026486409521,
                0.4722210856960108,
                1.1570026486409521,
                0.5109989099999999,
                0.04121842433608969,
                0.4192307623777248,
                0.45250556676563963,
                0.51099891,
                0.4134390097870496,
                0.51099891,
                0.51099891,
                0.686951628718022,
                0.10541102814789927,
                1.157002648640952,
                0.5109989100000001,
                0.0847407,
                0.7641004444030264,
                0.07525,
                0.4817756469534736,
                0.51099891,
                0.12589669607338994,
                0.5742257236363864,
                0.7213982412629643,
                1.1570026486409521,
                0.04694349999999999,
                0.21531887021098836,
                0.492239596938022,
                0.44060493707766724,
                0.35875329306291787,
                0.1004129621140622,
                0.25202491328572063,
                0.44884614989909916,
                0.51099891,
                0.2997936729327717,
                0.51099891,
                0.4013892908617577,
                0.30764702811998135,
                0.51099891,
                0.13118558151609494,
                0.5109989099999999,
                0.47248006721617786,
                0.51099891,
                0.2582882218720407,
                0.29019003281185674,
                0.2597401690059133,
                0.8086826694832536,
                0.5109989100000001,
                0.51099891,
                0.51099891,
                0.1301015981095901,
                0.51099891,
                0.51099891,
                0.51099891,
                0.4511099736088159,
                0.2574340094646531,
                1.157002648640952,
                0.5109989100000001,
                0.249289892574084,
                0.51099891,
                1.1570026486409521,
                0.6460803346251841,
                0.3660551378973745,
                1.1570026486409524,
                0.3155449312790414,
                0.04083873723948672,
                0.38701064772136007,
                0.36213792306875414,
                0.51099891,
                1.1570026486409521,
                0.7054451804121051,
                0.9568048470344772,
                0.5109989099999999,
                1.1570026486409521,
                0.8215652154566051,
                0.46867511432635556,
                0.51099891,
                0.4356561271820539,
                0.2638280102659786,
                1.157002648640952,
                0.07525000000000001,
                0.46333897472220176,
                0.2446024277754471,
                0.07525000000000001,
                0.5109989099999999,
                0.24154154245091397,
                0.5092180677950621,
                0.51099891,
                0.27884327720288365,
                1.1570026486409521,
                1.1570026486409521,
                0.19413716238401724,
                0.7494920142515337,
                1.0684309954088662,
                0.51099891,
                1.3663161045927374,
                0.8457670738603074,
                1.157002648640952,
                0.07303899999999999,
                0.17357043199215594,
                0.51099891,
                0.5109989100000001,
                0.51099891,
                1.0007586440281102,
                0.51099891,
                0.040744800000000005,
                0.46342675059151517,
                0.51099891,
                0.51099891,
                1.1570026486409524,
                0.51099891,
                0.51099891,
                0.19123177331285224,
                0.33411252849263606,
                0.5109989100000001,
                0.3809625733367161,
                0.5109989100000001,
                0.4788916629126768,
                0.3488288289042045,
                0.51099891,
                0.29786257609311567,
                0.51099891,
                0.51099891,
                0.12932333123425052,
                0.087534,
                0.51099891,
                0.6026104974948518,
                0.5066072844365698,
                0.51099891,
                0.3317874040162831,
                0.7648468568754767,
                0.5479329417431624,
                0.51099891,
                0.5109989099999999,
                0.5109989099999999,
                0.551135422767746,
                0.2744865200456128,
                0.4643888647531606,
                0.5660304429282117,
                0.586721228807374,
                1.157002648640952,
                0.4832670566868955,
                0.9977098467656539,
                0.16956596108986025,
                0.20769129489616434,
                0.8593745112428206,
                0.913080125584288,
                0.51099891,
                0.51099891,
                0.26372627750021593,
                0.51099891,
                0.0876557,
                0.5504202754308646,
                0.418445418622036,
                0.4633193785868659,
                0.7696652515667735,
                0.6693968615944944,
                0.4472797362847981,
                0.7506580027258403,
                0.36382792997116875,
                0.32507348730895697,
                0.05147510881705508,
                0.2477343788038977,
                0.21687686193223824,
                0.4906547311218725,
                0.51099891,
                0.40752371321303094,
                0.51099891,
                0.5109989100000001,
                0.8652578013859471,
                0.5792604933880252,
                0.51099891,
                0.2653440205987202,
                0.28584691431244724,
                0.41183321890800395,
                0.16024346615934343,
                0.51099891,
                0.23773131718651197,
                0.7196994624318319,
                0.51099891,
                0.49001827979482265,
                1.1570026486409524,
                0.3834275467021828,
                0.5109989100000001,
                1.1570026486409521,
                0.026234319273120393,
                0.8988869520904748,
                0.07525,
                0.7317868972600557,
                0.4062009042783914,
                0.024831037058048677,
                0.43165768402917504,
                1.1570026486409524,
                0.12159838354576281,
                0.51099891,
                1.157002648640952,
                0.13093151750341103,
                0.5109989100000001,
                0.08206382560356151,
                0.4525075978297116,
                0.14968838526172912,
                0.51099891,
                0.798267691932906,
                0.15335982317803803,
                0.15499996083994172,
                0.14453702785775974,
                0.51099891,
                0.5109989100000001,
                0.2875260483916108,
                1.1570026486409521,
                0.51099891,
                0.6317462799131912,
                0.9422060675874496,
                0.9176823842861626,
                0.26224584864738354,
                0.6110529499543144,
                0.4075875886395459,
                0.25042002681485637,
                0.7853700547486843,
                0.5109989100000001,
                0.674634272910037,
                0.3424488018832379,
                0.07524999999999998,
                0.553512213582938,
                0.3323420023599216,
                0.51099891,
                0.51099891,
                0.35094429006347294,
                0.51099891,
                0.04255121229664158,
                0.5538469095731017,
                1.157002648640952,
                0.40660030815795994,
                0.42148884511633095,
                0.51099891,
                0.5328517693829782,
                0.7270642359025732,
                1.1570026486409521,
                0.51099891,
                0.5569913793147685,
                0.7151096802877974,
                0.51099891,
                0.5109989099999999,
                0.7247661781006991,
                0.51099891,
                0.08043263680487892,
                0.43801159140583623,
                0.5109989100000001,
                0.14595835315637024,
                0.5109989100000001,
                0.5109989100000001,
                0.060992236915920484,
                1.1570026486409524,
                0.057318940061254264,
                0.3381534655014018,
                0.21473022456602456,
                0.31095469119429964,
                0.2584906363360293,
                0.51099891,
                0.3413773195117873,
                0.050580199964182844,
                0.4546778057863223,
                0.4357680879319764,
                0.1897165816738446,
                0.49557505040438826,
                0.29416221368891005,
                0.51099891
            ],
            "photocathode": [
                850,
                3431,
                769,
                3804,
                1122,
                914,
                3721,
                3779,
                3015,
                3550,
                3641,
                8108,
                487,
                8249,
                3655,
                4514,
                2550,
                2431,
                6523,
                5507,
                8100,
                8155,
                2551,
                6439,
                2889,
                8234,
                3659,
                3523,
                3528,
                3550,
                2126,
                8103,
                8066,
                3016,
                3696,
                2699,
                3629,
                554,
                274,
                2246,
                3765,
                5483,
                2049,
                646,
                7953,
                5915,
                2574,
                2609,
                2437,
                677,
                1255,
                3607,
                4166,
                3649,
                3499,
                8101,
                3600,
                3437,
                2463,
                1062,
                8201,
                1360,
                1781,
                3522,
                2690,
                632,
                6912,
                484,
                1314,
                2,
                8222,
                1985,
                3550,
                5073,
                3569,
                2940,
                2562,
                3645,
                3562,
                2774,
                2804,
                1176,
                2440,
                8283,
                1328,
                516,
                747,
                742,
                2947,
                8194,
                6313,
                324,
                2415,
                3513,
                3010,
                2740,
                3151,
                621,
                8277,
                3575,
                571,
                2413,
                1270,
                3619,
                337,
                3606,
                3603,
                3646,
                3603,
                1773,
                3559,
                3489,
                3583,
                3567,
                4351,
                5270,
                520,
                2320,
                2426,
                3635,
                3371,
                3443,
                8309,
                2235,
                832,
                2941,
                8131,
                3583,
                3657,
                2042,
                3622,
                1893,
                3433,
                6458,
                8175,
                1284,
                8177,
                1098,
                3258,
                6084,
                2064,
                3265,
                7087,
                1300,
                8172,
                108,
                1573,
                863,
                2073,
                3466,
                3602,
                1821,
                7086,
                7145,
                1309,
                2897,
                8061,
                1605,
                3958,
                2729,
                8146,
                3586,
                2724,
                3599,
                3622,
                3603,
                3569,
                3570,
                3585,
                1023,
                3625,
                2538,
                2658,
                3523,
                6689,
                1230,
                6267,
                2930,
                4256,
                5170,
                3589,
                514,
                2176,
                8220,
                3662,
                6405,
                3517,
                7944,
                8189,
                894,
                2583,
                3415,
                10899,
                2391,
                3651,
                3531,
                8173,
                8021,
                3568,
                525,
                3540,
                3479,
                3895,
                1817,
                2728,
                3584,
                2354,
                7989,
                5775,
                1656,
                2174,
                3638,
                2812,
                3932,
                3503,
                504,
                3648,
                4627,
                3549,
                3497,
                3848,
                3627,
                3215,
                5370,
                921,
                8031,
                3513,
                6369,
                3725,
                1749,
                395,
                1742,
                8217,
                2628,
                8218,
                3307,
                7905,
                3643,
                278,
                2948,
                3173,
                3582,
                2761,
                3670,
                3644,
                4833,
                749,
                8005,
                3536,
                609,
                5392,
                549,
                3417,
                3527,
                865,
                4000,
                5005,
                8195,
                314,
                1521,
                3507,
                3024,
                2488,
                702,
                1786,
                3062,
                3541,
                2108,
                3551,
                2820,
                2156,
                3671,
                943,
                3252,
                3316,
                3654,
                1888,
                2038,
                1711,
                5658,
                3429,
                3520,
                3651,
                933,
                3602,
                3665,
                3638,
                3194,
                1858,
                8254,
                3610,
                1742,
                3722,
                8420,
                4516,
                2700,
                7968,
                2151,
                293,
                2644,
                2587,
                3562,
                8331,
                4861,
                6615,
                3600,
                8225,
                5757,
                3316,
                3546,
                3245,
                1758,
                8388,
                546,
                3360,
                1713,
                546,
                3607,
                1773,
                3541,
                3497,
                1903,
                8134,
                8162,
                1356,
                5303,
                7495,
                3607,
                9793,
                5889,
                8092,
                537,
                1262,
                3632,
                3556,
                3609,
                7137,
                3621,
                274,
                3332,
                3606,
                3621,
                8037,
                3551,
                3457,
                1288,
                2304,
                3514,
                2671,
                3705,
                3371,
                2422,
                3519,
                2146,
                3656,
                3676,
                896,
                592,
                3585,
                4154,
                3481,
                3670,
                2313,
                5277,
                3847,
                3476,
                3709,
                3511,
                3931,
                1914,
                3252,
                3993,
                4276,
                8021,
                3331,
                6886,
                1186,
                1485,
                6203,
                6216,
                3519,
                3640,
                1878,
                3505,
                577,
                3873,
                3049,
                3212,
                5315,
                4660,
                3207,
                5251,
                2599,
                2131,
                373,
                1708,
                1580,
                3629,
                3473,
                2841,
                3588,
                3630,
                6132,
                4082,
                3507,
                1834,
                2041,
                2907,
                1150,
                3587,
                1666,
                5108,
                3665,
                3499,
                8187,
                2727,
                3661,
                8167,
                156,
                6286,
                499,
                5127,
                2907,
                161,
                2996,
                8170,
                843,
                3596,
                8079,
                928,
                3566,
                540,
                3113,
                1105,
                3659,
                5721,
                1048,
                1094,
                956,
                3603,
                3582,
                2050,
                8043,
                3513,
                4312,
                6581,
                6339,
                1911,
                4499,
                2846,
                1771,
                5570,
                3636,
                4805,
                2482,
                514,
                3879,
                2311,
                3680,
                3673,
                2476,
                3689,
                316,
                3945,
                8010,
                2925,
                2991,
                3576,
                3895,
                5041,
                8171,
                3466,
                3910,
                5008,
                3596,
                3470,
                5106,
                3618,
                518,
                3085,
                3753,
                1040,
                3491,
                3606,
                405,
                8137,
                373,
                2311,
                1565,
                2153,
                1869,
                3627,
                2460,
                359,
                3059,
                3096,
                1341,
                3432,
                2096,
                3543
            ]
        },
        "detections": 500,
        "events": 64607
    }
}