{
    "job_args": {
        "metric_limit": 500,
        "seed": 315979979
    },
    "job_id": "batch_111_do_500",
    "result": {
        "collections": {
            "crystal": [
                0.51099891,
                0.5985485327421793,
                0.40759550148000945,
                0.5109989099999999,
                1.157002648640952,
                1.157002648640952,
                1.1570026486409524,
                1.1570026486409521,
                0.51099891,
                0.51099891,
                0.4534764873013054,
                1.1570026486409521,
                0.5109989099999999,
                0.30259802054187235,
                0.08820240000000001,
                0.029530096808003004,
                0.8824059902793865,
                0.022475807258584835,
                0.02621320598916066,
                0.41499940861817575,
                0.4415593202841783,
                0.8368926214231989,
                0.8262482388431637,
                0.51099891,
                0.13666883452668405,
                0.3921157173548693,
                0.51099891,
                0.5109989100000001,
                0.3775789761165729,
                0.5109989099999999,
                0.5109989100000001,
                0.7869112046944571,
                0.11706843001184904,
                0.05199312606340678,
                0.02525136175260195,
                0.5109989100000001,
                0.51099891,
                0.7674138594001261,
                0.21665035565190519,
                0.51099891,
                1.1570026486409524,
                0.35368999925468836,
                0.17421417999213437,
                0.06161893021495635,
                0.09183674352564891,
                0.428970220539582,
                0.4416602778386587,
                0.5109989100000001,
                0.06955980643754917,
                0.32228092169314715,
                0.073039,
                0.31643589881317,
                0.14310415251452213,
                1.668001558640952,
                0.5109989099999999,
                0.0852354,
                0.07303899999999999,
                0.43347364206948147,
                0.51099891,
                0.5058564616542625,
                0.34115566523701574,
                0.4816378794833763,
                1.1570026486409524,
                0.36609555551007605,
                0.06659760272919069,
                0.16583603314349696,
                0.51099891,
                0.4210122061323068,
                0.5109989100000001,
                0.6883463386757356,
                0.5109989099999999,
                0.5109989100000001,
                0.553097174610041,
                0.20876094341283224,
                0.5109989099999999,
                0.6874649064722718,
                0.09013375743047991,
                1.1570026486409521,
                0.1340853472279112,
                0.15577748075921233,
                0.830369199907915,
                0.08523539999999999,
                1.1570026486409524,
                0.51099891,
                0.7643749626281364,
                0.7741259922004633,
                0.4915847170392707,
                0.26760902954624943,
                0.33311107166909903,
                0.51099891,
                0.12110062567031844,
                1.1570026486409524,
                0.3613895027369761,
                0.48039702648388655,
                0.4413156939061097,
                1.157002648640952,
                0.4587312940394801,
                0.51099891,
                0.7873450385972725,
                0.5109989100000001,
                0.22147468567329942,
                0.2688750872762772,
                0.51099891,
                0.5033382475943289,
                0.29642903760563044,
                0.51099891,
                0.6493368708481356,
                0.3489322920810893,
                0.8055180114589113,
                1.1570026486409521,
                0.6529849417841055,
                0.4044597528679912,
                0.2692901867176522,
                0.5109989099999999,
                0.2863117340542403,
                0.5415312488002149,
                0.07525,
                0.29160568894993544,
                0.627314179871587,
                0.3055424241417321,
                1.157002648640952,
                0.2889783199220758,
                0.51099891,
                0.3734126249372439,
                0.5109989100000001,
                0.029860805843287964,
                0.664435902380295,
                0.8635832451426148,
                0.3317427175159239,
                0.51099891,
                0.35786292164115585,
                0.5109989100000001,
                0.35755305946044275,
                0.5109989099999999,
                0.33225479457348084,
                0.5109989099999999,
                0.51099891,
                0.4690516026030066,
                0.40841720363860134,
                0.18881718113363366,
                0.039672926004645837,
                0.050060045194549874,
                0.465406075674657,
                0.6786381749314989,
                0.26784791113968853,
                0.018916646952207627,
                0.4427743316570487,
                0.51099891,
                0.5174380559746656,
                0.51099891,
                1.1570026486409524,
                0.45430614964937366,
                0.51099891,
                0.37709045864158347,
                0.3231530047406249,
                1.1570026486409521,
                0.51099891,
                0.4106435242274138,
                0.4950014677775892,
                0.38646387344946215,
                0.07303899999999999,
                0.5109989100000001,
                0.49311602481707084,
                0.3137737424181701,
                1.5415885264075069,
                0.5565604818268169,
                0.51099891,
                0.3744747847284403,
                0.5109989099999999,
                0.34360528356710984,
                0.39718723113782417,
                0.51099891,
                0.51099891,
                0.4336199074408223,
                0.20027085597321992,
                0.06263048717169323,
                0.2571404738620897,
                0.3366926404854335,
                0.07169303155677142,
                1.1570026486409521,
                0.51099891,
                1.1570026486409521,
                0.3075730983891277,
                0.51099891,
                0.24274996121988152,
                0.4814225483003295,
                0.05786019646939621,
                0.51099891,
                0.5109989100000001,
                0.5109989099999999,
                0.5109989099999999,
                0.02933315266776748,
                0.51099891,
                0.29230225829517703,
                0.07525,
                0.2999557627155467,
                0.48312993378625035,
                1.1570026486409521,
                0.2923557940130212,
                1.1570026486409524,
                0.8497865926104539,
                1.1570026486409521,
                0.51099891,
                0.39803984437007395,
                0.5490016100909425,
                0.5109989099999999,
                1.014493402988025,
                0.2520814942995437,
                0.6285682578991552,
                0.5109989099999999,
                0.0636830422542895,
                0.51099891,
                0.3000334508721057,
                1.1570026486409517,
                0.5109989100000001,
                0.543059282198099,
                0.06548787006478873,
                0.5109989100000001,
                0.5109989099999999,
                0.3460972436019727,
                0.5109989099999999,
                0.17607439121515317,
                0.0876557,
                1.1570026486409521,
                1.157002648640952,
                0.07859317249201397,
                0.07303900000000002,
                0.5109989099999999,
                0.073039,
                0.09566918976131356,
                0.5409573713926601,
                0.5109989100000001,
                0.5109989100000001,
                0.3964316873284395,
                0.5109989100000001,
                0.6525489643629395,
                0.20089905957159845,
                0.4181416473354009,
                0.03942622153709686,
                1.1570026486409524,
                0.5923254771929779,
                1.157002648640952,
                0.3811891688668238,
                0.07525,
                0.51099891,
                0.0447325,
                0.9381540567713328,
                0.41720134869428976,
                0.5109989100000001,
                0.37846245836524484,
                0.05174969225606296,
                0.07525,
                0.073039,
                0.45856306297714844,
                0.7829769211220052,
                1.1570026486409521,
                0.23085073682035656,
                0.08753399999999999,
                0.23631859980533126,
                0.51099891,
                0.5109989100000001,
                0.15183315475880987,
                0.8483844840698813,
                0.9028647188635862,
                0.7781789293366603,
                0.5091456298889434,
                0.7924935957041258,
                0.6998373895003935,
                0.51099891,
                0.13896786592177096,
                0.5109989099999999,
                0.3076945200968533,
                0.8752327227720422,
                0.05442786224945983,
                0.5109989100000001,
                0.51099891,
                0.07524999999999998,
                1.1065728366651237,
                0.2694774793645575,
                0.32714092966212543,
                0.2820497531506893,
                0.04489045980652706,
                0.3953767732735086,
                0.51099891,
                0.14620139139787813,
                0.51099891,
                0.5109989099999999,
                0.11896617582776825,
                1.1570026486409521,
                0.51099891,
                0.51099891,
                0.2612979035211595,
                0.31322641076558,
                0.05250389999999999,
                1.1570026486409521,
                1.1570026486409524,
                0.4192271794686594,
                0.8843092915249113,
                0.002389142399548627,
                1.1570026486409524,
                0.51099891,
                0.2540323496896812,
                0.15176499615926253,
                1.1570026486409526,
                0.2597733550883593,
                0.3335305737707465,
                0.2439771876386964,
                0.440913211829772,
                0.51099891,
                0.13210703184943665,
                0.20390164983256182,
                0.3510091539130439,
                1.1570026486409521,
                1.157002648640952,
                0.35903454720688177,
                0.46631761423805357,
                0.2877161057443168,
                0.51099891,
                0.51099891,
                0.3922607360630671,
                0.008153550030151184,
                0.329556351634488,
                0.51099891,
                0.250595887660924,
                0.5380772547308853,
                0.3074202607083232,
                0.290306576715442,
                0.5109989100000001,
                0.28559418643240286,
                0.5720454571895461,
                0.51099891,
                0.5109989099999999,
                0.3897908126866282,
                1.1570026486409521,
                0.6846648088295827,
                0.449080346313851,
                1.157002648640952,
                0.4996553955806786,
                1.1570026486409524,
                0.5109989100000001,
                0.5109989099999999,
                0.3089305308042755,
                0.4550448348962789,
                0.2867311978630488,
                0.4051829074620582,
                0.36265632681948523,
                0.51099891,
                0.6867785470040115,
                0.15272912757158208,
                0.8397854884943482,
                0.8263546277298144,
                0.36502890846812197,
                0.19128093165258275,
                0.07303899999999999,
                0.7597833897215966,
                0.8285427087132828,
                0.3479339787810855,
                0.27196826638040317,
                1.157002648640952,
                0.7834983181158048,
                0.9679570483001232,
                1.0612235427432766,
                0.51099891,
                0.07525,
                1.1570026486409524,
                0.11580206043663441,
                0.34242515557222464,
                0.51099891,
                0.4559181717741363,
                0.40109698689445594,
                0.9632601375251527,
                0.3570604438311855,
                0.5109989099999999,
                0.9696216533516836,
                0.6883238705589829,
                1.1570026486409521,
                0.51099891,
                0.6355511040617565,
                0.51099891,
                0.51099891,
                0.3576883673573464,
                0.9448631648499404,
                1.1570026486409524,
                0.5346091997582058,
                0.27365697424594443,
                0.5109989099999999,
                0.5109989099999999,
                0.2958720235574992,
                0.5109989100000001,
                0.18280814200442258,
                0.51099891,
                0.5109989100000001,
                0.07303899999999999,
                0.7465578743203619,
                0.6765133035165581,
                0.51099891,
                0.406310857975705,
                0.894657485599068,
                0.459651231541078,
                0.25114202088737686,
                0.24969129932051423,
                0.296831453648576,
                0.48040514810638085,
                0.4562232140107509,
                0.021969248040286438,
                0.12981438411073054,
                0.137970632537746,
                0.9216883018325834,
                1.1570026486409521,
                0.40001707490149135,
                0.2713319054729899,
                0.21016831549636816,
                0.5527027592188418,
                0.41968400664966954,
                0.219191861792344,
                0.51099891,
                0.454996819634634,
                1.1570026486409521,
                0.51099891,
                0.6101701960809711,
                0.084299233301601,
                0.17107559442157516,
                0.5109989099999999,
                0.7799120177700595,
                0.23860203760299462,
                0.640042548123881,
                0.10703695031127142,
                0.4517043722261058,
                0.4466207137023857,
                0.19312742061639565,
                1.157002648640952,
                0.51099891,
                1.1570026486409521,
                0.5109989100000001,
                1.1570026486409521,
                0.33690816527080647,
                0.073039,
                0.3476431714146976,
                0.9297566585286349,
                0.28563456014113014,
                0.5109989099999999,
                0.046640499999999994,
                1.1570026486409521,
                0.51099891,
                0.51099891,
                0.3828249502097115,
                0.18090918396719516,
                0.51099891,
                1.1570026486409524,
                0.51099891,
                0.07525,
                0.5109989100000001,
                0.5109989099999999,
                0.51099891,
                0.51099891,
                1.0867662735217896,
                1.1570026486409521,
                0.11266043937260917,
                0.5482306414326739,
                0.51099891,
                0.47796910999999986,
                0.9139742268391274,
                0.51099891,
                0.2793497606382751,
                0.40159049200837416,
                0.054365535528417226,
                0.5109989100000001,
                0.2497806108994012,
                0.26515397309471006,
                0.10178119029852996,
                0.8482908632982482,
                0.5304957801104546,
                0.48703290634836016,
                0.5109989100000001,
                0.12029345505442479,
                0.51099891,
                0.3096326966451379,
                0.51099891,
                0.19589039448063494,
                0.413437192176046,
                0.5587923774650849,
                0.51099891,
                1.157002648640952,
                1.1570026486409524,
                0.23993147873275059,
                0.42393055646292066,
                0.14630985968962099,
                0.07525,
                0.3436473825845178,
                1.1570026486409521,
                0.07525000000000001,
                0.51099891,
                0.340463426237692,
                1.1570026486409521,
                0.5109989100000001,
                0.7641544028098664,
                0.51099891,
                0.27291786522300776,
                1.1570026486409524,
                0.3333794975691734
            ],
            "photocathode": [
                3540,
                4268,
                2766,
                3481,
                8054,
                8301,
                8355,
                7889,
                3632,
                3606,
                3100,
                7993,
                3582,
                2222,
                629,
                198,
                6093,
                153,
                175,
                2807,
                3206,
                5852,
                5639,
                3583,
                977,
                2732,
                3554,
                3636,
                2739,
                3527,
                3501,
                5506,
                862,
                359,
                175,
                3610,
                3626,
                5375,
                1582,
                3536,
                8134,
                2541,
                1224,
                463,
                673,
                3140,
                3126,
                3540,
                473,
                2279,
                539,
                2242,
                1027,
                11531,
                3606,
                584,
                513,
                2981,
                3483,
                3475,
                2469,
                3367,
                8208,
                2607,
                465,
                1149,
                3535,
                2962,
                3639,
                4673,
                3614,
                3426,
                3907,
                1488,
                3610,
                5017,
                633,
                8129,
                873,
                1108,
                5642,
                617,
                8001,
                3612,
                5257,
                5563,
                3429,
                1887,
                2459,
                3572,
                851,
                8144,
                2477,
                3378,
                3153,
                8170,
                3143,
                3466,
                5596,
                3473,
                1629,
                1878,
                3544,
                3459,
                2225,
                3622,
                4596,
                2365,
                5647,
                8146,
                4657,
                2807,
                1959,
                3495,
                2034,
                3793,
                486,
                2100,
                4414,
                2243,
                7980,
                1949,
                3506,
                2680,
                3679,
                198,
                4739,
                6123,
                2355,
                3592,
                2513,
                3492,
                2468,
                3539,
                2354,
                3533,
                3568,
                3478,
                2919,
                1303,
                296,
                360,
                3479,
                4572,
                1960,
                115,
                3080,
                3696,
                3472,
                3618,
                8040,
                3207,
                3602,
                2645,
                2266,
                7928,
                3486,
                2943,
                3375,
                2729,
                488,
                3607,
                3411,
                2294,
                10856,
                3985,
                3632,
                2584,
                3510,
                2422,
                2784,
                3573,
                3611,
                3123,
                1498,
                444,
                1923,
                2381,
                503,
                8094,
                3585,
                8077,
                2156,
                3579,
                1646,
                3312,
                461,
                3636,
                3479,
                3577,
                3580,
                203,
                3620,
                2052,
                514,
                2057,
                3407,
                8090,
                2052,
                8318,
                5985,
                7872,
                3655,
                2832,
                3883,
                3554,
                7306,
                1704,
                4428,
                3656,
                453,
                3608,
                2079,
                8236,
                3624,
                3745,
                459,
                3576,
                3668,
                2430,
                3562,
                1181,
                610,
                8143,
                8000,
                574,
                508,
                3555,
                497,
                678,
                3851,
                3603,
                3526,
                2762,
                3508,
                4637,
                1395,
                2946,
                294,
                8077,
                4147,
                8078,
                2770,
                596,
                3673,
                313,
                6544,
                2847,
                3576,
                2646,
                387,
                569,
                453,
                3192,
                5771,
                8123,
                1562,
                598,
                1651,
                3649,
                3458,
                1176,
                5900,
                6382,
                5517,
                3548,
                5572,
                4837,
                3646,
                992,
                3588,
                2178,
                6256,
                363,
                3372,
                3665,
                505,
                7702,
                1992,
                2175,
                1995,
                307,
                2857,
                3591,
                1037,
                3635,
                3626,
                874,
                8122,
                3591,
                3576,
                1728,
                2274,
                344,
                8056,
                7953,
                2978,
                6335,
                11,
                8102,
                3529,
                1809,
                1041,
                8001,
                1804,
                2230,
                1716,
                3163,
                3544,
                861,
                1471,
                2490,
                8023,
                8230,
                2583,
                3343,
                2006,
                3556,
                3497,
                2819,
                60,
                2410,
                3610,
                1762,
                3815,
                2191,
                2040,
                3584,
                1965,
                4003,
                3533,
                3565,
                2716,
                8087,
                4624,
                3180,
                8143,
                3435,
                8380,
                3686,
                3417,
                2161,
                3224,
                2061,
                2872,
                2540,
                3576,
                4770,
                1043,
                5836,
                5764,
                2657,
                1330,
                544,
                5292,
                5886,
                2469,
                1910,
                7870,
                5628,
                6943,
                7548,
                3548,
                527,
                7946,
                807,
                2298,
                3597,
                3185,
                2974,
                6788,
                2559,
                3567,
                6736,
                4794,
                8220,
                3529,
                4443,
                3493,
                3531,
                2522,
                6632,
                8235,
                3619,
                1826,
                3551,
                3563,
                1990,
                3569,
                1270,
                3607,
                3563,
                528,
                5422,
                4791,
                3603,
                2962,
                6350,
                3229,
                1765,
                1853,
                2201,
                3519,
                3096,
                152,
                906,
                993,
                6511,
                8095,
                2812,
                1915,
                1448,
                3941,
                2885,
                1499,
                3565,
                3185,
                8094,
                3602,
                4461,
                568,
                1236,
                3557,
                5462,
                1680,
                4449,
                760,
                3190,
                3095,
                1309,
                8028,
                3650,
                7964,
                3566,
                8123,
                2343,
                516,
                2460,
                6467,
                1993,
                3680,
                303,
                8144,
                3614,
                3569,
                2741,
                1227,
                3469,
                8312,
                3610,
                542,
                3752,
                3570,
                3556,
                3481,
                7516,
                8203,
                778,
                3894,
                3565,
                3419,
                6532,
                3594,
                1971,
                2876,
                395,
                3610,
                1790,
                1789,
                710,
                5990,
                3618,
                3524,
                3680,
                846,
                3551,
                2105,
                3701,
                1295,
                2928,
                3993,
                3517,
                8043,
                7971,
                1763,
                2893,
                988,
                550,
                2381,
                8338,
                564,
                3489,
                2318,
                8078,
                3611,
                5493,
                3668,
                1915,
                8216,
                2304
            ]
        },
        "detections": 500,
        "events": 56073
    }
}