{
    "job_args": {
        "metric_limit": 500,
        "seed": 4189562198
    },
    "job_id": "batch_139_do_500",
    "result": {
        "collections": {
            "crystal": [
                0.51099891,
                1.157002648640952,
                1.0245411286085009,
                1.1570026486409524,
                0.835474389945928,
                0.51099891,
                0.6609073944249635,
                0.23203705271055847,
                0.7459482369360537,
                0.31650107428054264,
                0.3076392099373829,
                0.8678365397388437,
                0.51099891,
                0.51099891,
                0.51099891,
                0.01989892917096714,
                0.04365022386452111,
                0.2896289785591471,
                0.38696544859320836,
                0.24403811958367433,
                0.5813717893014081,
                0.04467377947641027,
                0.51099891,
                0.7981865731775605,
                0.51099891,
                1.1570026486409521,
                0.2158568913763085,
                0.37045091963267046,
                1.1570026486409524,
                0.8978939414555239,
                0.9751145112319897,
                0.385651565182943,
                1.1570026486409521,
                0.832424135830258,
                0.38155032869513433,
                0.51099891,
                0.7823431513876736,
                0.936066713216069,
                0.16923658150258916,
                0.51099891,
                0.51099891,
                1.1570026486409521,
                0.4057470808032566,
                0.16271741176256882,
                0.07883793603132061,
                0.22759552655226165,
                0.6626543130716951,
                0.6869651948814831,
                0.26273467195867695,
                0.5561577470327881,
                0.04664049999999999,
                1.1570026486409521,
                1.1570026486409521,
                0.633902806467509,
                0.4890183198727438,
                0.51099891,
                0.1917762579916773,
                0.51099891,
                0.17523591286118345,
                0.5109989100000001,
                0.1420958232168958,
                0.51099891,
                0.51099891,
                0.5079404683992471,
                0.51099891,
                0.5109989099999999,
                0.4754153350509078,
                0.19213796320308646,
                0.07996101107304915,
                0.3262782335506119,
                0.39195455162528836,
                1.1570026486409521,
                1.157002648640952,
                0.4512355189003733,
                0.5109989100000001,
                1.1570026486409524,
                1.077246710239628,
                0.07043212435163457,
                0.18365482686183254,
                0.03761375386134719,
                1.1570026486409521,
                0.4308743630897862,
                0.51099891,
                0.07303899999999999,
                0.32892457773651934,
                0.51099891,
                0.4722416888775283,
                0.3152314425712443,
                0.07303900000000002,
                0.07303899999999999,
                0.6222645112125267,
                0.24662093962048764,
                0.4102640877277972,
                1.157002648640952,
                0.20936823706947927,
                0.422156216912426,
                1.1570026486409524,
                0.51099891,
                1.157002648640952,
                1.157002648640952,
                0.01896137855399238,
                0.4372073332093033,
                0.6456227092887499,
                0.28721748578618256,
                0.07525,
                0.9678604672887293,
                0.8945552856081733,
                0.09368504608441819,
                0.4937823685844685,
                0.6074615958256767,
                0.03936947874780827,
                0.8945731100264234,
                1.1570026486409524,
                0.8741526559170788,
                0.021707269105529614,
                0.51099891,
                0.0923251778788361,
                0.35463296780628395,
                0.51099891,
                0.40925185229453537,
                0.46165969004805146,
                0.5109989099999999,
                0.4352649398611302,
                0.2278792480737049,
                0.00686106849244017,
                0.4525160775047598,
                0.14037974725718028,
                1.1570026486409524,
                0.015292658250719349,
                0.5588177119724209,
                0.026708050916795623,
                0.5916752699066096,
                0.01844338444640442,
                0.08942079457181079,
                0.6220723576499074,
                0.07525,
                0.51099891,
                1.1570026486409524,
                0.1731868596316734,
                0.042220200000000006,
                0.8855151286091061,
                1.0573825837615898,
                0.51099891,
                0.5109989100000001,
                0.4403421858741567,
                0.19797840506090925,
                0.5375287674176303,
                0.5005164578666079,
                0.38145970714426586,
                0.9161031752032233,
                0.51099891,
                0.51099891,
                1.1570026486409524,
                0.47931642619945913,
                0.064523941336947,
                1.1456654915782067,
                0.2785271201800776,
                0.16174008540220935,
                0.5109989100000001,
                0.45564593426154143,
                0.20006351400446853,
                0.44669741909876215,
                1.157002648640952,
                0.04757047310315532,
                0.7943956067461392,
                1.1570026486409521,
                0.32897265002426324,
                0.51099891,
                0.5109989100000001,
                0.07525,
                1.1570026486409521,
                1.156343365009026,
                0.06960390085813123,
                0.25369235886377695,
                0.07524999999999998,
                0.3505262979474536,
                0.9802534190618917,
                0.5314719519798027,
                0.1323568107481607,
                0.07636907377055445,
                1.1570026486409524,
                0.51099891,
                0.5109989100000001,
                0.5109989100000001,
                1.1570026486409521,
                1.1570026486409521,
                0.8497027096478282,
                0.2599742174746889,
                1.1570026486409521,
                0.51099891,
                1.157002648640952,
                0.5109989099999999,
                0.6622224846835975,
                0.49122280206521146,
                0.06134886516713245,
                0.5370315650524794,
                0.51099891,
                0.20964336301859043,
                0.6538325356756258,
                0.24098401223704752,
                0.5109989100000001,
                0.30279038807686676,
                0.08813207322344407,
                0.3414559223910134,
                0.3310406329730322,
                0.04557664861577526,
                0.5109989100000001,
                0.6153299124254232,
                0.51099891,
                0.6180925720937063,
                0.2831419121198623,
                0.5016914064562369,
                0.8444443701822504,
                0.729756221229098,
                0.51099891,
                0.1009136328583915,
                0.7396553685579703,
                1.1570026486409521,
                0.10191934385281153,
                0.51099891,
                0.010124267465014936,
                0.7042528292570501,
                0.6317819885396513,
                0.05633246908255825,
                0.3792154006713132,
                0.6883095265086011,
                1.1570026486409521,
                1.1570026486409521,
                0.49687110668529794,
                1.1570026486409521,
                0.1692342074330705,
                0.5109989100000001,
                1.1570026486409524,
                0.4472925586919882,
                1.1570026486409524,
                0.41106564826324943,
                1.157002648640952,
                0.5994778148325355,
                0.7352470355125132,
                0.32660088193725134,
                0.5109989100000001,
                1.157002648640952,
                0.5109989100000001,
                1.157002648640952,
                0.27781517231204256,
                0.51099891,
                0.23713976013410365,
                0.8401647902341621,
                0.6572966893096752,
                0.008718216212108276,
                0.3093959437557156,
                0.005149345150829321,
                0.684828091978733,
                0.51099891,
                0.51099891,
                0.30069063921812167,
                0.7859226604102483,
                0.2625458354675908,
                0.48171425222315156,
                0.51099891,
                0.1430146005656477,
                0.6872565052869417,
                0.0904371743503411,
                0.2853014512870259,
                0.7948836281024224,
                0.2989890255764609,
                0.043185579778410366,
                0.04534660804272306,
                0.51099891,
                0.51099891,
                0.5109989100000001,
                0.51099891,
                0.07525,
                1.1570026486409521,
                0.2253062523392356,
                0.3187231645802745,
                0.51099891,
                0.2610209219265998,
                0.32338956163092347,
                0.22049363798371024,
                0.6318270979807319,
                0.5109989099999999,
                0.51099891,
                0.7047296803613711,
                0.15389903371262453,
                0.51099891,
                0.21748741391101267,
                0.3777689006133392,
                0.017983728877923266,
                1.1570026486409524,
                0.07524999999999998,
                0.7372364793779185,
                0.51099891,
                0.51099891,
                0.2855653896540904,
                1.1570026486409524,
                0.2884238751248611,
                0.32537266495046263,
                0.51099891,
                0.51099891,
                0.3742751215655381,
                0.5262646160417487,
                0.3145699425608408,
                0.07525859468621843,
                0.7460993363101107,
                0.5460748842410579,
                0.015897293141012403,
                1.1570026486409524,
                0.3921341892503332,
                0.6758964675057628,
                0.5109989099999999,
                0.2702629770722961,
                0.36147432315668315,
                0.2986073017622287,
                0.7634365035151791,
                0.3044196117532516,
                1.1570026486409524,
                0.3008749351650123,
                0.41765187203616594,
                0.3710043948315217,
                0.2535281962370306,
                0.06763497148039,
                0.33069302746808277,
                0.3457239059591076,
                1.1570026486409524,
                0.5696124656425574,
                0.3221565963708097,
                0.15631626828040202,
                1.157002648640952,
                0.51099891,
                0.51099891,
                0.23093798171457286,
                0.51099891,
                0.4664231167934165,
                0.2510526275342161,
                1.1570026486409521,
                0.180819595105868,
                0.9995311635212198,
                0.6012464743346639,
                0.8320232168320499,
                0.51099891,
                0.9843251521742169,
                1.1570026486409521,
                0.2973208570870315,
                0.9744192914211711,
                0.4655610654293359,
                1.1570026486409524,
                0.24810562885513437,
                0.38586566279462114,
                1.157002648640952,
                0.5109989099999999,
                0.27556746833478535,
                0.4776102677608871,
                0.08333732615077438,
                0.51099891,
                0.5109989100000001,
                0.5109063068627819,
                0.07124244242093752,
                0.22285616488108362,
                0.1247313170257466,
                0.31742364187921246,
                1.1570026486409521,
                0.17621317639319847,
                0.26489816934247973,
                0.11320611483173004,
                0.7700606987744332,
                0.9276782786749526,
                0.3260882210111543,
                0.396331560669546,
                0.44040993458986266,
                0.6462322309293544,
                0.51099891,
                0.4914546308785398,
                0.5301263645769271,
                0.9171996659711801,
                0.15291698680212948,
                0.07059236123030072,
                0.2607468446031911,
                0.084131563575367,
                0.3160981477965577,
                0.1216597009950881,
                0.46266312989362834,
                0.9251142996944868,
                0.12539147628766356,
                0.8540996531132174,
                0.5109989100000001,
                0.51099891,
                0.51099891,
                0.5727973157936166,
                0.5660139461212482,
                0.38788351139942234,
                0.2483195392848373,
                0.47673926030891106,
                1.1570026486409521,
                0.4346619105926354,
                0.09892833479631859,
                0.23989800585370266,
                0.51099891,
                0.51099891,
                0.44046705351054766,
                0.2657698488217156,
                0.3343024637823077,
                0.02264449640144034,
                0.5109989099999999,
                0.8501542602483062,
                0.45530462733250515,
                0.32792271039474075,
                0.0852354,
                0.6503993104900914,
                0.51099891,
                0.24674376171859208,
                0.9353098355615065,
                0.51099891,
                0.07524999999999998,
                0.44895220524159674,
                1.1485740140813396,
                0.51099891,
                0.5109989099999999,
                0.1419135261741572,
                0.2802654921173636,
                0.3334616246879859,
                0.11166423888389364,
                0.51099891,
                0.40442086401063865,
                0.51099891,
                0.4684974328720998,
                0.5109989099999999,
                0.007422591717989535,
                0.073039,
                0.51099891,
                0.5109989100000001,
                0.46899271493884503,
                0.16010471875414517,
                0.12044642900112901,
                0.34768783723459223,
                0.8375964500047094,
                0.898561595340471,
                0.06216310954660411,
                0.3738944078750843,
                0.19038634154832854,
                0.51099891,
                0.51099891,
                0.3299526266939171,
                0.7373609831007117,
                0.51099891,
                0.073039,
                0.51099891,
                0.2169869099754352,
                0.45848537669810074,
                0.3917430591302372,
                1.0015124609388806,
                0.008597249926979078,
                0.1928272841968776,
                0.19066427060969077,
                1.157002648640952,
                0.51099891,
                0.30892249254425663,
                0.5728260953306155,
                0.39744827694241763,
                0.40758581320341475,
                1.0132185733091126,
                0.23597390405953828,
                1.157002648640952,
                0.5109989100000001,
                0.00018909112580156595,
                0.5497594949857185,
                0.51099891,
                0.05331547614119153,
                0.49245523883197956,
                1.157002648640952,
                0.8689304303676622,
                0.2526013069681766,
                0.31569732502404596,
                0.04125752138204564,
                0.51270665432613,
                0.51099891,
                0.51099891,
                0.39260974480783334,
                0.3351937218255475,
                0.6891124669184148,
                1.157002648640952,
                0.4809679669840768,
                0.2497536439500167,
                0.06673205376664904,
                0.2745594905178108,
                0.4785987881405328,
                0.1724761349453608,
                0.51099891,
                0.4864647293223723,
                0.51099891,
                0.4346270520574727,
                0.5109989100000001,
                0.2413723492560942,
                0.2197803423609046,
                0.51099891,
                0.51099891,
                0.07524999999999998,
                0.43845554221501903,
                0.7892121211801681,
                0.27980311418780196
            ],
            "photocathode": [
                3744,
                8029,
                7074,
                7987,
                5976,
                3534,
                4654,
                1582,
                5285,
                2188,
                2077,
                6145,
                3698,
                3653,
                3568,
                159,
                281,
                2049,
                2650,
                1649,
                4126,
                322,
                3559,
                5497,
                3540,
                8062,
                1558,
                2616,
                8005,
                6338,
                6808,
                2674,
                7958,
                5866,
                2752,
                3574,
                5530,
                6617,
                1175,
                3553,
                3568,
                8123,
                2854,
                1118,
                509,
                1619,
                4564,
                4732,
                1774,
                4063,
                337,
                8304,
                8059,
                4453,
                3401,
                3502,
                1351,
                3548,
                1209,
                3555,
                976,
                3520,
                3514,
                3533,
                3570,
                3558,
                3405,
                1376,
                600,
                2409,
                2828,
                8234,
                8429,
                3156,
                3547,
                8145,
                7626,
                472,
                1212,
                269,
                8522,
                3014,
                3588,
                512,
                2250,
                3649,
                3370,
                2202,
                511,
                518,
                4228,
                1681,
                2876,
                8295,
                1486,
                3004,
                7882,
                3528,
                7955,
                8088,
                131,
                3161,
                4520,
                1993,
                541,
                6854,
                6273,
                634,
                3655,
                4197,
                245,
                6451,
                7856,
                6091,
                153,
                3597,
                684,
                2574,
                3520,
                2975,
                3154,
                3698,
                3166,
                1672,
                40,
                3186,
                986,
                8118,
                103,
                4115,
                180,
                4101,
                132,
                648,
                4407,
                507,
                3535,
                8161,
                1164,
                293,
                6445,
                7295,
                3615,
                3495,
                3008,
                1399,
                3861,
                3511,
                2699,
                6512,
                3481,
                3654,
                8158,
                3349,
                437,
                7861,
                1962,
                1147,
                3688,
                3185,
                1399,
                3249,
                8203,
                318,
                5666,
                8048,
                2310,
                3548,
                3660,
                506,
                7815,
                8025,
                511,
                1827,
                507,
                2468,
                7043,
                3662,
                912,
                510,
                8298,
                3561,
                3508,
                3514,
                8185,
                8072,
                6082,
                1865,
                8137,
                3606,
                7778,
                3618,
                4752,
                3364,
                435,
                3723,
                3472,
                1406,
                4764,
                1743,
                3549,
                2117,
                634,
                2356,
                2287,
                357,
                3577,
                4279,
                3560,
                4337,
                1954,
                3530,
                6203,
                5040,
                3470,
                711,
                5196,
                8393,
                675,
                3569,
                82,
                4856,
                4390,
                410,
                2784,
                4864,
                8030,
                7931,
                3491,
                8269,
                1232,
                3653,
                8030,
                3117,
                8085,
                2794,
                8018,
                4240,
                5186,
                2242,
                3596,
                7941,
                3558,
                8343,
                1993,
                3416,
                1613,
                6015,
                4789,
                58,
                2148,
                40,
                4796,
                3546,
                3553,
                2116,
                5600,
                1789,
                3380,
                3442,
                1035,
                4799,
                626,
                1912,
                5569,
                2136,
                291,
                296,
                3567,
                3627,
                3634,
                3494,
                515,
                8029,
                1511,
                2227,
                3593,
                1814,
                2211,
                1540,
                4490,
                3606,
                3562,
                4987,
                1110,
                3521,
                1544,
                2723,
                135,
                8051,
                515,
                5247,
                3628,
                3467,
                1995,
                8184,
                1939,
                2339,
                3526,
                3659,
                2725,
                3655,
                2191,
                504,
                5256,
                4010,
                124,
                7962,
                2702,
                4756,
                3550,
                1925,
                2559,
                2124,
                5438,
                2145,
                7948,
                2087,
                3010,
                2669,
                1781,
                486,
                2394,
                2363,
                8142,
                4054,
                2266,
                1149,
                8136,
                3592,
                3460,
                1552,
                3438,
                3265,
                1742,
                8108,
                1259,
                6984,
                4134,
                6004,
                3640,
                6802,
                8256,
                2147,
                6747,
                3166,
                8176,
                1751,
                2642,
                8075,
                3524,
                1942,
                3347,
                569,
                3847,
                3474,
                3386,
                448,
                1545,
                806,
                2290,
                8198,
                1185,
                1880,
                792,
                5398,
                6479,
                2244,
                2669,
                3092,
                4447,
                3508,
                3441,
                3648,
                6483,
                1130,
                484,
                1826,
                620,
                2223,
                804,
                3242,
                6504,
                901,
                5866,
                3567,
                3595,
                3621,
                4010,
                4038,
                2697,
                1750,
                3268,
                8097,
                3099,
                700,
                1670,
                3465,
                3572,
                3177,
                1899,
                2372,
                126,
                3631,
                5880,
                3220,
                2295,
                554,
                4662,
                3491,
                1763,
                6651,
                3639,
                505,
                3136,
                8048,
                3586,
                3605,
                979,
                2026,
                2293,
                754,
                3480,
                2881,
                3537,
                3227,
                3629,
                53,
                541,
                3529,
                3509,
                3266,
                1078,
                832,
                2405,
                5770,
                6230,
                432,
                2572,
                1353,
                3537,
                3536,
                2309,
                5238,
                3655,
                481,
                3638,
                1541,
                3257,
                2657,
                6870,
                72,
                1444,
                1291,
                8252,
                3571,
                2296,
                3938,
                2774,
                3001,
                6988,
                1687,
                7891,
                3582,
                0,
                3832,
                3566,
                377,
                3361,
                8187,
                6064,
                1867,
                2296,
                271,
                3593,
                3461,
                3620,
                2755,
                2315,
                4741,
                8380,
                3505,
                1709,
                478,
                1938,
                3405,
                1217,
                3548,
                3396,
                3553,
                3063,
                3602,
                1719,
                1530,
                3515,
                3635,
                519,
                3150,
                5569,
                1955
            ]
        },
        "detections": 500,
        "events": 59433
    }
}