{
    "job_args": {
        "metric_limit": 500,
        "seed": 3136975907
    },
    "job_id": "batch_105_do_500",
    "result": {
        "collections": {
            "crystal": [
                1.1570026486409524,
                0.5109989099999999,
                0.4016786915150553,
                0.4449628324118786,
                0.8771525173247909,
                0.2349671273899461,
                0.27212446130619045,
                0.6285611227324939,
                1.1570026486409524,
                0.33288903052836794,
                1.1570026486409524,
                0.3697644729041821,
                0.5109989099999999,
                0.3421667536657325,
                0.51099891,
                0.3371640576891548,
                0.20334858120875335,
                0.43365487588691,
                0.5109989099999999,
                0.22495793844358833,
                0.4392443665893301,
                0.51099891,
                0.4397199834810977,
                0.16060798012714944,
                1.1570026486409521,
                0.6373178539742944,
                0.5109989099999999,
                0.51099891,
                0.5109989100000001,
                0.5109989100000001,
                0.49240965132441095,
                0.51099891,
                0.3034131834861352,
                0.51099891,
                0.51099891,
                1.1570026486409524,
                0.51099891,
                0.51099891,
                1.1570026486409526,
                0.08448190847923531,
                0.51099891,
                0.3639110277862626,
                0.51099891,
                0.034930529253767995,
                0.9191494101899395,
                0.04582579244977797,
                0.5045312015659011,
                0.51099891,
                0.1820004935921944,
                0.5001188854277716,
                0.248381404408217,
                0.33411167719620943,
                0.3434851469651384,
                0.51099891,
                1.157002648640952,
                0.875601760135018,
                0.5109989099999999,
                0.12426838327055173,
                1.157002648640952,
                0.2839776550507541,
                0.3500940338298566,
                0.51099891,
                0.51099891,
                0.51099891,
                0.1288368568054225,
                0.2295922585466262,
                0.51099891,
                1.157002648640952,
                0.2539271766418603,
                0.5109989100000001,
                0.51099891,
                1.1570026486409521,
                0.51099891,
                0.51099891,
                1.2915525190058619,
                0.51099891,
                0.1263632398534893,
                0.2779146335127588,
                0.3862233012487576,
                0.38135109992611804,
                0.463428111015263,
                0.42558049620986627,
                0.7004154318820087,
                0.51099891,
                0.37928012325051585,
                1.1570026486409521,
                1.1570026486409524,
                0.017879757278083885,
                0.05611928286692547,
                0.5109989100000001,
                0.4591267401129489,
                0.0387726743361867,
                0.16577735184538306,
                0.3703308656971329,
                0.51099891,
                0.1396344435239536,
                0.51099891,
                0.8725007330875016,
                0.11255555838435072,
                0.387182180242037,
                1.157002648640952,
                0.0905986849974007,
                0.08085067591202416,
                0.13189552684035233,
                0.073039,
                0.050966042904707964,
                0.8510772389893776,
                0.5211401683441595,
                0.37677758582729987,
                0.5604124140616097,
                0.49957224276525525,
                1.157002648640952,
                0.7435410369012617,
                0.51099891,
                0.1247138359015241,
                1.157002648640952,
                0.5109989099999999,
                0.5109989100000001,
                1.1570026486409524,
                0.8819069484295438,
                0.16528974636401994,
                0.05576311844179477,
                0.11751244939969818,
                0.17938576451104482,
                0.32245842390333546,
                0.51099891,
                0.5109989100000001,
                0.8030083325175924,
                0.5022739951549633,
                0.057264625253862056,
                0.5208581803482877,
                0.51099891,
                0.51099891,
                0.51099891,
                0.06675209791855774,
                0.6926889895747185,
                0.3508385277297298,
                0.1438139150816964,
                0.3813907687993625,
                1.1570026486409524,
                0.1290706837014377,
                0.18556545529790658,
                0.2082807366002084,
                0.22922425582502282,
                1.1570026486409521,
                0.1468082712312202,
                0.35803954238158986,
                1.1570026486409521,
                0.7483866674699365,
                0.07303899999999999,
                0.34584754234602255,
                0.7506631818223752,
                0.8443550081822646,
                0.06496403234364156,
                0.51099891,
                0.51099891,
                0.7796425928088779,
                0.6451538151517477,
                1.0636393739197028,
                1.1570026486409524,
                0.31258892767000895,
                0.1787927113589044,
                0.3997068680940197,
                0.51099891,
                0.33623382780460437,
                0.01361039448046747,
                1.1570026486409521,
                0.38225877469966874,
                0.07303899999999999,
                0.17914187160364353,
                0.0566259,
                0.48814878348404467,
                0.11334359168042352,
                0.5109989100000001,
                0.08938842195804965,
                0.04139088749913311,
                0.4831446442350424,
                1.157002648640952,
                0.4403931865898176,
                0.51099891,
                0.46064034152430455,
                0.3248552824663066,
                0.45460492292795773,
                0.0550857614006619,
                0.3516298317270192,
                0.7685863349881976,
                1.157002648640952,
                0.627116343507728,
                1.1570026486409524,
                0.5556118577945492,
                0.29565667678040636,
                0.2590376854998381,
                0.3467845876779092,
                0.326053658680003,
                0.08523539999999999,
                0.18402012001985796,
                0.29053797975959755,
                1.1570026486409521,
                0.51099891,
                1.1570026486409517,
                1.157002648640952,
                0.51099891,
                0.3640268736409289,
                1.157002648640952,
                0.23737788101101492,
                1.0488703260724077,
                1.157002648640952,
                0.06825647415638203,
                0.562599540147105,
                0.41193207512169905,
                0.51099891,
                1.157002648640952,
                0.5109989100000001,
                1.1570026486409521,
                0.5109989099999999,
                0.43194687424655787,
                1.1570026486409521,
                0.51099891,
                0.013630180213788257,
                0.07525,
                0.3050784178651165,
                0.8074875083718405,
                1.1570026486409521,
                0.01594830617259102,
                0.5109989100000001,
                0.18953200809222814,
                0.5109989100000001,
                0.07525000000000001,
                0.017502558413414304,
                0.7135080357469401,
                0.51099891,
                0.7216451857586119,
                0.8410762737945071,
                0.51099891,
                0.29897950725380185,
                0.027658888964057937,
                0.37679845866455247,
                0.5109989099999999,
                0.2988836058819663,
                0.5109989100000001,
                0.3283382681812125,
                0.6352956791825309,
                0.4005220276801693,
                0.37322426142910375,
                0.5109989099999999,
                0.3445929615758967,
                0.51099891,
                1.1570026486409521,
                0.4465999151165617,
                0.18500732880962062,
                0.3544014127443511,
                0.3524104384170357,
                0.06635703319818592,
                0.7545393419386861,
                0.4661135640111417,
                0.795582730401369,
                0.09672164576829834,
                0.3303070740826274,
                0.3376086741108699,
                1.1570026486409524,
                0.19986762190809615,
                0.073039,
                1.1570026486409521,
                0.23135326768051231,
                0.5109989099999999,
                0.5329624713107266,
                0.51099891,
                0.51099891,
                0.5070613283333573,
                0.3236185576231172,
                0.877912484181653,
                0.31533847633860185,
                0.06324763288496033,
                0.14825797070569272,
                1.157002648640952,
                0.280883567123355,
                0.51099891,
                1.1570026486409524,
                0.5415977955190218,
                0.2734027285666143,
                0.019359577239806525,
                0.41389667397848146,
                0.51099891,
                0.1201956988963504,
                0.12709752863950352,
                0.46087272929665263,
                0.5109989099999999,
                0.51099891,
                0.047608527042790116,
                0.24662867139917494,
                1.1570026486409524,
                0.5109989100000001,
                0.51099891,
                0.9348295525406697,
                0.51099891,
                0.29993786123676647,
                0.35889069675940377,
                2.2566388593961815,
                0.22376323748684596,
                1.1570026486409521,
                0.630380930662456,
                0.3212052985125122,
                0.5109989100000001,
                0.33945060364219215,
                1.0321527213043773,
                0.51099891,
                0.51099891,
                0.51099891,
                0.6868831024030717,
                1.1570026486409521,
                0.21178782112252667,
                0.6393726717072198,
                0.51099891,
                0.4286025616116509,
                0.07034132457846182,
                0.7023754373881337,
                0.21198904293113405,
                0.5723894492701163,
                0.6578486582523494,
                0.5109989100000001,
                1.1570026486409521,
                0.5109989100000001,
                0.51099891,
                0.2767289181099038,
                0.5109989099999999,
                0.3793408069418245,
                0.11502709507706621,
                0.03503017979295997,
                0.03629484080925843,
                0.5109989099999999,
                0.5109989099999999,
                0.6902912500830347,
                0.51099891,
                0.015863471869017542,
                0.6083736392145268,
                0.5059462014770382,
                1.1570026486409521,
                0.51099891,
                0.0407212011052549,
                0.14254340055378178,
                0.9385854829166377,
                0.04539759462171494,
                0.28697531497401996,
                0.5109989099999999,
                0.51099891,
                1.1570026486409521,
                0.51099891,
                1.0986957221300708,
                0.51099891,
                0.8939586977040237,
                0.5109989099999999,
                1.1570026486409524,
                0.794480171940556,
                0.19663471753788722,
                1.1570026486409521,
                0.43407335170156214,
                0.6196861370339211,
                0.4261932978326097,
                0.51099891,
                0.2741287863554682,
                0.2476911492230567,
                1.0024247915851412,
                0.5109989100000001,
                0.09608360522667747,
                0.27746354934261397,
                0.4714262446210945,
                0.51099891,
                0.6004181437601235,
                0.51099891,
                0.51099891,
                0.5109989099999999,
                0.4461321258336848,
                0.33325673634305925,
                0.5109989099999999,
                0.3190489797511562,
                0.5109989100000001,
                0.43931401299679707,
                0.51099891,
                1.1570026486409524,
                1.1570026486409521,
                0.9011316723635385,
                0.51099891,
                0.04664049999999999,
                1.1570026486409521,
                0.20107428977608907,
                0.9945144498209522,
                0.2910200085426435,
                0.6291465465411706,
                0.51099891,
                0.39165310955094246,
                0.51099891,
                0.51099891,
                0.10343369353648423,
                0.51099891,
                0.1202570974175232,
                0.044270415942503645,
                0.17337686749182324,
                0.51099891,
                0.10586201935495486,
                0.3128062705850285,
                0.51099891,
                0.30859342519114785,
                0.5109989099999999,
                1.1570026486409521,
                1.157002648640952,
                0.6621616063959679,
                1.1570026486409521,
                0.25376144715063964,
                0.43674380876666646,
                0.32238201430990965,
                1.1570026486409524,
                1.1570026486409524,
                0.4047279053355173,
                0.4254441943851736,
                0.5109989099999999,
                1.1570026486409521,
                1.157002648640952,
                0.10133344760334634,
                0.07525,
                0.28296781548625144,
                0.4295308456772002,
                0.08523539999999999,
                0.6023065798093126,
                0.5109989100000001,
                0.5109989099999999,
                0.51099891,
                0.16216846304200394,
                0.33303800896800717,
                0.35543736228225603,
                0.4462462513032717,
                0.2844708774120329,
                0.27137575714150647,
                0.8228067293811272,
                1.1570026486409524,
                0.51099891,
                0.12593470752602504,
                0.21279079665094294,
                0.51099891,
                0.51099891,
                0.7162284637207073,
                0.9713330357846846,
                0.8545173007730802,
                0.5109989100000001,
                0.3014420278848675,
                1.157002648640952,
                0.04123204912127437,
                0.02589293674125437,
                0.15481846750744138,
                0.51099891,
                0.21347098747281834,
                1.1570026486409521,
                0.51099891,
                1.1570026486409521,
                0.5056270394969967,
                0.5109989099999999,
                0.21589988638916563,
                0.3945623351058258,
                0.51099891,
                0.028036985019453287,
                1.157002648640952,
                0.5341179326626989,
                0.23923197249039657,
                0.5761886400220326,
                0.5109989100000001,
                0.47577059012405865,
                0.4596502899333939,
                0.28737249253777086,
                0.51099891,
                0.25352317337593866,
                0.5109989099999999,
                0.51099891,
                0.15354685365370596,
                0.5070166338794222,
                0.51099891,
                0.29225567050524337,
                0.4997318680271669,
                0.3528609497775397,
                1.1570026486409524,
                0.51099891,
                0.8692547531913792,
                0.5161768046830271,
                0.8650908474601035,
                0.1680628516243609,
                0.9488841636982914,
                0.2917243158668563,
                0.17527273967006216,
                0.8896955643185454,
                0.47197082386592926,
                0.4808541683788726,
                0.22975880917851693,
                0.11562624984628739,
                0.18013674768899873,
                0.8652582515840122,
                0.02547678022757166,
                0.6222819542925078,
                0.51099891,
                1.1570026486409524,
                0.2973421231793094,
                0.51099891,
                0.2633221389458739
            ],
            "photocathode": [
                7914,
                3551,
                2922,
                3086,
                6195,
                1630,
                1870,
                4290,
                8088,
                2359,
                8121,
                2591,
                3632,
                2433,
                3623,
                2420,
                1446,
                3146,
                3553,
                1613,
                3083,
                3614,
                3182,
                1093,
                8347,
                4409,
                3473,
                3684,
                3636,
                3611,
                3536,
                3594,
                2120,
                3539,
                3600,
                8157,
                3487,
                3544,
                8172,
                589,
                3480,
                2538,
                3606,
                237,
                6226,
                335,
                3490,
                3641,
                1248,
                3673,
                1725,
                2339,
                2470,
                3627,
                8230,
                6070,
                3530,
                800,
                8168,
                2068,
                2437,
                3616,
                3516,
                3628,
                825,
                1691,
                3646,
                8086,
                1730,
                3629,
                3650,
                8242,
                3658,
                3604,
                9168,
                3671,
                913,
                1884,
                2816,
                2639,
                3296,
                3009,
                4815,
                3559,
                2492,
                8180,
                8268,
                138,
                383,
                3588,
                3198,
                280,
                1195,
                2673,
                3526,
                1046,
                3558,
                6159,
                794,
                2688,
                7806,
                683,
                563,
                901,
                517,
                349,
                5865,
                3654,
                2610,
                4013,
                3530,
                8163,
                5145,
                3544,
                881,
                8052,
                3529,
                3562,
                8057,
                6051,
                1126,
                384,
                832,
                1299,
                2254,
                3540,
                3533,
                5655,
                3511,
                412,
                3558,
                3544,
                3551,
                3531,
                475,
                4904,
                2407,
                1041,
                2665,
                8153,
                905,
                1271,
                1473,
                1690,
                8052,
                1044,
                2621,
                7892,
                5235,
                549,
                2397,
                5269,
                6219,
                460,
                3636,
                3581,
                5539,
                4565,
                7382,
                8032,
                2138,
                1277,
                2813,
                3670,
                2312,
                98,
                8181,
                2688,
                527,
                1247,
                403,
                3452,
                795,
                3541,
                612,
                289,
                3422,
                8033,
                3145,
                3650,
                3377,
                2263,
                3125,
                374,
                2532,
                5367,
                8272,
                4370,
                8505,
                3817,
                2115,
                1935,
                2553,
                2304,
                564,
                1303,
                2098,
                8142,
                3577,
                8105,
                8203,
                3469,
                2542,
                8035,
                1659,
                7399,
                8315,
                474,
                3977,
                2864,
                3491,
                7984,
                3605,
                8090,
                3612,
                2986,
                7877,
                3642,
                100,
                490,
                2151,
                5975,
                8312,
                107,
                3444,
                1334,
                3703,
                549,
                130,
                4964,
                3691,
                5037,
                5826,
                3649,
                2116,
                162,
                2569,
                3526,
                2078,
                3662,
                2299,
                4576,
                2854,
                2669,
                3616,
                2376,
                3648,
                8135,
                3119,
                1249,
                2437,
                2473,
                487,
                5456,
                3200,
                5439,
                694,
                2352,
                2399,
                8115,
                1491,
                510,
                8153,
                1685,
                3651,
                3715,
                3701,
                3526,
                3552,
                2255,
                6181,
                2183,
                445,
                959,
                7783,
                1995,
                3688,
                7983,
                3735,
                1904,
                135,
                2856,
                3668,
                846,
                864,
                3224,
                3418,
                3611,
                367,
                1705,
                8091,
                3509,
                3614,
                6722,
                3550,
                2090,
                2549,
                15990,
                1561,
                8200,
                4410,
                2209,
                3607,
                2277,
                7300,
                3403,
                3570,
                3497,
                4687,
                8283,
                1522,
                4466,
                3537,
                2975,
                476,
                4814,
                1471,
                4064,
                4509,
                3589,
                7965,
                3641,
                3542,
                1938,
                3494,
                2633,
                814,
                271,
                257,
                3634,
                3448,
                4984,
                3562,
                103,
                4383,
                3493,
                7957,
                3629,
                248,
                1055,
                6446,
                281,
                2015,
                3498,
                3496,
                8102,
                3661,
                7535,
                3557,
                6243,
                3622,
                8004,
                5568,
                1328,
                8242,
                3046,
                4357,
                2939,
                3539,
                1888,
                1750,
                7046,
                3565,
                714,
                1941,
                3475,
                3563,
                4208,
                3547,
                3542,
                3418,
                3026,
                2367,
                3574,
                2277,
                3670,
                3128,
                3576,
                8114,
                8029,
                6368,
                3540,
                363,
                8314,
                1413,
                7023,
                1994,
                4529,
                3573,
                2676,
                3533,
                3628,
                728,
                3527,
                873,
                317,
                1253,
                3528,
                736,
                2227,
                3653,
                2128,
                3565,
                8220,
                8140,
                4638,
                8031,
                1697,
                3052,
                2160,
                8031,
                8044,
                2845,
                2876,
                3710,
                8277,
                8129,
                712,
                533,
                1974,
                3045,
                631,
                4410,
                3529,
                3547,
                3581,
                1187,
                2186,
                2473,
                3037,
                2034,
                1886,
                5666,
                8081,
                3546,
                882,
                1483,
                3586,
                3707,
                5060,
                6937,
                5977,
                3608,
                2068,
                7940,
                309,
                197,
                1032,
                3657,
                1535,
                8251,
                3458,
                7963,
                3528,
                3474,
                1520,
                2770,
                3595,
                201,
                7899,
                3836,
                1667,
                3985,
                3522,
                3334,
                3210,
                2021,
                3658,
                1853,
                3571,
                3508,
                1089,
                3553,
                3581,
                2078,
                3450,
                2468,
                7930,
                3549,
                6126,
                3648,
                6152,
                1176,
                6872,
                2108,
                1197,
                6272,
                3262,
                3187,
                1617,
                840,
                1166,
                5970,
                172,
                4410,
                3633,
                8056,
                2140,
                3579,
                1758
            ]
        },
        "detections": 500,
        "events": 59510
    }
}