{
    "job_args": {
        "metric_limit": 500,
        "seed": 1429842410
    },
    "job_id": "batch_68_do_500",
    "result": {
        "collections": {
            "crystal": [
                0.51099891,
                0.08523539999999999,
                0.20802969251427383,
                0.24260442599978072,
                0.3146640057985134,
                1.1570026486409524,
                0.589882789002226,
                0.5325627498572669,
                1.157002648640952,
                0.3419603058262762,
                1.1570026486409521,
                0.51099891,
                0.04773972085385969,
                0.24011789675513492,
                0.1245775357471195,
                0.39161556184899426,
                1.1570026486409521,
                1.1570026486409521,
                0.17812711136971773,
                0.8844719702536259,
                0.4309124466945973,
                0.4041861893267711,
                0.3053293838343456,
                0.06954437070824154,
                1.1570026486409521,
                1.1570026486409521,
                0.3708148103455599,
                0.51099891,
                0.51099891,
                0.7977630266804623,
                0.5194437112325488,
                1.157002648640952,
                0.24570408247147243,
                0.29321997137859124,
                0.5109989099999999,
                0.26014994298036304,
                0.51099891,
                0.5109989099999999,
                1.1570026486409524,
                0.36247889084774043,
                0.31799940267646454,
                1.1570026486409524,
                0.06372020631721037,
                0.5109989099999999,
                0.5109989099999999,
                0.4867234841198338,
                0.024044883562693853,
                0.51099891,
                0.51099891,
                1.157002648640952,
                0.5109989099999999,
                1.1570026486409521,
                0.51099891,
                0.030622426458260847,
                1.1570026486409521,
                0.26375112846412196,
                1.157002648640952,
                0.0444295,
                0.6049693373649381,
                1.157002648640952,
                0.506489078329561,
                1.1570026486409521,
                0.7764851101476296,
                0.052310912304105006,
                0.12559012917714868,
                0.9277384296531939,
                0.12058475414809736,
                0.51099891,
                0.18574971715483413,
                0.25601715719437007,
                0.05185566002765496,
                0.30669081196446146,
                0.17325832080229203,
                0.5109989100000001,
                0.23404410788623808,
                0.1782245046998675,
                0.1435675126243936,
                0.51099891,
                0.51099891,
                0.3808563084969448,
                0.24875369470835593,
                0.5594253096029921,
                0.9311957830062508,
                0.51099891,
                0.5109989099999999,
                0.4748757483806167,
                0.7666482483152443,
                0.7000796790981629,
                0.8624939140680455,
                0.1338904797132463,
                0.49346026798176174,
                0.51099891,
                1.1570026486409521,
                0.073039,
                0.7303298176679539,
                0.51099891,
                0.51099891,
                0.5193758401883252,
                0.5109989100000001,
                0.51099891,
                0.3065213403396824,
                0.06264244969286425,
                0.51099891,
                0.6383448723785347,
                0.26975164409201613,
                0.51099891,
                1.1570026486409521,
                0.2391552281506663,
                0.3599764771668183,
                0.5109989100000001,
                0.32187809001725415,
                0.51099891,
                0.5936769834903951,
                0.19481665151069852,
                0.036790912670575604,
                0.43517141036293944,
                0.09403417200983882,
                0.5113852098540264,
                0.51099891,
                0.39525553776431843,
                0.51099891,
                0.1305565047647778,
                0.07886546019598561,
                0.51099891,
                1.1570026486409521,
                0.20230939106320067,
                0.51099891,
                0.51099891,
                0.15885570622319145,
                1.1570026486409521,
                0.5109989099999999,
                0.51099891,
                0.4084719254953796,
                0.2233726464862676,
                0.26023802958300624,
                0.04332934337278116,
                0.18499230100038527,
                0.5155638713682108,
                1.025774790697274,
                0.32120492757873365,
                0.10811302875620654,
                1.1570026486409521,
                0.624426719023694,
                0.03835988808496188,
                0.07416257572946328,
                0.4710238429543031,
                0.4601265137801153,
                0.39199847548287775,
                0.39974536221553847,
                0.8363356539080566,
                0.2857583287265039,
                0.09749853821315015,
                0.51099891,
                0.3515669888116348,
                0.51099891,
                1.1570026486409524,
                1.1570026486409521,
                0.4988574732755716,
                0.51099891,
                0.51099891,
                0.2054711999565349,
                0.51099891,
                0.04694349999999999,
                0.46736080928966406,
                0.51099891,
                0.818021128126129,
                0.07524999999999998,
                0.07573588087060679,
                0.05886418729035925,
                0.24396841720386164,
                0.29425449048537017,
                0.04499031742816151,
                0.7564783299170664,
                0.17003365349828398,
                0.51099891,
                0.8027462180350406,
                0.7039508018644648,
                0.3779887204829956,
                0.51099891,
                0.46962826275394115,
                0.51099891,
                1.157002648640952,
                0.1506732768403486,
                0.6389554475487726,
                0.51099891,
                0.51099891,
                0.015698652958799686,
                0.5109989100000001,
                0.009403728003380074,
                0.43094541833833755,
                0.3066036418541729,
                0.4464290558988238,
                0.4977930146468645,
                0.036853280465893534,
                0.06461998016475734,
                0.5109989099999999,
                0.51099891,
                0.51099891,
                0.07524999999999998,
                1.157002648640952,
                0.04334750080406338,
                0.0852354,
                0.3402050350766987,
                0.553608488513294,
                0.25065484698461304,
                0.3231138860865093,
                1.1570026486409524,
                1.157002648640952,
                0.5109989100000001,
                1.1570026486409521,
                0.51099891,
                0.51099891,
                0.02003803798650855,
                0.3649467920525099,
                0.51099891,
                0.16351358841240263,
                0.8004481357203864,
                0.1786114753605494,
                1.1570026486409521,
                1.1570026486409521,
                0.3434076399146831,
                0.3371479281986552,
                0.49468313729013935,
                0.06224670486167139,
                0.51099891,
                0.49111576452123556,
                0.0904283862493575,
                0.11280887118119572,
                0.041169912233712025,
                1.157002648640952,
                0.30619374003207733,
                0.6037342215999196,
                1.157002648640952,
                0.51099891,
                0.09339127498114574,
                0.2255376049497248,
                0.5109989099999999,
                0.19250525006641145,
                0.5109989099999999,
                0.0852354,
                0.4335471863122423,
                0.27095970889007326,
                0.4402641338329108,
                0.51099891,
                0.19463858043400678,
                0.5109989099999999,
                0.13714558656906636,
                0.073039,
                0.51099891,
                0.2251030015189831,
                1.157002648640952,
                0.015496127493632661,
                1.1570026486409524,
                0.13906242904400723,
                0.4633603270107687,
                0.9089028192777736,
                0.35955312195857825,
                0.1473062499011939,
                1.1570026486409521,
                0.9187003076562716,
                0.5109989100000001,
                0.3272942096335977,
                1.1570026486409517,
                0.51099891,
                0.51099891,
                0.6994807687249984,
                0.51099891,
                0.8370455401669273,
                1.157002648640952,
                0.15160655797595313,
                0.03398765351819938,
                0.1637289331676594,
                0.6641013589820624,
                0.51099891,
                0.51099891,
                1.3900557764356578,
                1.1570026486409521,
                0.17874386731797348,
                0.22567286764330874,
                0.51099891,
                0.16065246359919444,
                0.5109989099999999,
                0.6954320212855195,
                0.5308510837879274,
                1.1570026486409521,
                0.15318748920434727,
                0.5273541761716566,
                0.3046845732793175,
                0.6640103617211677,
                0.51099891,
                0.31410261664491623,
                0.5109989099999999,
                1.1570026486409524,
                0.20431096536796245,
                0.058664785797785224,
                0.51099891,
                1.1570026486409521,
                0.51099891,
                0.38551908192942397,
                0.07525,
                0.3062404951994451,
                0.51099891,
                0.499019569898587,
                0.6933560601567226,
                0.2283993610247932,
                0.12105456454002234,
                0.51099891,
                0.3899349314865486,
                0.039170124757532454,
                1.157002648640952,
                0.42640602540536904,
                0.6985967895731856,
                1.089042209046864,
                0.51099891,
                0.3067658358478851,
                0.5926411530958748,
                0.2800084778693762,
                0.51099891,
                0.51099891,
                0.5109989100000001,
                0.3815179195337183,
                1.1570026486409524,
                0.51099891,
                0.51099891,
                0.51099891,
                1.1570026486409524,
                0.5109989099999999,
                0.22398772970188707,
                0.40731045300809327,
                0.51099891,
                1.1446384772448637,
                0.5384613879678423,
                0.9855175813830371,
                0.7854955008508407,
                0.51099891,
                0.5381785489481504,
                0.51099891,
                0.15153804373138402,
                0.0804344449920538,
                0.10736778302647426,
                0.7500628226034133,
                0.4989974199938873,
                0.43492642219944466,
                0.51099891,
                0.5109989099999999,
                0.2150663880007715,
                0.5868565132405181,
                0.6703080826105727,
                0.2511704789690511,
                0.7499555928598974,
                0.5123098271324864,
                0.7715084179798075,
                0.5820261112072899,
                0.10961994980756917,
                0.420468656466312,
                0.39197471539126394,
                0.40093362385787873,
                0.07525000000000001,
                0.38009720047153794,
                0.51099891,
                0.05593902405089041,
                0.2862263951215347,
                0.647483522989612,
                1.1570026486409521,
                0.04631052576847616,
                0.9685354131041042,
                1.1570026486409524,
                0.3596824836690824,
                1.157002648640952,
                0.19080203684647024,
                0.4179258996610359,
                0.51099891,
                1.1570026486409521,
                0.3977823173766839,
                0.7307660969426288,
                0.32458116112371294,
                0.41485863282005203,
                0.24154829342372297,
                0.16448191611916102,
                0.51099891,
                0.16629751898840742,
                0.51099891,
                1.1211275201666488,
                1.1570026486409521,
                0.51099891,
                0.51099891,
                0.14089411360664997,
                0.51099891,
                1.1570026486409521,
                0.51099891,
                1.1570026486409521,
                0.02384006347865686,
                0.6973484439256867,
                0.51099891,
                0.1931382545811956,
                0.51099891,
                0.43510697865163,
                0.51099891,
                0.10689034531982061,
                0.259376949852077,
                1.159566863376509,
                0.51099891,
                0.5048384446180152,
                1.157002648640952,
                1.1570026486409521,
                0.9008759812989685,
                0.30752541318118226,
                0.7489925286992449,
                0.29160824335325763,
                0.9353888777021799,
                0.51099891,
                0.32066559553485213,
                0.10880772435977404,
                0.07524999999999998,
                0.51099891,
                0.51099891,
                1.1570026486409521,
                0.4258842503338786,
                0.23399385235716239,
                0.7391496498359336,
                0.5109989099999999,
                0.19787205145692355,
                0.12737631906674077,
                0.51099891,
                0.08305166965241517,
                0.51099891,
                0.07473710385606108,
                0.51099891,
                0.51099891,
                0.9533646264626594,
                0.10014876483429815,
                0.10863487513715481,
                0.3584627675140739,
                0.08153039376997095,
                0.51099891,
                1.1570026486409524,
                1.1570026486409521,
                0.0936662986317578,
                0.51099891,
                0.51099891,
                0.3796892528085701,
                0.5109989099999999,
                1.0095033719126671,
                0.8861766192678361,
                0.49028931020701816,
                0.51099891,
                0.5109989100000001,
                1.1570026486409521,
                0.8124098384917221,
                0.5950429168007925,
                0.51099891,
                0.7949492801353631,
                0.51099891,
                0.4398180102817446,
                0.1349076208217236,
                1.1570026486409524,
                0.9336672646139295,
                0.07524999999999998,
                1.157002648640952,
                0.5109989099999999,
                0.51099891,
                1.157002648640952,
                0.3280534611283963,
                0.22567357558972656,
                0.598935619540779,
                0.12957965434002794,
                1.1570026486409521,
                0.5109989099999999,
                0.17492474714608994,
                0.11513383364898272,
                0.06567675285390928,
                0.1126693695612253,
                0.51099891,
                0.4024779332940977,
                0.5109989100000001,
                0.034627078342336026,
                1.1570026486409524,
                0.18300738861121016,
                0.305298381243241,
                0.2812846953360827,
                0.7574215803317546,
                0.0956208293085885,
                0.51099891,
                0.29692826310294024,
                0.5109989100000001,
                0.33587885195434203,
                0.5109989100000001,
                0.5809405869660961,
                0.3387982456387475,
                0.8242297154349008,
                1.1570026486409521,
                0.6725869731867162,
                0.6127048408373292,
                0.5109989100000001,
                0.6842417332233551,
                0.51099891,
                0.7121920809803814,
                0.07525,
                0.2617690758270446,
                0.4405039190586189
            ],
            "photocathode": [
                3513,
                594,
                1454,
                1757,
                2243,
                8145,
                4036,
                3684,
                8094,
                2413,
                8022,
                3512,
                327,
                1700,
                967,
                2709,
                8183,
                8024,
                1308,
                6434,
                3111,
                2803,
                2191,
                484,
                8055,
                8011,
                2630,
                3520,
                3641,
                5855,
                3656,
                8140,
                1663,
                1919,
                3619,
                1764,
                3509,
                3550,
                8027,
                2561,
                2144,
                7858,
                446,
                3417,
                3599,
                3457,
                146,
                3560,
                3544,
                8095,
                3519,
                8130,
                3511,
                218,
                8060,
                1831,
                8017,
                282,
                4262,
                8138,
                3606,
                8128,
                5482,
                382,
                848,
                6647,
                876,
                3599,
                1306,
                1895,
                363,
                2183,
                1204,
                3659,
                1660,
                1252,
                1014,
                3645,
                3652,
                2716,
                1764,
                4004,
                6756,
                3613,
                3599,
                3378,
                5377,
                4899,
                6207,
                887,
                3522,
                3424,
                8081,
                479,
                5141,
                3525,
                3603,
                3627,
                3539,
                3449,
                2166,
                442,
                3513,
                4415,
                1852,
                3605,
                8167,
                1629,
                2600,
                3445,
                2249,
                3625,
                4084,
                1361,
                237,
                3012,
                656,
                3697,
                3542,
                2776,
                3487,
                880,
                611,
                3607,
                8020,
                1355,
                3759,
                3465,
                1141,
                8137,
                3521,
                3592,
                2726,
                1551,
                1838,
                306,
                1315,
                3710,
                7255,
                2200,
                732,
                8232,
                4596,
                229,
                516,
                3314,
                3256,
                2785,
                2832,
                5903,
                2020,
                712,
                3473,
                2423,
                3593,
                8113,
                8244,
                3389,
                3497,
                3396,
                1504,
                3636,
                329,
                3286,
                3524,
                5921,
                521,
                519,
                406,
                1624,
                2106,
                341,
                5192,
                1160,
                3605,
                5583,
                5071,
                2796,
                3637,
                3371,
                3616,
                8115,
                1068,
                4631,
                3700,
                3475,
                128,
                3610,
                59,
                3023,
                2104,
                3089,
                3450,
                262,
                474,
                3600,
                3607,
                3709,
                550,
                8049,
                339,
                601,
                2390,
                3858,
                1765,
                2223,
                8092,
                8139,
                3554,
                8065,
                3580,
                3514,
                124,
                2583,
                3618,
                1173,
                5652,
                1261,
                8192,
                8224,
                2371,
                2367,
                3477,
                450,
                3579,
                3364,
                619,
                762,
                306,
                8043,
                2140,
                4226,
                8029,
                3709,
                651,
                1624,
                3660,
                1336,
                3510,
                590,
                2995,
                1814,
                3121,
                3565,
                1293,
                3564,
                973,
                532,
                3580,
                1594,
                8432,
                106,
                8098,
                974,
                3223,
                6305,
                2478,
                1091,
                8187,
                6524,
                3518,
                2322,
                8239,
                3582,
                3534,
                4782,
                3702,
                5729,
                8242,
                1042,
                226,
                1204,
                4604,
                3538,
                3648,
                10017,
                8196,
                1207,
                1615,
                3605,
                1121,
                3673,
                5000,
                3823,
                8291,
                1080,
                3828,
                2123,
                4632,
                3512,
                2196,
                3562,
                8070,
                1506,
                431,
                3570,
                8148,
                3580,
                2634,
                486,
                2142,
                3610,
                3494,
                5076,
                1631,
                874,
                3516,
                2660,
                304,
                7932,
                2883,
                4782,
                7709,
                3632,
                2189,
                4260,
                1971,
                3593,
                3656,
                3589,
                2642,
                8247,
                3536,
                3758,
                3730,
                8122,
                3613,
                1526,
                2875,
                3645,
                7841,
                3791,
                7017,
                5432,
                3522,
                3723,
                3634,
                1045,
                594,
                827,
                5441,
                3364,
                3011,
                3607,
                3596,
                1550,
                4133,
                4728,
                1793,
                5268,
                3717,
                5428,
                4083,
                819,
                2949,
                2782,
                2900,
                545,
                2710,
                3502,
                370,
                2036,
                4460,
                8513,
                331,
                7005,
                8216,
                2492,
                8058,
                1384,
                2930,
                3597,
                8067,
                2820,
                5311,
                2231,
                2740,
                1675,
                1176,
                3548,
                1175,
                3688,
                7916,
                8505,
                3672,
                3567,
                968,
                3440,
                8117,
                3531,
                8172,
                160,
                4920,
                3474,
                1409,
                3710,
                3112,
                3582,
                782,
                1872,
                8172,
                3615,
                3657,
                7962,
                8332,
                6444,
                2203,
                5259,
                2110,
                6595,
                3571,
                2271,
                788,
                500,
                3474,
                3550,
                8143,
                3030,
                1577,
                5113,
                3658,
                1457,
                867,
                3563,
                560,
                3686,
                539,
                3672,
                3693,
                6645,
                685,
                792,
                2496,
                613,
                3593,
                8116,
                8169,
                648,
                3623,
                3533,
                2598,
                3662,
                7194,
                6197,
                3457,
                3576,
                3633,
                8080,
                5638,
                4131,
                3679,
                5422,
                3610,
                3131,
                910,
                8075,
                6589,
                520,
                8109,
                3605,
                3695,
                7945,
                2243,
                1634,
                4114,
                904,
                8046,
                3571,
                1224,
                798,
                450,
                843,
                3577,
                2829,
                3582,
                218,
                8019,
                1255,
                2108,
                1963,
                5456,
                687,
                3509,
                2125,
                3701,
                2345,
                3623,
                4154,
                2323,
                5609,
                8172,
                4660,
                4507,
                3572,
                4914,
                3439,
                5013,
                583,
                1848,
                3038
            ]
        },
        "detections": 500,
        "events": 63219
    }
}