{
    "job_args": {
        "metric_limit": 500,
        "seed": 760188343
    },
    "job_id": "batch_131_do_500",
    "result": {
        "collections": {
            "crystal": [
                0.72731018769294,
                0.21154570030160227,
                0.858651608954343,
                1.1732266212015405,
                1.1732266212015408,
                1.3324980931528798,
                0.8690545129755978,
                0.709707091751154,
                0.7105787226855376,
                1.1528744663211432,
                1.1732266212015403,
                0.8021954811579433,
                1.1732266212015403,
                0.2026770500065318,
                0.073039,
                0.6290413115029518,
                0.2073161394575713,
                1.1732266212015405,
                0.8615227637693288,
                0.8997436255791285,
                0.9433138351346386,
                1.0993472886376536,
                0.38669419462451377,
                0.2526569384796837,
                0.660292857967031,
                0.08753399999999999,
                1.33249809315288,
                1.049543067789328,
                0.4464460605116939,
                0.3294504495107188,
                0.6013714530506611,
                0.07524999999999998,
                0.11348694306339235,
                1.3324980931528798,
                1.6322518290346677,
                0.10503251720845962,
                1.1732266212015403,
                1.1732266212015405,
                0.3447592353871406,
                0.2572149921146193,
                1.1732266212015408,
                0.49968020238826205,
                0.346343082573519,
                1.1732266212015405,
                0.8551334286000477,
                0.7673004045107117,
                1.1732266212015408,
                1.0576225818165377,
                1.1732266212015408,
                0.18645981288709645,
                1.1732266212015405,
                0.6532134015551277,
                0.06398604776482131,
                0.8027576695439224,
                0.9125249510252826,
                0.8439292427238039,
                0.5476673195194761,
                0.24444056357374155,
                0.8160116097263042,
                1.3324980931528798,
                1.1732266212015405,
                0.6231357340237377,
                0.6365809327934446,
                0.5902113533099514,
                0.33819077872054853,
                0.24530655268663404,
                1.3324980931528794,
                0.5310518347653901,
                0.9184981606829302,
                0.09367972380645373,
                1.3324980931528798,
                0.1513011437080072,
                0.4002286831488766,
                1.3324980931528796,
                0.7485330612740388,
                1.3324980931528798,
                0.31205650386278877,
                0.8885026249424107,
                0.1449980121166805,
                0.4484181558250719,
                1.3324980931528803,
                1.3324980931528798,
                1.1732266212015405,
                1.1732266212015405,
                0.7344398412834706,
                0.15740652655566678,
                1.3324980931528798,
                0.9841941965932588,
                0.6445609804408576,
                1.3324980931528798,
                0.08026926926438627,
                0.36601017370195815,
                0.7959234239579414,
                1.3324980931528796,
                0.5681196636327396,
                0.2442585613602018,
                0.2947030277796141,
                1.1732266212015405,
                1.33249809315288,
                0.7041030981779173,
                0.40420647650932984,
                1.3324980931528798,
                0.4434645673278664,
                1.1732266212015408,
                0.5013909270774964,
                0.3005338867372148,
                0.35303991749804464,
                1.1732266212015408,
                0.3005740421929799,
                0.850765175763669,
                0.6677134914230228,
                1.3324980931528798,
                1.3038885931528796,
                1.3324980931528798,
                0.10474406806862802,
                0.5943347150329805,
                0.5187007052504149,
                0.5009662098702776,
                0.4613548803611104,
                0.8318268852152079,
                0.5833701507138852,
                1.3324980931528798,
                0.24842586973139003,
                0.6691499936348559,
                0.632646708637853,
                0.0773071151998636,
                0.9028054194542756,
                1.088676982682774,
                0.20575143528507625,
                0.23820441172379156,
                1.1732266212015405,
                0.7420803725974644,
                0.40847279655855384,
                0.451608249384137,
                1.3324980931528798,
                0.8290551317325113,
                0.8279958335089505,
                1.1732266212015405,
                0.2945921544514015,
                0.8833866764661245,
                0.5359181548573293,
                0.3908386399654105,
                0.8390619021148462,
                1.3324980931528798,
                1.3324980931528798,
                0.8254345322237606,
                0.5307588374728369,
                1.3324980931528796,
                1.3324980931528798,
                1.3324980931528798,
                1.3324980931528798,
                0.5003769495796309,
                1.1732266212015408,
                1.33249809315288,
                0.8770630634408645,
                1.3324980931528796,
                0.8005439698004525,
                1.1732266212015405,
                0.4782890578856865,
                1.0078421036290963,
                0.9215638139269535,
                0.15870462619193604,
                0.33731974109165014,
                1.33249809315288,
                0.027493095730227957,
                0.24567471092044735,
                0.5611349785626721,
                0.03426253841701543,
                1.1732266212015405,
                0.8168179870430584,
                0.7708392703687098,
                1.1732266212015405,
                1.1732266212015405,
                0.3479534932670105,
                0.6586126027884996,
                1.1732266212015405,
                1.3324980931528798,
                1.33249809315288,
                0.9366128359376493,
                0.2705449330795015,
                0.8508148756667662,
                0.6307755761649643,
                1.3324980931528798,
                0.24092559588479284,
                0.22202210767229313,
                0.8100647856809597,
                0.41317887629036926,
                0.08765569999999998,
                0.15498232523940336,
                1.083790908641369,
                0.4492464682588023,
                1.1732266212015403,
                1.1732266212015405,
                0.23146933714721762,
                0.22236823023792168,
                0.05292807373175967,
                0.4250925875766815,
                0.20509244214547528,
                1.1732266212015405,
                1.1732266212015405,
                0.7953424757097509,
                0.25665840701935516,
                0.06484722985165114,
                0.8057503284309213,
                0.5533022221872544,
                1.3324980931528794,
                0.04195165879748397,
                0.49884379573041043,
                0.6736186944904579,
                0.2550670113785178,
                1.3324980931528798,
                0.7018353370236657,
                0.2881991229924109,
                0.44932671904442983,
                0.840388131651773,
                0.48667605741585895,
                1.1732266212015405,
                0.5213205910402032,
                1.3324980931528798,
                1.027254313087954,
                0.073039,
                1.1732266212015405,
                1.1732266212015405,
                0.5438113607509292,
                0.09069894650419363,
                0.8383853815323843,
                0.10326339636883086,
                0.18936285878907738,
                1.1732266212015403,
                1.3324980931528798,
                1.1732266212015408,
                0.14081384282164028,
                0.5054014401191316,
                0.073039,
                0.33401798104613667,
                0.932814243501036,
                0.5807768273975411,
                0.32997355227245073,
                0.08572011650437106,
                0.2086847885560088,
                0.7355379991933658,
                1.3324980931528794,
                0.9518189751380155,
                0.794383288786171,
                0.999530271145564,
                0.20457744090181107,
                0.2302403087688159,
                1.1732266212015405,
                0.25816969430489267,
                0.42233968935054766,
                0.07525,
                0.10555742802200217,
                0.6514924744447487,
                1.3324980931528796,
                0.39243116497319264,
                0.6860890049874233,
                0.33730693817803714,
                0.9852543329502126,
                0.2437812959398204,
                0.43375891792203203,
                0.3027220952219492,
                0.9648459224138619,
                1.3324980931528798,
                0.948833969767067,
                1.1732266212015405,
                0.053012903644448404,
                0.3480842350043424,
                0.017609097470490553,
                0.8798921315726296,
                0.10409794505609347,
                1.1732266212015408,
                1.3324980931528798,
                0.7821129950311712,
                1.1022410714351238,
                1.3324980931528798,
                0.5064987431606602,
                1.3324980931528798,
                0.4548217312496974,
                1.3324980931528796,
                0.2259143240745237,
                0.977930928130565,
                1.3324980931528798,
                0.9174771107969015,
                0.868820995456551,
                1.0126984332940625,
                0.5591747477114789,
                1.3324980931528798,
                0.42516520660627216,
                1.1732266212015405,
                0.19811796193733563,
                0.41281917711545807,
                0.5827345740406088,
                0.21379211847955193,
                0.9010858714863141,
                1.1732266212015408,
                0.2870481820176147,
                1.1732266212015405,
                0.5469556774299189,
                0.08523540000000002,
                0.4373349926338706,
                1.3324980931528794,
                1.3324980931528798,
                0.3777463736704514,
                1.1732266212015405,
                0.47652686416188383,
                0.7870175894127011,
                0.6648944283605736,
                0.040204555050445956,
                0.039120479916265716,
                0.7126635336067094,
                0.4662468687528172,
                1.1621703105544234,
                1.3324980931528798,
                0.8429418521177738,
                0.27370171577139585,
                0.3509353285388889,
                0.10317140624044074,
                1.3324980931528798,
                0.028104723355340713,
                0.5432496043712756,
                0.30339170579843155,
                0.8803352346206146,
                0.21264519809234528,
                1.3324980931528796,
                0.27730086924993985,
                0.8010942387292386,
                0.4639458744148403,
                0.29778943759292975,
                1.1732266212015405,
                0.8715098553426242,
                0.6199842706223301,
                0.8134771692663147,
                0.17241073001253393,
                0.29900787171787535,
                0.945308361117367,
                0.3274514569246765,
                0.08324458802469104,
                0.45469805330800006,
                0.3488690616554533,
                0.09202983055668179,
                1.0290791849711527,
                0.7266687079977783,
                0.041095442147419455,
                0.9037224226007767,
                0.2539640783385022,
                0.8432893432589701,
                1.1732266212015405,
                1.1732266212015405,
                1.0917973327899504,
                0.946234966037679,
                0.45059791164523655,
                1.3324980931528798,
                0.8671126825297394,
                0.07303900000000002,
                0.3635640359962236,
                0.3105727571572541,
                1.3324980931528796,
                0.34651610205196226,
                1.3324980931528796,
                0.6506713769339013,
                0.7779054610989335,
                0.16359318278969365,
                0.4468455155318514,
                1.33249809315288,
                1.1732266212015405,
                1.33249809315288,
                0.8794495237613922,
                0.5366746237921238,
                0.5627972250798987,
                1.3324980931528798,
                0.5481552393641556,
                1.3324980931528798,
                1.1732266212015405,
                0.6601154776745972,
                0.5215305756421441,
                1.1732266212015405,
                0.24772701616475312,
                0.29600636285274706,
                0.5858866670547561,
                0.8309630581083697,
                1.1732266212015405,
                0.43867214570164303,
                0.6343925819499087,
                1.1732266212015405,
                0.3855177129432599,
                1.3324980931528798,
                1.3324980931528796,
                0.8701510673264417,
                1.1732266212015405,
                1.3324980931528798,
                0.023099460827580742,
                0.8441747298346888,
                1.33249809315288,
                0.8067116711025974,
                0.7942582381787675,
                1.1732266212015405,
                0.6836104871177108,
                1.33249809315288,
                0.18980165909540236,
                0.8801444370064271,
                0.31065101319440913,
                0.3677395622485512,
                1.3324980931528798,
                0.685820504353177,
                0.7906835450969139,
                0.005662628478454446,
                0.15209872095963628,
                0.8509387216722659,
                1.3324980931528796,
                0.2690951842260595,
                1.1732266212015405,
                1.007040212451571,
                1.1732266212015405,
                1.3324980931528798,
                0.8698380858216144,
                0.8901136184436089,
                0.7214034539966802,
                1.3324980931528798,
                0.5735965677473351,
                1.1732266212015403,
                0.7219510554367571,
                1.1732266212015408,
                0.30728626631128886,
                0.20363494898871065,
                1.0451344739726998,
                1.113339315227261,
                1.037210035589478,
                0.32233531841111807,
                1.1732266212015405,
                0.09263481809046237,
                0.08239256333639733,
                0.9699995800337664,
                1.0278191431843875,
                0.8144819777524429,
                0.9287347697267476,
                1.3324980931528798,
                0.5999109591328058,
                0.7833407671081739,
                0.9692218483390649,
                1.3324980931528798,
                0.4198010148351198,
                1.1732266212015408,
                1.1732266212015405,
                0.8018206265007457,
                0.4118509266351499,
                1.33249809315288,
                0.5714181559981496,
                1.33249809315288,
                1.1732266212015405,
                0.23859047872203948,
                1.103713892791832,
                0.754003793365174,
                1.3324980931528796,
                1.1732266212015405,
                0.5555250753703155,
                0.9597879228065016,
                0.7880395049317322,
                1.3324980931528798,
                0.8254648169129001,
                1.1732266212015405,
                0.27343487781317855,
                0.3999750729179874,
                0.30939821438970716,
                0.5872105703042589,
                1.1744038444672347,
                0.8303904744428175,
                0.23593260507032118,
                0.19262221662186185,
                0.8425382626923446,
                0.7697588272301306,
                1.1732266212015405,
                0.07525,
                0.5774855254877395,
                1.1732266212015405,
                1.1732266212015408,
                0.0023321843262078534,
                1.3324980931528798,
                0.3165697393003122,
                0.4299497626264936,
                1.1732266212015405,
                1.1732266212015405,
                0.5107793065048521,
                0.41563458754404425,
                0.046943499999999985,
                0.5979680113125538,
                1.0017819799425998,
                0.4755633283235904,
                0.30530640529689146,
                0.19282190243637964,
                0.4626443432680386,
                0.6805207607997924,
                1.1732266212015405,
                1.1732266212015405,
                0.8998673537332091,
                0.4552327526392115,
                1.0958125780716073,
                0.7026529428079132,
                0.13331911755392567,
                0.8122217003198234,
                0.46524305816359135
            ],
            "photocathode": [
                5195,
                1498,
                5989,
                8325,
                8135,
                9266,
                6163,
                5068,
                4951,
                8022,
                8062,
                5537,
                8444,
                1452,
                538,
                4403,
                1478,
                8030,
                5958,
                6476,
                6630,
                7763,
                2668,
                1666,
                4570,
                614,
                9198,
                7346,
                3075,
                2337,
                4207,
                552,
                790,
                9217,
                11514,
                703,
                8191,
                8263,
                2367,
                1854,
                8245,
                3562,
                2468,
                8233,
                5909,
                5355,
                8220,
                7384,
                8358,
                1345,
                8201,
                4587,
                463,
                5606,
                6468,
                6023,
                3774,
                1797,
                5715,
                9234,
                8343,
                4467,
                4547,
                4151,
                2386,
                1752,
                9311,
                3691,
                6697,
                656,
                9407,
                1081,
                2747,
                9584,
                5193,
                9395,
                2165,
                6198,
                969,
                3156,
                9274,
                9534,
                8187,
                8527,
                5145,
                1114,
                9407,
                7157,
                4391,
                9333,
                513,
                2631,
                5581,
                9304,
                3873,
                1691,
                2058,
                8221,
                9398,
                4942,
                2834,
                9333,
                3120,
                8152,
                3561,
                2150,
                2480,
                8023,
                2083,
                6004,
                4746,
                9573,
                9226,
                9265,
                700,
                4102,
                3768,
                3600,
                3348,
                5899,
                4140,
                9359,
                1726,
                4612,
                4449,
                523,
                6377,
                7521,
                1469,
                1690,
                8296,
                5367,
                2887,
                3147,
                9218,
                5833,
                6106,
                8209,
                2020,
                6274,
                3787,
                2644,
                5875,
                9323,
                9306,
                5707,
                3666,
                9261,
                9432,
                9390,
                9139,
                3464,
                8314,
                9269,
                6304,
                9513,
                5606,
                8218,
                3495,
                6914,
                6455,
                1114,
                2387,
                9254,
                187,
                1791,
                3979,
                234,
                8262,
                5756,
                5245,
                8216,
                8206,
                2439,
                4638,
                8195,
                9238,
                9366,
                6605,
                1859,
                5909,
                4482,
                9492,
                1691,
                1574,
                5639,
                2855,
                589,
                1063,
                7630,
                3145,
                8101,
                8597,
                1574,
                1596,
                410,
                2976,
                1413,
                8230,
                8134,
                5454,
                1790,
                457,
                5715,
                3763,
                9556,
                266,
                3530,
                4701,
                1890,
                9484,
                4969,
                2112,
                3219,
                5885,
                3438,
                8195,
                3841,
                9427,
                7032,
                510,
                8163,
                8175,
                3828,
                644,
                5851,
                719,
                1348,
                8371,
                9238,
                8164,
                944,
                3578,
                499,
                2271,
                6403,
                4066,
                2306,
                628,
                1482,
                5123,
                9286,
                6783,
                5632,
                6959,
                1445,
                1636,
                8332,
                1869,
                2947,
                514,
                718,
                4470,
                9415,
                2796,
                4838,
                2347,
                6917,
                1749,
                3061,
                2148,
                6700,
                9324,
                6711,
                8283,
                354,
                2445,
                143,
                6077,
                710,
                8115,
                9106,
                5378,
                7743,
                9409,
                3544,
                9264,
                3336,
                9212,
                1642,
                6831,
                9339,
                6419,
                6063,
                7195,
                3921,
                9337,
                3071,
                8274,
                1341,
                2927,
                3961,
                1568,
                6316,
                8117,
                2012,
                8134,
                3827,
                604,
                3131,
                9336,
                9513,
                2720,
                8273,
                3359,
                5485,
                4902,
                286,
                289,
                4949,
                3272,
                8284,
                9467,
                5913,
                2071,
                2430,
                747,
                9129,
                211,
                3666,
                2163,
                6017,
                1516,
                9726,
                2003,
                5656,
                3226,
                2081,
                8231,
                6055,
                4607,
                5519,
                1171,
                1990,
                6610,
                2414,
                565,
                3101,
                2547,
                652,
                7327,
                5164,
                322,
                6307,
                1764,
                5964,
                8323,
                8340,
                7630,
                6785,
                3180,
                9182,
                6024,
                493,
                2579,
                2244,
                9597,
                2387,
                9382,
                4547,
                5570,
                1135,
                3134,
                9292,
                8461,
                9104,
                6058,
                3760,
                3903,
                9331,
                3743,
                9300,
                8294,
                4646,
                3582,
                8426,
                1764,
                2121,
                4024,
                5953,
                8047,
                3147,
                4477,
                8092,
                2641,
                9418,
                9383,
                6036,
                8162,
                9214,
                167,
                5846,
                9527,
                5716,
                5540,
                8087,
                4829,
                9269,
                1271,
                6320,
                2184,
                2625,
                9372,
                4628,
                5379,
                38,
                1057,
                5879,
                9265,
                1900,
                8368,
                7045,
                8110,
                9320,
                6105,
                6401,
                5107,
                9282,
                3958,
                8204,
                5020,
                8358,
                2149,
                1465,
                7383,
                7743,
                7327,
                2319,
                8215,
                720,
                565,
                6811,
                7167,
                5731,
                6514,
                9427,
                4262,
                5308,
                6718,
                9265,
                2967,
                8272,
                8209,
                5565,
                2890,
                9234,
                4097,
                9287,
                8114,
                1625,
                7670,
                5294,
                9179,
                8241,
                3918,
                6841,
                5784,
                9388,
                5802,
                8146,
                1996,
                2827,
                2118,
                4188,
                8008,
                5925,
                1757,
                1328,
                5785,
                5381,
                8177,
                486,
                4229,
                8165,
                8346,
                22,
                9487,
                2200,
                2965,
                8465,
                8138,
                3657,
                2945,
                331,
                4244,
                7038,
                3328,
                2097,
                1398,
                3226,
                4924,
                7983,
                8084,
                6290,
                3128,
                7785,
                4889,
                936,
                5553,
                3218
            ]
        },
        "detections": 500,
        "events": 60263
    }
}