{
    "job_args": {
        "metric_limit": 500,
        "seed": 2295897376
    },
    "job_id": "batch_39_do_500",
    "result": {
        "collections": {
            "crystal": [
                0.7922511388958753,
                0.42156253297007173,
                0.5302370887692964,
                0.9764318759582232,
                1.0909868191485719,
                0.0752702897237616,
                0.6300764402906642,
                1.1732266212015405,
                0.9141833903801158,
                0.20460056489643938,
                0.889667244142078,
                0.40469958812461687,
                0.5567942594266923,
                0.40910469258504617,
                1.1732266212015405,
                0.8371131911492927,
                0.5137503135107139,
                0.28478677216095494,
                1.3324980931528798,
                0.23297230484508202,
                0.729344224205411,
                0.8876231639894245,
                0.5602977534272803,
                1.1732266212015405,
                0.6160294868612229,
                1.3324980931528798,
                0.6130529478287441,
                0.4076450577985872,
                0.4385513710990662,
                1.3324980931528798,
                0.7203038658772496,
                0.8082343204378539,
                1.3324980931528798,
                0.7698315831073202,
                0.5612753303202069,
                0.3671703002142688,
                0.21138130854579174,
                0.07524999999999998,
                0.23934308699664747,
                0.6466143383198851,
                1.1732266212015408,
                1.3324980931528798,
                0.00624753507623388,
                0.8212009228191893,
                0.7899340254219565,
                0.2567341796205178,
                0.8913974050719315,
                0.2953830174002309,
                0.9712209991283527,
                1.3324980931528798,
                0.07525,
                0.23322215863024154,
                0.9387838580219631,
                0.06388265799544168,
                1.3324980931528798,
                0.07027030183158067,
                0.7592858616191481,
                0.5257980902791217,
                0.853159833873006,
                0.6799076028481982,
                0.5565729802204035,
                0.4415746989870911,
                1.1732266212015405,
                1.1732266212015405,
                0.6996845067454035,
                1.3324980931528798,
                0.8379532141305838,
                0.8003621756540392,
                1.1732266212015405,
                0.23147507884129015,
                1.1732266212015403,
                0.5890378542282572,
                1.3324980931528803,
                1.0085872613351272,
                0.36240838068868697,
                0.6027111124301382,
                0.3860354185608311,
                0.5448327803424475,
                1.1732266212015405,
                0.7925396092201823,
                0.2913547509034593,
                0.07189747905417837,
                0.9770108207436755,
                1.3324980931528798,
                0.9070559898137607,
                0.09564984445029712,
                0.7669121283102448,
                0.775860123056558,
                1.0091101445143174,
                1.3324980931528798,
                0.5663349119951765,
                1.1732266212015405,
                0.20652386545335993,
                1.3324980931528798,
                1.023330734803077,
                1.3324980931528798,
                1.3324980931528796,
                0.8566780154933803,
                1.1732266212015405,
                0.2911932630566778,
                1.0685015760550252,
                0.545650287720654,
                0.7894498614381873,
                1.3324980931528798,
                0.9565400852192425,
                0.8222589394435413,
                1.33249809315288,
                0.368340008017903,
                0.5991732708812125,
                1.1732266212015405,
                0.9423589227780526,
                1.3324980931528798,
                1.0480124399597637,
                0.9221250257793512,
                0.7396884750051456,
                0.16717714527962158,
                1.1732266212015405,
                0.5872174541236402,
                0.6130788112225634,
                0.5764702024274294,
                0.6376366576084687,
                0.5083505491612937,
                0.294318632348327,
                0.1645174609906112,
                0.028637362575728575,
                0.5450019550948135,
                0.16698097918343321,
                0.43244272329350975,
                0.23387427658732463,
                1.0896539963369167,
                0.26848079094360044,
                0.4335015944312933,
                1.3324980931528798,
                0.34727757985618923,
                0.29792708144343183,
                0.7958591867206655,
                0.23458368720558065,
                0.8752441793362411,
                0.07056694241804795,
                1.1732266212015405,
                0.7089123950989302,
                0.8535084856835178,
                0.5573784295145942,
                0.2363659117439584,
                0.4564251894329526,
                0.23636550518145671,
                1.3324980931528798,
                0.9293454358706636,
                1.1732266212015405,
                0.6592614639942056,
                0.7798802280704603,
                0.07525,
                0.42721531718534816,
                1.1732266212015405,
                1.1732266212015403,
                1.1222309564526363,
                0.07524999999999998,
                0.9118336809192467,
                0.601751257336717,
                1.3324980931528798,
                0.46746905100532804,
                1.1732266212015405,
                1.3324980931528798,
                0.04591179579648189,
                0.1905524186816837,
                1.3324980931528798,
                1.1732266212015405,
                0.7272664631681491,
                0.5433223203105576,
                1.3324980931528796,
                1.1732266212015405,
                0.3350597385972442,
                1.1732266212015405,
                0.5839756136427388,
                0.3729479385428571,
                0.3697621650190648,
                1.3324980931528796,
                1.1312367950218443,
                1.030255438437897,
                1.0738248556974734,
                0.19409886296246182,
                0.4083923536585502,
                0.08523539999999999,
                0.22577792546342554,
                0.18392215243583848,
                1.1732266212015408,
                0.5948269269636245,
                0.9643667933081165,
                1.3324980931528798,
                1.3324980931528798,
                0.5691041395247289,
                1.1732266212015405,
                0.01915716522157629,
                0.2907549790339838,
                1.1732266212015405,
                1.1732266212015405,
                0.5536490345071642,
                0.6237555187478365,
                0.8865157234679016,
                0.14178095766271914,
                1.3324980931528798,
                0.8611630298906714,
                1.1732266212015405,
                0.7695910601618378,
                0.567157945016901,
                1.098673685946873,
                0.6758225348573561,
                0.850647481007409,
                1.1732266212015405,
                0.34990131608362274,
                1.3324980931528798,
                0.6143051777762085,
                0.854520719770443,
                0.22801517617822786,
                0.838768639864851,
                0.24558309705504114,
                0.06959099095878174,
                0.4960511334397282,
                1.3324980931528798,
                0.31794341799085807,
                0.45137681472192565,
                0.5128615816408248,
                0.06262252652189737,
                0.2322770430798542,
                0.5412652444324156,
                1.3324980931528794,
                0.6622277112015407,
                0.280055113533102,
                0.2895634400167372,
                0.15782455296821296,
                1.1732266212015405,
                1.1732266212015403,
                0.9489305186196166,
                1.1732266212015405,
                0.22331645015053841,
                1.3324980931528798,
                0.6347891493282476,
                1.3324980931528796,
                0.6226290084376018,
                0.3352003609056753,
                0.6410384665871908,
                0.41180625861852815,
                0.9094727109399383,
                1.1732266212015405,
                1.1732266212015408,
                1.1732266212015405,
                0.15122880120154059,
                0.18831168331019194,
                1.1732266212015408,
                1.3324980931528796,
                1.1732266212015405,
                0.30107392002815814,
                1.3324980931528798,
                1.33249809315288,
                0.21148328006261918,
                1.1732266212015403,
                0.9237409113860463,
                1.1732266212015405,
                1.3324980931528798,
                0.2120920425018774,
                0.8669447744954774,
                1.3324980931528798,
                0.5802081493122568,
                1.1732266212015405,
                0.8624265471716246,
                1.1732266212015405,
                1.33249809315288,
                0.46271833956507236,
                0.19140878724161825,
                1.1732266212015403,
                0.5968889904639534,
                0.8265768730908725,
                0.6154510734629226,
                1.028602034383168,
                0.11894208516905702,
                1.1732266212015403,
                0.18164048572126196,
                0.7817719158345222,
                0.5040703573545496,
                0.6096670474710033,
                1.3324980931528796,
                1.3324980931528798,
                0.21806021220020266,
                0.6971679104077179,
                0.3178443742174273,
                0.4531287710732318,
                1.3324980931528798,
                0.2671647277984855,
                0.864104769862732,
                0.6088024509035503,
                0.12585433060277507,
                0.017693447478185798,
                0.07303899999999999,
                0.6623154346547345,
                1.33249809315288,
                0.07525,
                0.5059124392146823,
                0.9779964494797608,
                0.9231839882102205,
                0.9974606028829152,
                0.4571462980184498,
                0.0847407,
                1.0052617370928025,
                0.008555658563658364,
                1.33249809315288,
                0.2764969975510019,
                1.33249809315288,
                1.3324980931528798,
                0.3150672985953096,
                0.8090240225912514,
                1.3324980931528798,
                1.3324980931528798,
                1.1732266212015405,
                0.1573876549732458,
                0.829526738793043,
                0.0033345602687390175,
                1.1732266212015408,
                0.1875451422848884,
                0.038521330698028544,
                0.7970008120356332,
                1.3324980931528798,
                0.7345667441476734,
                0.30310217041234844,
                0.25124318675470214,
                0.7948267950188049,
                0.21658610771414666,
                0.90021007807491,
                0.49334267225600503,
                1.3324980931528798,
                1.3324980931528798,
                1.0263572450664182,
                1.1732266212015408,
                1.0495014701274026,
                1.0859521602434006,
                0.2614377072528249,
                0.7543779957842923,
                0.23153172684588008,
                0.07303899999999999,
                0.4961483647085798,
                0.8992499692380977,
                0.26036133534099737,
                0.073039,
                0.27908061332856804,
                0.09515771272044371,
                0.07525000000000001,
                1.33249809315288,
                0.45447188908113634,
                0.6533085825727025,
                0.8738531235372389,
                0.8444467292339135,
                1.1732266212015405,
                0.17843521845882812,
                1.1732266212015405,
                1.1732266212015403,
                0.4873555379508019,
                0.8330205563776605,
                1.33249809315288,
                0.39627578257136004,
                0.2403561900415125,
                0.45031496448092495,
                0.3392999525483422,
                1.1732266212015408,
                0.87927793798633,
                1.3324980931528798,
                1.1732266212015403,
                1.1732266212015405,
                0.3617253616513349,
                0.9534641427933301,
                0.47865221464062396,
                0.850616176767771,
                1.3324980931528798,
                0.11385769605339889,
                1.2022734482877921,
                0.924855831289074,
                0.5677662368193312,
                1.1732266212015405,
                1.3324980931528798,
                0.7847416148090595,
                1.33249809315288,
                0.3409970210494418,
                0.3689319576781517,
                1.1732266212015405,
                1.1090146877559963,
                0.16511821913665514,
                1.1732266212015408,
                0.32662084225140875,
                1.3324980931528798,
                0.6019023629335913,
                0.864407403228484,
                0.9156570982554372,
                0.31026746976928554,
                0.9191458197815194,
                0.03656555324810884,
                0.8097918463484745,
                0.30574073929160683,
                0.9803999112751858,
                0.08765569999999999,
                0.06035547174906136,
                0.09482044519923394,
                0.0182470426847957,
                0.24378588464312045,
                0.9266371795100702,
                0.1189815113520789,
                0.0849783322189181,
                0.9063850202881617,
                0.3863474138001975,
                0.7242972153651382,
                1.3324980931528798,
                1.1732266212015405,
                0.7936686369172563,
                0.24259858916106308,
                0.5006150435732296,
                0.9320471304534591,
                0.8373986303388121,
                0.4589417262509604,
                0.5379828202899407,
                0.23016604725120993,
                0.45016800027970394,
                0.9006351165499077,
                0.49567548611629497,
                0.9825158811050739,
                0.5371084374503343,
                0.6847748591589963,
                1.3324980931528798,
                1.3324980931528796,
                0.6120899315484417,
                0.28778748007645877,
                1.1732266212015405,
                1.3324980931528798,
                0.2799373216422156,
                0.9414564924875981,
                1.1732266212015405,
                0.24363469194677934,
                0.3202610301081207,
                1.1732266212015405,
                0.3371860300638143,
                1.33249809315288,
                0.659547384883985,
                0.7783350801897061,
                1.3324980931528794,
                0.7013939823958936,
                0.46816162053757593,
                0.45543261962695203,
                0.7756159276760959,
                1.3324980931528798,
                0.8122289168238755,
                0.3048550770238271,
                0.28560519227089054,
                1.1732266212015403,
                0.5417289686607475,
                0.17320576554282247,
                0.6071527204180764,
                0.9058491529811824,
                1.3324980931528798,
                0.4961108267693341,
                1.1732266212015405,
                0.5526119062341185,
                0.22957720585985508,
                0.3598146379249282,
                1.3324980931528798,
                0.25594150559020407,
                0.8125118304774197,
                1.3324980931528798,
                1.3324980931528796,
                1.1732266212015405,
                0.024415370091204203,
                0.0957399779451949,
                0.058259964989220814,
                0.875040977307608,
                1.3324980931528796,
                0.48924156067817226,
                0.3694899499938,
                1.0426758754468208,
                0.8366128018504495,
                0.1790309259346453,
                1.3324980931528798,
                0.39240132801826944,
                1.1732266212015405,
                1.1056165002639058,
                1.3324980931528798,
                0.6399082518736756,
                0.7398383967531199,
                0.058922807479965256,
                0.4299883583415925,
                0.22757495694146135,
                0.8547085284037534,
                0.37901973983355364,
                0.274213061952281,
                0.08610475380381523,
                0.04417621207727107,
                0.020699880470065418,
                1.1732266212015405,
                1.0620833314049247,
                1.3324980931528798,
                0.6515563283968844,
                0.6293555905640278,
                1.0014746420058396,
                1.3324980931528798,
                0.2166056933580959,
                1.1732266212015405
            ],
            "photocathode": [
                5461,
                2946,
                3569,
                6895,
                7653,
                503,
                4310,
                8414,
                6449,
                1373,
                6425,
                2903,
                3995,
                2802,
                8020,
                5852,
                3628,
                2012,
                9247,
                1584,
                5194,
                6335,
                3931,
                8131,
                4178,
                9294,
                4331,
                2834,
                3139,
                9239,
                5245,
                5639,
                9405,
                5559,
                3977,
                2586,
                1497,
                547,
                1666,
                4596,
                8147,
                9693,
                48,
                5808,
                5736,
                1859,
                6202,
                1983,
                6796,
                9255,
                552,
                1672,
                6484,
                463,
                9371,
                520,
                5410,
                3684,
                6003,
                4812,
                3786,
                3069,
                8500,
                8314,
                4904,
                9405,
                5886,
                5528,
                8435,
                1671,
                8220,
                4168,
                9273,
                7109,
                2677,
                4169,
                2697,
                3740,
                8357,
                5682,
                2134,
                507,
                7115,
                9193,
                6368,
                680,
                5319,
                5335,
                6895,
                9526,
                3892,
                8096,
                1468,
                9390,
                7326,
                9180,
                9390,
                6062,
                8344,
                2012,
                7420,
                3973,
                5537,
                9184,
                6840,
                5744,
                9345,
                2482,
                4103,
                8169,
                6625,
                9464,
                7456,
                6520,
                5297,
                1185,
                8286,
                4083,
                4191,
                4121,
                4537,
                3549,
                2127,
                1099,
                179,
                3888,
                1231,
                3155,
                1636,
                7739,
                1819,
                3037,
                9288,
                2355,
                2056,
                5771,
                1664,
                6247,
                448,
                8094,
                4930,
                6079,
                3910,
                1649,
                3183,
                1641,
                9259,
                6189,
                8149,
                4591,
                5602,
                487,
                3093,
                8127,
                8291,
                8130,
                489,
                6433,
                4437,
                9234,
                3293,
                7983,
                9422,
                320,
                1313,
                9585,
                8125,
                5209,
                3951,
                9399,
                8317,
                2395,
                8231,
                4144,
                2536,
                2637,
                9353,
                7949,
                7249,
                7610,
                1434,
                2811,
                599,
                1637,
                1246,
                8218,
                4162,
                6761,
                9267,
                9228,
                3865,
                8230,
                132,
                2048,
                8295,
                8106,
                3816,
                4482,
                6248,
                1029,
                9355,
                6140,
                8202,
                5370,
                3938,
                7669,
                4667,
                5852,
                8258,
                2439,
                9532,
                4243,
                6303,
                1551,
                5773,
                1741,
                536,
                3581,
                9343,
                2208,
                3158,
                3611,
                471,
                1591,
                3823,
                9293,
                4507,
                2008,
                2099,
                1080,
                8337,
                8168,
                6508,
                8132,
                1533,
                9210,
                4447,
                9113,
                4320,
                2341,
                4451,
                2847,
                6424,
                8293,
                8126,
                8224,
                995,
                1296,
                8147,
                9406,
                8193,
                2217,
                9584,
                9485,
                1510,
                8178,
                6557,
                8299,
                9195,
                1408,
                6177,
                9207,
                3979,
                8389,
                5946,
                8138,
                9566,
                3387,
                1377,
                8299,
                4222,
                5695,
                4265,
                7347,
                750,
                8304,
                1247,
                5567,
                3527,
                4276,
                9060,
                9257,
                1515,
                4842,
                2175,
                3210,
                9470,
                1869,
                6268,
                4287,
                853,
                121,
                475,
                4635,
                9285,
                520,
                3546,
                6893,
                6374,
                7116,
                3222,
                563,
                7083,
                66,
                9332,
                2006,
                9389,
                9460,
                2152,
                5598,
                9298,
                9538,
                8301,
                1024,
                5958,
                26,
                8401,
                1290,
                268,
                5488,
                9343,
                5057,
                2192,
                1723,
                5640,
                1557,
                6374,
                3459,
                9252,
                9370,
                7429,
                8223,
                7501,
                7650,
                1863,
                5247,
                1637,
                516,
                3447,
                6399,
                1813,
                526,
                1929,
                664,
                534,
                9221,
                3085,
                4751,
                6192,
                5932,
                8383,
                1277,
                8358,
                8263,
                3408,
                5922,
                9248,
                2793,
                1731,
                3248,
                2412,
                8356,
                6008,
                9305,
                8218,
                8349,
                2504,
                6630,
                3314,
                5944,
                9375,
                713,
                8704,
                6756,
                4124,
                8251,
                9523,
                5416,
                9452,
                2349,
                2617,
                8096,
                7673,
                1125,
                8174,
                2309,
                9432,
                4240,
                5963,
                6479,
                2119,
                6372,
                292,
                5631,
                2149,
                6962,
                620,
                427,
                679,
                126,
                1740,
                6363,
                874,
                596,
                6349,
                2683,
                5044,
                9516,
                8149,
                5582,
                1718,
                3464,
                6591,
                5822,
                3214,
                3825,
                1605,
                3198,
                6446,
                3596,
                6935,
                3742,
                4787,
                9478,
                9391,
                4122,
                2023,
                8281,
                9331,
                1967,
                6812,
                8137,
                1659,
                2164,
                8161,
                2352,
                9421,
                4601,
                5462,
                9574,
                4917,
                3406,
                3315,
                5305,
                9379,
                5680,
                2216,
                2013,
                8188,
                3800,
                1157,
                4138,
                6464,
                9248,
                3453,
                8452,
                3839,
                1572,
                2541,
                9641,
                1840,
                5701,
                9109,
                9198,
                8332,
                156,
                692,
                404,
                6170,
                9071,
                3467,
                2619,
                7309,
                5932,
                1247,
                9330,
                2803,
                8323,
                7889,
                9235,
                4341,
                5125,
                417,
                3006,
                1621,
                6036,
                2618,
                1899,
                607,
                300,
                142,
                7950,
                7400,
                9624,
                4631,
                4433,
                7004,
                9451,
                1508,
                8395
            ]
        },
        "detections": 500,
        "events": 55864
    }
}