{
    "job_args": {
        "metric_limit": 500,
        "seed": 1576449477
    },
    "job_id": "batch_137_do_500",
    "result": {
        "collections": {
            "crystal": [
                0.7203121467715144,
                0.056131200000000006,
                0.8683709069607688,
                1.1732266212015405,
                0.5815828894899058,
                0.6185048696338966,
                1.33249809315288,
                0.3515907641063745,
                0.4569464177778186,
                0.6276559553517158,
                0.8768155775342088,
                0.07525000000000001,
                0.3934030245555451,
                1.1310037010717053,
                1.1732266212015405,
                1.3324980931528796,
                0.11520506631457762,
                1.3324980931528798,
                1.1732266212015408,
                0.8830288777265837,
                1.1732266212015405,
                0.34491456528652403,
                0.37094385057218215,
                0.03062376413478463,
                0.4781266469069935,
                1.0217658705574224,
                0.4365839549036601,
                1.0740976767002899,
                1.1732266212015405,
                1.1732266212015403,
                1.1732266212015405,
                1.3324980931528798,
                1.1732266212015405,
                1.1732266212015408,
                0.24476192336475894,
                0.42119187083877263,
                0.6839979601585935,
                1.0246097303070854,
                1.1732266212015408,
                0.587205515434297,
                0.5097517166638644,
                0.5590545467700171,
                0.7744016343729334,
                0.8026523413989962,
                0.5104579316763664,
                0.3450485739615961,
                0.40781651768300264,
                1.1732266212015405,
                0.6987874516652426,
                0.21255841538415787,
                0.5645495604590823,
                1.3324980931528798,
                0.07303900000000002,
                0.073039,
                1.3324980931528796,
                0.7231423084127121,
                0.43606162074579163,
                0.6140486039482819,
                0.5554171920520906,
                1.1732266212015405,
                1.1732266212015408,
                0.5194088929395106,
                0.8659393573825609,
                0.37250049028716375,
                0.17602680965262663,
                0.24602970773128896,
                0.469803575553017,
                0.5674240337843793,
                0.5417389201206433,
                0.599390998704614,
                1.0668481677676551,
                1.3324980931528798,
                0.32463034529037116,
                0.7612907797061348,
                0.21430101938815926,
                0.903967417340889,
                0.5432420170398496,
                1.1732266212015408,
                0.4083074736868797,
                0.05134847656939123,
                0.4961155334443311,
                1.0796445249614068,
                0.8128202230163074,
                0.2597503312689877,
                0.9605730963086033,
                0.19172216936702313,
                0.06680816201780204,
                0.3298038177135645,
                1.3324980931528798,
                0.9256483001335758,
                0.046943500000000006,
                0.017619850844260654,
                0.2503126678798192,
                1.000354515485812,
                0.05437218138832628,
                0.7290676123683062,
                1.1732266212015408,
                1.1376895927851396,
                0.6243080187667368,
                1.1732266212015403,
                0.28017188740223536,
                0.7377495676512186,
                0.07525,
                0.5538803459561606,
                0.7317034753708891,
                0.6921778535524756,
                1.3324980931528798,
                0.2708583694310046,
                0.8529713918681505,
                1.0646486388757943,
                1.1732266212015405,
                0.44954809035742416,
                0.9932020540326538,
                0.7494892739087047,
                0.19724482087904405,
                0.7884805250558545,
                0.07303899999999999,
                0.23392101734918863,
                0.4117010666838982,
                0.047150940130969876,
                0.7912003943656132,
                0.8109735414067636,
                1.3324980931528798,
                1.3324980931528798,
                1.3324980931528798,
                0.1668186844735896,
                1.1732266212015405,
                0.2180831683271828,
                0.21256748698404995,
                0.6900303786828303,
                1.1732266212015405,
                1.04148752025356,
                1.1732266212015405,
                0.9867056464759276,
                0.488505882633709,
                1.1732266212015405,
                1.1732266212015405,
                0.21996937005756034,
                1.1732266212015405,
                0.3892124157724839,
                0.858541677306367,
                1.1732266212015408,
                1.3324980931528796,
                1.3324980931528798,
                1.1732266212015405,
                1.1732266212015405,
                1.1732266212015405,
                1.1732266212015405,
                0.8306189652901628,
                1.3324980931528796,
                0.40056784010052926,
                0.19224309577133813,
                1.1732266212015405,
                0.17017899236038647,
                0.8672077619935381,
                0.51099891,
                0.7588008534430426,
                0.8897848271997806,
                1.3324980931528798,
                1.1732266212015408,
                1.1732266212015405,
                0.46697307383671405,
                0.6369362750797272,
                0.0852354,
                0.28178334807953587,
                1.1732266212015405,
                1.1732266212015408,
                1.1732266212015405,
                1.3324980931528798,
                0.6923988218850051,
                0.30124648015545397,
                0.6652141627993549,
                0.6777328285982618,
                0.21131205572693967,
                1.0317605685834736,
                0.8219642069458242,
                1.3324980931528798,
                0.35074160445024477,
                0.12395806775471606,
                0.43740574759652046,
                0.41919292519184437,
                1.3324980931528798,
                0.3913133761710347,
                0.5559241113452913,
                1.1732266212015403,
                1.1732266212015405,
                1.1732266212015405,
                0.10886912708209695,
                1.0303514353356256,
                1.067621944486319,
                0.14569552577288514,
                1.173226621201541,
                0.4066679708717804,
                1.3324980931528796,
                1.3324980931528798,
                0.07525,
                0.16731600833665472,
                1.0810961747773855,
                1.33249809315288,
                0.3297813910449932,
                0.23765504965468723,
                0.9382042345290028,
                0.7072155063428764,
                0.7865998924297157,
                0.6577558868063376,
                0.6404596510803827,
                1.1732266212015405,
                0.0847407,
                0.6596546731206154,
                0.5490982813449602,
                0.6980279643330733,
                1.3324980931528798,
                1.3324980931528796,
                0.7938482065246614,
                0.5187301016638486,
                1.1732266212015405,
                0.5122689995937796,
                0.7081383520669216,
                0.42435567124127505,
                0.45017455075149415,
                0.087534,
                0.6570766746364939,
                0.046991916062532,
                0.5956776763819671,
                0.9366014014096293,
                1.042796887576929,
                0.9921193211241364,
                0.5483472722750564,
                0.44041902884596545,
                0.0881791,
                0.8915319901953449,
                0.9046720748113318,
                1.0993158895660342,
                0.8603287844553902,
                1.3324980931528798,
                1.0859036019063566,
                0.3894059551141197,
                0.11174530306087438,
                0.9649595420433645,
                1.0400130680828448,
                0.43648815876242575,
                0.5128884825434881,
                0.29025908741775397,
                0.08523539999999999,
                0.9654965651383549,
                0.8448466905917735,
                0.7610776016306611,
                1.3324980931528798,
                0.27155476191243993,
                1.1492412457476802,
                1.024029035035348,
                1.0276393803023813,
                0.13888044098608704,
                1.3324980931528798,
                0.7865021553992664,
                0.9883711672762374,
                1.3324980931528798,
                0.5914805509297825,
                0.09769671065136953,
                1.1087526063789657,
                1.1732266212015405,
                0.2390462949907134,
                0.6501788957148095,
                1.1732266212015405,
                0.44941913308824466,
                1.1732266212015405,
                1.3324980931528798,
                0.9824962536530635,
                0.21829879406888741,
                1.1732266212015405,
                0.7243984715862086,
                0.8250971034749366,
                0.26136759447090313,
                0.041760065428647186,
                0.8989923739979143,
                1.1732266212015408,
                0.7058364096112029,
                0.7099933400477372,
                0.4896410121126505,
                1.1732266212015405,
                0.644006133337256,
                1.3324980931528798,
                1.1732266212015405,
                1.1732266212015405,
                0.4717487077430657,
                0.9850048390408391,
                0.8662093814310934,
                0.8059862041961465,
                1.1732266212015405,
                0.086780126939203,
                1.1732266212015405,
                1.1732266212015405,
                1.1732266212015408,
                1.3324980931528798,
                0.5682566909315754,
                0.46784654967227673,
                0.9988278545996654,
                0.20680915726736548,
                0.6172856894349231,
                0.598798702135476,
                1.3324980931528796,
                0.073039,
                1.1732266212015403,
                0.7319967892991771,
                0.35862061893843455,
                1.1732266212015408,
                0.901406447534212,
                0.9570247496333215,
                0.04619426745132377,
                0.4613197532623282,
                0.16638085915588496,
                0.6326077205527552,
                1.1732266212015405,
                1.3324980931528798,
                0.499766802775517,
                0.2994126490968055,
                0.5295897254232682,
                1.3038885931528796,
                1.3324980931528796,
                0.9256723451638146,
                0.8023471656503449,
                1.1732266212015405,
                1.3324980931528796,
                0.3495423804392475,
                1.3324980931528796,
                0.23969809288531319,
                0.10841042743793405,
                1.1732266212015405,
                1.1732266212015405,
                0.8165047944523771,
                0.7502395927948279,
                1.3324980931528794,
                1.1732266212015405,
                0.34860872232757595,
                0.14560633274473478,
                1.3324980931528796,
                1.1732266212015405,
                1.3324980931528798,
                0.2981854873704032,
                0.8459614567628273,
                0.8501853670307122,
                1.0355108823398789,
                1.1732266212015405,
                1.1567822817730913,
                1.1732266212015405,
                0.8253431006089058,
                0.5008448009181788,
                0.0706545441960514,
                0.20127910056191559,
                0.2363327598298241,
                1.1732266212015405,
                0.39617315736412817,
                0.09083967415172944,
                0.19330300558929137,
                1.1058959577053376,
                0.6255510158555208,
                1.33249809315288,
                1.3324980931528798,
                1.3324980931528798,
                0.9718492576882476,
                0.9966787822207293,
                0.45255454359739167,
                0.07303900000000002,
                0.6442478906390338,
                1.1732266212015408,
                0.23885874219982628,
                1.33249809315288,
                0.3193391361902534,
                0.23941296742037024,
                0.32415294262103167,
                0.26576218183449835,
                0.7461224279511945,
                0.8643965859747403,
                0.46933800814856064,
                0.8663683507626838,
                0.12844595327815722,
                1.3324980931528796,
                0.6181866808249388,
                1.3324980931528796,
                0.5580653736359179,
                1.1732266212015405,
                1.3324980931528798,
                1.3324980931528798,
                0.8263142603470421,
                0.5009974099698572,
                0.21122815432096637,
                0.29588404184306144,
                0.0876557,
                1.1732266212015405,
                1.0199718817112695,
                0.7289847400421158,
                0.4300212884605199,
                0.07524999999999998,
                0.9540231172567748,
                1.1732266212015405,
                0.6571150941650695,
                0.777296607765376,
                1.3324980931528798,
                0.23607987923571147,
                0.7149812688911394,
                0.8132240958938328,
                0.3760854090866771,
                0.2517364787527243,
                1.3324980931528798,
                0.28072232566124566,
                0.3372461239448772,
                0.22549358818125192,
                1.1732266212015405,
                0.5095697309640506,
                0.23430788453934492,
                0.23352442570851395,
                0.7388334936852607,
                0.24998914211141632,
                0.5672732950381346,
                0.8360143468034993,
                0.7234800507240855,
                0.07525,
                0.5049898199721272,
                0.1106284963169597,
                0.3497777025889331,
                0.000265560610440696,
                1.0503779306507466,
                1.3324980931528796,
                0.4613525631077962,
                1.3324980931528798,
                1.3324980931528796,
                1.3324980931528798,
                1.3324980931528796,
                0.47111237724376553,
                0.6207305604598262,
                1.1732266212015403,
                0.06660267177651535,
                0.28976684002428754,
                0.5528413728540807,
                0.4378906106826732,
                0.2791166690847513,
                0.25076556860489096,
                1.17322662120154,
                0.07525,
                0.26782335907242777,
                0.6919937688844182,
                0.8080921423003109,
                1.1732266212015405,
                1.2620701216882748,
                0.6575033900132655,
                0.44170463443662245,
                0.3782524262569582,
                0.8757554690390026,
                0.5661854287985426,
                0.10545802217293733,
                0.01501580347262138,
                0.4093899674391516,
                0.37948345883251333,
                1.2173015343820275,
                1.1732266212015405,
                1.1732266212015405,
                1.1732266212015405,
                0.3253994078798941,
                1.3324980931528796,
                1.3324980931528798,
                0.6434424768326147,
                0.7100149377461786,
                0.9905461020710439,
                0.6554791184237221,
                0.2706894878917142,
                1.1732266212015405,
                1.1732266212015405,
                0.7900223428171311,
                0.6439131928152851,
                1.1732266212015405,
                0.4873763670743222,
                0.017745562695548722,
                0.5603352988765481,
                0.5213417189581876,
                1.3324980931528798,
                1.3324980931528798,
                0.42708529784037136,
                0.05055139231569943,
                0.1204289840775491,
                0.7136502234491908,
                1.1732266212015408,
                1.1732266212015403,
                0.15470282927089896,
                0.37810809994005856,
                1.1732266212015405,
                0.7773275088282698,
                1.33249809315288,
                0.08523539999999999,
                0.22835981249971354,
                1.1732266212015405,
                0.4295845854569139,
                1.1732266212015405,
                0.24875022276175884,
                0.044429500000000004,
                0.3469940671862912,
                0.35776874472471387,
                0.7999985968975021,
                0.6032634031042343,
                0.3348912183269337,
                0.8294874764761839
            ],
            "photocathode": [
                4988,
                398,
                6152,
                8227,
                4179,
                4567,
                9167,
                2499,
                3287,
                4417,
                6168,
                539,
                2811,
                7971,
                8157,
                9278,
                826,
                9232,
                8241,
                6162,
                8275,
                2446,
                2598,
                196,
                3380,
                7297,
                2944,
                7629,
                8259,
                8312,
                8223,
                9126,
                8295,
                8374,
                1754,
                2994,
                4858,
                7366,
                8162,
                4147,
                3570,
                3914,
                5414,
                5719,
                3642,
                2299,
                2899,
                8453,
                4783,
                1505,
                3815,
                9262,
                515,
                497,
                9236,
                5061,
                3065,
                4349,
                3773,
                8427,
                8373,
                3575,
                6230,
                2606,
                1213,
                1716,
                3316,
                3971,
                3896,
                4058,
                7561,
                9417,
                2372,
                5327,
                1489,
                6366,
                3838,
                8306,
                2753,
                360,
                3552,
                7511,
                5614,
                1887,
                6755,
                1331,
                483,
                2265,
                9290,
                6447,
                326,
                106,
                1815,
                7091,
                403,
                4972,
                8083,
                7918,
                4351,
                8075,
                1961,
                5098,
                531,
                3804,
                5188,
                4871,
                9279,
                1814,
                5934,
                7569,
                8356,
                3118,
                6928,
                5341,
                1404,
                5458,
                462,
                1560,
                2844,
                371,
                5437,
                5684,
                9294,
                9285,
                9304,
                1236,
                7969,
                1594,
                1470,
                4895,
                8185,
                7427,
                8036,
                6925,
                3354,
                8242,
                8439,
                1542,
                8145,
                2685,
                6225,
                8164,
                9372,
                9257,
                8137,
                8516,
                8263,
                8185,
                6055,
                9391,
                2780,
                1442,
                8162,
                1252,
                6305,
                3524,
                5441,
                6203,
                9286,
                8329,
                8160,
                3341,
                4539,
                613,
                1930,
                8051,
                8196,
                8212,
                9327,
                4842,
                2070,
                4595,
                5001,
                1422,
                7403,
                5844,
                9618,
                2455,
                824,
                3086,
                3075,
                9111,
                2845,
                3930,
                8446,
                8280,
                8380,
                755,
                7406,
                7410,
                991,
                8439,
                2890,
                9429,
                9469,
                495,
                1199,
                7732,
                9284,
                2370,
                1694,
                6578,
                4826,
                5706,
                4602,
                4383,
                8114,
                598,
                4572,
                3898,
                4829,
                9441,
                9711,
                5591,
                3553,
                8515,
                3645,
                4965,
                3047,
                3247,
                651,
                4618,
                351,
                4127,
                6723,
                7504,
                7106,
                3767,
                3061,
                617,
                6290,
                6522,
                7615,
                5922,
                9387,
                7597,
                2779,
                768,
                6758,
                7122,
                3090,
                3551,
                2005,
                615,
                7016,
                5949,
                5426,
                9237,
                1983,
                8130,
                7308,
                7254,
                981,
                9557,
                5513,
                7118,
                9419,
                4198,
                683,
                8023,
                8236,
                1692,
                4620,
                8324,
                3226,
                8066,
                9192,
                6877,
                1505,
                8307,
                5230,
                5799,
                1835,
                301,
                6169,
                8174,
                5005,
                4941,
                3486,
                7977,
                4398,
                9196,
                8159,
                8332,
                3347,
                7101,
                6082,
                5866,
                8232,
                610,
                8163,
                8126,
                8388,
                9659,
                3914,
                3255,
                7064,
                1411,
                4411,
                4126,
                9223,
                551,
                8055,
                5200,
                2499,
                8087,
                6336,
                6784,
                331,
                3179,
                1169,
                4384,
                8280,
                9275,
                3441,
                2097,
                3768,
                9119,
                9257,
                6678,
                5528,
                8370,
                9515,
                2416,
                9301,
                1685,
                718,
                8040,
                8535,
                5716,
                5267,
                9263,
                8313,
                2435,
                1054,
                9448,
                8139,
                9223,
                2109,
                5954,
                5768,
                7614,
                8094,
                8092,
                8201,
                5920,
                3483,
                511,
                1456,
                1611,
                8197,
                2714,
                614,
                1289,
                7666,
                4434,
                9414,
                9358,
                9153,
                7016,
                7215,
                3080,
                499,
                4551,
                8121,
                1671,
                9282,
                2213,
                1588,
                2278,
                1852,
                5303,
                6236,
                3436,
                6265,
                912,
                9296,
                4423,
                9079,
                3924,
                8211,
                9472,
                9244,
                5821,
                3666,
                1442,
                2058,
                603,
                8554,
                7094,
                5061,
                2970,
                512,
                6832,
                8092,
                4679,
                5524,
                9555,
                1660,
                5172,
                5944,
                2714,
                1787,
                9250,
                1996,
                2315,
                1644,
                8218,
                3432,
                1565,
                1672,
                5339,
                1699,
                4008,
                6039,
                5063,
                528,
                3553,
                760,
                2431,
                1,
                7370,
                9318,
                3300,
                9528,
                9060,
                9405,
                9295,
                3243,
                4380,
                8285,
                461,
                2112,
                4071,
                3028,
                1947,
                1758,
                8267,
                526,
                1864,
                4729,
                5625,
                8298,
                8958,
                4529,
                3112,
                2759,
                6206,
                4008,
                749,
                106,
                2839,
                2559,
                8509,
                8130,
                8127,
                8401,
                2348,
                9383,
                9265,
                4504,
                5280,
                7147,
                4573,
                1919,
                8045,
                8392,
                5377,
                4418,
                8318,
                3430,
                130,
                4005,
                3647,
                9126,
                9277,
                2943,
                340,
                877,
                4947,
                8039,
                8281,
                1117,
                2610,
                8311,
                5569,
                9496,
                593,
                1646,
                7840,
                2986,
                8238,
                1779,
                305,
                2285,
                2537,
                5734,
                4287,
                2381,
                5707
            ]
        },
        "detections": 500,
        "events": 55645
    }
}