{
    "job_args": {
        "metric_limit": 300,
        "seed": 3882124972
    },
    "job_id": "batch_130_do_300",
    "result": {
        "collections": {
            "crystal": [
                0.9999999999999999,
                1.0,
                0.711418271340708,
                0.27715776609415954,
                0.9999999999999999,
                1.0000000000000002,
                0.9999999999999999,
                0.30583398252847305,
                1.0,
                0.9999999999999999,
                1.0,
                1.0,
                1.0,
                0.5614280999849144,
                0.2350852169131089,
                1.0,
                1.0,
                1.0,
                0.5853110320569559,
                0.13171564147849224,
                0.0934601777700017,
                1.0,
                0.4942797690158941,
                1.0000000000000002,
                0.5476655099483327,
                1.0,
                0.9999999999999999,
                0.4504188137727753,
                0.2449701730105523,
                0.733893140910768,
                1.0,
                0.2621136946348603,
                1.0,
                0.9999999999999999,
                0.6472342744908713,
                0.3808938027813666,
                1.0,
                0.9999999999999999,
                0.9999999999999999,
                0.9999999999999999,
                0.5463598648616319,
                0.9999999999999999,
                0.12173950611196473,
                0.9999999999999999,
                0.22854206528826906,
                0.9029766337632454,
                0.9999999999999999,
                0.16888506040862916,
                0.7477608958660763,
                1.0,
                1.0,
                0.8648006309021741,
                0.9999999999999999,
                0.7174276441226561,
                0.3050424276350857,
                0.34545972452870677,
                1.0,
                1.0,
                0.7475454634027433,
                1.0,
                0.44267311532158793,
                1.0000000000000002,
                1.0,
                0.4264509147152883,
                0.9999999999999999,
                0.9999999999999998,
                0.7229346334344204,
                0.05526199125419062,
                0.3185565739418176,
                0.5602667139177904,
                1.0,
                0.36114557316981377,
                1.0,
                1.0,
                1.0,
                0.9999999999999998,
                0.3363803508467229,
                1.0,
                0.5592992726975119,
                0.23724310513415603,
                0.7408544273566544,
                1.0,
                0.5661957180043887,
                0.4842662804554969,
                1.0,
                0.1518000910718925,
                0.8927786126004238,
                1.0,
                1.0,
                0.6112456984525613,
                1.0,
                0.9999999999999999,
                1.0,
                0.2652944171845101,
                1.0,
                1.0,
                0.30978801534659167,
                0.7862444147711903,
                0.9999999999999999,
                0.6717006323943134,
                0.44774396802819455,
                0.7033810188934528,
                0.22961228088473315,
                0.5287628725189216,
                0.7707336539277481,
                1.0,
                0.7806712038646679,
                1.0,
                1.0,
                0.2418597421478662,
                0.7448269072038781,
                0.22677325797834558,
                1.0,
                1.0,
                0.7225045596154804,
                1.0,
                1.0000000000000002,
                0.6671690015587844,
                0.39408310833988414,
                0.6100158890339978,
                1.0,
                0.3857222170302017,
                1.0000000000000002,
                0.9999999999999999,
                0.5910490727908616,
                1.0,
                1.0,
                1.0,
                0.3250112052926424,
                0.9999999999999999,
                0.9999999999999999,
                1.0,
                1.0,
                1.0,
                0.6025858067086282,
                1.0,
                0.554806526472507,
                1.0,
                0.20954738400176265,
                0.4722777315197184,
                0.6798436562573054,
                1.0,
                1.0,
                0.9999999999999999,
                0.7511746945784665,
                1.0,
                1.0,
                1.0000000000000002,
                0.6216239086622899,
                0.017062812762941193,
                0.9999999999999999,
                1.0,
                0.7648097936495586,
                1.0,
                0.9999999999999999,
                1.0,
                1.0,
                1.0,
                0.6475578380985382,
                1.0,
                0.6850033070487445,
                1.0,
                0.3832643780620376,
                0.7768498297568638,
                0.017154582140487817,
                1.0,
                1.0,
                1.0,
                0.5331392709971188,
                0.0444543508027877,
                0.2225462020540956,
                1.0,
                1.0,
                1.0,
                0.5451043889460935,
                1.0,
                1.0,
                0.5879351702527222,
                0.47999303992441245,
                0.7893838110093949,
                0.5777096670278237,
                0.9999999999999999,
                1.0,
                0.3632655165571732,
                1.0,
                1.0,
                0.5197902457499807,
                1.0000000000000002,
                0.8382997699129718,
                1.0,
                1.0,
                0.049307966298941186,
                0.9999999999999999,
                0.20115516961138513,
                0.9999999999999999,
                0.1581815236090398,
                1.0,
                0.7903347098727528,
                0.9999999999999999,
                0.2866183545837152,
                0.9999999999999999,
                0.9999999999999999,
                0.6440131378332627,
                1.0000000000000002,
                0.9999999999999999,
                1.0000000000000002,
                0.1652923816340652,
                0.7531884485361169,
                0.3179082856171984,
                0.803160066862134,
                0.35464235277332234,
                1.0,
                0.6131373176053831,
                1.0,
                1.0,
                0.3545078453045633,
                0.4468216091497111,
                1.0000000000000002,
                0.1753172578813108,
                1.0,
                1.0000000000000002,
                1.0,
                0.9999999999999999,
                1.0000000000000002,
                0.8015540685774076,
                1.0,
                1.0,
                0.9999999999999999,
                1.0,
                0.5237531467159144,
                1.0,
                0.5895485176630763,
                1.0,
                1.0,
                1.0,
                0.796907490472622,
                1.0,
                0.9999999999999999,
                1.0,
                0.15332660458044833,
                0.6952821231546842,
                0.9999999999999999,
                1.0,
                0.46523181803708247,
                0.6695653605748478,
                0.6838606439374718,
                0.3654987648533211,
                1.0,
                0.6045306946834316,
                1.0,
                1.0,
                0.43517374756649274,
                0.5347550425424381,
                1.0,
                0.7597554493857167,
                0.34636767654190037,
                0.9999999999999999,
                0.34459134976551353,
                1.0,
                0.4664502964366681,
                1.0,
                0.7037070372096847,
                1.0,
                1.0,
                0.7431057604028071,
                1.0000000000000002,
                0.4885088760915279,
                1.0,
                0.6205632295234613,
                0.35285055004520216,
                1.0000000000000002,
                0.6526932112707757,
                0.9999999999999999,
                0.6884682448732627,
                1.0,
                1.0,
                1.0,
                0.5501894618537887,
                0.9999999999999999,
                1.0,
                1.0,
                0.08641010893985468,
                0.10741707322578688,
                1.0,
                1.0,
                1.0,
                0.5197687852984445,
                1.0,
                0.31878764408578364,
                1.0,
                1.0,
                0.9999999999999999,
                1.0,
                0.6104437685876902,
                0.1120594087510135,
                0.4064562666858556,
                0.9999999999999999,
                0.5066465031207532,
                0.5092569123826284,
                1.0000000000000002
            ],
            "photocathode": [
                7099,
                6964,
                4986,
                2123,
                7025,
                7143,
                7138,
                2194,
                7081,
                7203,
                7007,
                7072,
                7072,
                4053,
                1668,
                7237,
                7120,
                7232,
                4144,
                933,
                612,
                7170,
                3477,
                7241,
                3999,
                7308,
                7176,
                3190,
                1773,
                5193,
                7342,
                1908,
                7112,
                7386,
                4617,
                2740,
                7204,
                7015,
                7186,
                7147,
                3963,
                7193,
                860,
                7051,
                1614,
                6492,
                7099,
                1163,
                5235,
                6900,
                7186,
                6293,
                6997,
                5243,
                2179,
                2480,
                7141,
                7233,
                5446,
                7262,
                3189,
                7117,
                7072,
                3045,
                7177,
                7137,
                5141,
                412,
                2214,
                4042,
                7105,
                2546,
                7343,
                7296,
                7158,
                7067,
                2461,
                7007,
                3962,
                1677,
                5253,
                7118,
                4019,
                3381,
                7132,
                1051,
                6314,
                7064,
                7179,
                4473,
                7394,
                7149,
                7114,
                1873,
                7228,
                7165,
                2234,
                5678,
                7187,
                4829,
                3035,
                5083,
                1637,
                3843,
                5496,
                7059,
                5689,
                7300,
                7170,
                1787,
                5301,
                1674,
                7023,
                7237,
                5186,
                7316,
                7052,
                4752,
                2843,
                4421,
                7336,
                2786,
                7094,
                7220,
                4190,
                7112,
                7145,
                7119,
                2294,
                7196,
                7132,
                7215,
                7063,
                7212,
                4443,
                7319,
                3932,
                7290,
                1493,
                3292,
                4816,
                7172,
                7189,
                7091,
                5324,
                7346,
                7324,
                7116,
                4437,
                113,
                7215,
                7241,
                5549,
                6969,
                7182,
                6972,
                7137,
                7068,
                4707,
                7220,
                4914,
                7185,
                2737,
                5491,
                104,
                7091,
                7240,
                6869,
                3908,
                326,
                1642,
                7284,
                7074,
                7212,
                3784,
                6984,
                7141,
                4200,
                3448,
                5608,
                4241,
                7218,
                7315,
                2522,
                7070,
                7230,
                3716,
                7243,
                5935,
                7116,
                7027,
                363,
                7024,
                1468,
                7128,
                1154,
                7080,
                5763,
                7324,
                1988,
                7117,
                7124,
                4618,
                7350,
                7035,
                7205,
                1124,
                5378,
                2329,
                5754,
                2561,
                7079,
                4335,
                7182,
                7371,
                2534,
                3262,
                7228,
                1285,
                7236,
                6993,
                7189,
                7114,
                7069,
                5755,
                7163,
                7179,
                7245,
                7145,
                3714,
                6955,
                4222,
                7020,
                7195,
                7202,
                5711,
                7233,
                7044,
                7351,
                1116,
                5130,
                7059,
                7085,
                3392,
                4753,
                4815,
                2652,
                6979,
                4364,
                7191,
                7062,
                3225,
                3826,
                7087,
                5445,
                2540,
                7331,
                2572,
                6909,
                3330,
                7279,
                5039,
                7098,
                7203,
                5329,
                7011,
                3475,
                7177,
                4484,
                2563,
                7023,
                4707,
                7114,
                4899,
                7103,
                7042,
                7156,
                3977,
                7113,
                7294,
                7124,
                613,
                736,
                7125,
                7065,
                7239,
                3698,
                6969,
                2290,
                7230,
                7030,
                7005,
                7202,
                4304,
                814,
                2774,
                7426,
                3542,
                3687,
                7112
            ]
        },
        "detections": 300,
        "events": 395
    }
}