{
    "job_args": {
        "metric_limit": 300,
        "seed": 2533372258
    },
    "job_id": "batch_111_do_300",
    "result": {
        "collections": {
            "crystal": [
                0.9999999999999999,
                0.6045381732271793,
                0.786411717311902,
                0.9999999999999999,
                0.3664217558709498,
                1.0,
                1.0000000000000002,
                1.0,
                1.0,
                0.317898298394164,
                1.0,
                0.2876964895456504,
                1.0,
                0.5917348021556498,
                0.9999999999999999,
                1.0,
                0.3813222648822989,
                0.7482899639007703,
                0.3768123310891237,
                0.5905845237290716,
                0.6284670243815951,
                0.6653663874351531,
                0.7800410841052652,
                0.5866066830471837,
                1.0,
                0.7650781637615145,
                1.0,
                1.0,
                1.0,
                1.0,
                0.7200367336714868,
                0.6438591287880512,
                0.5942787491808611,
                0.9999999999999999,
                1.0,
                1.0,
                1.0,
                0.7586056359771209,
                0.5620402736793351,
                0.43346822036707067,
                0.9999999999999999,
                0.4723169962263777,
                0.5405683421345767,
                1.0,
                1.0,
                0.68612881445195,
                0.06038307337328419,
                1.0000000000000002,
                1.0,
                0.4728067788931554,
                0.47838678112478716,
                0.9999999999999999,
                1.0,
                0.22291549826841273,
                0.3439376938506997,
                0.33333629093191275,
                1.0,
                0.9999999999999999,
                0.9999999999999999,
                0.7810637294874161,
                1.0,
                1.0000000000000002,
                1.0,
                0.49695888126549864,
                0.9999999999999999,
                1.0000000000000002,
                1.0000000000000002,
                0.7519188089031793,
                0.38035547604861186,
                1.0,
                0.17419447945286815,
                0.13892333501626097,
                0.14845323644065056,
                1.0,
                0.7863860133953979,
                1.0,
                0.26979424021702136,
                1.0,
                0.9999999999999999,
                0.1025096591093365,
                0.7206589520892135,
                1.0,
                0.7168317041584233,
                1.0,
                0.2929159469162599,
                1.0000000000000002,
                0.4801564035204801,
                1.0,
                1.0,
                0.49318245489842405,
                1.0,
                1.0,
                0.10099604458019862,
                1.0,
                0.8252979728249323,
                1.0,
                0.9999999999999999,
                0.11210448120912077,
                1.0,
                0.5593316514598741,
                1.0000000000000002,
                0.5322714557671381,
                0.9999999999999999,
                0.41376909438133225,
                0.9999999999999998,
                0.7275252566562892,
                1.0,
                0.7212027324602952,
                1.0,
                1.0000000000000002,
                0.17098696977139624,
                1.0,
                0.9999999999999999,
                0.1203787453743571,
                0.7368113014127232,
                0.21361514972683512,
                0.7352603356364931,
                0.9999999999999999,
                1.0,
                0.28422861779169273,
                1.0,
                0.9999999999999998,
                0.06051543840744156,
                0.9999999999999999,
                0.5358460174390092,
                1.0,
                1.0,
                0.3221262601614565,
                0.9999999999999999,
                0.03381955485088961,
                0.9999999999999999,
                1.0000000000000002,
                1.0,
                0.38055088949465765,
                0.7860193829369113,
                0.02502361630920935,
                1.0000000000000002,
                0.7672652218011959,
                0.6606024854159438,
                0.6899915640799339,
                1.0000000000000002,
                0.9999999999999998,
                0.7999203175427132,
                1.0,
                1.0,
                0.7234071152669301,
                0.11742077032013976,
                1.0,
                1.0,
                0.6419373397975991,
                1.0,
                1.0000000000000002,
                1.0,
                1.0,
                0.9999999999999999,
                0.6212060269522759,
                1.0,
                1.0,
                0.5140225455019382,
                1.0,
                1.0000000000000002,
                0.32158415531425993,
                1.0000000000000002,
                1.0,
                0.7920234315953595,
                0.9999999999999999,
                1.0,
                1.0,
                1.0,
                1.0,
                1.0,
                0.8028304794341112,
                0.13884642301290384,
                0.15141180775852087,
                1.0,
                0.0066449028147359535,
                0.15876047953117667,
                0.6047111059524656,
                1.0,
                1.0,
                0.24786661907755628,
                1.0,
                0.20474172126395218,
                1.0,
                1.0,
                0.6020879303088408,
                1.0,
                0.94220823420078,
                1.0000000000000002,
                0.3989866650690739,
                1.0000000000000002,
                0.7968446688895942,
                0.5065995835175096,
                1.0,
                0.3000681303968038,
                0.301319647128343,
                0.9999999999999999,
                0.6466948378953965,
                0.9999999999999999,
                1.0,
                0.7098921043552552,
                0.9999999999999999,
                1.0,
                1.0,
                1.0,
                0.43466332188162915,
                0.28880163722943564,
                0.28601033089356753,
                0.3888025554143283,
                1.0,
                1.0,
                1.0,
                0.2115904769539548,
                0.9999999999999999,
                0.9999999999999998,
                1.0,
                1.0000000000000002,
                0.6667994628283568,
                1.0,
                0.7777452986337108,
                1.0,
                1.0,
                1.0,
                1.0,
                1.0,
                0.22855293376682287,
                1.0,
                0.8132935694793815,
                0.44754118195655634,
                0.5340383824570575,
                0.23985370738161993,
                1.0,
                1.0,
                1.0,
                1.0,
                0.49491667671591155,
                1.0,
                0.298737933546137,
                0.8504442741880821,
                1.0000000000000002,
                0.6411330559969616,
                0.40753809357090376,
                0.9999999999999999,
                0.49677844868980126,
                0.33317365023674855,
                0.18673589899704535,
                1.0,
                0.399674256927811,
                1.0,
                1.0000000000000002,
                0.7128919689770883,
                0.5601462602047609,
                1.0,
                1.0000000000000002,
                0.9999999999999999,
                0.9999999999999999,
                1.0,
                1.0,
                0.22152477744835367,
                0.6003280041283304,
                0.7837662114925821,
                0.23258806266972426,
                1.0,
                0.9999999999999999,
                0.6473334805110867,
                0.30667210561908725,
                0.9999999999999999,
                0.1482143751108156,
                0.04230496815556684,
                0.10310944870039443,
                0.5741980081037747,
                1.0,
                1.0,
                0.4640472493660883,
                0.9999999999999999,
                0.07058227797439653,
                0.16209667067947708,
                0.9999999999999999,
                0.9999999999999999,
                0.4220465678087725,
                1.0,
                0.6195598283337633,
                0.6094874104517514,
                1.0000000000000002,
                0.9999999999999999,
                1.0,
                1.0,
                0.3821214279477193,
                0.48414502968374395,
                1.0,
                1.0,
                0.9999999999999999,
                0.9999999999999998,
                1.0,
                1.0000000000000002,
                0.4707838135832221,
                0.4301604732293834,
                1.0,
                0.6228998374752246,
                1.0
            ],
            "photocathode": [
                7069,
                4361,
                5669,
                7132,
                2586,
                7160,
                7041,
                7203,
                7177,
                2299,
                7231,
                2006,
                7120,
                4308,
                7050,
                7291,
                2724,
                5343,
                2808,
                4159,
                4433,
                4805,
                5587,
                4165,
                7277,
                5372,
                7218,
                6990,
                7276,
                7033,
                5239,
                4465,
                4335,
                7351,
                7177,
                7382,
                7066,
                5480,
                3970,
                3111,
                6953,
                3435,
                3956,
                7173,
                7123,
                4848,
                438,
                7150,
                7145,
                3421,
                3445,
                7156,
                7225,
                1571,
                2528,
                2382,
                7014,
                7374,
                7240,
                5536,
                7184,
                7272,
                7277,
                3657,
                7192,
                7115,
                7041,
                5418,
                2771,
                7172,
                1217,
                1058,
                1063,
                7130,
                5520,
                7213,
                1957,
                7297,
                7141,
                715,
                5145,
                7368,
                5103,
                7073,
                2145,
                7110,
                3397,
                7262,
                7075,
                3580,
                6853,
                7144,
                721,
                7135,
                5909,
                7268,
                7342,
                818,
                6946,
                3987,
                7265,
                3933,
                7050,
                3187,
                7069,
                5204,
                7196,
                5055,
                7076,
                7350,
                1335,
                7176,
                7159,
                839,
                5236,
                1555,
                5191,
                7087,
                7050,
                1996,
                7073,
                7065,
                423,
                7314,
                3767,
                7001,
                7201,
                2341,
                7201,
                240,
                7153,
                6974,
                7239,
                2790,
                5861,
                170,
                7284,
                5445,
                4769,
                4837,
                7031,
                7180,
                5737,
                7260,
                7166,
                5221,
                851,
                7222,
                7062,
                4631,
                7222,
                7192,
                6988,
                7221,
                7350,
                4396,
                7426,
                7311,
                3583,
                7215,
                7094,
                2381,
                7170,
                7251,
                5644,
                6972,
                7186,
                7132,
                7175,
                7120,
                6918,
                5618,
                945,
                1039,
                7121,
                44,
                1096,
                4209,
                7238,
                7019,
                1769,
                7299,
                1491,
                7240,
                7120,
                4331,
                7175,
                6760,
                7103,
                2862,
                7163,
                5718,
                3651,
                6947,
                2165,
                2117,
                6880,
                4582,
                7049,
                7085,
                5083,
                7381,
                7099,
                6985,
                7087,
                3159,
                2015,
                2104,
                2715,
                7106,
                7306,
                7229,
                1505,
                7281,
                7230,
                7078,
                7224,
                4655,
                7204,
                5567,
                7054,
                7167,
                7090,
                6976,
                7316,
                1665,
                7170,
                5889,
                3311,
                3785,
                1727,
                7034,
                7321,
                7174,
                7182,
                3584,
                7091,
                2204,
                6093,
                7197,
                4610,
                2895,
                7099,
                3591,
                2481,
                1265,
                7152,
                2823,
                7229,
                7205,
                5159,
                4054,
                7078,
                7209,
                7302,
                7072,
                7203,
                7152,
                1528,
                4341,
                5695,
                1675,
                7115,
                7175,
                4632,
                2125,
                7043,
                1167,
                303,
                802,
                4115,
                7170,
                6961,
                3368,
                7200,
                491,
                1167,
                7231,
                7222,
                3098,
                7065,
                4566,
                4335,
                7040,
                7059,
                7316,
                7031,
                2766,
                3555,
                7210,
                7116,
                7111,
                7115,
                7542,
                7206,
                3294,
                3100,
                7136,
                4374,
                7323
            ]
        },
        "detections": 300,
        "events": 371
    }
}