{
    "job_args": {
        "metric_limit": 300,
        "seed": 3218798409
    },
    "job_id": "batch_101_do_300",
    "result": {
        "collections": {
            "crystal": [
                1.0,
                1.0000000000000002,
                1.0,
                0.9999999999999999,
                0.9999999999999999,
                0.9999999999999999,
                1.0,
                1.0,
                0.6883757562542971,
                0.40749627973783603,
                1.0,
                0.5490815080743325,
                0.9999999999999999,
                0.42289138082212807,
                0.9999999999999999,
                1.0000000000000002,
                0.44147505131799636,
                0.6447523154441177,
                0.25987699993641855,
                1.0,
                0.9469571409469709,
                1.0,
                0.7906767226532146,
                0.6234578092405583,
                0.5393152479180575,
                0.06714395600125445,
                0.7472795907423304,
                1.0,
                0.5033048668651179,
                1.0,
                1.0,
                0.7785670397464314,
                0.9999999999999999,
                0.41407267593069597,
                0.11049578352475564,
                1.0,
                0.3414332198091713,
                1.0,
                1.0,
                0.675692347086023,
                0.11900402250152098,
                0.9999999999999999,
                1.0,
                0.6696463090132991,
                0.5508227318911058,
                0.7171013597093968,
                1.0,
                0.3846873160089297,
                1.0,
                0.06124604953694705,
                1.0,
                0.39094608357414645,
                1.0,
                1.0,
                0.9999999999999999,
                0.16359861621548,
                1.0,
                0.15136228145551223,
                1.0,
                1.0,
                1.0,
                1.0,
                1.0000000000000002,
                1.0,
                0.10265896447993361,
                0.5507160413430344,
                1.0,
                1.0,
                1.0,
                0.6026561339409808,
                0.593256506861849,
                0.9999999999999999,
                0.609795450387673,
                0.2085645697201754,
                1.0,
                0.9999999999999998,
                0.05496422992292105,
                1.0,
                0.6304625650610518,
                0.9999999999999999,
                0.18553692091333618,
                0.6962404539490485,
                0.14990600978330437,
                0.8039226999301647,
                0.6057224965670537,
                0.6431940458072156,
                1.0,
                1.0,
                1.0,
                0.9999999999999999,
                0.6642857844125493,
                0.6224943183107576,
                0.3983714566706486,
                1.0000000000000002,
                0.12173912193090042,
                1.0,
                0.26639325146710524,
                0.540037097955199,
                0.3561639962183585,
                1.0,
                0.07544991127050615,
                0.6489383277531894,
                1.0,
                1.0,
                0.2145287463803166,
                0.6934047936787168,
                0.9999999999999999,
                1.0,
                0.7582969963584023,
                1.0,
                1.0,
                1.0,
                0.7095938488287589,
                0.7601108635669518,
                1.0,
                0.7308829184992459,
                0.70830097297176,
                0.9265138994819964,
                0.9999999999999999,
                1.0,
                1.0,
                0.7851142984024632,
                0.2796004088998211,
                0.8059246246831621,
                1.0,
                1.0,
                1.0,
                0.4458783229884969,
                0.9999999999999999,
                0.26575476945274135,
                1.0,
                1.0000000000000002,
                0.27380594571386974,
                0.9999999999999999,
                1.0,
                1.0,
                0.016337063387627193,
                0.36149590301358653,
                0.23984322074980427,
                1.0,
                1.0,
                1.0000000000000002,
                0.09857050248036525,
                1.0,
                0.2628080034067375,
                0.4622394798759538,
                1.0,
                0.4402053468270247,
                1.0,
                1.0,
                1.0,
                1.0,
                0.9999999999999999,
                0.5327181411814851,
                0.21983205650378346,
                0.4523465534183021,
                0.5851615059671391,
                1.0,
                0.45944201957278374,
                0.9999999999999998,
                0.7175023478676219,
                0.7950699066318943,
                1.0000000000000002,
                0.7786985893243389,
                0.9999999999999999,
                0.3310444030444297,
                1.0,
                1.0,
                1.0,
                0.9999999999999999,
                0.7097705166385597,
                1.0,
                0.027700966421287276,
                0.9222646802677841,
                0.6761051134121745,
                0.560158409738831,
                1.0,
                0.9999999999999997,
                1.0,
                1.0,
                0.29680334938135944,
                0.08557138136376874,
                0.11743873034316443,
                1.0,
                0.3247462646058874,
                0.10636624752303925,
                1.0,
                1.0,
                0.776081252437036,
                0.9999999999999999,
                1.0,
                1.0,
                1.0,
                0.310158059686656,
                0.38845486889560754,
                0.9999999999999999,
                0.9999999999999999,
                0.3091340884767997,
                0.5584709747467315,
                0.9999999999999999,
                0.7226019489746581,
                0.463137570841806,
                1.0,
                0.12424280760025508,
                0.3829039610155141,
                1.0,
                0.2463925651375046,
                1.0,
                0.1872081468932111,
                0.25111258549688287,
                1.0,
                1.0000000000000002,
                1.0,
                0.10390633912034097,
                0.9999999999999999,
                1.0,
                0.1274173570976712,
                1.0,
                0.9026372989391943,
                1.0,
                1.0,
                0.4581779306179734,
                1.0000000000000002,
                0.9522998874732946,
                1.0,
                1.0,
                1.0,
                1.0,
                1.0,
                1.0,
                1.0,
                0.41895319422807914,
                1.0000000000000002,
                0.4602419054581502,
                0.5443244597220992,
                0.2896201173510324,
                1.0,
                1.0,
                0.9999999999999999,
                1.0,
                0.06593116792423198,
                1.0,
                0.43740990057439283,
                0.9999999999999999,
                1.0000000000000002,
                0.35298099507789193,
                1.0000000000000002,
                0.4542679162210847,
                1.0,
                0.9973594715232694,
                0.9999999999999999,
                0.9999999999999999,
                0.2697527833685704,
                0.4683586818772456,
                0.3701642579866825,
                1.0,
                0.7574495337282773,
                0.2536523779465707,
                1.0,
                0.42850367815714013,
                1.0,
                0.3075631452611427,
                0.7493394562037085,
                0.6635378251058461,
                0.1951659279718474,
                0.7566503568999211,
                1.0,
                0.9999999999999999,
                1.0,
                0.5955826550019283,
                0.7028770458998467,
                0.7204611935024959,
                0.02958135005172957,
                0.7628611851821739,
                0.31382403305602746,
                1.0,
                1.0,
                0.7792093999783586,
                0.5523520901119386,
                1.0,
                0.5939863098588021,
                1.0000000000000002,
                1.0,
                0.6323194336494776,
                0.6016412344785447,
                0.9999999999999999,
                0.45697291455567357,
                0.09796990809106955,
                0.7778110212941719,
                1.0,
                1.0,
                1.0,
                0.6736606307155288,
                1.0,
                0.7632598516381047,
                0.9999999999999999,
                0.9999999999999998,
                1.0,
                1.0000000000000002,
                1.0
            ],
            "photocathode": [
                7043,
                7221,
                7219,
                7059,
                7192,
                7174,
                7160,
                7131,
                4832,
                2873,
                7152,
                3963,
                7162,
                3031,
                7112,
                7251,
                3244,
                4673,
                1862,
                7273,
                6922,
                7276,
                5638,
                4404,
                3827,
                493,
                5409,
                7341,
                3511,
                7106,
                7283,
                5641,
                7123,
                2938,
                779,
                7009,
                2476,
                7065,
                7045,
                4811,
                851,
                7243,
                7144,
                4689,
                3925,
                5183,
                7076,
                2809,
                7095,
                423,
                7203,
                2776,
                7217,
                7096,
                7106,
                1249,
                7195,
                1072,
                7280,
                7260,
                7005,
                7173,
                7142,
                7251,
                791,
                3965,
                7146,
                7062,
                7165,
                4255,
                4247,
                7157,
                4366,
                1441,
                7145,
                7134,
                406,
                7198,
                4410,
                7200,
                1347,
                4851,
                1116,
                5844,
                4311,
                4654,
                7148,
                7141,
                7268,
                7037,
                4682,
                4449,
                2821,
                6948,
                918,
                7047,
                1845,
                3710,
                2577,
                7405,
                523,
                4685,
                7155,
                7167,
                1512,
                4898,
                7184,
                7237,
                5470,
                7139,
                7138,
                7240,
                5066,
                5505,
                7119,
                5222,
                5084,
                6580,
                7326,
                7327,
                7096,
                5682,
                1989,
                5687,
                7214,
                7183,
                7034,
                3148,
                7137,
                1904,
                7125,
                7195,
                2043,
                7200,
                7307,
                7112,
                112,
                2551,
                1696,
                7231,
                7302,
                7281,
                707,
                7003,
                1894,
                3250,
                7202,
                3165,
                7290,
                7037,
                7050,
                7047,
                7338,
                3793,
                1543,
                3290,
                4217,
                7194,
                3184,
                7238,
                5169,
                5735,
                6993,
                5446,
                7333,
                2361,
                7137,
                7170,
                7129,
                7200,
                5092,
                7446,
                189,
                6651,
                4818,
                3988,
                6894,
                7183,
                7189,
                7061,
                2138,
                675,
                818,
                7211,
                2270,
                792,
                7021,
                7140,
                5604,
                7368,
                7105,
                7067,
                7213,
                2257,
                2822,
                7291,
                7089,
                2247,
                4029,
                7011,
                5089,
                3357,
                7267,
                926,
                2790,
                6978,
                1783,
                6973,
                1327,
                1788,
                7084,
                7232,
                7108,
                695,
                7045,
                7259,
                917,
                7410,
                6600,
                7122,
                7216,
                3233,
                7149,
                6810,
                7179,
                7141,
                7107,
                7073,
                7100,
                7258,
                7014,
                2957,
                7084,
                3258,
                3834,
                2051,
                7171,
                7295,
                7187,
                7174,
                469,
                7170,
                3190,
                7052,
                7071,
                2590,
                7033,
                3212,
                7191,
                7158,
                7137,
                7096,
                2012,
                3219,
                2641,
                7096,
                5295,
                1802,
                7070,
                3092,
                7051,
                2284,
                5307,
                4695,
                1391,
                5398,
                7061,
                7178,
                7147,
                4316,
                4948,
                5111,
                216,
                5455,
                2271,
                7165,
                7125,
                5544,
                3893,
                7110,
                4303,
                7053,
                7137,
                4556,
                4376,
                6988,
                3311,
                751,
                5515,
                7201,
                7110,
                7217,
                4896,
                6990,
                5511,
                7301,
                7312,
                7086,
                7288,
                7138
            ]
        },
        "detections": 300,
        "events": 370
    }
}