{
    "job_args": {
        "metric_limit": 500,
        "seed": 1067277696
    },
    "job_id": "batch_15_do_500",
    "result": {
        "collections": {
            "crystal": [
                0.971826417319725,
                0.7822052582171612,
                1.0923975158327583,
                1.1732266212015405,
                0.3172093581465254,
                1.3324980931528796,
                0.1918042649583812,
                1.1732266212015405,
                0.20908658399079783,
                0.9209045693218485,
                0.6076023697100547,
                0.2802453175476818,
                0.54851623688991,
                0.4102868830897373,
                0.2859294384697526,
                0.19620087012127638,
                0.2134837535103571,
                0.5591526541368119,
                1.33249809315288,
                0.38613856609008934,
                0.41299182715428207,
                1.1732266212015405,
                1.1732266212015405,
                0.6662687314844096,
                0.5487646948528783,
                1.3324980931528798,
                0.5346736155098394,
                1.3324980931528796,
                0.016696522409253456,
                0.07303899999999999,
                0.04253128707807963,
                0.7625089976227517,
                0.060011351529778545,
                0.36086331373039393,
                0.36207522832897,
                0.5968754404068214,
                0.5107603542124867,
                1.33249809315288,
                0.7519145381525515,
                1.3324980931528798,
                0.15168958660495546,
                1.1732266212015403,
                1.1732266212015408,
                1.1732266212015408,
                0.2198713303613118,
                0.4482817442918785,
                1.3324980931528798,
                0.10544765497293897,
                1.1732266212015405,
                0.028139559890013995,
                1.1732266212015408,
                0.5220476513627726,
                0.9146329477036212,
                1.1732266212015405,
                0.5515889039344585,
                0.06615974245208714,
                0.28491473353125385,
                0.6120293477853138,
                1.0886616544897758,
                0.3801073977754771,
                1.1732266212015405,
                0.589432649184845,
                0.08999881712254276,
                0.7763294938297549,
                0.08523539999999999,
                0.8527497502009995,
                0.07279887077231484,
                0.7300457450825546,
                0.9729538088718869,
                0.5925079616209978,
                1.3324980931528798,
                0.5051772683233399,
                1.1732266212015405,
                1.3324980931528798,
                0.45529047848426285,
                1.3324980931528798,
                0.45049773441001434,
                0.8780679159988402,
                0.19184370901889503,
                0.53345569199881,
                0.7699429650970281,
                0.6906130558899886,
                0.06337086770764944,
                1.1732266212015403,
                0.6794633961377426,
                0.073039,
                0.07386655956984532,
                0.8607539261920845,
                0.7253757512930683,
                0.22946224359425063,
                1.0032322631738106,
                1.1732266212015405,
                1.1732266212015405,
                1.3324980931528798,
                0.07435079038250508,
                1.1732266212015408,
                0.4717124053881421,
                0.6629102669761313,
                0.9354767282507499,
                0.9362826729067274,
                0.9107463439728457,
                0.17027811115579292,
                0.587858636588015,
                1.5034940246596287,
                0.22120322327877043,
                0.8961384107315341,
                0.5532031290540089,
                0.225587760130537,
                0.8127333384419108,
                0.29218971000344485,
                0.23739551351132704,
                0.10726196132395183,
                1.275317428911739,
                0.842538137053098,
                0.8085979761644035,
                0.685290575677888,
                1.3324980931528798,
                0.6730585239857149,
                0.24849306514328584,
                0.04210484058205455,
                1.1732266212015408,
                0.11006962772828756,
                1.1732266212015405,
                1.3324980931528798,
                0.4000842151608368,
                1.3324980931528798,
                0.8155319867811441,
                1.1732266212015403,
                0.010003992219679573,
                1.1732266212015405,
                0.7391654197325852,
                1.0838506260666758,
                0.3011063383848798,
                0.037332185955257835,
                0.22857091894865703,
                1.33249809315288,
                0.7506744747012865,
                0.18151272620136627,
                0.1620042838771746,
                0.5950462507030928,
                0.5617280266285528,
                0.41249144380797337,
                1.3324980931528798,
                0.5660133149042479,
                1.3324980931528796,
                1.3324980931528791,
                0.5248065452493436,
                1.1732266212015405,
                0.8730857120775044,
                0.4895437516615526,
                0.7979920698401215,
                0.5106722013053492,
                1.3324980931528798,
                0.5564385312814298,
                0.4572336281543756,
                0.9755539664717949,
                0.32217096584149596,
                1.3324980931528796,
                1.1732266212015405,
                0.26250437738890364,
                0.15582993558966596,
                0.7791515984981832,
                0.5109989099999999,
                1.1732266212015405,
                0.7128515822572166,
                0.4002255904193911,
                0.5944122779828929,
                1.33249809315288,
                0.11787333513503762,
                1.3324980931528798,
                0.9467762873356944,
                0.1832728728212194,
                1.3324980931528798,
                1.1732266212015405,
                0.30874353479624217,
                0.9747363558443412,
                1.1732266212015408,
                1.0343658392869255,
                0.6295744639206458,
                0.015610220350935844,
                0.5314264470078227,
                1.1732266212015408,
                1.3324980931528798,
                1.3324980931528798,
                0.48212310073620807,
                0.8869406623931666,
                1.3324980931528798,
                1.1732266212015405,
                1.1732266212015405,
                0.6574888455617077,
                0.49277130390168117,
                0.33619058675337077,
                0.14513963246559797,
                1.01023573390415,
                0.38120577853509297,
                1.3324980931528798,
                0.4810907783988788,
                1.1022308673701353,
                1.1732266212015408,
                0.903953775374918,
                0.15191158712963615,
                1.1732266212015405,
                0.6633368544012229,
                0.4689433398064277,
                0.6267716857407916,
                0.0309311084181767,
                0.2042500959384037,
                1.1732266212015403,
                0.9145460049808954,
                0.03939155512791426,
                0.44828990979754924,
                0.9932621609883895,
                0.9610095375771118,
                0.6320081050285137,
                0.7255426358878542,
                0.5732245069307789,
                0.06306792665415673,
                0.15773098168301525,
                1.1732266212015405,
                0.5430126164835609,
                0.2624296115105565,
                0.014715778511782629,
                0.32477848140402743,
                1.1732266212015405,
                0.37985289529741306,
                0.10437856463207405,
                0.8457991946733392,
                0.14183951080181512,
                1.1732266212015408,
                1.1732266212015405,
                1.3324980931528798,
                0.4077719386804707,
                0.5455414039660937,
                1.3324980931528798,
                1.0029147198069595,
                0.02900792166318855,
                0.017497729093119085,
                0.418959730450429,
                0.8592559057765616,
                1.1732266212015405,
                1.1732266212015408,
                0.728767298220293,
                0.5194637531479176,
                0.2526774074635527,
                0.7181800815507254,
                1.1732266212015405,
                0.3492395542660707,
                1.0564484673891628,
                1.3324980931528798,
                0.10755859960105552,
                0.30079586482640264,
                0.5738738408905264,
                0.9756690238537328,
                0.29835079176430385,
                1.1732266212015408,
                0.21762098807207864,
                0.624087790882022,
                0.2857485463996462,
                1.3324980931528798,
                0.8250058498188739,
                0.07525,
                1.3324980931528796,
                0.47024086058171444,
                1.1732266212015405,
                0.7548349498910658,
                0.5770578694320591,
                1.1732266212015405,
                1.3324980931528798,
                1.1732266212015405,
                1.3324980931528798,
                0.5077799899394604,
                0.937710739111069,
                0.36368199029465237,
                1.1732266212015405,
                1.1732266212015405,
                1.3324980931528798,
                0.3043907865662174,
                0.9339613907301771,
                0.0591427192598786,
                0.8318484211976673,
                1.33249809315288,
                1.3324980931528798,
                0.9289334720523719,
                0.5400276713562877,
                0.37636341966532194,
                0.23420961964051967,
                1.1732266212015408,
                0.6692405025539081,
                0.3337157405971902,
                0.587425840234904,
                0.24218256912905434,
                0.769756201600664,
                0.12869459496216207,
                0.18773800731041823,
                0.0852354,
                1.3324980931528798,
                0.6236884687170998,
                0.1808245420595762,
                0.9709084749663354,
                0.9318875720996339,
                0.042161599262419136,
                0.4661256853058046,
                0.5371226520758634,
                0.23009812586479034,
                0.07303899999999999,
                0.4987388372322562,
                1.0312450964318152,
                0.7928803380359211,
                0.769136032383777,
                0.3352966483746209,
                1.3324980931528794,
                0.770206259944146,
                0.6900798513878547,
                0.9329374195052864,
                1.1120056273931094,
                1.3324980931528798,
                0.040744800000000005,
                0.833645750411298,
                0.6747103894837165,
                0.0852354,
                0.8971467133735658,
                0.9113565618914123,
                0.510542140864921,
                0.17161563340671143,
                0.6673587036291313,
                1.3324980931528796,
                1.1072805138018076,
                1.1732266212015408,
                0.12523053648228166,
                0.017539593851655155,
                1.3324980931528798,
                0.42203794990466637,
                0.6607916701845034,
                0.16945682124186354,
                0.6194891721702012,
                0.4466084585131781,
                0.8868528517447254,
                1.3324980931528798,
                0.16488837763746964,
                1.3324980931528798,
                0.4565928787914655,
                1.3324980931528798,
                0.7554579327401475,
                0.3744289319393863,
                0.6732225348857579,
                0.3289167261432693,
                1.3324980931528798,
                0.4670670752956688,
                0.6257055305999898,
                0.44764373611625086,
                1.1732266212015405,
                1.1732266212015405,
                0.21869568789625476,
                1.1732266212015408,
                1.3324980931528798,
                1.1060995869528907,
                0.087534,
                1.1732266212015405,
                1.1732266212015403,
                1.3324980931528798,
                1.1732266212015403,
                0.4106332586469163,
                0.32769332134087004,
                0.5446011750347968,
                1.33249809315288,
                1.1732266212015405,
                0.8356728481814442,
                0.8022289499322952,
                0.7501460421614559,
                0.8102686685884386,
                0.6178784812472695,
                0.9427023442931405,
                0.1966225832530659,
                0.8021434606145134,
                0.7363841591355036,
                0.6593100751871285,
                0.2836298013466985,
                1.1732266212015408,
                0.44170711887701836,
                1.1360344947906833,
                1.1732266212015405,
                1.1732266212015403,
                0.8660825775577821,
                0.7571781473799228,
                1.3324980931528798,
                0.42990564789862995,
                0.2553293517764348,
                1.33249809315288,
                0.24049059199855452,
                0.3041615565227626,
                0.15804568131648633,
                0.20062369638307176,
                0.9605777714259096,
                1.33249809315288,
                0.27089969138244474,
                0.5777979717139486,
                0.8771134942849149,
                0.2603453955030879,
                0.8205500313516064,
                0.5933403011773519,
                0.8971308937394933,
                0.26997361356825866,
                0.22973987071074276,
                0.9220722362505803,
                0.9310064001400273,
                1.33249809315288,
                0.24934431669431759,
                1.1732266212015405,
                1.1732266212015405,
                1.1732266212015405,
                1.3324980931528796,
                0.7680116310161775,
                0.8081659220911034,
                1.3324980931528798,
                0.7697659024761339,
                1.0015313830134596,
                1.037882741084347,
                1.1732266212015408,
                1.1732266212015405,
                0.3392995599289538,
                0.8891740192824915,
                1.3324980931528798,
                0.1036886630136503,
                0.002115259964754701,
                1.07917280205885,
                0.0752814078373063,
                0.7349055570358316,
                1.1732266212015405,
                1.1732266212015405,
                1.3324980931528794,
                0.949012570763421,
                0.49729142665826,
                0.5471604179538673,
                0.9970976111367232,
                1.3324980931528794,
                0.5978555513968328,
                0.7389490699111692,
                0.5709560544498219,
                0.8242019306916429,
                1.0480968028774105,
                0.38527526969701026,
                0.9659072389616149,
                1.1732266212015405,
                0.33335122327536143,
                0.28437186806454845,
                0.12886050133334948,
                0.7138122268796055,
                1.33249809315288,
                0.9240868409321705,
                0.6492046200238234,
                1.33249809315288,
                0.6179759006578182,
                0.08523539999999999,
                1.0758820383069378,
                0.9707555389481661,
                0.07524999999999998,
                0.10468435591227887,
                1.3324980931528794,
                0.7471430551653949,
                1.1732266212015405,
                0.11911785271051341,
                0.7192006142716165,
                1.1732266212015405,
                0.4462313214475456,
                0.22591582205926056,
                0.6689460348193745,
                0.9223285009713552,
                0.9026229113122274,
                0.8377759617364029,
                0.6465717522907574,
                0.39361729388180233,
                0.21427992935196571,
                0.7774077537634216,
                0.759783740815587,
                0.7598758261233333,
                0.4097007647738431,
                0.8253821897679298,
                0.32558293065681343,
                1.0254528447869666,
                0.5579147936172208,
                1.1732266212015403,
                0.6825006072140355,
                1.3324980931528796,
                0.3068529883151077,
                0.4145371993799205,
                0.7454401403758798,
                0.14022107364207737,
                0.9480018134170787,
                0.7891596803862648,
                0.7293205087882755,
                1.1732266212015408,
                1.1732266212015405,
                1.3324980931528798,
                1.1732266212015405,
                1.3324980931528798,
                0.9830812538128664,
                0.8825504295410211,
                0.3864392162878397,
                1.33249809315288,
                0.8027353826693591
            ],
            "photocathode": [
                6904,
                5355,
                7697,
                8347,
                2149,
                9251,
                1325,
                8175,
                1448,
                6543,
                4291,
                2013,
                3911,
                3000,
                1968,
                1395,
                1545,
                3787,
                9669,
                2576,
                2960,
                8112,
                8364,
                4759,
                3930,
                9342,
                3758,
                9191,
                111,
                505,
                306,
                5421,
                422,
                2599,
                2553,
                4081,
                3489,
                9197,
                5156,
                9296,
                1065,
                8466,
                8373,
                8236,
                1556,
                3275,
                9432,
                772,
                8088,
                226,
                8366,
                3672,
                6445,
                8275,
                3876,
                493,
                2030,
                4375,
                7428,
                2669,
                8319,
                4177,
                644,
                5493,
                571,
                6075,
                514,
                5135,
                6884,
                4099,
                9369,
                3567,
                8120,
                9452,
                3218,
                9125,
                3184,
                6206,
                1395,
                3761,
                5495,
                4875,
                416,
                8197,
                4804,
                511,
                513,
                6201,
                5161,
                1573,
                7191,
                8066,
                8199,
                9646,
                518,
                8264,
                3312,
                4719,
                6668,
                6528,
                6489,
                1249,
                4162,
                10603,
                1481,
                6227,
                3936,
                1635,
                5700,
                2053,
                1521,
                781,
                9080,
                5873,
                5728,
                4950,
                9380,
                4694,
                1707,
                298,
                8542,
                807,
                8187,
                9323,
                2842,
                9347,
                5681,
                8403,
                63,
                7986,
                5139,
                7734,
                2163,
                276,
                1584,
                9527,
                5083,
                1245,
                1131,
                4116,
                3839,
                2949,
                9175,
                3864,
                9356,
                9371,
                3705,
                8268,
                6154,
                3496,
                5627,
                3557,
                9333,
                3918,
                3214,
                6903,
                2408,
                9462,
                8308,
                1945,
                1103,
                5518,
                3460,
                8095,
                5141,
                2724,
                4027,
                9294,
                803,
                9445,
                6658,
                1344,
                9392,
                8320,
                2110,
                7103,
                8603,
                7302,
                4476,
                115,
                3586,
                8190,
                9248,
                9576,
                3421,
                6122,
                9370,
                8193,
                8175,
                4648,
                3566,
                2405,
                1007,
                7053,
                2653,
                9210,
                3286,
                7725,
                7984,
                6409,
                1139,
                8205,
                4518,
                3359,
                4312,
                192,
                1505,
                8161,
                6382,
                275,
                3159,
                6726,
                6865,
                4566,
                5076,
                4024,
                435,
                1137,
                8266,
                3799,
                1932,
                107,
                2314,
                8185,
                2717,
                729,
                6302,
                1003,
                8033,
                8236,
                9436,
                2938,
                3782,
                9325,
                6944,
                210,
                129,
                2886,
                6326,
                8086,
                8442,
                4996,
                3583,
                1747,
                5099,
                8201,
                2552,
                7479,
                9388,
                756,
                2231,
                3971,
                6897,
                2058,
                8130,
                1490,
                4345,
                1972,
                9332,
                5814,
                535,
                9600,
                3415,
                8340,
                5187,
                4120,
                8282,
                9424,
                8253,
                9473,
                3466,
                6481,
                2644,
                8264,
                8371,
                9260,
                2116,
                6556,
                443,
                5787,
                9496,
                9499,
                6449,
                3761,
                2577,
                1706,
                8065,
                4803,
                2383,
                4072,
                1712,
                5426,
                875,
                1320,
                598,
                9309,
                4264,
                1264,
                6811,
                6385,
                297,
                3244,
                3762,
                1660,
                482,
                3444,
                7075,
                5612,
                5448,
                2303,
                9310,
                5348,
                4910,
                6569,
                7984,
                9593,
                305,
                5840,
                4784,
                572,
                6466,
                6428,
                3561,
                1177,
                4462,
                9296,
                7915,
                8305,
                876,
                126,
                9523,
                2993,
                4692,
                1204,
                4312,
                3177,
                6210,
                9314,
                1108,
                9197,
                3114,
                9158,
                5229,
                2731,
                4911,
                2229,
                9210,
                3320,
                4320,
                3168,
                8243,
                8230,
                1523,
                8111,
                9330,
                7985,
                615,
                8140,
                8174,
                9421,
                8307,
                2862,
                2269,
                3776,
                9584,
                8107,
                5939,
                5589,
                5543,
                5625,
                4391,
                6807,
                1389,
                5639,
                5296,
                4604,
                2032,
                8276,
                3078,
                7880,
                8172,
                8189,
                6358,
                5307,
                9319,
                3086,
                1773,
                9588,
                1699,
                2090,
                1108,
                1391,
                6727,
                9377,
                1912,
                4053,
                6254,
                1815,
                6004,
                4148,
                6262,
                1888,
                1655,
                6398,
                6517,
                9283,
                1683,
                8173,
                8335,
                8221,
                9324,
                5423,
                5673,
                9823,
                5243,
                6996,
                7383,
                8344,
                8293,
                2365,
                6244,
                9331,
                786,
                19,
                7491,
                547,
                5107,
                8315,
                8208,
                9351,
                6583,
                3466,
                3842,
                7127,
                9566,
                4241,
                5175,
                3966,
                5852,
                7250,
                2770,
                6755,
                8348,
                2301,
                1937,
                899,
                5162,
                9436,
                6522,
                4681,
                9215,
                4426,
                568,
                7646,
                6741,
                580,
                786,
                9610,
                5182,
                8400,
                798,
                4938,
                8198,
                3186,
                1619,
                4613,
                6654,
                6234,
                5842,
                4548,
                2772,
                1444,
                5673,
                5329,
                5393,
                2928,
                5765,
                2315,
                7424,
                3871,
                8155,
                4729,
                9365,
                2149,
                2869,
                5327,
                1046,
                6813,
                5599,
                5249,
                8290,
                8254,
                9343,
                8335,
                9348,
                6896,
                6012,
                2645,
                9583,
                5678
            ]
        },
        "detections": 500,
        "events": 57485
    }
}