{
    "job_args": {
        "metric_limit": 500,
        "seed": 3556245815
    },
    "job_id": "batch_98_do_500",
    "result": {
        "collections": {
            "crystal": [
                1.3324980931528796,
                1.1732266212015405,
                0.5839666001231835,
                0.34771197033227547,
                0.7318017572147332,
                0.2848542247769489,
                0.8946994705665096,
                0.4171728815138308,
                0.9970985329602473,
                0.3601794179757695,
                0.5560796403646593,
                1.1732266212015405,
                0.7615281566547326,
                1.1732266212015405,
                0.07598972701978823,
                1.1732266212015405,
                1.3324980931528798,
                0.6500608722356356,
                0.9752360393148274,
                1.3324980931528796,
                0.07525,
                0.9655208048679669,
                1.3324980931528798,
                0.768122184433028,
                0.27493606896378053,
                1.33249809315288,
                0.35985222259648064,
                0.006067500606852905,
                0.4201648323485776,
                1.1732266212015405,
                0.5124053599952432,
                0.2260817038302949,
                0.008359662578633298,
                0.27468683160950924,
                1.1732266212015405,
                0.7254534644667281,
                0.6895374702202606,
                0.2909392275648302,
                0.6742560270455203,
                1.0566027279369368,
                0.3637069852793345,
                0.5011197565604248,
                0.8754466107612723,
                0.073039,
                0.6115619532146734,
                0.6768613732541532,
                1.3324980931528798,
                0.41557869807247144,
                1.0037833500107052,
                1.1732266212015405,
                1.33249809315288,
                1.3324980931528798,
                1.33249809315288,
                0.4851349352410397,
                0.7190281354847219,
                1.1732266212015408,
                1.1732266212015405,
                0.3577026407283874,
                0.33060529557779855,
                0.07383642009930091,
                0.5021162835774964,
                0.073039,
                0.704074745457152,
                1.1732266212015405,
                0.9029246784543767,
                0.4911621683855061,
                0.08820240000000001,
                0.5930830524868522,
                0.43562863861997775,
                0.6772808978503163,
                1.1732266212015405,
                0.36285116150629376,
                1.1732266212015405,
                0.167227354223237,
                1.3324980931528798,
                0.0847407,
                0.9319067293839539,
                0.7015981242075204,
                1.0776104510997806,
                1.0534728300020317,
                1.0718924089079451,
                0.16347327588196145,
                0.5164562899641323,
                0.27440299897542464,
                0.008314011306388203,
                0.9643623771827263,
                0.8368250818823613,
                0.6980549014539689,
                1.3324980931528798,
                0.17596919611775144,
                0.7976135104272211,
                0.6671138160708597,
                0.8286945188177439,
                1.0171514625152451,
                0.9527472991726077,
                0.9862639671175201,
                0.11176173920779497,
                0.33936764598418473,
                0.08523539999999999,
                1.1732266212015405,
                1.3324980931528796,
                0.6028785903680123,
                0.010985941577220661,
                0.45159864455000265,
                1.134936551041574,
                0.8632079176809295,
                0.9023084014143846,
                0.5055471542841341,
                0.0875021798992488,
                0.3963431259320295,
                0.13994118724245674,
                0.9520285701534003,
                0.06183289768021938,
                0.8791818529837779,
                0.3190496400582602,
                0.31715668152077936,
                1.2168049335181044,
                1.1732266212015405,
                0.12070890983275338,
                0.08676481760555388,
                1.3324980931528798,
                0.7880986256575745,
                0.073039,
                1.0862912749414417,
                0.49549269445587296,
                1.1732266212015408,
                1.3324980931528798,
                1.3324980931528796,
                1.173226621201541,
                0.26276884577083703,
                0.6250529243059326,
                1.1732266212015408,
                0.5263443561182102,
                0.6193379470712735,
                1.1732266212015408,
                0.9481624872186083,
                0.9746955318041286,
                0.7522933512207678,
                0.9668056882086675,
                0.6932970522176262,
                0.2660160580257783,
                0.26037848619344217,
                0.8350410992385098,
                0.9429870834349411,
                0.9974260900318922,
                0.3631390508118616,
                0.817812796554901,
                0.07524999999999998,
                1.3324980931528798,
                0.1101096109466857,
                0.3962761375693532,
                0.6668175728325566,
                0.9219686424841813,
                0.0878546355432752,
                0.4537951631740162,
                0.4359331788954401,
                1.1732266212015405,
                0.3840013453863036,
                0.13150525031826,
                1.0624481754557513,
                1.3324980931528798,
                0.028682173996861404,
                0.2181650193084949,
                0.21502915897187036,
                0.6275488879631808,
                1.3324980931528798,
                0.178757154656759,
                1.1732266212015408,
                1.3324980931528796,
                1.3324980931528798,
                0.988600906695984,
                1.1476816207830212,
                1.0521703945343581,
                0.7164204251526174,
                1.1732266212015408,
                0.41461600544251564,
                0.7724738878623981,
                1.1732266212015403,
                0.09109485697378994,
                0.0847407,
                0.7333564688921774,
                1.1732266212015408,
                0.43659675182722757,
                0.7661338747404924,
                0.3393383537590452,
                0.33218397543846767,
                0.7488269474288126,
                1.1732266212015403,
                0.3384222212799236,
                1.0199956323230341,
                1.1732266212015405,
                0.8387852402098047,
                1.3324980931528796,
                0.7618615985281334,
                0.8086813490025874,
                1.3324980931528798,
                1.1732266212015405,
                0.5373513485246764,
                0.17449128356562166,
                0.8238025862934598,
                0.5722965596512788,
                0.7320242865018909,
                1.1732266212015403,
                1.3324980931528796,
                1.3324980931528798,
                0.4359025798105708,
                0.6480890545155444,
                0.03515244025870756,
                0.1401738426168755,
                0.16892982778501686,
                0.9065369839122953,
                0.5563962258705286,
                0.39390630239117763,
                0.1746178211538551,
                0.3315644289089346,
                0.8553246997077762,
                1.1392228585966695,
                1.1732266212015408,
                0.2361395721222284,
                0.8574313186364921,
                1.3324980931528798,
                0.7595740242863405,
                0.6559848053203483,
                0.2439307792664323,
                1.1732266212015405,
                1.062819482740584,
                0.22720335104687178,
                0.27781944708522377,
                0.28362278356003845,
                0.28455396067985794,
                0.26213704167088747,
                1.3324980931528796,
                0.35937243422463905,
                1.1732266212015405,
                0.5506839067810796,
                0.5582802598728713,
                1.1732266212015405,
                1.3324980931528798,
                1.1732266212015405,
                0.7963085028015948,
                0.006474559039255847,
                0.4175353774520943,
                0.9357489480534409,
                0.6789750606538392,
                1.1732266212015405,
                0.20520933540974728,
                0.3304636933340542,
                0.2910975200749111,
                0.7172139204728895,
                1.1732266212015405,
                1.1732266212015405,
                0.8635614292489261,
                1.3324980931528798,
                0.9791016529028829,
                1.1732266212015405,
                0.6610475865299369,
                1.1732266212015405,
                1.1732266212015405,
                0.51099891,
                0.5464436504865435,
                1.3324980931528796,
                1.173226621201541,
                1.1732266212015405,
                0.03260903781269575,
                1.3324980931528798,
                0.21426412099167688,
                0.47140785226175186,
                1.3324980931528798,
                0.5002907223491296,
                1.3324980931528798,
                0.5736749103938803,
                1.1732266212015403,
                1.1732266212015405,
                0.6454674557231026,
                0.3576789115468648,
                0.26589694132845,
                0.9565823361438247,
                0.29026609666034153,
                0.559965663268913,
                0.4399745902781284,
                0.9865085763001309,
                0.21659747012627184,
                1.1732266212015405,
                0.1669945894081084,
                0.5197367742778254,
                0.28721079015111095,
                0.6684143798295354,
                0.6266024713907721,
                0.29129884585017773,
                0.9213720780088136,
                1.3324980931528798,
                1.1732266212015405,
                1.3324980931528798,
                0.6441229875038122,
                0.1327305833634625,
                0.20048573779725642,
                0.14639057520706455,
                0.6401680032775175,
                0.4246395027300174,
                0.621948469094956,
                0.20327025598829593,
                1.3324980931528798,
                1.1732266212015405,
                0.5544516491279753,
                1.3324980931528796,
                1.33249809315288,
                1.1732266212015405,
                1.3324980931528798,
                0.07721852782104066,
                0.5341054369872247,
                0.9008286918732851,
                0.4506724196752841,
                0.34151722095399617,
                1.1732266212015405,
                1.3324980931528798,
                0.767998843430366,
                0.6282979768260788,
                0.4345767101195176,
                0.4358652188779112,
                0.4512340915020505,
                0.6924322299729844,
                1.1732266212015405,
                0.739082358213376,
                0.6758632093942394,
                1.1732266212015405,
                0.26975871141217855,
                1.3324980931528798,
                0.8617995043068746,
                0.4293006209731511,
                0.10435543465519295,
                0.7283087773846839,
                0.0609411968677811,
                1.909796156887333,
                0.4013605607987194,
                0.7993020119496668,
                0.7650410561152295,
                0.3631251952468422,
                0.26633510104486874,
                0.9514649481502033,
                0.837025760615795,
                0.5378786539788256,
                0.5700799096850403,
                0.8986836960262704,
                1.1732266212015408,
                1.1732266212015405,
                0.644155197934129,
                0.29095561513805906,
                0.3900410821222836,
                0.5277615913524882,
                0.2036909378942538,
                0.673780659574773,
                1.1719633584129876,
                0.7051080410190784,
                0.7850715107759326,
                0.8563746152778319,
                0.2552777912430435,
                0.07525,
                0.046640499999999994,
                0.30727347396256677,
                1.0512097850565671,
                0.2271867251160397,
                0.39013852997777,
                0.6194585253310154,
                1.3324980931528796,
                0.7808860677641302,
                0.1831806991997178,
                0.5513601121810419,
                0.6069543420586286,
                0.073039,
                0.9560008661798294,
                0.497323898795541,
                0.16076497496015374,
                0.876536370842049,
                0.9312261480811774,
                0.43953057348315916,
                1.1732266212015403,
                1.3324980931528798,
                0.6286014371329552,
                0.29867520067312087,
                0.21590695524919956,
                1.1313201604569463,
                1.1732266212015405,
                0.4782213764926829,
                1.127085489410002,
                0.2544327507589549,
                0.28476728150025865,
                0.4753824752064333,
                0.8387553365950914,
                1.3324980931528798,
                0.21622511066050307,
                0.3967587004291775,
                1.1732266212015405,
                0.058265266497921075,
                0.7960148892301493,
                0.09403685731169187,
                0.7071921820768701,
                0.1430889783325422,
                1.3324980931528798,
                0.49638967886332835,
                0.6675386110486479,
                0.03803901793975051,
                0.5031001713861748,
                0.17921201058329977,
                0.4273171600385828,
                0.20732258777397816,
                1.1732266212015408,
                1.1732266212015405,
                0.19093149781252994,
                0.21909013670987842,
                0.6070219616387822,
                0.17860676552584076,
                1.1732266212015405,
                0.28139711402290246,
                0.289599735408937,
                0.4044278838668446,
                0.07981359549827727,
                0.9915722060467582,
                1.3324980931528798,
                0.0852354,
                0.9474933186069215,
                1.1732266212015405,
                1.3324980931528798,
                0.9236362442772246,
                0.2921853210405569,
                1.0554324586409023,
                1.1732266212015405,
                0.5756484529839391,
                0.5415349686386576,
                0.9200789122441313,
                1.1732266212015403,
                0.07525,
                0.8537261454906115,
                1.3324980931528798,
                0.40634258185412814,
                1.1732266212015405,
                0.006846820155543609,
                1.3324980931528798,
                1.1732266212015405,
                0.4966477884941955,
                0.1213238531702536,
                1.010282798420477,
                0.2240304199261815,
                0.32188663387755473,
                0.5457879967352027,
                1.1732266212015408,
                0.23981648601319572,
                0.35710050935677545,
                0.9090052041643532,
                0.06354813648460816,
                0.7978409274039805,
                0.2835928339114834,
                0.30477228434480863,
                1.1732266212015403,
                0.5196669454717763,
                1.1732266212015405,
                0.8133823898030161,
                0.7817967732712529,
                0.27540713773150216,
                0.4176444442684586,
                0.8375843832496073,
                0.7034606408348338,
                1.33249809315288,
                0.9861800940485992,
                0.6797503897365452,
                1.3324980931528798,
                0.24256030219861638,
                0.2647722062505857,
                0.5219888196806823,
                0.31050027315287976,
                1.1732266212015405,
                0.7989209274252205,
                1.3324980931528798,
                1.3324980931528798,
                1.33249809315288,
                1.1732266212015405,
                0.31905990900482006,
                1.1732266212015405,
                1.0574788540100586,
                0.2643534530991782,
                0.2696929028026045,
                1.1732266212015405,
                1.1732266212015405,
                0.7460676747507302,
                0.11938023912060536,
                0.45875308044264423,
                0.06038996545782223,
                1.1267607221745028,
                0.8453804257050553,
                0.28156018979463726,
                1.1732266212015405,
                0.5465577660604202,
                1.1732266212015405,
                1.1732266212015403,
                0.7583226831707297,
                0.3560161543188441,
                0.07303899999999999,
                0.15248934283504706,
                0.467085060200682,
                1.3324980931528798,
                0.11338833625261292
            ],
            "photocathode": [
                9417,
                8290,
                4062,
                2460,
                5016,
                2035,
                6234,
                2923,
                7113,
                2629,
                3928,
                8227,
                5224,
                8291,
                550,
                8280,
                9546,
                4484,
                6810,
                9276,
                548,
                6753,
                9512,
                5468,
                1995,
                9260,
                2593,
                41,
                2843,
                8178,
                3628,
                1610,
                65,
                1912,
                8237,
                5123,
                4801,
                2044,
                4801,
                7422,
                2514,
                3483,
                5983,
                518,
                4280,
                4697,
                9389,
                2957,
                7030,
                8182,
                9314,
                9303,
                9306,
                3471,
                4982,
                8191,
                8191,
                2469,
                2269,
                514,
                3502,
                522,
                4999,
                8141,
                6457,
                3502,
                620,
                4213,
                3129,
                4864,
                8143,
                2497,
                8214,
                1204,
                9174,
                587,
                6490,
                4899,
                7671,
                7492,
                7523,
                1162,
                3715,
                1927,
                66,
                6811,
                5828,
                4812,
                9448,
                1229,
                5619,
                4719,
                5852,
                7383,
                6948,
                7058,
                780,
                2366,
                590,
                8289,
                9469,
                4255,
                77,
                3226,
                8020,
                6079,
                6634,
                3613,
                596,
                2845,
                960,
                6623,
                446,
                5942,
                2212,
                2332,
                8475,
                8536,
                825,
                608,
                9290,
                5669,
                506,
                7694,
                3561,
                8137,
                9563,
                9597,
                8239,
                1861,
                4328,
                8263,
                3652,
                4473,
                8119,
                6599,
                6971,
                5260,
                6850,
                4758,
                1858,
                1816,
                5860,
                6873,
                7240,
                2525,
                5663,
                520,
                9226,
                786,
                2751,
                4852,
                6568,
                655,
                3133,
                3093,
                8347,
                2715,
                932,
                7273,
                9492,
                176,
                1507,
                1517,
                4361,
                9287,
                1239,
                8447,
                9412,
                9189,
                6980,
                8054,
                7240,
                5134,
                8373,
                2778,
                5409,
                8136,
                617,
                559,
                5193,
                8154,
                3161,
                5237,
                2304,
                2225,
                5429,
                8205,
                2407,
                7296,
                8094,
                6027,
                9431,
                5250,
                5585,
                9589,
                8122,
                3947,
                1256,
                5849,
                3984,
                5060,
                8340,
                9191,
                9255,
                3031,
                4522,
                258,
                973,
                1176,
                6356,
                3984,
                2781,
                1253,
                2272,
                5971,
                7834,
                7984,
                1683,
                5890,
                9644,
                5442,
                4674,
                1748,
                8145,
                7294,
                1532,
                2012,
                1979,
                2030,
                1822,
                9510,
                2490,
                8396,
                3865,
                3935,
                8117,
                9467,
                8207,
                5779,
                58,
                3067,
                6530,
                4873,
                8337,
                1430,
                2381,
                1913,
                5075,
                8118,
                8116,
                6163,
                9344,
                6971,
                8210,
                4600,
                8138,
                8279,
                3620,
                3856,
                9336,
                8143,
                8192,
                219,
                9673,
                1545,
                3472,
                9333,
                3662,
                9282,
                4058,
                8266,
                8293,
                4536,
                2609,
                1872,
                6992,
                2029,
                3825,
                3268,
                6925,
                1555,
                8195,
                1157,
                3732,
                1996,
                4672,
                4443,
                2090,
                6461,
                9357,
                8562,
                9239,
                4479,
                936,
                1383,
                1083,
                4400,
                2975,
                4246,
                1343,
                9147,
                8234,
                3963,
                9237,
                9289,
                8398,
                9261,
                563,
                3750,
                6396,
                3114,
                2326,
                8411,
                9332,
                5259,
                4627,
                2924,
                3011,
                3197,
                4866,
                8375,
                5078,
                4795,
                8325,
                1958,
                9523,
                6191,
                2932,
                741,
                5102,
                423,
                13366,
                2676,
                5511,
                5551,
                2523,
                1943,
                6813,
                5741,
                3912,
                3960,
                6285,
                8169,
                8168,
                4538,
                2100,
                2831,
                3638,
                1430,
                4675,
                8380,
                4871,
                5414,
                6025,
                1857,
                541,
                339,
                2176,
                7318,
                1642,
                2711,
                4510,
                9381,
                5480,
                1214,
                3938,
                4192,
                539,
                6733,
                3431,
                1079,
                6307,
                6531,
                3047,
                8262,
                9308,
                4500,
                2109,
                1513,
                7830,
                8098,
                3344,
                7855,
                1786,
                1951,
                3379,
                6060,
                9364,
                1529,
                2779,
                8221,
                454,
                5487,
                657,
                5005,
                998,
                9296,
                3500,
                4595,
                267,
                3469,
                1238,
                2933,
                1481,
                8161,
                8257,
                1363,
                1509,
                4321,
                1277,
                8247,
                1940,
                2008,
                2844,
                595,
                7053,
                9398,
                555,
                6646,
                8294,
                9300,
                6495,
                2041,
                7450,
                8117,
                4034,
                3899,
                6361,
                8298,
                534,
                6014,
                9434,
                2943,
                8380,
                38,
                9347,
                8160,
                3364,
                862,
                7218,
                1595,
                2270,
                3761,
                8041,
                1657,
                2491,
                6489,
                496,
                5837,
                2038,
                2113,
                8208,
                3580,
                8274,
                5597,
                5391,
                1985,
                2914,
                5994,
                4897,
                9455,
                6855,
                4805,
                9498,
                1720,
                1900,
                3528,
                2237,
                8223,
                5466,
                9461,
                9310,
                9637,
                8337,
                2354,
                8166,
                7544,
                1893,
                1871,
                8342,
                8479,
                5290,
                835,
                3313,
                424,
                8087,
                5911,
                2011,
                8547,
                3977,
                8050,
                8224,
                5518,
                2569,
                516,
                1098,
                3288,
                9135,
                827
            ]
        },
        "detections": 500,
        "events": 55142
    }
}