{
    "job_args": {
        "metric_limit": 500,
        "seed": 725214532
    },
    "job_id": "batch_74_do_500",
    "result": {
        "collections": {
            "crystal": [
                0.6253148113658878,
                1.1732266212015405,
                1.0884060712447183,
                0.9660020837852605,
                1.0870568158434686,
                0.07580271467441646,
                0.7053031579548716,
                0.32166070690237675,
                0.6099257636554601,
                1.1732266212015405,
                1.3324980931528798,
                0.7593642907164578,
                0.2427926751372026,
                0.47188671720517217,
                0.3007251975991809,
                0.33097488719852847,
                0.2191293380766337,
                0.8950785944283322,
                1.3324980931528798,
                0.4410793241288589,
                0.8311405088506334,
                1.33249809315288,
                0.4323948014479464,
                0.1293852015841157,
                0.7604867994716509,
                0.4234101998619064,
                0.7685047024364235,
                0.2885131638905244,
                0.20535145245000735,
                0.7379298164160782,
                1.1732266212015405,
                1.3324980931528798,
                0.642621981005724,
                0.5057902080220724,
                1.3324980931528796,
                0.5353216252922411,
                0.5813036482619104,
                0.7699825576009666,
                0.3073101154515864,
                1.1732266212015405,
                1.1732266212015405,
                0.2430995214271081,
                0.5851187565300056,
                0.3851530972663827,
                0.8173024868025045,
                1.3324980931528796,
                1.33249809315288,
                0.6440547937102694,
                0.8988441537046904,
                0.7268242999577915,
                0.339966206981982,
                1.0822032467122555,
                0.26117962159415065,
                1.1732266212015405,
                1.3324980931528796,
                1.1732266212015405,
                0.37316421907075453,
                0.14431292810839058,
                0.0852354,
                0.6404512616435,
                0.5569607095451005,
                1.1732266212015405,
                0.8964327915786706,
                1.1732266212015405,
                0.7979186465073794,
                0.11422078897453192,
                1.33249809315288,
                0.3527328311062432,
                0.7659027877620112,
                1.1732266212015403,
                0.7754958694904358,
                0.7855029198172199,
                0.6651116761711089,
                0.8606078054584092,
                0.30998910605739666,
                0.150159692686745,
                0.14640955636155062,
                1.1732266212015405,
                0.2781872696341698,
                0.8002376448842986,
                0.2644890380622052,
                0.8851617613445718,
                0.1426841014787701,
                0.06288015744806452,
                0.3411299499997292,
                0.8727500659850779,
                0.9409599173200226,
                1.3324980931528798,
                0.7152699380636436,
                0.4326486907572616,
                0.868912488734028,
                0.9232104680219888,
                1.1732266212015405,
                0.2871125682942838,
                1.3324980931528798,
                1.0992238661330385,
                0.08313985418897762,
                0.9680823304288312,
                1.1732266212015405,
                0.6169586730927789,
                1.1412353038468614,
                0.4582499919191326,
                0.07890202494442278,
                1.1732266212015408,
                0.32424478964510817,
                0.07795965860971066,
                0.17270628417743283,
                0.8865195855080051,
                0.18240991199799117,
                0.9686584640027405,
                0.7956604224837959,
                0.9616659203088648,
                0.7477097521712888,
                0.6096587948408025,
                0.3599813041766359,
                0.5830169457110234,
                0.2399644514256991,
                0.2576976681701147,
                0.659272068043406,
                0.7933624833137378,
                0.12610487152650185,
                0.016388972960687642,
                0.8633123290065836,
                0.3642930761720453,
                0.29812321757521776,
                1.3324980931528796,
                1.1732266212015405,
                0.2068516197999084,
                1.3324980931528798,
                0.28762582280819426,
                1.1732266212015405,
                0.8906333321874934,
                0.26710643966836295,
                1.3324980931528796,
                1.33249809315288,
                0.2678522840063373,
                0.22976696498078253,
                1.1732266212015405,
                0.5181853491252056,
                1.1732266212015405,
                1.1732266212015405,
                0.08177317493310515,
                0.3694613028757451,
                0.7702697505726634,
                0.4014590281831678,
                1.1732266212015405,
                0.15796381930745826,
                1.1732266212015405,
                0.7242327216296482,
                0.6681248360175936,
                1.33249809315288,
                0.6349104682079847,
                0.7595078167472472,
                1.33249809315288,
                0.841987119226594,
                0.5846793051558481,
                0.9099902938693316,
                0.9119340274551886,
                1.33249809315288,
                0.9026582735828312,
                0.7865116585029017,
                0.8036009508035767,
                0.9255184340227326,
                0.3808032183888475,
                0.07525,
                0.6930817360550979,
                1.1732266212015405,
                0.5568246150300509,
                0.531015403602483,
                0.14911788883001598,
                1.1732266212015405,
                1.33249809315288,
                0.1856367611673388,
                0.32457215404768464,
                1.05741770242923,
                0.8088134734347185,
                1.33249809315288,
                1.1732266212015405,
                1.1732266212015405,
                0.4367988534495293,
                0.9157847392472362,
                0.6406293037110572,
                0.9262077367098865,
                1.33249809315288,
                0.15094879029842234,
                1.1732266212015405,
                0.4056325854939556,
                0.6235814188662698,
                1.33249809315288,
                0.6269353613144284,
                0.9964856533816159,
                1.0664528554156747,
                0.576913543001069,
                0.3310726010289014,
                1.33249809315288,
                0.073039,
                0.6340387891383169,
                0.6655624721814126,
                0.23141508570767266,
                0.31000284562328917,
                1.3324980931528796,
                1.3324980931528796,
                1.00075535146488,
                1.3324980931528798,
                0.11471673099126867,
                0.18434989778005148,
                1.3324980931528798,
                0.17148932628815827,
                0.5277577617589021,
                0.13271394027321826,
                0.7506776252512164,
                0.5788744828795185,
                0.2722538446565113,
                1.1732266212015405,
                1.3324980931528798,
                1.1732266212015405,
                1.1732266212015405,
                0.20170750921917502,
                1.33249809315288,
                0.7532939781686484,
                0.9678235626417243,
                0.6386968377551367,
                0.07525,
                0.8317283174589388,
                1.3324980931528798,
                0.702637057508841,
                0.4125876400434561,
                0.49455194804884983,
                1.1732266212015405,
                0.24019869843081154,
                1.168570403568905,
                0.3882261996737085,
                1.1732266212015403,
                0.3445401529932728,
                0.5998023829361924,
                0.9802503029093605,
                0.15298501791826435,
                1.1072647362084191,
                1.3324980931528798,
                0.49457821168021726,
                0.9493343068534256,
                1.0356695878283877,
                1.1732266212015405,
                0.2920119863130157,
                1.3324980931528798,
                1.1732266212015408,
                1.3324980931528798,
                0.07525,
                1.33249809315288,
                0.425489382283626,
                0.07525,
                0.9828557940247765,
                0.6627729722292068,
                1.2136221132342042,
                1.3324980931528798,
                1.3324980931528798,
                0.819509007310692,
                0.1773115417968252,
                0.7445106450440441,
                0.48704885232898076,
                1.1732266212015405,
                1.1732266212015405,
                0.07525000000000001,
                0.8292395739023594,
                0.11137162440088245,
                0.6988755167430002,
                1.1732266212015403,
                1.3324980931528798,
                0.4193070280605095,
                1.3324980931528798,
                0.4149349304283258,
                0.21896162776580025,
                1.1732266212015408,
                0.5606605368774737,
                1.1732266212015408,
                0.49497825385128197,
                1.3324980931528798,
                0.1503584460768646,
                1.1732266212015405,
                0.013433940764794428,
                1.1732266212015408,
                0.5111589251697718,
                0.34596113897479863,
                0.5465621655916747,
                0.7193740111289063,
                1.3324980931528798,
                0.6718354919389002,
                0.15046446191759855,
                0.3246076678780123,
                0.41810582935249274,
                0.2966219583157648,
                1.3324980931528798,
                0.6800032400472803,
                0.8347459787843013,
                0.4463615808924212,
                0.6136116066851871,
                0.3517339490673185,
                0.2671580089552299,
                0.05192302970224494,
                0.2873067352716908,
                0.28995163177064864,
                0.5832540319284409,
                1.3324980931528798,
                0.7357053060101452,
                1.1732266212015405,
                0.7560376973596702,
                0.4086401413114349,
                0.8084705268847211,
                0.6798651244190813,
                0.8396696989236824,
                0.8734630856745804,
                1.33249809315288,
                0.7868940625946296,
                0.9514370162938701,
                0.7291281184439862,
                1.3324980931528798,
                0.7716193162059819,
                0.6178008861737061,
                0.0878145580647487,
                0.5239049011636805,
                0.27996943189279944,
                0.33504041579576516,
                0.954638507096135,
                1.3324980931528798,
                0.6358405931137421,
                0.4780315683477461,
                1.1732266212015405,
                0.269160169974884,
                0.616332921911938,
                0.7036846945372817,
                0.6744173918114003,
                0.35385032703497404,
                0.5749502713716808,
                0.9247065484482955,
                0.6142632302431476,
                1.1732266212015405,
                1.1338707985588803,
                0.7823301979604342,
                0.12353859263189058,
                1.1732266212015405,
                0.38375860749898993,
                0.3669326617195022,
                0.9798511347130824,
                1.1732266212015408,
                0.6414040676726864,
                0.512540563040677,
                1.3324980931528798,
                1.1732266212015405,
                1.3324980931528798,
                0.397926967306409,
                1.3324980931528798,
                0.8523668727686794,
                1.1306875522426054,
                1.1732266212015408,
                0.5417809426590869,
                1.3324980931528796,
                0.6079141942532305,
                0.9752777822851916,
                1.3324980931528798,
                1.1732266212015405,
                0.07303899999999999,
                0.30458711936215016,
                1.1732266212015405,
                0.7305222490097574,
                0.4195058089648572,
                1.1732266212015408,
                0.15057049325116822,
                0.7059248505952094,
                0.2587364279275334,
                0.9857553726299172,
                0.3401662037202309,
                1.3324980931528798,
                0.17139167074664674,
                0.489207046182957,
                0.004140071967447589,
                1.3324980931528798,
                0.30284428850828693,
                0.3190163660147794,
                0.20122742047637887,
                1.3324980931528798,
                0.9565725187797222,
                0.05821969060980438,
                0.5039186887654828,
                0.22031644744353684,
                0.8084989057025542,
                0.8891547761493497,
                0.34415723115449226,
                1.03096750714819,
                1.036764134503073,
                0.5069018258483755,
                1.1732266212015405,
                1.1732266212015405,
                0.6970505218182181,
                0.8033713310568975,
                0.3609338332516231,
                0.579806764919428,
                0.7090969274131673,
                1.1732266212015405,
                0.11418601297723918,
                0.9827233027978959,
                0.5994181189698689,
                0.1823802515172519,
                1.0005910726779512,
                1.1732266212015405,
                0.0717887442859203,
                1.1732266212015405,
                0.6137891453924024,
                0.0852354,
                1.33249809315288,
                1.3324980931528798,
                0.024196886736154916,
                1.1732266212015405,
                0.8868429180710695,
                0.6102981243790794,
                1.33249809315288,
                1.3324980931528798,
                0.698930903336317,
                0.7942715685822925,
                1.3324980931528798,
                0.18481906666004688,
                0.10906466075229942,
                0.3464942473826027,
                1.1732266212015408,
                0.20588376718191648,
                0.35126095287722386,
                0.7718047804300998,
                1.1732266212015405,
                0.46216205688601414,
                0.4112646221322609,
                0.6170824326192579,
                0.6790555212898614,
                0.15953563509143523,
                0.08507736378971731,
                1.3324980931528798,
                1.1732266212015403,
                0.06583803510573205,
                0.9376942706105679,
                1.1044618064817677,
                0.6948223586310251,
                0.2617524338717818,
                0.4341837023625717,
                0.24720590708738477,
                0.6354807923043952,
                0.23297798477300205,
                1.1732266212015405,
                0.5062778260727074,
                1.3324980931528798,
                1.0390140281013744,
                0.9323468021740573,
                0.26607187815771965,
                0.41246457687308835,
                0.8562544994070527,
                0.43677681626044984,
                0.93335114240366,
                0.29306443987388076,
                0.4036327459456243,
                0.5908607205269212,
                1.3324980931528796,
                1.3324980931528798,
                0.19432696498473345,
                0.6671931598026765,
                0.5914184898271151,
                1.1732266212015405,
                0.18743795548444053,
                0.09139726868620546,
                0.3141828735040555,
                0.5357375422602839,
                0.47644457718936944,
                0.917635945062268,
                1.072881455226522,
                0.5163851960503069,
                0.5000055800007799,
                0.0997874560051084,
                0.34413925012758595,
                1.1732266212015405,
                0.45195042781902517,
                1.1732266212015405,
                1.1732266212015405,
                1.3324980931528796,
                1.3324980931528796,
                0.3668203110249375,
                1.1732266212015405,
                0.4422888019524343,
                0.059902774294303684,
                1.1732266212015405,
                1.1732266212015408,
                1.3324980931528796,
                1.1732266212015403,
                0.030452972671810796,
                1.3324980931528798,
                1.3324980931528798,
                0.7280090140170279,
                0.7937631337561267,
                1.1732266212015405,
                0.5558084098847713,
                0.2854470083755498,
                0.5469311510598127,
                0.5832879385725209,
                1.3324980931528798,
                0.3004160323679992
            ],
            "photocathode": [
                4420,
                8665,
                7643,
                6697,
                7736,
                588,
                4925,
                2245,
                4462,
                8193,
                9345,
                5313,
                1818,
                3460,
                2183,
                2297,
                1462,
                6334,
                9410,
                3029,
                5928,
                9382,
                3181,
                897,
                5291,
                2912,
                5403,
                2039,
                1446,
                5284,
                8321,
                9220,
                4521,
                3633,
                9230,
                3751,
                4065,
                5553,
                2025,
                8216,
                8224,
                1708,
                4003,
                2738,
                5717,
                9656,
                9265,
                4543,
                6300,
                5041,
                2323,
                7691,
                1846,
                8226,
                9517,
                8400,
                2612,
                982,
                584,
                4709,
                3969,
                8463,
                6466,
                8089,
                5603,
                752,
                9406,
                2487,
                5452,
                8251,
                5481,
                5532,
                4718,
                5916,
                2233,
                1097,
                1065,
                8196,
                1931,
                5730,
                1780,
                6259,
                970,
                434,
                2479,
                6155,
                6679,
                9322,
                5064,
                3024,
                6114,
                6568,
                8320,
                2003,
                9254,
                7674,
                576,
                6801,
                8266,
                4273,
                8111,
                3159,
                514,
                8416,
                2376,
                565,
                1173,
                6393,
                1289,
                6790,
                5662,
                6727,
                5239,
                4213,
                2480,
                4063,
                1680,
                1800,
                4629,
                5633,
                881,
                101,
                6059,
                2556,
                2073,
                9480,
                8162,
                1431,
                9462,
                2031,
                8102,
                6295,
                1866,
                9213,
                9298,
                1899,
                1626,
                8098,
                3590,
                8197,
                8187,
                517,
                2598,
                5250,
                2754,
                8145,
                1137,
                8236,
                5087,
                4599,
                9237,
                4471,
                5283,
                9563,
                6034,
                4130,
                6422,
                6342,
                9357,
                6292,
                5500,
                5896,
                6517,
                2681,
                494,
                5043,
                8174,
                3777,
                3740,
                1038,
                8161,
                9162,
                1211,
                2208,
                7704,
                5731,
                9189,
                8020,
                8278,
                3037,
                6373,
                4423,
                6528,
                9248,
                1039,
                8277,
                2843,
                4401,
                9565,
                4353,
                7084,
                7622,
                3962,
                2483,
                9271,
                489,
                4414,
                4882,
                1599,
                2145,
                9100,
                9728,
                7172,
                9281,
                771,
                1312,
                9327,
                1230,
                3811,
                929,
                5205,
                4108,
                1915,
                8289,
                9261,
                8338,
                8246,
                1423,
                9385,
                5369,
                7044,
                4389,
                499,
                5822,
                9481,
                4923,
                2853,
                3436,
                8203,
                1651,
                8156,
                2750,
                8263,
                2464,
                4199,
                6913,
                1156,
                7639,
                9423,
                3466,
                6703,
                7271,
                8060,
                1955,
                9335,
                8179,
                9383,
                535,
                9351,
                2982,
                511,
                7002,
                4547,
                8625,
                9108,
                9265,
                5698,
                1199,
                5196,
                3388,
                8483,
                8211,
                555,
                5724,
                775,
                4906,
                8031,
                9146,
                2927,
                9366,
                2996,
                1511,
                8199,
                3949,
                8199,
                3439,
                9410,
                1073,
                8258,
                82,
                8425,
                3628,
                2453,
                3856,
                5134,
                9784,
                4808,
                1094,
                2163,
                2833,
                2067,
                9094,
                4760,
                5801,
                3091,
                4283,
                2515,
                1900,
                368,
                2050,
                2037,
                4074,
                9405,
                5245,
                8183,
                5268,
                2806,
                5705,
                4890,
                5976,
                6111,
                9283,
                5502,
                6776,
                5150,
                9142,
                5496,
                4272,
                607,
                3745,
                1946,
                2382,
                6750,
                9462,
                4523,
                3503,
                8169,
                1942,
                4345,
                4920,
                4912,
                2416,
                4080,
                6526,
                4387,
                8083,
                8080,
                5474,
                909,
                8351,
                2752,
                2614,
                6807,
                8000,
                4428,
                3604,
                9270,
                8252,
                9613,
                2784,
                9177,
                5822,
                7958,
                8436,
                3826,
                9365,
                4253,
                6786,
                9370,
                8267,
                483,
                2161,
                8195,
                5196,
                2963,
                8426,
                1154,
                4886,
                1901,
                7054,
                2424,
                9318,
                1145,
                3559,
                28,
                9301,
                2131,
                2189,
                1427,
                9422,
                6670,
                398,
                3624,
                1583,
                5551,
                6380,
                2344,
                7438,
                7384,
                3548,
                8094,
                8110,
                4971,
                5651,
                2596,
                4080,
                5108,
                8183,
                819,
                6593,
                4278,
                1248,
                6893,
                8278,
                505,
                8450,
                4501,
                605,
                9470,
                9237,
                155,
                8127,
                6300,
                4123,
                9318,
                9297,
                4889,
                5528,
                9398,
                1301,
                784,
                2415,
                8208,
                1523,
                2502,
                5457,
                8291,
                3157,
                2972,
                4381,
                4667,
                1128,
                548,
                9311,
                8195,
                402,
                6620,
                7813,
                4991,
                1843,
                2971,
                1642,
                4427,
                1634,
                8375,
                3570,
                9365,
                7257,
                6569,
                1860,
                2869,
                5987,
                2959,
                6671,
                2009,
                2788,
                4161,
                9122,
                9439,
                1292,
                4750,
                4274,
                8092,
                1314,
                627,
                2203,
                3665,
                3348,
                6539,
                7654,
                3631,
                3563,
                637,
                2394,
                8372,
                3210,
                8267,
                8134,
                9315,
                9172,
                2522,
                8075,
                3197,
                414,
                8232,
                8145,
                9189,
                8312,
                220,
                9193,
                9645,
                5212,
                5904,
                8211,
                3886,
                2013,
                3810,
                4015,
                9408,
                2179
            ]
        },
        "detections": 500,
        "events": 55408
    }
}