{
    "job_args": {
        "metric_limit": 500,
        "seed": 4095590852
    },
    "job_id": "batch_41_do_500",
    "result": {
        "collections": {
            "crystal": [
                0.022150793045212926,
                0.02636363946197681,
                0.059549155270443556,
                0.012627500000000002,
                0.05949756530094078,
                0.05959326118863144,
                0.026330096533838207,
                0.031244926824620274,
                0.05950065823419392,
                0.05959036710360825,
                0.05723129275331571,
                0.01783483870914584,
                0.059573620706940715,
                0.05949916126275667,
                0.05956863567614103,
                0.05698153969592813,
                0.05959475498930831,
                0.059572901966783165,
                0.05952479058636526,
                0.05954622986662527,
                0.05949058328315999,
                0.05866116882362414,
                0.021591898455361507,
                0.026325316967438495,
                0.059574382981564554,
                0.017847103198042842,
                0.059497629079673,
                0.05955880436007732,
                0.05949162046561491,
                0.059588480353761075,
                0.059505058180959386,
                0.059524167881787736,
                0.05956858171793945,
                0.05951357739499933,
                0.059530642504074624,
                0.05951143066098158,
                0.05952354173238243,
                0.05954631034321092,
                0.059588670324453655,
                0.05815916348399735,
                0.05956414657450146,
                0.059566894370655855,
                0.03097231090321477,
                0.013950385559413194,
                0.05353038539454452,
                0.05954259245502647,
                0.05955159231403822,
                0.05952400343251106,
                0.030888778112856202,
                0.05955385574959374,
                0.05953672913717743,
                0.05950092838534797,
                0.05958840451467699,
                0.05955101124214876,
                0.05954865453832135,
                0.05956017704196131,
                0.015227512954676056,
                0.05956394869218202,
                0.013952979472853193,
                0.05957897028156579,
                0.05958913862509474,
                0.0595593734810867,
                0.02632311657684136,
                0.026367976771267693,
                0.05958515034985267,
                0.010629033296658884,
                0.05955838546563824,
                0.017517325455384678,
                0.05949504932336833,
                0.05952784099329704,
                0.017856677931700184,
                0.013756194491523379,
                0.01395625707952177,
                0.05955040470601284,
                0.05957688022184178,
                0.026355455200107545,
                0.05369792746008365,
                0.05951514481790497,
                0.04883396381055318,
                0.033181588216497124,
                0.031278351343752536,
                0.05956643603676951,
                0.059578249219516065,
                0.03120401252451345,
                0.05953440587695078,
                0.05953536781522833,
                0.017844254857701615,
                0.05951867815721913,
                0.05950613183522915,
                0.017852659217201593,
                0.05957588310151912,
                0.03095450637589621,
                0.031225610986645915,
                0.05955683274539206,
                0.05951416436392194,
                0.05952671138301566,
                0.030971093593259447,
                0.05956001221709357,
                0.05956915812986049,
                0.030944229004930452,
                0.05958586478854784,
                0.05958710291624234,
                0.05950294024564037,
                0.05955684057862065,
                0.0595949709165784,
                0.05952927331445871,
                0.05952116650052757,
                0.05951549903014116,
                0.020872364910301394,
                0.059570448680368496,
                0.05954748378021089,
                0.027284404501165278,
                0.05958137630912387,
                0.05959400328935767,
                0.0595329514086288,
                0.02635018241314109,
                0.017507613579892042,
                0.05949840905023375,
                0.017835803870668042,
                0.05956513129709103,
                0.059543753832638255,
                0.05950666000766678,
                0.05952822477647058,
                0.030983711002327566,
                0.059513447672085794,
                0.05958148927306432,
                0.05952952603035087,
                0.059591268573868504,
                0.05956510751382359,
                0.059511161090017674,
                0.05952116515501536,
                0.030574060526380828,
                0.059531785980226126,
                0.059549831520112596,
                0.031245348456249822,
                0.021574986467563242,
                0.05953879285352959,
                0.013763014430508176,
                0.05958769113200133,
                0.0263290722039506,
                0.05953800959326054,
                0.02636725173127704,
                0.05954858577023271,
                0.03127334696389846,
                0.059505974983431846,
                0.05951488978298192,
                0.017837166434021345,
                0.05955930084273844,
                0.05949197825275422,
                0.059593404451168376,
                0.05951994487085855,
                0.01785495661850052,
                0.05954288651600331,
                0.018020091446711503,
                0.030953556717037586,
                0.059511280889887594,
                0.059549139457844784,
                0.059525080377639664,
                0.059511206148307766,
                0.05955917625064751,
                0.059553501198441924,
                0.05956444642038379,
                0.020873325750512303,
                0.05949857125231142,
                0.05958679219901394,
                0.059543757873636784,
                0.059585717338672434,
                0.054580226700606964,
                0.059490719870457155,
                0.02633887167963917,
                0.016850655964211297,
                0.030914392312320155,
                0.05954857466070129,
                0.059555818612862396,
                0.020902533380640118,
                0.05949523736588259,
                0.016799316020412142,
                0.01685949227998614,
                0.05952368710780562,
                0.05957201621023353,
                0.059516463299316216,
                0.05948751182999396,
                0.05957034456990766,
                0.01783882311059394,
                0.02111978551676174,
                0.05954320335575712,
                0.059495770478540405,
                0.01752199458146776,
                0.05958393644767732,
                0.059504563199591895,
                0.05949685568051938,
                0.05950802168950069,
                0.059551110607324854,
                0.05959143991586423,
                0.059543278508655234,
                0.05951315606598845,
                0.031229387444296198,
                0.05953702104953635,
                0.059540472089377426,
                0.05958981604810583,
                0.0594931415250424,
                0.05959184312669706,
                0.0309119456969722,
                0.01783906316965792,
                0.013958061795836797,
                0.05950482711797147,
                0.059585152046160925,
                0.05948637857754115,
                0.0595878632080287,
                0.059574082440817105,
                0.059506517616810486,
                0.05948879042212967,
                0.02634756324309354,
                0.030984244416360676,
                0.05955291336746421,
                0.05951299894742777,
                0.01227065994078554,
                0.059498102806282746,
                0.017831449339485706,
                0.01782671743379094,
                0.059527734608017815,
                0.059561584272279054,
                0.05958069270186608,
                0.05954029028577373,
                0.059561529261141936,
                0.05950037186815272,
                0.05952929040651807,
                0.05952031387909381,
                0.05958186301805002,
                0.059494636166836444,
                0.059520219793401344,
                0.05954832865225562,
                0.03121402624416537,
                0.059576440792880506,
                0.05954819584725611,
                0.05959045797779166,
                0.0178400868645019,
                0.059499734869347884,
                0.01785116035510933,
                0.026322256440201988,
                0.05948998767968267,
                0.0595700398726939,
                0.013956732678199755,
                0.059494091846789054,
                0.05959117117246466,
                0.05958588644525076,
                0.05955433082889927,
                0.026337653386975166,
                0.059518352527483824,
                0.05952451632701508,
                0.05957382602394122,
                0.05949490280066235,
                0.030955896794274646,
                0.05952946549508131,
                0.05711258896108329,
                0.059488155317333605,
                0.05956587823354391,
                0.016851955327442443,
                0.01784030745162071,
                0.057483620251442165,
                0.0595509032945998,
                0.05949850924415565,
                0.05957315126823584,
                0.05955830214054197,
                0.020890344983223,
                0.05950662582782221,
                0.059536692620778514,
                0.05959274980484768,
                0.059520596259438535,
                0.059588910544600415,
                0.05958451247050731,
                0.05955162473203364,
                0.059534452877375715,
                0.059500274419727744,
                0.017296373702720157,
                0.059497309840141455,
                0.05949980587425612,
                0.0594954124389236,
                0.05950481769325926,
                0.05954001483895562,
                0.02722057095777112,
                0.013966249373031998,
                0.059515504326067704,
                0.016824626394564182,
                0.05949461018493642,
                0.05958160325299861,
                0.030905367031421965,
                0.05475814684380986,
                0.05957167417496311,
                0.02087776613623724,
                0.031242669739164217,
                0.05959447177499086,
                0.05951119388039677,
                0.030948176785932393,
                0.0595014020099202,
                0.033192486979831355,
                0.05958070039883622,
                0.05950711626083627,
                0.05955193683108491,
                0.059534671429507066,
                0.030927767435911233,
                0.0595348968584015,
                0.020238115897501907,
                0.0595139783377866,
                0.0595528711814406,
                0.05957549333840207,
                0.05936117755702563,
                0.03090392650894981,
                0.05953229232260803,
                0.05949932955352688,
                0.05955682518007926,
                0.05950229826496466,
                0.05955277841385588,
                0.05957821133894412,
                0.05951685471876454,
                0.05951440698054641,
                0.059520788459619944,
                0.017826960114277174,
                0.01686646137168172,
                0.059500224543404444,
                0.017855400933988075,
                0.05948973440598485,
                0.059553722718464895,
                0.05949897934669816,
                0.017513222288012862,
                0.05958808319928912,
                0.05959516807557435,
                0.05957676170713605,
                0.05949221069106864,
                0.059521305394866504,
                0.05953392797325884,
                0.021590169639500063,
                0.059532186993086725,
                0.05956272048609379,
                0.059506191508648595,
                0.059549488557965394,
                0.05957659606570384,
                0.05953405247597993,
                0.05955578035492003,
                0.03097865624898937,
                0.05780460547809351,
                0.05955438940637585,
                0.017855549896294294,
                0.020883604394272386,
                0.05957083011433101,
                0.05951309852282315,
                0.05949010729257463,
                0.05958638991091626,
                0.018010207106055352,
                0.05950199583158642,
                0.0595689620323385,
                0.030919585779285882,
                0.05955193156458618,
                0.059590279091321224,
                0.020879185493952738,
                0.059578082516624886,
                0.05954905291512204,
                0.059591570283332874,
                0.02157354224897139,
                0.059548023823516205,
                0.021132677267739427,
                0.01783343892576589,
                0.05959064100624073,
                0.059552437341790186,
                0.05955665699260608,
                0.03093053165516796,
                0.05958837795487897,
                0.05949841262128659,
                0.05951645145888101,
                0.013966479738607427,
                0.05954899946915583,
                0.059585541244243534,
                0.059545564123039525,
                0.02088305247671353,
                0.03124972942147491,
                0.02724454321021608,
                0.059575399561600906,
                0.02635419046852904,
                0.0595757803832935,
                0.05949253050992089,
                0.059518486367322404,
                0.05951346514000663,
                0.059560895895890725,
                0.05955936065738229,
                0.030939272869274986,
                0.05958161303893862,
                0.059518953580973664,
                0.05954107080304441,
                0.01785065565223105,
                0.026338274634455025,
                0.0562666978937032,
                0.05951663779703303,
                0.059581242238249586,
                0.059590342189739076,
                0.059543303733549796,
                0.016843832074432775,
                0.017061065303061673,
                0.017834310978606244,
                0.05949224118291917,
                0.05954921141615322,
                0.02634080643297624,
                0.059593796900724236,
                0.05957511550761809,
                0.0595357231906158,
                0.030963554872155415,
                0.02068583805765922,
                0.027330084861394262,
                0.017829769700552122,
                0.05607452695499382,
                0.059549713843226416,
                0.05952872634426351,
                0.02636022923035368,
                0.05952180959923965,
                0.059538789406194906,
                0.05949987616781324,
                0.05950186767003173,
                0.02087892769746912,
                0.059493341212001116,
                0.059592471348367,
                0.05959185152688752,
                0.01750335781820883,
                0.059524491807251,
                0.05957302708879666,
                0.059506850300364386,
                0.05948972979871716,
                0.017837885598111163,
                0.05949685168842741,
                0.0595482830191372,
                0.059580751725236095,
                0.05956740960237139,
                0.017840810425945076,
                0.01783379549926531,
                0.02702191673804568,
                0.05957067569154501,
                0.059558326899103564,
                0.05954715788696224,
                0.021573067894784716,
                0.059587325985881685,
                0.0595947072709843,
                0.016868340152858596,
                0.05950212088785581,
                0.05952080743411636,
                0.05954120929787335,
                0.030918747729539606,
                0.013964689474603637,
                0.01708084803195795,
                0.05958974837067793,
                0.0178298715187308,
                0.01783147106911826,
                0.059526127119611874,
                0.05954665225709007,
                0.0595323597075618,
                0.03123265844927585,
                0.05954702208866522,
                0.059527603194718504,
                0.059578176424966836,
                0.05952968919665219,
                0.05949598109013227,
                0.05956248137558773,
                0.05958313178650518,
                0.05952129188623597,
                0.05951695857144839,
                0.01785281749523491,
                0.059537460928681105,
                0.026360366298669627,
                0.0595248317599879,
                0.016865225147289643,
                0.017845886544043867,
                0.059539848892973625,
                0.021351890017614807,
                0.01684906486822272,
                0.059506950767119184,
                0.05958174344090908,
                0.05953623172389711,
                0.05949285856762183,
                0.05959233461029226,
                0.05950879415381991,
                0.017827319656661095,
                0.059518654267983875,
                0.021123551294032435,
                0.05959223067124129,
                0.05956219421390271,
                0.05953207421965025,
                0.030935458066928306,
                0.031214794505329147,
                0.05956690420112304,
                0.059591874730337405,
                0.020902761052560618,
                0.031206922281954454,
                0.054781877621630885,
                0.016859493616033686,
                0.05953545891044419,
                0.059509724574176255,
                0.05953868813050038,
                0.05957840683159258,
                0.059486492922739255,
                0.01785705702717915,
                0.0595674837638024,
                0.013547118427345966,
                0.05949204724061678
            ]
        },
        "detections": 500,
        "events": 206137
    }
}