{
    "job_args": {
        "metric_limit": 300,
        "seed": 2542825159
    },
    "job_id": "batch_68_do_300",
    "result": {
        "collections": {
            "crystal": [
                1.0,
                1.0,
                1.0,
                1.0,
                1.0,
                0.548908002711356,
                1.0,
                0.7051319681411462,
                0.02024407909806336,
                1.0000000000000002,
                0.9999999999999999,
                0.706956806083422,
                0.6029037191907729,
                1.0,
                1.0,
                0.7133794039160191,
                0.6267421313168059,
                1.0,
                1.0000000000000002,
                1.0,
                0.9999999999999999,
                1.0000000000000002,
                0.5389084346564237,
                0.753976713241609,
                1.0,
                0.20709131033626138,
                0.9999999999999999,
                0.9999999999999998,
                0.9999999999999999,
                0.6323190650606352,
                1.0,
                1.0,
                0.27915324594717306,
                0.7744114684994576,
                0.01634626061304345,
                0.2742242882461713,
                0.6006628605166878,
                1.0,
                0.9999999999999999,
                0.30315831628632733,
                1.0,
                1.0000000000000002,
                0.9999999999999998,
                0.9999999999999999,
                0.07992737313166687,
                0.6359086144790568,
                0.9999999999999999,
                0.8066379854374628,
                0.4526103852956543,
                0.1988852214533933,
                1.0,
                0.1304697682696343,
                0.7292542326238132,
                0.5676966626076446,
                0.5406580959494147,
                1.0,
                0.9999999999999999,
                0.9999999999999999,
                0.9999999999999999,
                1.0,
                0.9999999999999999,
                0.9999999999999999,
                1.0,
                1.0,
                1.0000000000000002,
                0.43950557056725337,
                1.0,
                1.0000000000000002,
                1.0,
                0.9999999999999998,
                0.1607966987961161,
                0.6526173612405441,
                0.9999999999999999,
                0.9999999999999999,
                0.4795820107989394,
                0.617536602021818,
                0.9999999999999998,
                0.9999999999999999,
                1.0,
                1.0,
                1.0,
                0.04842084692418369,
                0.9089302837254726,
                0.3237884608812821,
                0.7545985074486001,
                1.0,
                1.0,
                0.3833330023194704,
                0.7233324294082977,
                1.0000000000000002,
                0.24391062423599405,
                0.6199253167632198,
                0.6615016253761107,
                1.0,
                1.0,
                1.0,
                1.0,
                1.0,
                0.9999999999999999,
                0.6905988343513971,
                0.5570846306029021,
                0.4899272914266214,
                0.5891342839829714,
                1.0,
                1.0,
                0.7642723556663857,
                1.0,
                0.3630650725278146,
                1.0,
                0.9999999999999999,
                0.41001973049319573,
                0.6638325901278819,
                1.0,
                0.9999999999999999,
                1.0,
                0.44726772372596935,
                1.0,
                1.0,
                0.717820778255564,
                1.0,
                0.8451143110543244,
                1.0,
                0.6548259446733249,
                0.5490204476987136,
                0.49105594652972934,
                1.0000000000000002,
                1.0,
                0.12592113962076312,
                1.0,
                1.0,
                1.0,
                0.148896682308987,
                1.0,
                0.752860292530716,
                0.5278980533026616,
                0.06005371804456705,
                0.44751600515192136,
                0.581860097141806,
                0.46826827662553466,
                1.0,
                1.0000000000000002,
                0.11254431491007355,
                0.6963542453259993,
                0.5150099259959874,
                1.0,
                1.0,
                0.1434621738719175,
                0.7769517124723813,
                1.0,
                1.0,
                1.0,
                0.7459675524798707,
                0.6521416479363842,
                1.0,
                1.0000000000000002,
                0.1583249988520922,
                1.0,
                0.6752761039393838,
                0.46876493008040243,
                0.4005219918642943,
                1.0,
                1.0,
                0.9999999999999999,
                1.0,
                1.0000000000000002,
                0.1426589200817524,
                1.0,
                1.0000000000000002,
                0.5236750256171313,
                1.0,
                0.9999999999999999,
                1.0,
                1.0000000000000002,
                0.7509441073868439,
                0.31834645174261533,
                1.0,
                1.0000000000000002,
                1.0,
                0.7132296189231625,
                0.7347725033131659,
                0.5572914263828805,
                1.0,
                1.0,
                0.9999999999999999,
                0.40443238892513356,
                1.0,
                1.0000000000000002,
                1.0,
                0.42372959036605773,
                0.25034545970419153,
                1.0,
                1.0,
                0.15802770940253164,
                0.3807056104318626,
                0.5812320082490613,
                0.9999999999999999,
                0.7228751639202486,
                0.4706241186148289,
                1.0,
                1.0,
                0.45383244835817266,
                0.7440232340345019,
                0.9999999999999999,
                1.0,
                1.0,
                1.0,
                1.0,
                0.9999999999999999,
                0.04661935786323523,
                1.0,
                0.9999999999999999,
                0.9999999999999998,
                1.0,
                1.0,
                0.9999999999999999,
                0.9999999999999999,
                0.05042007425438866,
                0.9999999999999999,
                0.546096616528444,
                0.9999999999999998,
                1.0,
                1.0,
                1.0,
                1.0,
                0.0033870242525153586,
                0.07716322378692286,
                0.322669413804789,
                1.0,
                0.5731632490855877,
                1.0,
                1.0,
                0.031010185519602218,
                0.6835620432294468,
                0.7484109267748075,
                0.43721418433202497,
                1.0,
                0.7466490807681625,
                1.0,
                1.0000000000000002,
                1.0,
                0.3710532784550492,
                0.46378076158283993,
                1.0,
                1.0,
                0.6362231945171478,
                1.0,
                0.3677806752632203,
                0.9999999999999998,
                0.35161029630025936,
                0.18499353671068186,
                1.0,
                1.0,
                1.0,
                0.9999999999999999,
                1.0,
                0.9999999999999999,
                0.9999999999999999,
                0.633444879439562,
                1.0,
                0.7445969922667186,
                0.9999999999999998,
                0.6136247377264525,
                0.026458321318303724,
                0.9999999999999998,
                0.36978243109375175,
                0.9999999999999998,
                1.0,
                0.10228597225752845,
                0.9999999999999999,
                1.0,
                0.4085895434768235,
                1.0,
                1.0,
                0.5617432938212161,
                1.0,
                1.0,
                1.0,
                1.0,
                0.6762239370115117,
                0.1957169411519144,
                0.13687992695060636,
                0.2240313731837622,
                1.0000000000000002,
                1.0,
                1.0,
                0.4597289357354326,
                0.7978199953459801,
                0.6961690633877191,
                1.0,
                1.0,
                0.1289386481445961,
                0.38952394350975583,
                1.0,
                1.0,
                1.0,
                0.6266840268369576,
                0.9999999999999999,
                0.2988073238894835,
                1.0,
                1.0
            ],
            "photocathode": [
                6917,
                7239,
                6988,
                6948,
                7110,
                3837,
                7048,
                4960,
                121,
                7152,
                7129,
                4873,
                4205,
                7079,
                7196,
                4958,
                4301,
                7086,
                7004,
                6942,
                6992,
                7052,
                4008,
                5343,
                6988,
                1394,
                6994,
                7046,
                7130,
                4405,
                6947,
                7048,
                1931,
                5449,
                121,
                1960,
                4178,
                6916,
                7029,
                2085,
                6913,
                7007,
                7054,
                7065,
                550,
                4399,
                7047,
                5647,
                3098,
                1452,
                7063,
                900,
                5081,
                3867,
                3909,
                7164,
                7148,
                7104,
                7057,
                7009,
                6980,
                6976,
                7033,
                7008,
                7276,
                3214,
                6844,
                6920,
                7363,
                6996,
                1207,
                4533,
                7003,
                6921,
                3441,
                4312,
                7119,
                6873,
                7049,
                6861,
                6963,
                370,
                6433,
                2283,
                5310,
                6949,
                6937,
                2705,
                5007,
                7071,
                1675,
                4433,
                4618,
                7116,
                6952,
                7059,
                7103,
                7226,
                7163,
                4963,
                3956,
                3575,
                4135,
                7111,
                6923,
                5380,
                6963,
                2519,
                7071,
                6940,
                2833,
                4682,
                6941,
                7000,
                6796,
                3034,
                7055,
                7123,
                5078,
                6934,
                5978,
                7026,
                4739,
                3795,
                3466,
                7241,
                6932,
                839,
                7213,
                7028,
                6967,
                991,
                6930,
                5260,
                3774,
                445,
                3085,
                4055,
                3330,
                7373,
                7062,
                742,
                4926,
                3645,
                6995,
                6999,
                997,
                5510,
                6964,
                6914,
                7090,
                5224,
                4557,
                6865,
                6976,
                1129,
                7166,
                4832,
                3338,
                2790,
                7141,
                6904,
                7006,
                6859,
                6965,
                988,
                7105,
                7026,
                3636,
                7367,
                6837,
                7171,
                7037,
                5214,
                2219,
                6955,
                7159,
                6951,
                5023,
                5156,
                3897,
                7274,
                6886,
                6876,
                2831,
                7028,
                7058,
                7150,
                2906,
                1816,
                6933,
                6959,
                1107,
                2846,
                4180,
                7175,
                5060,
                3459,
                6904,
                6904,
                3176,
                5378,
                7097,
                6883,
                6959,
                6964,
                7017,
                7048,
                325,
                7041,
                6958,
                7074,
                7133,
                7168,
                6959,
                6907,
                373,
                7052,
                3998,
                6891,
                6914,
                6945,
                7258,
                6957,
                13,
                546,
                2230,
                6837,
                3974,
                7119,
                6986,
                250,
                4755,
                5092,
                3189,
                6859,
                5244,
                6867,
                6937,
                7366,
                2551,
                3196,
                7216,
                7072,
                4561,
                7058,
                2675,
                6893,
                2403,
                1277,
                6908,
                7088,
                6935,
                6947,
                6946,
                7135,
                7033,
                4452,
                7206,
                5565,
                6996,
                4296,
                189,
                6976,
                2594,
                6916,
                6900,
                738,
                6974,
                7031,
                2806,
                6966,
                7020,
                3860,
                7067,
                6919,
                7123,
                7099,
                4600,
                1405,
                948,
                1661,
                7296,
                6937,
                6911,
                3322,
                5471,
                5240,
                7028,
                7176,
                968,
                2775,
                7128,
                7074,
                7138,
                4338,
                6931,
                2080,
                6858,
                6913
            ]
        },
        "detections": 300,
        "events": 368
    }
}