{
    "job_args": {
        "metric_limit": 300,
        "seed": 2275187135
    },
    "job_id": "batch_58_do_300",
    "result": {
        "collections": {
            "crystal": [
                0.6752326579090457,
                1.0,
                0.9999999999999999,
                0.6065226506245487,
                0.4306154862520898,
                0.9999999999999999,
                0.3403424167140218,
                1.0,
                1.0000000000000002,
                1.0,
                0.7773056809179881,
                0.5899404287414007,
                0.15650186433106017,
                0.7832549174201767,
                0.21927245643583104,
                1.0,
                1.0,
                1.0,
                1.0,
                1.0,
                1.0,
                1.0000000000000002,
                0.27818383249401524,
                0.3938688973453288,
                0.09281061251473001,
                0.6760423768889682,
                1.0,
                1.0,
                0.2870342737954187,
                1.0,
                0.765437174258334,
                0.717117453683477,
                1.0,
                0.5556663587130902,
                1.0,
                1.0,
                0.5576560571330356,
                1.0000000000000002,
                0.7467796314854105,
                0.7866002331146671,
                1.0,
                0.6111474376763346,
                0.38179185758782375,
                1.0,
                1.0,
                1.0,
                1.0,
                0.059511339839114386,
                0.30282136959231376,
                0.9999999999999999,
                0.02499533543965493,
                1.0,
                0.10093492691492534,
                1.0,
                0.9999999999999999,
                0.25145290536116516,
                1.0,
                1.0,
                1.0,
                0.9999999999999999,
                1.0,
                1.0,
                0.23322041042748676,
                0.7824278470861278,
                0.6076741412770558,
                0.013642411878218574,
                0.9999999999999999,
                1.0,
                0.778275556234163,
                0.7885528558644971,
                0.3452493560972441,
                0.3586887173977273,
                1.0000000000000002,
                1.0000000000000002,
                1.0000000000000002,
                0.6734167471461381,
                0.1868635281359308,
                0.7903771718444158,
                1.0,
                0.5878757047659597,
                0.27872601241769895,
                1.0,
                0.7839437244722247,
                1.0,
                1.0,
                0.15120603556230994,
                0.6032834351864547,
                0.5004724866951316,
                0.31635467543615364,
                1.0,
                0.8861985628560477,
                1.0,
                0.9999999999999999,
                1.0,
                0.9999999999999999,
                0.17523319970507423,
                1.0,
                0.5659163448803959,
                1.0,
                0.6275218302920393,
                1.0,
                0.5071389980877511,
                0.9999999999999998,
                1.0,
                0.46310318401828077,
                0.48198138057676876,
                1.0,
                0.5541746885257108,
                1.0,
                0.7114173010382602,
                1.0,
                0.7039426490243872,
                1.0,
                1.0,
                0.9999999999999999,
                1.0,
                1.0,
                0.3949935064657423,
                0.27394791448078115,
                0.9999999999999999,
                0.564559166032658,
                0.6513597438340542,
                0.9999999999999999,
                1.0,
                1.0,
                1.0,
                1.0,
                0.7394968556259657,
                1.0,
                1.0,
                0.27777808033677365,
                1.0,
                0.78818798188441,
                1.0,
                0.005368397267684677,
                1.0,
                0.7002053040980989,
                1.0,
                0.6067235002279586,
                1.0,
                1.0000000000000002,
                1.0,
                1.0,
                1.0,
                0.7717431057825077,
                1.0,
                1.0000000000000002,
                0.5447318370689573,
                0.9999999999999999,
                0.11283895610809136,
                1.0,
                1.0,
                1.0,
                0.7480213585765194,
                0.7719014723575252,
                0.7675283400108851,
                1.0000000000000002,
                1.0,
                0.9999999999999999,
                0.7305528390026184,
                1.0000000000000002,
                1.0,
                1.0,
                0.309384890484691,
                1.0,
                0.11054945544602679,
                1.0000000000000002,
                0.7792784957948229,
                0.9999999999999999,
                1.0,
                1.0000000000000002,
                0.8052228832195174,
                1.0000000000000002,
                0.9999999999999999,
                0.5783158200580414,
                0.9999999999999999,
                0.608094308017812,
                1.0000000000000002,
                1.0,
                0.7556181681428065,
                1.0,
                0.7481305469634533,
                0.4636463809851453,
                1.0000000000000002,
                1.0,
                0.3578921715042468,
                0.08029912494234592,
                0.27710252262266555,
                0.2508919551783918,
                0.7381323546091467,
                1.0,
                1.0,
                0.06613708306682031,
                0.17844346831876445,
                0.3402295361159845,
                0.6256399321113011,
                0.813339651192533,
                1.0,
                1.0,
                1.0,
                1.0,
                0.01607749230432831,
                1.0,
                1.0,
                0.9999999999999998,
                0.4941837999455696,
                0.4149509469539709,
                0.4051487427564784,
                0.7344942873141856,
                0.07993492315400519,
                1.0,
                1.0,
                0.2566601463533237,
                0.4851862984678018,
                0.9999999999999999,
                0.794855580670742,
                1.0000000000000002,
                0.9999999999999998,
                1.0,
                1.0,
                0.07176504774898773,
                0.029486706863924794,
                1.0,
                0.49498977084776585,
                0.44144338448304377,
                1.0,
                0.2685172223810165,
                1.0,
                0.6285532928848339,
                0.47847941390757315,
                1.0,
                0.9999999999999998,
                0.6390120424143074,
                0.5692186713404243,
                1.0,
                1.0000000000000002,
                0.1930931933765757,
                1.0000000000000002,
                0.7020811353078127,
                0.8134252163211713,
                0.9999999999999999,
                0.1291957647096772,
                0.9999999999999999,
                1.0,
                1.0,
                1.0,
                0.7025544817398185,
                1.0,
                0.13568790215308157,
                0.05909258964679065,
                0.5190579506427742,
                0.43409815403454555,
                0.2205847972512619,
                0.5926876181237029,
                0.9999999999999999,
                0.4124633899553938,
                1.0,
                1.0,
                1.0,
                0.6982463323705725,
                1.0,
                1.0,
                1.0,
                0.9999999999999999,
                0.23832692318448154,
                1.0,
                1.0,
                1.0000000000000002,
                1.0,
                0.5746907429538003,
                0.9999999999999999,
                1.0,
                0.2570394759457726,
                1.0,
                1.0,
                0.9999999999999999,
                0.9999999999999999,
                0.7789770980839924,
                0.9999999999999999,
                0.5705661682402274,
                0.19108393562918458,
                0.6147196052666222,
                1.0,
                0.6587760798152813,
                0.6316239007019859,
                1.0,
                0.7638539910836404,
                1.0,
                0.6138041468526794,
                1.0,
                0.32059793872785414,
                0.705568603031643,
                0.7561320610185839,
                1.0,
                0.6020996577729336,
                0.22220651847677286,
                1.0,
                0.5119681177119604,
                0.9999999999999999,
                1.0000000000000002
            ],
            "photocathode": [
                4596,
                6937,
                7395,
                4161,
                3077,
                7016,
                2349,
                6971,
                7135,
                7054,
                5398,
                4200,
                1019,
                5617,
                1634,
                7015,
                7130,
                7130,
                6992,
                6940,
                7309,
                6997,
                1957,
                2798,
                619,
                4842,
                7107,
                7039,
                2022,
                6908,
                5541,
                5035,
                7119,
                3919,
                7022,
                6980,
                4120,
                7090,
                5072,
                5507,
                7100,
                4435,
                2742,
                7101,
                6804,
                6897,
                7089,
                414,
                2097,
                6890,
                179,
                7229,
                739,
                6927,
                6879,
                1802,
                6990,
                6966,
                7112,
                7175,
                6965,
                6960,
                1593,
                5447,
                4289,
                96,
                6992,
                6995,
                5529,
                5637,
                2398,
                2560,
                7161,
                7060,
                7001,
                4917,
                1279,
                5483,
                7128,
                4158,
                1922,
                6887,
                5403,
                6832,
                7181,
                1057,
                4154,
                3443,
                2237,
                6981,
                6400,
                6992,
                7243,
                7094,
                7025,
                1203,
                7354,
                3903,
                6923,
                4387,
                6970,
                3669,
                7066,
                7336,
                3219,
                3284,
                7017,
                3873,
                6769,
                4827,
                7030,
                4872,
                6863,
                7016,
                7012,
                6889,
                7183,
                2663,
                1969,
                6890,
                4221,
                4516,
                7039,
                7108,
                7229,
                6884,
                7216,
                5210,
                7063,
                7018,
                1982,
                7039,
                5452,
                7036,
                37,
                6913,
                4937,
                7110,
                4238,
                7098,
                7042,
                7104,
                6937,
                6963,
                5350,
                7003,
                7107,
                4010,
                6936,
                796,
                6959,
                6974,
                7093,
                5221,
                5250,
                5356,
                7113,
                6964,
                7041,
                5254,
                6969,
                6950,
                7038,
                2207,
                7192,
                786,
                7020,
                5480,
                6987,
                6966,
                7016,
                5573,
                7253,
                7089,
                4139,
                7044,
                4255,
                7026,
                7038,
                5390,
                7070,
                5198,
                3293,
                7187,
                6834,
                2408,
                560,
                1882,
                1791,
                5121,
                6861,
                6923,
                420,
                1256,
                2425,
                4477,
                5542,
                7302,
                6966,
                7176,
                7034,
                118,
                7256,
                7041,
                7106,
                3479,
                2877,
                2870,
                5294,
                546,
                7060,
                7129,
                1820,
                3438,
                6876,
                5486,
                7042,
                7076,
                6974,
                7049,
                500,
                245,
                7029,
                3546,
                3218,
                7182,
                1877,
                7141,
                4360,
                3269,
                7006,
                6915,
                4477,
                3946,
                6863,
                7046,
                1409,
                6918,
                4870,
                5764,
                7128,
                900,
                7109,
                6876,
                7011,
                7217,
                4917,
                6965,
                979,
                423,
                3643,
                3120,
                1592,
                4209,
                7017,
                2818,
                6978,
                7037,
                7047,
                4953,
                6869,
                6991,
                7103,
                7101,
                1682,
                7190,
                6984,
                7206,
                7008,
                4020,
                6949,
                7211,
                1916,
                7183,
                6952,
                6972,
                6995,
                5529,
                6928,
                3875,
                1418,
                4208,
                6891,
                4706,
                4458,
                7153,
                5201,
                6857,
                4353,
                7050,
                2305,
                4940,
                5120,
                7148,
                4102,
                1586,
                7093,
                3558,
                7188,
                6949
            ]
        },
        "detections": 300,
        "events": 384
    }
}