{
    "job_args": {
        "metric_limit": 300,
        "seed": 1791519046
    },
    "job_id": "batch_47_do_300",
    "result": {
        "collections": {
            "crystal": [
                1.0,
                0.7197161927815501,
                1.0,
                0.34424159556327893,
                0.5258868979627529,
                0.3612705740203132,
                1.0,
                1.0,
                0.3972823658056396,
                1.0,
                0.01777232186342903,
                0.7745143296057021,
                0.7653051962097612,
                0.013577701182009627,
                1.0000000000000002,
                1.0000000000000002,
                0.2574560991835625,
                0.67146270274409,
                0.9999999999999999,
                1.0,
                0.23074678211441735,
                0.7328721536369074,
                1.0,
                1.0,
                1.0,
                0.06140836978824915,
                1.0,
                0.50332255724824,
                0.5430607115880108,
                0.9999999999999999,
                1.0,
                1.0000000000000002,
                0.7813901910808574,
                0.7393281513086701,
                1.0,
                1.0,
                1.0,
                0.6295320276362939,
                0.6550813586147328,
                1.0,
                0.9999999999999999,
                0.2528210308375336,
                1.0,
                0.5709152841153892,
                0.38903725440085024,
                1.0000000000000002,
                1.0,
                1.0,
                0.4901220359487545,
                1.0,
                0.7895600056870897,
                0.10755524846699671,
                0.6729286387975341,
                0.5431038586039382,
                0.10610599921767959,
                1.0,
                1.0,
                0.7496398810163912,
                0.9999999999999999,
                0.744760766480304,
                1.0,
                1.0,
                1.0,
                1.0,
                1.0,
                0.6553115283097825,
                0.6994269761574746,
                0.5198240770787386,
                0.6120871648896298,
                0.0747436011108048,
                1.0,
                0.9999999999999999,
                0.7043132973823669,
                0.1579696890101875,
                1.0,
                0.3481356473421291,
                0.7809267942520489,
                1.0000000000000002,
                1.0,
                0.7088745109142224,
                1.0,
                0.9999999999999998,
                0.04453663106057659,
                1.0,
                0.1718467675248202,
                0.6263037023646453,
                0.4519493716968934,
                1.0,
                1.0000000000000002,
                1.0,
                1.0000000000000002,
                0.3593085094016446,
                1.0,
                1.0,
                1.0,
                1.0000000000000002,
                0.26634068443614717,
                0.03346603483040378,
                0.6102735384922056,
                0.15850223609105818,
                0.4299576517326733,
                0.34991510423211974,
                0.27877164639076935,
                0.2408883698865165,
                0.09726095394610723,
                0.7062133555092499,
                0.35987746714851826,
                0.46155896602913415,
                0.24089589497176112,
                1.0,
                0.4924200670627465,
                1.0,
                1.0,
                0.7751551284267643,
                0.7710380960170493,
                1.0,
                0.4271933013491447,
                0.6645597537763467,
                0.43287788059102017,
                1.0000000000000002,
                1.0,
                0.1879936357423937,
                1.0,
                0.4800610772146773,
                0.3122377898563353,
                0.6257148765282684,
                1.0,
                0.9999999999999999,
                1.0,
                1.0,
                1.0,
                1.0,
                0.8176194490297697,
                0.18151686369029507,
                0.40332025756829326,
                0.9999999999999999,
                1.0,
                0.4782279329852823,
                0.6810097975832357,
                1.0,
                0.31323349609412765,
                0.15410631389924168,
                0.6738218190841923,
                1.0,
                0.7723804387340715,
                0.9999999999999998,
                0.35342098101808495,
                1.0,
                0.9999999999999999,
                0.631541172580937,
                0.7685630635119258,
                0.39397480658652834,
                0.9999999999999999,
                0.679643986611293,
                0.9999999999999999,
                0.2601341746804313,
                0.8103961998299261,
                0.9999999999999999,
                1.0000000000000002,
                0.5390733999205255,
                0.2047111476132123,
                0.12345156422109449,
                1.0,
                1.0,
                0.4558272287188059,
                0.6788514518668186,
                0.051891523027304376,
                0.10521667351642895,
                1.0,
                1.0,
                1.0,
                1.0,
                0.4772664252895027,
                0.9999999999999999,
                0.11277766598648853,
                0.5863287237171051,
                1.0,
                0.821253812614515,
                0.9999999999999999,
                0.704440802019731,
                0.7904721452485056,
                0.27172033030314147,
                0.9999999999999999,
                0.7060259991191294,
                0.9999999999999999,
                0.9999999999999999,
                0.6530724713745315,
                0.3979258882492157,
                0.18760406638697102,
                0.64909460546599,
                1.0,
                1.0000000000000002,
                0.26760636713320574,
                0.7966114517925758,
                0.2602963404749622,
                0.417816034136203,
                1.0,
                0.49355734457548617,
                0.5099621098374182,
                1.0,
                0.7549394805891402,
                0.1184312804177523,
                0.7952609239825857,
                0.7674351829190076,
                0.9999999999999999,
                1.0,
                0.5617486880253817,
                0.6078558510724197,
                1.0,
                0.6937004785589981,
                0.1209834853285582,
                0.728443329358077,
                0.4221463650807176,
                0.9999999999999998,
                0.5216827189733184,
                1.0,
                1.0,
                1.0,
                0.4457122274320075,
                0.9999999999999998,
                1.0,
                1.0,
                1.0,
                0.16912595407892406,
                0.505779116770868,
                0.4705492638353402,
                0.790224553972066,
                0.9999999999999998,
                1.0,
                1.0,
                0.12875091689517004,
                1.0,
                0.4928730131012953,
                0.7861056903471046,
                0.4938196304692393,
                0.9999999999999999,
                0.2669857930040863,
                0.44000085862904637,
                1.0,
                0.6797391508897455,
                1.0000000000000002,
                1.0000000000000002,
                1.0,
                0.9999999999999999,
                1.0,
                0.11390800179550921,
                0.9999999999999999,
                1.0,
                0.9999999999999999,
                0.09843661207097243,
                0.5113352070835765,
                0.539065545686546,
                1.0,
                1.0,
                0.7820857355418378,
                0.9999999999999999,
                1.0,
                1.0000000000000002,
                0.5834457553499395,
                1.0,
                1.0,
                0.12033935641828647,
                0.676578975734302,
                1.0,
                0.10986988397932185,
                0.2897074674390905,
                0.7330293863461375,
                0.039830512411291874,
                0.7975483145718243,
                0.20270395490384496,
                1.0,
                1.0,
                1.0,
                0.28698969614185044,
                0.47867510842062144,
                0.6555838276932472,
                0.9999999999999998,
                0.2627866625942523,
                1.0000000000000002,
                1.0,
                0.9999999999999999,
                0.9999999999999999,
                0.9999999999999999,
                1.0000000000000002,
                0.9999999999999999,
                0.11986600735470632,
                0.006205118642592877,
                0.9999999999999998,
                1.0,
                0.4738771876696366,
                1.0,
                1.0,
                0.6061583341020252,
                1.0,
                0.9999999999999999,
                0.9999999999999998,
                1.0000000000000002,
                0.6218908520899262,
                0.9999999999999999,
                1.0000000000000002
            ],
            "photocathode": [
                6949,
                5291,
                6938,
                2408,
                3633,
                2448,
                7155,
                7100,
                2803,
                7092,
                116,
                5294,
                5290,
                78,
                7177,
                7098,
                1756,
                4657,
                6914,
                7279,
                1695,
                5042,
                7176,
                6900,
                7346,
                447,
                6929,
                3515,
                3751,
                7004,
                6868,
                7104,
                5471,
                5195,
                7011,
                7100,
                7075,
                4422,
                4566,
                6886,
                7282,
                1717,
                7081,
                3876,
                2858,
                7139,
                7078,
                7032,
                3447,
                6912,
                5545,
                756,
                4618,
                3746,
                737,
                6855,
                6642,
                5294,
                6964,
                5180,
                6875,
                7056,
                6914,
                7216,
                7086,
                4606,
                4837,
                3746,
                4495,
                582,
                6922,
                6901,
                4907,
                1007,
                7083,
                2377,
                5462,
                6896,
                7030,
                5090,
                7052,
                7046,
                317,
                6896,
                1177,
                4359,
                3233,
                7068,
                6841,
                6989,
                7021,
                2486,
                6954,
                7227,
                7062,
                6942,
                1906,
                255,
                4294,
                1102,
                2999,
                2434,
                2025,
                1663,
                701,
                5098,
                2553,
                3234,
                1679,
                7043,
                3381,
                6918,
                6969,
                5407,
                5424,
                7020,
                2956,
                4622,
                2986,
                6877,
                7000,
                1313,
                6970,
                3424,
                2167,
                4302,
                7092,
                6866,
                6982,
                6956,
                7320,
                7118,
                5996,
                1291,
                2822,
                7103,
                7094,
                3398,
                4727,
                7079,
                2315,
                1114,
                4727,
                6916,
                5361,
                6999,
                2475,
                7007,
                6933,
                4336,
                5469,
                2843,
                7238,
                4849,
                7089,
                1831,
                5727,
                6958,
                7061,
                3792,
                1398,
                924,
                7079,
                7049,
                3261,
                4772,
                341,
                739,
                6919,
                6851,
                6966,
                7131,
                3381,
                7092,
                803,
                4110,
                6971,
                5560,
                7030,
                5041,
                5490,
                1944,
                7212,
                5089,
                7018,
                7282,
                4636,
                2769,
                1339,
                4529,
                6954,
                7050,
                1786,
                5760,
                1814,
                2926,
                6911,
                3666,
                3515,
                6858,
                5462,
                835,
                5511,
                5401,
                6823,
                7048,
                3888,
                4187,
                6830,
                4861,
                830,
                5231,
                2842,
                6759,
                3633,
                7120,
                7025,
                7023,
                3269,
                6934,
                6877,
                6917,
                6946,
                1172,
                3539,
                3265,
                5565,
                7164,
                7047,
                7217,
                897,
                7168,
                3390,
                5551,
                3292,
                7041,
                1780,
                3133,
                7007,
                4718,
                7068,
                7405,
                6917,
                7119,
                7085,
                805,
                6855,
                7127,
                7013,
                733,
                3571,
                3817,
                7042,
                6989,
                5461,
                7193,
                7088,
                7502,
                4261,
                7360,
                7016,
                902,
                4887,
                6926,
                803,
                2043,
                5055,
                268,
                5646,
                1384,
                6869,
                6847,
                7094,
                2076,
                3284,
                4710,
                6973,
                1849,
                7279,
                7029,
                7006,
                6909,
                6994,
                7011,
                7098,
                846,
                44,
                7049,
                7035,
                3297,
                6966,
                7018,
                4250,
                6903,
                7209,
                7197,
                7096,
                4406,
                7156,
                7218
            ]
        },
        "detections": 300,
        "events": 387
    }
}