{
    "job_args": {
        "metric_limit": 500,
        "seed": 2758013527
    },
    "job_id": "batch_13_do_500",
    "result": {
        "collections": {
            "crystal": [
                0.5629381726305979,
                1.460822329157775,
                0.5109989099999999,
                0.14551736104624993,
                0.9041407240689234,
                1.168540987231011,
                1.1325276854556654,
                0.5070057928250238,
                0.630525091136001,
                1.460822329157775,
                1.1906992502188194,
                1.2588041628954727,
                0.14179034528105797,
                1.460822329157775,
                0.721417461641483,
                1.1362562504415659,
                0.7970731874926008,
                1.4608223291577749,
                1.4608223291577747,
                0.5912020206188671,
                0.6156455440776976,
                0.13523802991107503,
                0.6431042797473432,
                0.5618772147401528,
                1.2344783129891275,
                1.4608223291577747,
                1.460822329157775,
                0.29377042037440315,
                0.2916354729998003,
                0.4272432173785491,
                1.4608223291577749,
                0.10271628683441664,
                1.460822329157775,
                0.12498396309759241,
                1.1580150926779147,
                0.9926647352671366,
                0.9077780704741422,
                0.1397020641287574,
                1.0873131314931164,
                1.460822329157775,
                0.10508867818810802,
                1.4608223291577753,
                1.4608223291577749,
                1.1919249724823884,
                0.5699940653204123,
                0.46086311002614994,
                1.180108866162883,
                1.4608223291577749,
                0.9705539864112112,
                0.8606107046131616,
                1.4608223291577749,
                0.9791554555820823,
                0.7410842262491915,
                0.08394568155567295,
                0.9412161783036476,
                0.708251811044795,
                1.460822329157775,
                0.9930988136300806,
                0.8360751022849434,
                1.460822329157775,
                0.12461094135673034,
                1.2174350557635436,
                0.9316952287954441,
                1.273234937929316,
                0.6821896127975544,
                1.1192226896026272,
                0.28223020037654395,
                0.2315866575093214,
                1.460822329157775,
                1.460822329157775,
                1.1587253658782326,
                0.4276580265156586,
                0.023329381431666074,
                1.4608223291577749,
                1.073199457998409,
                0.3685981719538404,
                1.4608223291577753,
                0.4244600818414287,
                0.7888322645940294,
                1.023450001633307,
                0.0231698568550589,
                0.9093576192693,
                1.349971455112389,
                0.4922372876527249,
                0.6864933387384649,
                1.460822329157775,
                1.460822329157775,
                1.065082564815171,
                0.26363803260191304,
                1.4608223291577753,
                1.233969188976472,
                0.51099891,
                0.19946357537039783,
                0.271463437975234,
                0.22163718013033828,
                0.9524511013232446,
                0.5584966486522809,
                0.7355558850605823,
                0.16159613640582976,
                0.02303483523905303,
                0.04736838823155731,
                1.460822329157775,
                0.04642382190207539,
                0.5128148492652093,
                1.1865969051020797,
                0.742287086081839,
                0.38178163207765325,
                0.11225487017630627,
                0.5297474216955209,
                0.6926690433520601,
                1.460822329157775,
                1.460822329157775,
                0.22424381395810986,
                0.51099891,
                0.7078022266516244,
                0.7097184722008465,
                1.460822329157775,
                0.8700503203830173,
                0.43031508583726436,
                0.5175930321127225,
                1.460822329157775,
                0.5066760401561919,
                1.1347375296813715,
                0.33883339234373966,
                1.108007544372557,
                1.0370426203400556,
                0.17765352248422994,
                0.22937459474250718,
                0.4550710870492346,
                0.7812916295325474,
                0.8112808256925823,
                1.4608223291577749,
                1.460822329157775,
                0.30447724867788056,
                0.904574338377502,
                0.3338260012133306,
                0.6076116378218571,
                1.4280929919097651,
                0.8711216474065162,
                1.460822329157775,
                0.5217385999556527,
                0.19696931247682656,
                0.7553113140107769,
                1.1088952603816484,
                0.3741387438598079,
                1.1184594564150867,
                0.49598126429828904,
                0.7807355928279471,
                1.2380149724153808,
                0.837232929449369,
                0.5567733614036275,
                1.460822329157775,
                1.460822329157775,
                1.177603051100026,
                0.790772319835457,
                0.8972794638411571,
                0.1648790188439344,
                0.9329806695418202,
                0.4506692170874754,
                0.16930650493970445,
                0.2180799886090805,
                0.07181608829231134,
                1.4608223291577747,
                1.1448588554321282,
                0.9613249495464995,
                1.4608223291577753,
                0.12833594835388706,
                1.2168054763278287,
                1.035731850633078,
                1.3862922550415506,
                0.9295276808415042,
                0.0852354,
                0.7616956148247102,
                0.6992128322263171,
                0.8362768391626662,
                1.4608223291577753,
                1.4608223291577749,
                0.14712433083445586,
                0.073039,
                1.0402837279213948,
                1.460822329157775,
                1.4608223291577747,
                0.6786513512588865,
                0.13591771113245876,
                1.0256025395697719,
                0.06656391027295239,
                1.112002493278822,
                0.5333221693402678,
                1.014441147669939,
                0.8317056802430149,
                0.7955876945287098,
                1.4608223291577749,
                0.8733007135975384,
                0.3700950936254042,
                1.1780159713897436,
                0.037804900674573316,
                0.9637413196479234,
                1.1494869746698726,
                0.4483318575791515,
                0.3987288288895502,
                0.49669295554579834,
                0.3733278517166573,
                0.16697864454422562,
                0.4464381948906297,
                0.3857502198802745,
                1.4608223291577753,
                0.3600622537894691,
                1.460822329157775,
                0.5357403649354947,
                1.4608223291577753,
                0.08884734691482099,
                0.390909527761796,
                0.6991936399621521,
                1.060752286970017,
                0.7271027938861007,
                0.6613824694714848,
                0.4404029823750116,
                1.2174640036568376,
                1.2399459649578022,
                0.19991159519784077,
                0.565691964134065,
                1.1895383991435378,
                1.460822329157775,
                0.8278138959058542,
                1.4608223291577749,
                0.6207764486359528,
                0.5627700482626538,
                0.10813265851916799,
                0.044294862759456155,
                1.4608223291577753,
                1.0123622523590055,
                0.8538028838365103,
                0.5958846366231161,
                1.460822329157775,
                0.34862340430457656,
                0.2458198891956922,
                1.1814366979067878,
                1.460822329157775,
                1.4608223291577753,
                1.460822329157775,
                1.460822329157775,
                1.460822329157775,
                0.40245273906156137,
                0.9048056465320699,
                0.4280141154324635,
                0.4754111193274018,
                0.51099891,
                1.4608223291577749,
                0.5109989099999999,
                0.6196952177102464,
                1.460822329157775,
                0.12586432896260663,
                0.40710702494529016,
                1.460822329157775,
                1.193417326049168,
                0.00606354342052251,
                0.3236678364858798,
                0.30825967516034414,
                0.05917574217854686,
                0.4805092736783466,
                0.9146898902608246,
                0.11518542021526268,
                0.24281421672020453,
                0.11164932222400614,
                0.49233279979498856,
                0.6771445660602118,
                0.4836142411864782,
                0.6309876038140944,
                0.4164301037212695,
                1.4608223291577749,
                0.5919159780359078,
                0.3903839504528897,
                0.26119697517180984,
                0.7876203926038747,
                0.5548276418174214,
                0.3792756829594139,
                0.3132075749298712,
                0.5209138803306829,
                1.460822329157775,
                0.8102331152077704,
                1.460822329157775,
                1.460822329157775,
                1.0401484394172653,
                1.273556482122908,
                1.460822329157775,
                0.49538412504068907,
                0.7019107321795413,
                1.2196755309172305,
                0.25980333986937026,
                1.460822329157775,
                1.4608223291577749,
                0.8922990715675612,
                0.31751549166676846,
                0.38853827126685037,
                0.2081516211675678,
                0.8183349737913643,
                1.460822329157775,
                0.24271462812251765,
                1.460822329157775,
                0.8356625233935779,
                1.22232747047224,
                0.49348213891388404,
                0.28375070430853905,
                1.1802475402831951,
                0.04394040513696651,
                0.3200997858576423,
                0.5635327956328879,
                1.460822329157775,
                1.460822329157775,
                0.6366720931125377,
                1.460822329157775,
                1.460822329157775,
                1.460822329157775,
                0.349311653290194,
                0.9188368461026091,
                1.3386355377433754,
                0.3388257254826694,
                1.460822329157775,
                0.735337209204674,
                0.06229065785697396,
                0.27536280302738897,
                0.2138583857221964,
                0.13021227300928628,
                1.460822329157775,
                0.7344381048204478,
                0.40064247469806874,
                1.4608223291577749,
                0.8404990292514827,
                0.5966296105224809,
                0.4808161723647668,
                1.242389069502673,
                0.06169282924917863,
                1.186334761945329,
                0.5242179104755211,
                1.460822329157775,
                0.16243712214954364,
                1.0502342925853505,
                1.1940075707592208,
                0.705329939832237,
                0.008730016136298757,
                0.4717750192998928,
                1.1383712032640487,
                0.8467084619572445,
                0.25494530267845233,
                0.5850138314210529,
                1.460822329157775,
                0.4160803498263871,
                0.30227741555423604,
                1.4608223291577749,
                0.2930850880530413,
                1.1356747300494172,
                0.2458298749402008,
                0.27926497941390993,
                0.6093664532923578,
                0.3673316924636864,
                0.8463199249972639,
                0.12143787243819415,
                0.6620349352910939,
                0.9273399415236672,
                0.9116203578326857,
                1.0221247563976088,
                0.1978224491464099,
                0.36582625908864624,
                0.3401577973240466,
                0.4884720693075745,
                1.460822329157775,
                0.5861902298636036,
                0.4070723299513732,
                1.1459067707752262,
                0.3637873067109755,
                0.9273858667563571,
                0.5525863084057275,
                1.234549392227335,
                0.08523539999999999,
                0.2647088399407029,
                1.1969609482606114,
                0.02693509060839567,
                1.460822329157775,
                1.187297240099524,
                0.34637965059087583,
                0.14313105617225608,
                0.5676121157576449,
                0.8585195444053436,
                0.20770590412205392,
                0.11379005129821422,
                0.2659302028694576,
                0.9433790282481385,
                0.899576985034708,
                1.4608223291577753,
                1.4608223291577753,
                1.3909487171980328,
                1.1888385041737686,
                1.4608223291577749,
                0.6600151393559499,
                1.0088883253171381,
                0.3844665555624322,
                1.460822329157775,
                1.460822329157775,
                0.5949181006264325,
                0.47946813622414763,
                1.460822329157775,
                0.8509316343343487,
                0.2591146148971528,
                1.2103651796839425,
                0.7706541357004891,
                0.1962485133614316,
                0.38333923824385874,
                1.4608223291577749,
                1.460822329157775,
                1.4608223291577753,
                0.6746197947026018,
                0.5407159098966149,
                0.8404979355295628,
                0.6678262316387764,
                0.14249504740032748,
                0.2576422016469325,
                1.4608223291577753,
                0.8188688544960918,
                0.9525996541450185,
                0.1396817063250828,
                1.4608223291577753,
                0.3278547699554425,
                0.7735290440403064,
                1.2010749927170257,
                1.460822329157775,
                1.460822329157775,
                1.4608223291577753,
                1.4608223291577753,
                0.5709986334534378,
                0.8892745497912757,
                0.19428935161398292,
                0.04266322598679806,
                0.2326583716461601,
                1.207532210912182,
                0.5506708613106712,
                0.6842950460290256,
                0.7044013481962579,
                0.8296433417802056,
                1.119458124633426,
                0.6378653494497628,
                0.7190101219887044,
                0.08962520996638434,
                0.06698392795745778,
                0.9964308708427158,
                0.24998115278392452,
                0.7349569858003916,
                1.4608223291577753,
                0.6395919378334808,
                1.1680637383115402,
                0.4888379557246123,
                0.8373730896399012,
                0.25389123202606917,
                0.5566684224226277,
                1.4608223291577753,
                1.460822329157775,
                0.14830522665091267,
                1.460822329157775,
                1.4414516259821748,
                1.4608223291577749,
                0.7450765415525478,
                1.4608223291577753,
                0.51099891,
                1.1412951999649104,
                0.42033889275759256,
                0.46205383922465726,
                0.48747845544976787,
                0.030924240886351373,
                1.460822329157775,
                0.8782368217595913,
                0.951013481615118,
                1.4608223291577753,
                0.8090578399473937,
                0.3266529160195645,
                1.460822329157775,
                0.24158653239757333,
                0.4203314459763725,
                0.49733042154653406,
                1.4608223291577755,
                1.2326463665569385,
                0.5972571330755853,
                0.4290808133035746,
                0.7123008844792167,
                0.8689916516863005,
                0.9478859563999342,
                0.3198181357368046,
                0.851122602477333,
                0.8037246401042804,
                0.4481212425201818,
                0.015344130824983426,
                0.7500828993753965,
                1.3384251587098357,
                1.460822329157775,
                1.460822329157775,
                0.2677828733188622,
                0.5930120340037531,
                1.460822329157775,
                1.4608223291577749,
                1.460822329157775,
                0.376853224011284,
                0.6540048429424918
            ],
            "photocathode": [
                518,
                1345,
                515,
                135,
                874,
                1034,
                1024,
                407,
                609,
                1455,
                1089,
                1197,
                167,
                1403,
                677,
                1115,
                755,
                1299,
                1351,
                530,
                563,
                142,
                582,
                518,
                1109,
                1424,
                1348,
                255,
                235,
                377,
                1393,
                94,
                1300,
                119,
                1128,
                893,
                785,
                121,
                1032,
                1371,
                116,
                1370,
                1285,
                1163,
                517,
                457,
                1130,
                1372,
                895,
                798,
                1315,
                901,
                721,
                73,
                885,
                647,
                1371,
                851,
                794,
                1391,
                112,
                1175,
                813,
                1194,
                601,
                967,
                281,
                202,
                1334,
                1407,
                1037,
                369,
                21,
                1333,
                991,
                333,
                1330,
                364,
                707,
                956,
                17,
                810,
                1219,
                442,
                631,
                1332,
                1335,
                987,
                249,
                1334,
                1095,
                467,
                198,
                257,
                193,
                904,
                528,
                650,
                151,
                23,
                46,
                1357,
                43,
                456,
                1119,
                680,
                324,
                100,
                480,
                646,
                1369,
                1335,
                200,
                472,
                667,
                663,
                1371,
                842,
                387,
                454,
                1408,
                464,
                1092,
                301,
                999,
                915,
                157,
                223,
                449,
                684,
                738,
                1321,
                1407,
                307,
                840,
                296,
                572,
                1366,
                731,
                1363,
                473,
                185,
                642,
                1043,
                374,
                1035,
                448,
                712,
                1142,
                755,
                486,
                1370,
                1320,
                1085,
                775,
                774,
                143,
                896,
                413,
                170,
                190,
                59,
                1365,
                1096,
                928,
                1363,
                110,
                1131,
                963,
                1286,
                882,
                72,
                690,
                642,
                732,
                1279,
                1297,
                145,
                60,
                999,
                1390,
                1353,
                604,
                132,
                958,
                66,
                1019,
                496,
                989,
                842,
                737,
                1325,
                837,
                351,
                1158,
                38,
                851,
                1129,
                426,
                392,
                457,
                333,
                164,
                433,
                354,
                1381,
                355,
                1347,
                477,
                1347,
                93,
                382,
                646,
                970,
                665,
                630,
                413,
                1100,
                1177,
                188,
                509,
                1160,
                1367,
                733,
                1367,
                550,
                530,
                95,
                43,
                1416,
                897,
                810,
                549,
                1337,
                336,
                213,
                1138,
                1348,
                1378,
                1336,
                1371,
                1322,
                348,
                850,
                416,
                433,
                509,
                1357,
                436,
                567,
                1290,
                108,
                383,
                1314,
                1187,
                8,
                272,
                270,
                56,
                466,
                870,
                107,
                220,
                117,
                439,
                642,
                484,
                564,
                400,
                1328,
                605,
                381,
                239,
                776,
                553,
                362,
                271,
                493,
                1321,
                741,
                1366,
                1350,
                1015,
                1152,
                1353,
                462,
                672,
                1119,
                229,
                1302,
                1330,
                788,
                295,
                350,
                211,
                735,
                1395,
                227,
                1304,
                731,
                1110,
                474,
                241,
                1078,
                38,
                335,
                530,
                1347,
                1375,
                607,
                1343,
                1368,
                1350,
                372,
                853,
                1242,
                284,
                1277,
                727,
                64,
                269,
                184,
                112,
                1366,
                703,
                349,
                1299,
                792,
                523,
                430,
                1148,
                60,
                1197,
                494,
                1301,
                165,
                977,
                1094,
                632,
                3,
                462,
                1019,
                827,
                221,
                527,
                1318,
                380,
                262,
                1352,
                267,
                1031,
                201,
                258,
                568,
                348,
                781,
                119,
                571,
                842,
                836,
                962,
                165,
                355,
                325,
                449,
                1314,
                505,
                362,
                1081,
                375,
                924,
                471,
                1117,
                97,
                220,
                1083,
                33,
                1414,
                1033,
                331,
                122,
                532,
                814,
                192,
                107,
                239,
                906,
                853,
                1400,
                1277,
                1234,
                1085,
                1355,
                598,
                905,
                351,
                1334,
                1357,
                570,
                405,
                1368,
                779,
                228,
                1119,
                712,
                193,
                375,
                1347,
                1360,
                1380,
                665,
                565,
                757,
                629,
                126,
                256,
                1319,
                760,
                847,
                147,
                1288,
                307,
                711,
                1142,
                1375,
                1380,
                1308,
                1366,
                538,
                850,
                170,
                35,
                280,
                1157,
                494,
                639,
                684,
                786,
                1025,
                567,
                684,
                103,
                60,
                917,
                233,
                711,
                1389,
                575,
                1102,
                442,
                734,
                230,
                481,
                1402,
                1335,
                140,
                1387,
                1329,
                1354,
                714,
                1380,
                490,
                1038,
                410,
                434,
                477,
                29,
                1345,
                827,
                930,
                1402,
                760,
                307,
                1313,
                212,
                360,
                455,
                1336,
                1125,
                554,
                403,
                657,
                802,
                817,
                309,
                788,
                763,
                358,
                11,
                702,
                1265,
                1356,
                1295,
                252,
                507,
                1302,
                1331,
                1298,
                329,
                654
            ]
        },
        "detections": 500,
        "events": 1427661
    }
}