{
    "job_args": {
        "metric_limit": 500,
        "seed": 3482319956
    },
    "job_id": "batch_20_do_500",
    "result": {
        "collections": {
            "crystal": [
                0.9433297461551478,
                0.26869723140166846,
                0.3334880274865226,
                0.22910106419118392,
                0.31004997291198355,
                0.6950660380854643,
                0.6537703016226177,
                0.08117536069754006,
                1.4608223291577747,
                1.2536654193414298,
                0.7960201202947,
                1.460822329157775,
                0.25554296587440184,
                1.4608223291577753,
                0.5637321236467506,
                0.31619297145408126,
                0.12144271829471742,
                0.04495172482666154,
                0.7060525150949155,
                0.46336808824517156,
                0.12416010586196126,
                1.1750957810142562,
                0.0655658874346553,
                0.7811568691659577,
                0.536583770345465,
                0.9081986455127525,
                0.24009468373220877,
                0.6690438538985808,
                1.2829404166140859,
                0.1237804570922133,
                1.4608223291577753,
                0.47147295653559573,
                1.0821265237315147,
                0.9678314292390219,
                0.8674422918778983,
                0.6384612169629695,
                0.3246913962097542,
                0.005781319649385663,
                1.460822329157775,
                1.199355970677405,
                0.0852354,
                0.3690685196760227,
                0.267203313865993,
                1.4608223291577753,
                1.0044598321339815,
                0.32027787271942565,
                1.460822329157775,
                0.06894930980218139,
                1.460822329157775,
                0.5186800743054584,
                0.3872812519368147,
                1.460822329157775,
                0.9221829783187222,
                1.4608223291577747,
                0.10736247788189913,
                0.7433060834422603,
                0.2009280605547473,
                1.460822329157775,
                1.4608223291577753,
                1.0659310203414314,
                0.8388397936882135,
                0.9565843211042175,
                0.01746487607210906,
                1.4608223291577753,
                1.4608223291577747,
                0.5159633260284879,
                0.8603894552528035,
                1.460822329157775,
                1.1474247812869858,
                1.4608223291577753,
                0.9687381151517606,
                0.29886682172373924,
                0.7851639661273958,
                0.5156944850876979,
                0.9423520437417033,
                0.6032006017164114,
                0.8531774809022464,
                0.7241135808217293,
                1.0237255090868544,
                1.4608223291577747,
                1.460822329157775,
                0.32060960235050545,
                1.460822329157775,
                1.4608223291577749,
                0.9161962699885411,
                0.11559728010575543,
                0.27852716179958936,
                1.4608223291577749,
                0.6004347671165838,
                1.4608223291577749,
                0.5593421600146314,
                0.8383746332194644,
                0.7277532579930955,
                0.08107134991108883,
                1.327836786410313,
                0.37910549392577775,
                0.51099891,
                0.9192177374477167,
                0.8709949003007484,
                0.7927604565955173,
                0.9904641808020411,
                0.35997599030489025,
                0.9829268304235184,
                0.410281769049158,
                0.16376312825228892,
                0.07165672153888672,
                1.4608223291577753,
                1.4608223291577753,
                1.0957515553757395,
                0.9031746573614503,
                1.4608223291577755,
                0.6228958731706429,
                0.5419217760310808,
                0.1573025747493815,
                0.40960562279007817,
                1.4608223291577749,
                0.6784581848100277,
                0.36057708537700617,
                0.5261041478156403,
                0.47281592384637083,
                0.9465344604386456,
                0.6543064224327099,
                1.460822329157775,
                0.28939507717599156,
                1.0437712175447436,
                0.2675400415416143,
                1.057268355195373,
                1.4608223291577747,
                0.7708183168243611,
                1.460822329157775,
                0.513054035434865,
                0.5710817014025239,
                0.13220343574655855,
                0.7946511773354228,
                0.044429500000000004,
                0.19126351355673527,
                0.3806673625863852,
                0.2657220848435002,
                0.2084045311610234,
                0.2792969413782524,
                0.5468532550287794,
                1.460822329157775,
                0.6163532180008455,
                0.309440054889527,
                0.12024762944078993,
                0.7726923114005397,
                0.09582960013144382,
                0.9702800838201332,
                0.8727576400665479,
                0.6304642721076049,
                0.6786892022291179,
                0.5144963478852683,
                1.4608223291577749,
                0.9212717951695716,
                0.9863160099848437,
                1.2364250218416994,
                0.5657949809606231,
                1.4608223291577753,
                0.18550784836368645,
                1.460822329157775,
                1.1927064480592426,
                0.5288715139886342,
                0.2941239936878049,
                1.460822329157775,
                0.9579365156899674,
                1.460822329157775,
                1.2564750730120002,
                0.7127943126267041,
                1.2739405072629797,
                1.460822329157775,
                0.07525,
                1.2728613762726149,
                1.4608223291577749,
                0.7055158049650125,
                0.51099891,
                1.1968250176458575,
                0.6837079044651683,
                0.21280784683327691,
                1.460822329157775,
                0.45254482645415695,
                0.04559268339866013,
                0.3961040039580215,
                0.5884952031161429,
                1.4608223291577753,
                0.18795984352299322,
                1.121561581572173,
                0.10764298497712499,
                0.07809910338200121,
                0.12177395298295826,
                0.18463332836747015,
                1.1228565905526566,
                0.8625586998317449,
                0.41997454176051396,
                1.0034975499674863,
                0.7731394090860233,
                0.7596637942654081,
                0.5580353846630244,
                1.460822329157775,
                1.3070014030850607,
                0.5102915029921394,
                1.2368465157239337,
                0.17435216074722765,
                1.2194110748715405,
                0.6799126383317836,
                1.008854401700674,
                1.460822329157775,
                1.460822329157775,
                0.19254424254307687,
                0.1158119673565805,
                1.460822329157775,
                0.18825923353693758,
                0.7042430549849028,
                1.4608223291577753,
                1.460822329157775,
                1.460822329157775,
                0.9598057817074515,
                0.5708362861905892,
                0.021077595523279036,
                0.4165720783996892,
                1.460822329157775,
                0.07143757350174601,
                0.7381579700065425,
                0.7480243080565426,
                0.9979252021370454,
                1.2103351459833878,
                0.6388387141478911,
                0.2647871653588965,
                1.460822329157775,
                0.46714668656034686,
                0.05642640801036569,
                1.4608223291577749,
                0.22564503280391549,
                1.460822329157775,
                0.8906289703025314,
                0.7327012773265742,
                1.2282972463989132,
                0.13445868029773733,
                0.7888785768794004,
                1.460822329157775,
                1.0930520592069444,
                1.1748009081318667,
                0.22005694597520586,
                1.460822329157775,
                0.2582441961931204,
                0.020712215472265955,
                0.0732505396069183,
                1.460822329157775,
                1.4608223291577749,
                1.134807831962878,
                0.9077132227268688,
                0.7268385732930881,
                1.2094720798489886,
                1.460822329157775,
                0.5108621603007157,
                0.18463403329336386,
                0.13457877905398286,
                1.460822329157775,
                0.7546561508319913,
                0.07722773405435934,
                0.9428209792321605,
                1.4608223291577749,
                0.9218262569852093,
                0.5085837691085277,
                1.2275229100995497,
                1.460822329157775,
                0.5510642202794611,
                0.6362340509560525,
                0.636555450442802,
                0.6564332829615941,
                1.2231887361357547,
                0.38768426685274876,
                0.09147564234785643,
                0.07489845305767351,
                1.065870013519031,
                0.5635857432129454,
                0.5847099795986311,
                0.1957108534392287,
                1.460822329157775,
                1.0472463657839761,
                0.09573060611679277,
                1.460822329157775,
                0.28176011673811185,
                0.050402724403427746,
                0.4060060690242112,
                0.42328087179464813,
                0.361649357618435,
                1.1817229028205207,
                1.2104471171169207,
                1.046628868546707,
                0.5474544086698265,
                0.8305046576336264,
                0.6646615904980839,
                0.07862526438993911,
                0.686442432799748,
                1.0262337669901473,
                1.2517678564841126,
                1.0660756510096472,
                0.663490543352669,
                1.0511138459024756,
                0.09898734820947186,
                1.1991437287056699,
                0.51099891,
                1.1813470356031788,
                1.460822329157775,
                0.949823419157775,
                0.18451294292635434,
                1.4608223291577755,
                0.7987449706161031,
                1.1910662761261115,
                0.8727318017805435,
                0.41603368136474617,
                1.2204872556931308,
                0.04976198210583627,
                0.2404214823381345,
                0.8086765392994826,
                1.1534554040630356,
                0.6840794242560728,
                1.460822329157775,
                1.4608223291577753,
                0.36517377575218707,
                1.460822329157775,
                1.1661737213257017,
                0.32601428337600846,
                0.6823287889458267,
                0.2683398824961012,
                0.4959810591415067,
                0.6222073111114581,
                1.1400048806310292,
                0.9630585597274073,
                0.6506297294117646,
                0.39302965051807087,
                1.4608223291577749,
                0.5966919163405011,
                0.2583932800174463,
                0.19131881869282932,
                1.233790871784111,
                1.460822329157775,
                0.3769745313975043,
                0.9921893725357944,
                1.460822329157775,
                0.07303899999999999,
                0.7387027789029741,
                0.9320423860240992,
                0.014737441570095378,
                1.1755831507763217,
                1.0862907004250963,
                0.2549361667488797,
                0.8680597631654055,
                0.13564946711998238,
                0.7479246252650749,
                0.30832096105935713,
                1.3667323659629969,
                1.460822329157775,
                1.2079715853097461,
                0.5725769147857548,
                1.460822329157775,
                0.5206361578088394,
                0.7401085544435538,
                1.1514887830513378,
                1.4608223291577753,
                0.6707936685427288,
                1.1818666039350765,
                1.1611635078575295,
                1.4608223291577749,
                1.4608223291577753,
                0.1308152437451449,
                1.1822317126020716,
                0.6202490407932886,
                1.177883799424865,
                1.1929615474069581,
                0.0934375196390741,
                0.04498844175732786,
                0.039008158679086524,
                0.2509023415399301,
                0.6738881908868339,
                0.7238718230704959,
                0.34965495023386395,
                0.881769532188415,
                1.460822329157775,
                1.460822329157775,
                0.6898647265118033,
                1.4608223291577749,
                0.7969663429764342,
                1.4608223291577753,
                0.12778368782450333,
                0.49248709245661054,
                1.460822329157775,
                1.4608223291577749,
                1.460822329157775,
                1.4608223291577749,
                0.4014914416495532,
                0.8139785830970174,
                0.9926351264337929,
                0.456994717276745,
                0.3421188259007658,
                1.460822329157775,
                0.478352575409976,
                0.3583506813170653,
                0.06088663015187192,
                0.25543838013192793,
                0.4560220303145818,
                0.046943499999999985,
                0.30692394559252223,
                0.9419692896424086,
                1.460822329157775,
                0.5635530413111443,
                0.5241093278036577,
                0.05379617029600958,
                1.0861515064991365,
                1.1857356085528048,
                0.060226560182701894,
                0.2817476411568325,
                0.8309137968032402,
                1.2694020877241592,
                1.4608223291577753,
                0.11486982481364484,
                1.4608223291577753,
                0.4219241201274429,
                0.10732908925668519,
                1.460822329157775,
                0.34768098327455865,
                0.9498234191577752,
                0.20304733769709782,
                0.51099891,
                1.4608223291577749,
                0.30531313822879214,
                0.9021699728620034,
                0.5356412598007562,
                1.4608223291577749,
                1.460822329157775,
                0.10774188922384265,
                0.2920959608752843,
                0.8522779975485758,
                1.460822329157775,
                0.8018284877433619,
                0.5510201102187728,
                0.6921236234827897,
                1.460822329157775,
                1.0334113434116894,
                0.5885972188698807,
                0.05669186250008601,
                1.460822329157775,
                1.007586206762901,
                0.2019116105045592,
                0.851054119829904,
                0.06282673199943445,
                1.4608223291577749,
                1.2236236805693368,
                1.460822329157775,
                1.2190907706716412,
                0.34081575454877394,
                1.25688113012891,
                0.11851084684796764,
                0.5304854124450569,
                0.40813500401753444,
                1.1441396655392533,
                1.460822329157775,
                1.460822329157775,
                0.3751039429494693,
                1.185511986806723,
                0.12697945767002627,
                0.8648638994066579,
                1.460822329157775,
                0.5795455605408293,
                0.5447946423761822,
                1.2039260200863675,
                1.4608223291577749,
                0.7055054412094344,
                0.008949570171778332,
                0.40996824319942604,
                0.6052667750957221,
                0.3925506922509958,
                0.8698154157365853,
                1.460822329157775,
                1.444552089415381,
                1.0461391278163374,
                1.460822329157775,
                0.505852299879523,
                0.5591925769097013,
                0.20386405636623017,
                0.6488063873645696,
                0.7798447987518712,
                0.8383454790921046,
                0.0015697635177869262,
                1.4608223291577753,
                0.30173964720036606,
                1.0694373578542697,
                0.9583517163961031,
                1.1022957731141423,
                1.022923737748131,
                0.4337203952680251,
                0.5565334794092102,
                1.4608223291577749,
                1.460822329157775,
                1.1264447128267834,
                1.0310835478051201,
                1.460822329157775,
                1.1717737236184058,
                0.49196740405973605,
                0.2202957367034951
            ],
            "photocathode": [
                858,
                234,
                335,
                206,
                265,
                722,
                613,
                82,
                1373,
                1164,
                724,
                1382,
                222,
                1464,
                492,
                305,
                83,
                48,
                675,
                403,
                109,
                1119,
                71,
                743,
                466,
                831,
                213,
                638,
                1223,
                139,
                1402,
                439,
                949,
                903,
                773,
                581,
                278,
                2,
                1345,
                1107,
                71,
                358,
                253,
                1320,
                961,
                335,
                1426,
                46,
                1410,
                493,
                381,
                1319,
                872,
                1355,
                108,
                664,
                216,
                1310,
                1384,
                935,
                779,
                883,
                17,
                1374,
                1360,
                475,
                830,
                1309,
                1068,
                1407,
                917,
                274,
                697,
                460,
                876,
                537,
                761,
                682,
                886,
                1358,
                1341,
                300,
                1370,
                1341,
                810,
                107,
                250,
                1373,
                546,
                1340,
                527,
                770,
                647,
                67,
                1208,
                328,
                460,
                917,
                781,
                667,
                942,
                316,
                875,
                402,
                148,
                59,
                1379,
                1422,
                985,
                817,
                1350,
                596,
                476,
                124,
                388,
                1368,
                620,
                320,
                497,
                443,
                856,
                588,
                1330,
                263,
                971,
                249,
                949,
                1337,
                682,
                1337,
                475,
                568,
                120,
                721,
                42,
                175,
                360,
                233,
                192,
                295,
                497,
                1327,
                578,
                286,
                109,
                702,
                76,
                905,
                849,
                595,
                594,
                508,
                1330,
                903,
                851,
                1130,
                554,
                1291,
                153,
                1369,
                997,
                514,
                298,
                1359,
                857,
                1296,
                1181,
                683,
                1155,
                1421,
                55,
                1215,
                1352,
                665,
                498,
                1131,
                607,
                206,
                1441,
                440,
                48,
                361,
                504,
                1365,
                155,
                1077,
                97,
                90,
                104,
                149,
                1040,
                787,
                398,
                938,
                746,
                749,
                498,
                1255,
                1229,
                500,
                1191,
                161,
                1182,
                609,
                969,
                1360,
                1320,
                193,
                107,
                1394,
                181,
                650,
                1382,
                1347,
                1398,
                867,
                522,
                19,
                364,
                1277,
                67,
                644,
                709,
                1008,
                1119,
                589,
                265,
                1376,
                431,
                40,
                1345,
                180,
                1399,
                811,
                738,
                1138,
                121,
                734,
                1437,
                933,
                1070,
                211,
                1253,
                246,
                22,
                66,
                1318,
                1368,
                1069,
                812,
                647,
                1135,
                1363,
                486,
                165,
                136,
                1419,
                726,
                80,
                881,
                1363,
                878,
                496,
                1176,
                1372,
                508,
                568,
                595,
                621,
                1004,
                383,
                84,
                55,
                999,
                474,
                518,
                194,
                1363,
                962,
                76,
                1355,
                234,
                57,
                340,
                386,
                332,
                1133,
                1098,
                980,
                495,
                749,
                580,
                90,
                633,
                924,
                1138,
                934,
                594,
                993,
                86,
                1062,
                436,
                1141,
                1430,
                884,
                169,
                1383,
                740,
                1073,
                794,
                355,
                1178,
                46,
                222,
                782,
                1082,
                605,
                1390,
                1372,
                332,
                1425,
                1075,
                296,
                641,
                219,
                446,
                543,
                1087,
                933,
                578,
                365,
                1439,
                580,
                238,
                178,
                1142,
                1314,
                337,
                869,
                1385,
                77,
                684,
                884,
                19,
                1095,
                972,
                256,
                808,
                121,
                689,
                331,
                1270,
                1384,
                1086,
                533,
                1377,
                487,
                684,
                1091,
                1346,
                639,
                1087,
                1145,
                1344,
                1369,
                146,
                1057,
                594,
                1056,
                1099,
                76,
                31,
                44,
                217,
                642,
                728,
                334,
                830,
                1365,
                1307,
                630,
                1341,
                714,
                1302,
                121,
                491,
                1341,
                1351,
                1403,
                1415,
                365,
                685,
                917,
                387,
                342,
                1391,
                457,
                315,
                51,
                232,
                412,
                48,
                270,
                854,
                1379,
                489,
                522,
                51,
                1024,
                1163,
                42,
                263,
                802,
                1228,
                1399,
                96,
                1342,
                430,
                110,
                1364,
                311,
                884,
                208,
                494,
                1377,
                304,
                793,
                505,
                1384,
                1307,
                73,
                274,
                793,
                1320,
                733,
                534,
                658,
                1410,
                970,
                514,
                44,
                1411,
                916,
                174,
                745,
                65,
                1299,
                1178,
                1362,
                1130,
                309,
                1143,
                118,
                502,
                373,
                1000,
                1368,
                1327,
                347,
                1110,
                108,
                867,
                1328,
                532,
                521,
                1081,
                1332,
                673,
                6,
                364,
                523,
                367,
                810,
                1350,
                1406,
                939,
                1369,
                497,
                492,
                159,
                611,
                758,
                789,
                1,
                1398,
                266,
                1057,
                914,
                1011,
                935,
                419,
                551,
                1408,
                1367,
                1076,
                965,
                1306,
                1109,
                434,
                220
            ]
        },
        "detections": 500,
        "events": 1341546
    }
}