{
    "job_args": {
        "metric_limit": 500,
        "seed": 1888339949
    },
    "job_id": "batch_81_do_500",
    "result": {
        "collections": {
            "crystal": [
                0.6283768064279192,
                0.47544105795832353,
                0.6616572831606166,
                0.021231947793187655,
                0.38519219736281674,
                0.404856142059928,
                0.6616572831606166,
                0.26078214929202614,
                0.6616572831606164,
                0.6616572831606166,
                0.18431871235595249,
                0.09946432262566118,
                0.6616572831606167,
                0.6616572831606167,
                0.6616572831606166,
                0.480384160572541,
                0.6616572831606166,
                0.2307725181562773,
                0.14503940617549207,
                0.3378251133506977,
                0.17330042833056528,
                0.25503218669777883,
                0.6616572831606166,
                0.527960001371977,
                0.6203771892834663,
                0.6616572831606164,
                0.6616572831606166,
                0.14581256117370942,
                0.07525,
                0.6616572831606164,
                0.6616572831606166,
                0.02356435747235075,
                0.6616572831606166,
                0.6616572831606166,
                0.4226891006177272,
                0.6616572831606164,
                0.5266716403886915,
                0.6616572831606166,
                0.45881066685653815,
                0.0878775,
                0.6616572831606166,
                0.4068310138989404,
                0.6616572831606166,
                0.2986958384827655,
                0.6616572831606164,
                0.24199082452726794,
                0.17786370479361494,
                0.6616572831606167,
                0.13763658019397662,
                0.2993574662192117,
                0.4667334235236129,
                0.40768350741454656,
                0.28303657304343344,
                0.6515165723749262,
                0.2983017633603229,
                0.2565060661510286,
                0.6616572831606166,
                0.4439702227198547,
                0.43355801614099676,
                0.4860291985753165,
                0.2589306979503131,
                0.3969619383911339,
                0.4781363066597899,
                0.11675451710236029,
                0.6616572831606167,
                0.6616572831606166,
                0.13724859427909533,
                0.6616572831606166,
                0.3886908328247638,
                0.021239562171584292,
                0.24308513940019244,
                0.6616572831606167,
                0.17008593552947748,
                0.0847407,
                0.46029095888170257,
                0.41312870286490366,
                0.6616572831606166,
                0.3250210273780717,
                0.4345201932546344,
                0.3472859813102291,
                0.07052978972217672,
                0.13326594032437578,
                0.6330477831606165,
                0.6616572831606166,
                0.6616572831606167,
                0.5282742001179965,
                0.6616572831606168,
                0.6616572831606166,
                0.6616572831606164,
                0.1557197574747936,
                0.06033085333721899,
                0.418687599267738,
                0.6616572831606166,
                0.6616572831606166,
                0.06305620476894319,
                0.3226443030673538,
                0.29657335404720464,
                0.18794419188866396,
                0.4917390716505965,
                0.6616572831606167,
                0.07525,
                0.6616572831606166,
                0.13874544246179166,
                0.6616572831606167,
                0.6616572831606166,
                0.48841938691401915,
                0.6616572831606164,
                0.316076768746988,
                0.6616572831606164,
                0.6616572831606167,
                0.6616572831606167,
                0.034342397173141394,
                0.6616572831606164,
                0.6616572831606167,
                0.4275127948033465,
                0.6616572831606164,
                0.6616572831606166,
                0.6616572831606167,
                0.6616572831606167,
                0.36908110745906575,
                0.12217661278093139,
                0.6616572831606166,
                0.6616572831606164,
                0.6616572831606164,
                0.43261979630612213,
                0.12471667321020379,
                0.6616572831606167,
                0.6616572831606164,
                0.6616572831606164,
                0.007065445766760936,
                0.6616572831606164,
                0.39963241117000253,
                0.425904127619276,
                0.4180990529399147,
                0.5725683027031065,
                0.2107751071691228,
                0.6616572831606167,
                0.574998540423785,
                0.6616572831606166,
                0.38653022063322184,
                0.23212069659738704,
                0.4552886162296333,
                0.30314218574086105,
                0.6616572831606166,
                0.38082629011738217,
                0.3607927838804622,
                0.27665620769835175,
                0.6616572831606166,
                0.6616572831606167,
                0.5932052195905756,
                0.30504639051094073,
                0.34026424765610813,
                0.6616572831606167,
                0.41884649339472135,
                0.6616572831606164,
                0.35872838034370075,
                0.6616572831606168,
                0.25511505096169035,
                0.41650587950400997,
                0.09027238314068686,
                0.07525,
                0.6616572831606167,
                0.6616572831606166,
                0.6616572831606167,
                0.6616572831606166,
                0.6616572831606166,
                0.2536423363218938,
                0.24097512755162748,
                0.11998147549060934,
                0.45748637562446137,
                0.6616572831606166,
                0.16828884473285918,
                0.6616572831606166,
                0.6616572831606167,
                0.3518512220617844,
                0.5847079196841894,
                0.41149135908777873,
                0.4820692671855024,
                0.4996240680837617,
                0.06862453848436943,
                0.6616572831606167,
                0.5106321112806512,
                0.39441693284948703,
                0.3194624337777815,
                0.2832048506971677,
                0.073039,
                0.41317036435514326,
                0.36660453193580955,
                0.09077898350611002,
                0.6616572831606167,
                0.21670471520919182,
                0.6616572831606167,
                0.6616572831606166,
                0.6616572831606166,
                0.6616572831606166,
                0.35318661609432084,
                0.058991280190397566,
                0.2356543366046771,
                0.2150529871421626,
                0.6616572831606166,
                0.6616572831606167,
                0.08573960752580556,
                0.07525,
                0.21307750089122438,
                0.6616572831606166,
                0.6616572831606164,
                0.6616572831606166,
                0.6616572831606166,
                0.05815799587798853,
                0.6616572831606166,
                0.6616572831606167,
                0.6616572831606166,
                0.42346426262234205,
                0.29586186370040035,
                0.17487956530608798,
                0.6616572831606166,
                0.3063112874483684,
                0.6616572831606164,
                0.398848493063087,
                0.22745434136260026,
                0.2695259138261945,
                0.08288773112897274,
                0.18770176154780538,
                0.6616572831606167,
                0.46766395980275777,
                0.073039,
                0.6616572831606166,
                0.6616572831606164,
                0.06618719143123464,
                0.4009237061174089,
                0.22142986834198658,
                0.05846082394218133,
                0.48808240334674535,
                0.6496567131142501,
                0.6616572831606164,
                0.1520362339597703,
                0.6616572831606166,
                0.10706482373111237,
                0.4618160025907825,
                0.0847407,
                0.1435158460720882,
                0.6616572831606167,
                0.24040752985832956,
                0.6616572831606167,
                0.4293619640103242,
                0.62412235927233,
                0.23316182595453278,
                0.21454898452891003,
                0.0876557,
                0.12764725833025103,
                0.08765569999999999,
                0.36644735534759065,
                0.4736468997695542,
                0.29026703618901006,
                0.6616572831606166,
                0.4170041931275163,
                0.3196997690818895,
                0.6616572831606166,
                0.6616572831606166,
                0.08931723344024545,
                0.2374115635830898,
                0.5055222641632992,
                0.6616572831606166,
                0.6616572831606166,
                0.6616572831606166,
                0.09502324451047395,
                0.20598756685274722,
                0.0566259,
                0.2533705149402316,
                0.45147555667797734,
                0.6128614468565955,
                0.323682611077378,
                0.6616572831606167,
                0.06907267471963718,
                0.39007253452027973,
                0.029318959516678622,
                0.4636309200558729,
                0.40141509295265665,
                0.5350569204456556,
                0.46333990576278006,
                0.6616572831606164,
                0.5459734509669375,
                0.6616572831606166,
                0.04012628892697956,
                0.1447081371580451,
                0.6616572831606166,
                0.20754729142133332,
                0.38568292714611796,
                0.6616572831606166,
                0.6616572831606167,
                0.6616572831606166,
                0.6616572831606166,
                0.5272044147627676,
                0.4652243134075848,
                0.21287529479966022,
                0.34873072506765496,
                0.6616572831606164,
                0.24913330728914704,
                0.5388498645547282,
                0.6616572831606167,
                0.20865056286779393,
                0.41428959170048507,
                0.4926676708167256,
                0.2922818829209873,
                0.6616572831606166,
                0.0039709272825354525,
                0.6616572831606167,
                0.6616572831606164,
                0.08817909999999998,
                0.15302032664374515,
                0.15081630052748785,
                0.6519851973546986,
                0.0300522424758507,
                0.49566183188801416,
                0.6616572831606164,
                0.1571868528504502,
                0.11761461760658898,
                0.1769847473562614,
                0.40433464211660286,
                0.6616572831606166,
                0.5645116274059081,
                0.6616572831606166,
                0.3037976542577015,
                0.2133795847291998,
                0.6616572831606167,
                0.03689460045040339,
                0.05994541094551409,
                0.6616572831606164,
                0.4306742492601986,
                0.06358716963776578,
                0.6614432793176814,
                0.6616572831606166,
                0.02982363895971163,
                0.15120039749705683,
                0.5323650218383881,
                0.6616572831606164,
                0.4123540830888388,
                0.073039,
                0.4463029613874709,
                0.6616572831606166,
                0.6616572831606166,
                0.3078393008208693,
                0.6616572831606164,
                0.046737394521520814,
                0.39715747821243075,
                0.46218692128771066,
                0.457644903046975,
                0.24690514857780907,
                0.6616572831606166,
                0.46401440340159095,
                0.2989612547115846,
                0.6616572831606166,
                0.6471598612762097,
                0.6616572831606167,
                0.057211158421292596,
                0.6616572831606167,
                0.5257365596291347,
                0.6616572831606166,
                0.5312448608382687,
                0.4166547941073434,
                0.6616572831606167,
                0.650916538506653,
                0.5810982315828687,
                0.1993173935543628,
                0.6616572831606166,
                0.06705997074911463,
                0.073039,
                0.6616572831606166,
                0.2094331544093045,
                0.6616572831606166,
                0.4210120539408319,
                0.6616572831606166,
                0.14955594588626744,
                0.5440279186691155,
                0.6616572831606164,
                0.28270932517923375,
                0.4805142861282127,
                0.3342076331658148,
                0.6616572831606166,
                0.1647985240692677,
                0.3368083391485644,
                0.6126561529821485,
                0.6616572831606166,
                0.1629993597843057,
                0.6616572831606164,
                0.6616572831606167,
                0.6616572831606166,
                0.6616572831606167,
                0.39230512676510765,
                0.38170249953460167,
                0.6616572831606166,
                0.161525051209757,
                0.6616572831606167,
                0.6616572831606164,
                0.254180338178046,
                0.25885820076142924,
                0.6234482753673445,
                0.030758250568561796,
                0.6616572831606167,
                0.36347889646313575,
                0.056956065573298686,
                0.42232801137576576,
                0.31929429873692383,
                0.6616572831606166,
                0.6616572831606166,
                0.6616572831606166,
                0.29509465586055506,
                0.06386665729111396,
                0.3477644794087556,
                0.18328632039795667,
                0.3687236075140192,
                0.6616572831606164,
                0.3193682069534488,
                0.6096770715034284,
                0.6616572831606164,
                0.4327889831154801,
                0.12710812964085483,
                0.18301699566601382,
                0.37280105812651904,
                0.5679865178166446,
                0.6616572831606166,
                0.5456148505956064,
                0.30153469342847317,
                0.6616572831606167,
                0.4512938582003821,
                0.4391366347802759,
                0.6616572831606167,
                0.44636030140328437,
                0.6616572831606166,
                0.6616572831606166,
                0.0668328203088483,
                0.590874635512879,
                0.059446092232989356,
                0.5540524539994403,
                0.6616572831606167,
                0.6616572831606167,
                0.5655363560041484,
                0.23277491088382646,
                0.4751034046252072,
                0.40749841928172725,
                0.10855195675132245,
                0.6616572831606167,
                0.087534,
                0.6616572831606166,
                0.27837541439317715,
                0.3777122843254392,
                0.6616572831606167,
                0.473096972697871,
                0.6616572831606166,
                0.14484913902283103,
                0.6616572831606167,
                0.6616572831606166,
                0.08557075686173465,
                0.6616572831606167,
                0.5608493594757952,
                0.569419163788174,
                0.6616572831606166,
                0.6616572831606166,
                0.6616572831606164,
                0.45316537354333464,
                0.5108749510906428,
                0.6616572831606167,
                0.6616572831606166,
                0.4146169587523186,
                0.5529395565071168,
                0.5302201607134913,
                0.5954981016975687,
                0.6616572831606166,
                0.339265270156864,
                0.2640280227125973,
                0.4889634243102863,
                0.6616572831606167,
                0.07525000000000001,
                0.400717762954182,
                0.2597042828454153,
                0.6616572831606166,
                0.6616572831606166,
                0.6616572831606164,
                0.4662241586629262,
                0.5000963459407967,
                0.6616572831606166,
                0.6616572831606166,
                0.6616572831606166,
                0.21897901638436762,
                0.26019383513196115,
                0.5511429359973533,
                0.2878703676694157,
                0.10677522298929903,
                0.5245732072778859,
                0.6616572831606166,
                0.3708341587529907,
                0.10107709572381007,
                0.6616572831606167,
                0.6616572831606164,
                0.6616572831606167,
                0.6616572831606164,
                0.332793372707199,
                0.6616572831606166,
                0.518472524849689,
                0.09011209378717336
            ],
            "photocathode": [
                4471,
                3252,
                4467,
                135,
                2746,
                2803,
                4702,
                1798,
                4812,
                4741,
                1254,
                727,
                4619,
                4645,
                4584,
                3438,
                4632,
                1601,
                1010,
                2492,
                1219,
                1832,
                4548,
                3819,
                4319,
                4543,
                4562,
                1071,
                522,
                4610,
                4664,
                162,
                4762,
                4703,
                2939,
                4701,
                3534,
                4657,
                3254,
                616,
                4595,
                2793,
                4697,
                2122,
                4604,
                1754,
                1250,
                4579,
                1036,
                2023,
                3190,
                2791,
                1953,
                4532,
                2066,
                1801,
                4605,
                3157,
                3040,
                3391,
                1819,
                2692,
                3288,
                847,
                4582,
                4671,
                996,
                4550,
                2741,
                143,
                1728,
                4620,
                1258,
                616,
                3228,
                2877,
                4759,
                2276,
                3040,
                2378,
                471,
                945,
                4322,
                4595,
                4483,
                3690,
                4705,
                4639,
                4758,
                1093,
                415,
                2889,
                4499,
                4450,
                447,
                2439,
                2167,
                1275,
                3445,
                4559,
                514,
                4685,
                962,
                4618,
                4641,
                3479,
                4597,
                2269,
                4780,
                4659,
                4575,
                221,
                4664,
                4675,
                2955,
                4553,
                4700,
                4670,
                4712,
                2566,
                852,
                4671,
                4573,
                4596,
                2995,
                920,
                4613,
                4758,
                4677,
                51,
                4669,
                2875,
                3003,
                2931,
                3896,
                1497,
                4802,
                4039,
                4503,
                2700,
                1594,
                2987,
                2186,
                4544,
                2689,
                2578,
                1982,
                4724,
                4651,
                4120,
                2133,
                2490,
                4657,
                2981,
                4505,
                2503,
                4731,
                1757,
                2984,
                616,
                564,
                4536,
                4622,
                4614,
                4731,
                4640,
                1820,
                1662,
                849,
                3211,
                4517,
                1191,
                4877,
                4589,
                2444,
                3992,
                2886,
                3392,
                3530,
                505,
                4706,
                3613,
                2806,
                2364,
                2004,
                553,
                2943,
                2646,
                637,
                4741,
                1547,
                4620,
                4671,
                4741,
                4717,
                2400,
                403,
                1625,
                1504,
                4717,
                4661,
                581,
                547,
                1523,
                4684,
                4775,
                4711,
                4662,
                403,
                4624,
                4741,
                4515,
                2877,
                2095,
                1276,
                4576,
                2094,
                4625,
                2743,
                1569,
                1981,
                558,
                1310,
                4624,
                3299,
                548,
                4647,
                4616,
                499,
                2734,
                1535,
                422,
                3398,
                4469,
                4542,
                1043,
                4833,
                774,
                3192,
                610,
                1017,
                4636,
                1633,
                4751,
                3070,
                4321,
                1643,
                1531,
                620,
                965,
                670,
                2532,
                3400,
                1988,
                4643,
                2945,
                2261,
                4641,
                4579,
                649,
                1684,
                3573,
                4748,
                4810,
                4733,
                692,
                1416,
                403,
                1824,
                3187,
                4380,
                2208,
                4698,
                446,
                2754,
                184,
                3420,
                2857,
                3764,
                3224,
                4611,
                3910,
                4561,
                251,
                1012,
                4647,
                1501,
                2777,
                4601,
                4497,
                4695,
                4586,
                3758,
                3296,
                1577,
                2506,
                4779,
                1740,
                3819,
                4704,
                1507,
                2934,
                3465,
                1998,
                4584,
                31,
                4833,
                4860,
                638,
                1034,
                1065,
                4545,
                230,
                3475,
                4554,
                1122,
                837,
                1270,
                2857,
                4570,
                4018,
                4746,
                2155,
                1482,
                4644,
                270,
                399,
                4644,
                3106,
                413,
                4596,
                4505,
                230,
                1066,
                3707,
                4609,
                2854,
                497,
                3071,
                4676,
                4639,
                2211,
                4590,
                357,
                2817,
                3203,
                3287,
                1727,
                4581,
                3296,
                2124,
                4728,
                4422,
                4570,
                427,
                4615,
                3661,
                4635,
                3823,
                2994,
                4660,
                4530,
                4063,
                1445,
                4536,
                490,
                548,
                4569,
                1431,
                4613,
                3019,
                4624,
                1020,
                3862,
                4617,
                2045,
                3477,
                2329,
                4868,
                1122,
                2477,
                4208,
                4523,
                1217,
                4650,
                4661,
                4846,
                4645,
                2758,
                2724,
                4706,
                1103,
                4626,
                4743,
                1719,
                1881,
                4451,
                214,
                4644,
                2490,
                418,
                3061,
                2297,
                4708,
                4591,
                4725,
                2013,
                473,
                2452,
                1306,
                2575,
                4824,
                2172,
                4278,
                4699,
                3009,
                898,
                1224,
                2521,
                3889,
                4643,
                3817,
                2125,
                4607,
                3153,
                3125,
                4742,
                3108,
                4584,
                4736,
                453,
                4082,
                401,
                4001,
                4668,
                4875,
                3911,
                1568,
                3268,
                2923,
                732,
                4679,
                582,
                4459,
                1922,
                2605,
                4619,
                3113,
                4697,
                1007,
                4648,
                4508,
                604,
                4815,
                3811,
                4120,
                4569,
                4690,
                4700,
                3226,
                3695,
                4623,
                4762,
                2871,
                3892,
                3901,
                4067,
                4640,
                2512,
                1870,
                3317,
                4845,
                544,
                2839,
                1866,
                4637,
                4675,
                4659,
                3324,
                3438,
                4693,
                4554,
                4558,
                1675,
                1746,
                3912,
                2040,
                775,
                3776,
                4681,
                2681,
                658,
                4588,
                4634,
                4577,
                4714,
                2316,
                4610,
                3811,
                655
            ]
        },
        "detections": 500,
        "events": 312929
    }
}