{
    "job_args": {
        "metric_limit": 500,
        "seed": 2166302332
    },
    "job_id": "batch_107_do_500",
    "result": {
        "collections": {
            "crystal": [
                0.6616572831606166,
                0.6616572831606167,
                0.06058177408275933,
                0.36264316389845497,
                0.6616572831606166,
                0.6616572831606166,
                0.49106257489572624,
                0.2674428991926478,
                0.42005898985757684,
                0.305615727276495,
                0.4463065899869533,
                0.4916713654737229,
                0.6616572831606166,
                0.07303899999999999,
                0.6616572831606166,
                0.4450568025849353,
                0.6616572831606166,
                0.6616572831606167,
                0.4722799644505175,
                0.6616572831606166,
                0.2619952261586626,
                0.6616572831606167,
                0.6616572831606167,
                0.01882684914696431,
                0.39380220748726147,
                0.6616572831606166,
                0.6616572831606166,
                0.25438756554427827,
                0.6616572831606164,
                0.6616572831606167,
                0.47378881582360566,
                0.5675061349556153,
                0.2245336974769135,
                0.6616572831606164,
                0.17291283088012538,
                0.3502347285538062,
                0.22447081395674853,
                0.6269641167502311,
                0.0591215167151089,
                0.6616572831606167,
                0.6616572831606167,
                0.6616572831606166,
                0.3239586729205628,
                0.42231261642539164,
                0.2493670668936676,
                0.6616572831606166,
                0.3707894484142228,
                0.3508315774556372,
                0.12983784008611549,
                0.5962247592361167,
                0.32223792698238174,
                0.0063183210850015215,
                0.4912215996129795,
                0.6616572831606167,
                0.6616572831606166,
                0.20285697856414434,
                0.0837334153451754,
                0.4022140667343383,
                0.5062816674566564,
                0.6616572831606164,
                0.6616572831606167,
                0.6616572831606167,
                0.6616572831606166,
                0.6616572831606166,
                0.008594152328204596,
                0.4559100074427733,
                0.20104536913208276,
                0.6616572831606166,
                0.3167170177759295,
                0.6616572831606167,
                0.27045711671664624,
                0.6616572831606166,
                0.3886041253588871,
                0.6616572831606166,
                0.47871137836457045,
                0.6616572831606164,
                0.4639450929811374,
                0.15081462175216254,
                0.13271680971529676,
                0.4719845894803258,
                0.5981798167786359,
                0.6616572831606166,
                0.4601506509375272,
                0.6616572831606164,
                0.31432278108620426,
                0.2900087418980932,
                0.022457868321961505,
                0.6616572831606166,
                0.6616572831606166,
                0.6616572831606166,
                0.45162370344389263,
                0.3564602147835925,
                0.07525,
                0.07524999999999998,
                0.5068574768769715,
                0.6386904868014114,
                0.6616572831606164,
                0.6616572831606164,
                0.03508229711505306,
                0.2650594469794092,
                0.26604500254374985,
                0.47328017081975915,
                0.3757458303669567,
                0.07525,
                0.4860968771711523,
                0.11787895828831563,
                0.6616572831606166,
                0.5192330700727246,
                0.5056825170048369,
                0.5177084757348738,
                0.0649561920450551,
                0.1269061035136917,
                0.4934086155344467,
                0.24618086011247514,
                0.6400696711392692,
                0.6616572831606166,
                0.48297280048612573,
                0.2329736856854241,
                0.09965574709730862,
                0.3445892901392582,
                0.6616572831606164,
                0.2227627482405845,
                0.6616572831606167,
                0.6518022181019881,
                0.4979210113404925,
                0.6616572831606166,
                0.4572998531664173,
                0.6616572831606166,
                0.17543788443456448,
                0.3787466602267998,
                0.6616572831606166,
                0.6616572831606167,
                0.6616572831606167,
                0.6616572831606164,
                0.10948119463046413,
                0.17066495357768388,
                0.6616572831606166,
                0.6616572831606167,
                0.6616572831606166,
                0.6616572831606164,
                0.008562436303857777,
                0.44902617126134153,
                0.3151372480655182,
                0.13852697850562856,
                0.3205015293544578,
                0.4397633895594457,
                0.280835922944897,
                0.30888477784450863,
                0.37819473567742234,
                0.6354124452027895,
                0.6616572831606166,
                0.47053978585769607,
                0.6616572831606167,
                0.6616572831606167,
                0.13586731130772045,
                0.1959088766513279,
                0.6616572831606166,
                0.6616572831606167,
                0.24805567464097045,
                0.6616572831606166,
                0.41941105992285393,
                0.6616572831606166,
                0.5063526521817395,
                0.164492270809031,
                0.6616572831606166,
                0.03106435322073453,
                0.6616572831606166,
                0.6616572831606166,
                0.6616572831606167,
                0.6504705854700961,
                0.6616572831606166,
                0.0639295482722726,
                0.6340239337080467,
                0.4289750020835804,
                0.42867375482168585,
                0.6616572831606166,
                0.32859690930801844,
                0.6616572831606167,
                0.353753041517996,
                0.6616572831606166,
                0.44866012458931126,
                0.6616572831606164,
                0.6616572831606167,
                0.37491847859968147,
                0.29563426521441993,
                0.5486827515221968,
                0.6616572831606164,
                0.43929777877950377,
                0.6616572831606164,
                0.2762129225627766,
                0.6616572831606166,
                0.6616572831606166,
                0.38307830909142315,
                0.2922123437636969,
                0.6616572831606164,
                0.6616572831606167,
                0.32373119089275515,
                0.6616572831606167,
                0.36588194735902485,
                0.1430819506095431,
                0.06153786248652815,
                0.6616572831606164,
                0.04050605632202103,
                0.4120291847866127,
                0.5098615493211998,
                0.6616572831606167,
                0.5366640716783474,
                0.2508175918753387,
                0.6616572831606166,
                0.524631036337996,
                0.12166057720465562,
                0.3827176715808559,
                0.20473674479521095,
                0.15420821863642886,
                0.4664893060018572,
                0.6616572831606166,
                0.3794574230882032,
                0.23652390161498105,
                0.4494993422816684,
                0.41946537560744673,
                0.4696870416202911,
                0.3404370699487579,
                0.45659677036821456,
                0.31016590788508736,
                0.073039,
                0.3503238229559441,
                0.3098023712520973,
                0.42475250520123187,
                0.15571267815944212,
                0.12157133945752152,
                0.6616572831606167,
                0.40296879893642856,
                0.5493784135215095,
                0.2773699959061661,
                0.08523539999999999,
                0.6616572831606164,
                0.6616572831606166,
                0.026386522723884958,
                0.6616572831606166,
                0.5977234279606266,
                0.04224729490518575,
                0.47058613930724147,
                0.2066742652019744,
                0.6616572831606166,
                0.4310143681985851,
                0.03539940892398697,
                0.10293108554426722,
                0.6616572831606167,
                0.355094209236525,
                0.5715020956530295,
                0.3467204235994778,
                0.45543948712419596,
                0.6616572831606166,
                0.07524999999999998,
                0.6616572831606163,
                0.17023780439618785,
                0.6616572831606166,
                0.2836173192731425,
                0.09549899094129405,
                0.2570741939943594,
                0.47116601895846705,
                0.6616572831606166,
                0.6616572831606167,
                0.6616572831606167,
                0.6616572831606166,
                0.6616572831606166,
                0.6135032015464462,
                0.010776448824026952,
                0.6616572831606166,
                0.40654711363064505,
                0.6616572831606166,
                0.6616572831606167,
                0.0684076329876746,
                0.6616572831606166,
                0.4534018214012513,
                0.6616572831606167,
                0.5382434676574328,
                0.6616572831606164,
                0.6601477544732155,
                0.007182851011409808,
                0.6612029824688685,
                0.3544051560125868,
                0.6616572831606167,
                0.6616572831606167,
                0.6616572831606164,
                0.4719914669693966,
                0.4148118682805453,
                0.6616572831606164,
                0.630196204993273,
                0.4708269715461978,
                0.6616572831606164,
                0.5608630011954348,
                0.447327862918092,
                0.10776668297195872,
                0.6616572831606164,
                0.48316501435603965,
                0.33572957497287104,
                0.562313605879246,
                0.2909920056409198,
                0.46227966501140505,
                0.4657269626110433,
                0.23571304852680847,
                0.6616572831606164,
                0.002059867434623386,
                0.22415000819605196,
                0.546583820094423,
                0.3440561634344345,
                0.6287270429373136,
                0.16290838864362733,
                0.6616572831606164,
                0.6616572831606167,
                0.6616572831606164,
                0.6616572831606167,
                0.31842514467341027,
                0.15838268968235758,
                0.32736682398718875,
                0.10297962193506227,
                0.5010384339457121,
                0.6616572831606166,
                0.6616572831606164,
                0.6616572831606164,
                0.3469586066233181,
                0.09848334869183163,
                0.328162300687322,
                0.2910908407474431,
                0.4620020638533073,
                0.6616572831606166,
                0.6616572831606166,
                0.3874016388508732,
                0.6616572831606164,
                0.6616572831606167,
                0.6616572831606164,
                0.6616572831606164,
                0.6616572831606167,
                0.2627934242410716,
                0.22200129843648642,
                0.6616572831606164,
                0.26342365455591693,
                0.0882024,
                0.45434935806450055,
                0.6616572831606166,
                0.15054124834057026,
                0.4474717694895207,
                0.6616572831606166,
                0.48429664508522097,
                0.19976424991309527,
                0.6616572831606167,
                0.6616572831606167,
                0.34748301091843453,
                0.1841905595628218,
                0.08697981144615063,
                0.6616572831606164,
                0.6616572831606166,
                0.07525000000000001,
                0.4255530371787876,
                0.32687549212070194,
                0.6421573193335073,
                0.6616572831606167,
                0.22798072229119248,
                0.3459674397495519,
                0.42276161060618855,
                0.44998595525339,
                0.6616572831606166,
                0.07524999999999998,
                0.3288561223234141,
                0.6616572831606166,
                0.6616572831606166,
                0.3525028663808454,
                0.6613093679151935,
                0.33999574955064504,
                0.08024193644486366,
                0.6616572831606166,
                0.5183176071052642,
                0.6386197686861849,
                0.6010057946799938,
                0.32231288885526194,
                0.2564381733407527,
                0.5607906103740681,
                0.6616572831606166,
                0.42599925264922806,
                0.6616572831606164,
                0.43244750928437614,
                0.409034926129618,
                0.6616572831606166,
                0.2899100955847153,
                0.6616572831606166,
                0.05269334298252848,
                0.42662250344072095,
                0.4119052772623296,
                0.04939985164170313,
                0.49558061866082126,
                0.6616572831606166,
                0.6616572831606166,
                0.08027966072652548,
                0.4549676672833447,
                0.6616572831606166,
                0.6095819913707179,
                0.22506064147802285,
                0.5444745025339999,
                0.219721076228313,
                0.6616572831606166,
                0.12846499218321128,
                0.1119548993139442,
                0.5641306611423852,
                0.3262096246258282,
                0.029084688688372995,
                0.12955456792321818,
                0.3269862646445172,
                0.004978692688252018,
                0.4626259450206129,
                0.5097349188511446,
                0.26814539318367947,
                0.6616572831606166,
                0.3646657719716083,
                0.2193471823815588,
                0.22465689995850463,
                0.23516378909776342,
                0.6616572831606167,
                0.6616572831606164,
                0.073039,
                0.35805278066458734,
                0.6616572831606167,
                0.03431005772053236,
                0.03824857734964959,
                0.023757109437586455,
                0.28480073205545714,
                0.6616572831606166,
                0.6616572831606167,
                0.6616572831606167,
                0.11227149561116968,
                0.6219297873327406,
                0.0847407,
                0.5276599371655017,
                0.012005996935387286,
                0.4303023574193666,
                0.37298482402333366,
                0.6616572831606166,
                0.6616572831606164,
                0.3703607641400507,
                0.4859933498332544,
                0.10271831805766642,
                0.6616572831606164,
                0.29558172704186614,
                0.073039,
                0.6616572831606164,
                0.47668134556008196,
                0.522772979648967,
                0.6616572831606167,
                0.6616572831606164,
                0.6616572831606166,
                0.505586488443723,
                0.2498430093380294,
                0.6616572831606166,
                0.41298894901844285,
                0.6616572831606168,
                0.2680683796494919,
                0.6616572831606166,
                0.1952138741980889,
                0.6616572831606167,
                0.2765782924599948,
                0.6616572831606166,
                0.44961464757487263,
                0.6616572831606167,
                0.4115654523869254,
                0.6526060034558163,
                0.5263841032700093,
                0.4200284395884172,
                0.22414249175248913,
                0.6616572831606164,
                0.6616572831606164,
                0.6616572831606164,
                0.46478656084427383,
                0.38846400223398636,
                0.21963217353595887,
                0.38441819213850575,
                0.3131000545317809,
                0.2071868186184262,
                0.1839254437272997,
                0.3428266349119061,
                0.6616572831606166,
                0.3634950568299577,
                0.5693261562864818,
                0.5082534208440773,
                0.6616572831606166,
                0.27291292861096894,
                0.061870578705709,
                0.5596790506513212,
                0.6616572831606166,
                0.5397772075927514,
                0.3594649178680579,
                0.6616572831606167,
                0.6616572831606166,
                0.2477943775061635,
                0.6616572831606164,
                0.17572054258217734,
                0.6616572831606164,
                0.6616572831606166,
                0.19801123544954743,
                0.6616572831606166,
                0.3839957082895622
            ],
            "photocathode": [
                4664,
                4559,
                412,
                2579,
                4635,
                4612,
                3476,
                1966,
                3016,
                2065,
                3093,
                3485,
                4551,
                556,
                4536,
                3017,
                4549,
                4600,
                3299,
                4585,
                1858,
                4562,
                4831,
                131,
                2817,
                4731,
                4720,
                1716,
                4672,
                4630,
                3299,
                3856,
                1604,
                4666,
                1220,
                2503,
                1485,
                4537,
                403,
                4462,
                4638,
                4624,
                2358,
                2888,
                1703,
                4723,
                2687,
                2480,
                858,
                4285,
                2301,
                46,
                3363,
                4705,
                4633,
                1426,
                568,
                2818,
                3578,
                4602,
                4709,
                4530,
                4625,
                4877,
                54,
                3208,
                1443,
                4730,
                2207,
                4614,
                1837,
                4744,
                2684,
                4521,
                3380,
                4694,
                3258,
                1048,
                932,
                3175,
                4413,
                4652,
                3236,
                4540,
                2132,
                2036,
                171,
                4585,
                4707,
                4656,
                3088,
                2508,
                496,
                484,
                3655,
                4505,
                4560,
                4677,
                231,
                1789,
                1910,
                3317,
                2542,
                506,
                3419,
                804,
                4554,
                3581,
                3466,
                3618,
                412,
                958,
                3490,
                1767,
                4517,
                4589,
                3387,
                1691,
                687,
                2442,
                4684,
                1578,
                4742,
                4606,
                3501,
                4651,
                3205,
                4700,
                1201,
                2631,
                4647,
                4454,
                4721,
                4681,
                749,
                1200,
                4771,
                4610,
                4595,
                4609,
                64,
                2977,
                2280,
                979,
                2198,
                3083,
                1905,
                2094,
                2583,
                4336,
                4604,
                3189,
                4767,
                4710,
                977,
                1410,
                4450,
                4694,
                1724,
                4730,
                2946,
                4794,
                3502,
                1170,
                4617,
                188,
                4625,
                4649,
                4744,
                4542,
                4696,
                406,
                4373,
                2917,
                2963,
                4665,
                2263,
                4582,
                2383,
                4622,
                3190,
                4804,
                4663,
                2591,
                2079,
                3963,
                4652,
                3083,
                4595,
                1889,
                4652,
                4487,
                2745,
                2126,
                4529,
                4737,
                2250,
                4619,
                2540,
                1019,
                461,
                4678,
                286,
                2838,
                3614,
                4498,
                3718,
                1808,
                4634,
                3820,
                844,
                2677,
                1413,
                1081,
                3230,
                4594,
                2745,
                1672,
                3206,
                3008,
                3170,
                2329,
                3125,
                2084,
                528,
                2496,
                2157,
                2954,
                1098,
                854,
                4641,
                2928,
                3825,
                1890,
                656,
                4677,
                4471,
                182,
                4564,
                4179,
                279,
                3357,
                1461,
                4550,
                3005,
                228,
                660,
                4617,
                2513,
                4071,
                2449,
                3121,
                4667,
                506,
                4645,
                1236,
                4680,
                2012,
                672,
                1784,
                3237,
                4584,
                4746,
                4575,
                4654,
                4568,
                4256,
                93,
                4539,
                2768,
                4676,
                4829,
                475,
                4517,
                3263,
                4621,
                3777,
                4513,
                4659,
                53,
                4465,
                2491,
                4528,
                4492,
                4601,
                3351,
                2923,
                4773,
                4461,
                3421,
                4669,
                3794,
                3137,
                738,
                4693,
                3423,
                2331,
                3977,
                2123,
                3324,
                3294,
                1692,
                4707,
                13,
                1504,
                3857,
                2457,
                4389,
                1131,
                4627,
                4633,
                4631,
                4744,
                2291,
                1110,
                2298,
                705,
                3525,
                4792,
                4815,
                4464,
                2491,
                662,
                2262,
                2032,
                3273,
                4595,
                4791,
                2564,
                4647,
                4505,
                4644,
                4586,
                4733,
                1866,
                1539,
                4493,
                1802,
                667,
                3194,
                4595,
                1140,
                3179,
                4553,
                3424,
                1319,
                4694,
                4735,
                2436,
                1338,
                635,
                4602,
                4738,
                542,
                2982,
                2313,
                4499,
                4557,
                1566,
                2598,
                2986,
                3089,
                4602,
                490,
                2301,
                4777,
                4598,
                2467,
                4545,
                2373,
                551,
                4699,
                3649,
                4503,
                4317,
                2233,
                1869,
                3945,
                4656,
                2976,
                4608,
                3073,
                2900,
                4672,
                2083,
                4528,
                357,
                3058,
                2886,
                335,
                3505,
                4602,
                4746,
                591,
                3141,
                4551,
                4240,
                1677,
                3648,
                1658,
                4787,
                870,
                784,
                3758,
                2365,
                205,
                889,
                2267,
                35,
                3353,
                3517,
                1862,
                4640,
                2513,
                1481,
                1625,
                1670,
                4635,
                4722,
                534,
                2537,
                4718,
                231,
                251,
                157,
                2013,
                4687,
                4523,
                4617,
                792,
                4485,
                610,
                3625,
                85,
                2997,
                2693,
                4533,
                4595,
                2566,
                3401,
                699,
                4625,
                2113,
                488,
                4662,
                3378,
                3637,
                4548,
                4775,
                4630,
                3583,
                1718,
                4655,
                2968,
                4577,
                1857,
                4688,
                1392,
                4749,
                1862,
                4606,
                3050,
                4644,
                2864,
                4603,
                3675,
                3021,
                1576,
                4576,
                4589,
                4736,
                3327,
                2679,
                1503,
                2651,
                2198,
                1494,
                1275,
                2386,
                4566,
                2599,
                4035,
                3561,
                4810,
                1857,
                411,
                3938,
                4709,
                3775,
                2599,
                4730,
                4734,
                1796,
                4755,
                1247,
                4765,
                4722,
                1387,
                4674,
                2691
            ]
        },
        "detections": 500,
        "events": 322029
    }
}