{
    "job_args": {
        "metric_limit": 500,
        "seed": 300347276
    },
    "job_id": "batch_151_do_500",
    "result": {
        "collections": {
            "crystal": [
                0.4010876611091585,
                0.09137800059247592,
                0.14491777453322396,
                0.11975721445651988,
                0.6616572831606166,
                0.41123612143607535,
                0.583123783522684,
                0.6616572831606164,
                0.34320083873319707,
                0.30141000627500464,
                0.40864148326520744,
                0.4334378050303702,
                0.4363425295498279,
                0.2969739674071653,
                0.43755116128104704,
                0.6616572831606166,
                0.6616572831606164,
                0.3641010171324764,
                0.6616572831606167,
                0.4606737926265301,
                0.6616572831606167,
                0.024941578370466285,
                0.6616572831606167,
                0.3200887763075716,
                0.15156219341175226,
                0.6616572831606167,
                0.6616572831606166,
                0.6616572831606164,
                0.6616572831606166,
                0.6616572831606166,
                0.4684500854479905,
                0.6616572831606166,
                0.09453894720523093,
                0.45019177106168273,
                0.4351894663549375,
                0.039188250078138864,
                0.4256631642180904,
                0.39276201767318186,
                0.6616572831606164,
                0.5891476817905843,
                0.13458091783288867,
                0.6616572831606167,
                0.6616572831606166,
                0.6616572831606164,
                0.07525,
                0.6616572831606166,
                0.6616572831606168,
                0.6616572831606166,
                0.3626578370924285,
                0.5406966302589061,
                0.6616572831606166,
                0.6502123794997512,
                0.43834302028837646,
                0.41259912200149207,
                0.13444905576062327,
                0.4200638231217939,
                0.6616572831606164,
                0.32725942434218114,
                0.6616572831606166,
                0.472525034763129,
                0.6616572831606166,
                0.007772673179595402,
                0.40350880642188564,
                0.6616572831606167,
                0.6616572831606164,
                0.6616572831606167,
                0.6616572831606167,
                0.008815085952565305,
                0.6616572831606166,
                0.46579667195903945,
                0.6616572831606166,
                0.6616572831606166,
                0.33272580147520253,
                0.6616572831606166,
                0.39946491384134997,
                0.49098601477769604,
                0.4884060563235372,
                0.25610108131324594,
                0.6616572831606167,
                0.6616572831606166,
                0.34349602172362026,
                0.5545842734820255,
                0.6616572831606164,
                0.41504830788259617,
                0.6616572831606166,
                0.6616572831606164,
                0.6616572831606166,
                0.02361680936495736,
                0.6616572831606164,
                0.22758447654641178,
                0.3462583755289242,
                0.13337769104258101,
                0.6616572831606167,
                0.00925002301698774,
                0.3345201889347367,
                0.5420133823565438,
                0.6616572831606164,
                0.5605004343674789,
                0.32521358306424597,
                0.4942119059303976,
                0.45604272986629996,
                0.32319862289811946,
                0.6616572831606166,
                0.2919116558788973,
                0.02245841627755163,
                0.6072041852760113,
                0.6616572831606164,
                0.20961491717644587,
                0.10963348655922676,
                0.6616572831606167,
                0.6616572831606166,
                0.45087894709513,
                0.2099606459012448,
                0.3586306049154565,
                0.6162770936930235,
                0.3442449366835648,
                0.6616572831606166,
                0.6616572831606164,
                0.13628711275308994,
                0.6616572831606166,
                0.5023327776906293,
                0.2733466757907545,
                0.5319226487926632,
                0.46697395869210934,
                0.0167721624699555,
                0.4695898199524214,
                0.1898566960925163,
                0.6616572831606164,
                0.19806367591192997,
                0.22452532038451833,
                0.6616572831606167,
                0.6616572831606167,
                0.3089947851978675,
                0.6263974454443375,
                0.4851400235427453,
                0.4758864794754804,
                0.6616572831606166,
                0.21147920421884558,
                0.6616572831606164,
                0.42855314914056014,
                0.4278325886124383,
                0.6616572831606164,
                0.4090130969677423,
                0.565646120971304,
                0.28582356395559044,
                0.6616572831606166,
                0.6616572831606166,
                0.05320291316063375,
                0.4588587332218661,
                0.6616572831606166,
                0.6616572831606167,
                0.6616572831606166,
                0.07297111781816223,
                0.22168753766527877,
                0.6616572831606166,
                0.6616572831606166,
                0.1690686709387239,
                0.6616572831606166,
                0.4539772711335208,
                0.20860971806352252,
                0.6616572831606167,
                0.6616572831606167,
                0.3514714014744913,
                0.37272276450294245,
                0.39321990505123716,
                0.6616572831606164,
                0.6616572831606167,
                0.6616572831606166,
                0.6616572831606167,
                0.3510983185020691,
                0.05498560863450075,
                0.6616572831606164,
                0.6616572831606167,
                0.5377871942343253,
                0.6616572831606164,
                0.10181784576323982,
                0.6616572831606166,
                0.6616572831606166,
                0.47416471619196815,
                0.36806206666600016,
                0.6616572831606166,
                0.6616572831606167,
                0.6616572831606166,
                0.5720387698285183,
                0.3519247872709953,
                0.1023973962741408,
                0.5793935274132345,
                0.33369284204406285,
                0.6616572831606166,
                0.1754866944762266,
                0.13068652706618952,
                0.07303899999999999,
                0.6616572831606167,
                0.39243953092690603,
                0.10475014418180761,
                0.6616572831606164,
                0.5924964998773193,
                0.6616572831606166,
                0.6616572831606168,
                0.4605120183759335,
                0.5692307171880092,
                0.2445561053728364,
                0.42884208183603084,
                0.22332895216090415,
                0.45382101408131,
                0.6616572831606166,
                0.43380368232527455,
                0.4021884534434701,
                0.24319550987836397,
                0.020077707129906308,
                0.5983554417631327,
                0.20190121577834924,
                0.6027300923307748,
                0.34852967514183897,
                0.37169419328914943,
                0.3043063451099328,
                0.6616572831606164,
                0.6616572831606166,
                0.20866609039336478,
                0.4705730581988072,
                0.6616572831606166,
                0.6616572831606166,
                0.6616572831606167,
                0.538488600979024,
                0.2080288453022709,
                0.18904215754748283,
                0.08597562659483504,
                0.4368603487073922,
                0.6616572831606166,
                0.6616572831606166,
                0.4728763680498312,
                0.22438060704385526,
                0.22153637577270502,
                0.6257126775313545,
                0.6616572831606164,
                0.44626988874927487,
                0.6616572831606166,
                0.465539760448422,
                0.6616572831606166,
                0.10494188489144075,
                0.010500842637218639,
                0.6616572831606166,
                0.6616572831606166,
                0.36368948973276594,
                0.4397598391337666,
                0.6616572831606166,
                0.16019148587321955,
                0.10756014150198712,
                0.011218796806535591,
                0.2038814352779858,
                0.44924766446679365,
                0.29062984166629746,
                0.6616572831606166,
                0.3274685937260331,
                0.6616572831606164,
                0.19494135376875338,
                0.6616572831606167,
                0.6616572831606166,
                0.6616572831606166,
                0.22743688572007653,
                0.073039,
                0.6616572831606167,
                0.5509249992997071,
                0.3060042503960653,
                0.29845248125088,
                0.19858672674449135,
                0.032875492164657905,
                0.35007706411631107,
                0.6256098116070505,
                0.04865748267915615,
                0.21576281056183977,
                0.615700766221193,
                0.32466895627623066,
                0.6616572831606164,
                0.5170544343408965,
                0.28559987716620344,
                0.37999948270311,
                0.18378790089462022,
                0.6616572831606166,
                0.5725309625279835,
                0.11999881028471127,
                0.6616572831606166,
                0.15716625569025935,
                0.3985641299064846,
                0.44975102463512107,
                0.6616572831606166,
                0.44657721989058763,
                0.31024549587127687,
                0.21672230167777587,
                0.5343180467441775,
                0.5800638576247632,
                0.49326568431703194,
                0.4227893351698581,
                0.6616572831606166,
                0.13428436214181916,
                0.31469995012401325,
                0.003018072531479544,
                0.06811270195546493,
                0.5931845018790598,
                0.5651177742701252,
                0.1754083642646773,
                0.6616572831606167,
                0.0454434454631798,
                0.08523539999999999,
                0.23542580408574518,
                0.6616572831606166,
                0.6616572831606166,
                0.2286380437529391,
                0.36703931161573666,
                0.6616572831606166,
                0.6427173907200984,
                0.20707054327763366,
                0.19518761418986402,
                0.6616572831606166,
                0.3041287112697883,
                0.35139107712080514,
                0.6616572831606166,
                0.0481298046169642,
                0.1994447514372586,
                0.6616572831606166,
                0.6616572831606167,
                0.2116492249079146,
                0.6616572831606167,
                0.2890685429289871,
                0.6616572831606166,
                0.46139088459295197,
                0.6616572831606167,
                0.4846214162827702,
                0.08828996689002572,
                0.6616572831606166,
                0.07044606119158203,
                0.4475953716176828,
                0.4919505671336829,
                0.6616572831606164,
                0.6616572831606167,
                0.6330477831606166,
                0.2990946795008682,
                0.46713940252789854,
                0.6616572831606166,
                0.37615729493666367,
                0.2664730497154001,
                0.605585924037388,
                0.3827248868276216,
                0.4757016241488899,
                0.6616572831606166,
                0.6616572831606167,
                0.6616572831606167,
                0.18371893688082075,
                0.6246865803786585,
                0.6616572831606166,
                0.31960244206162525,
                0.6506515026798565,
                0.6173030504200242,
                0.3592657370261807,
                0.07524999999999998,
                0.21114337718621606,
                0.21160209075427006,
                0.6616572831606167,
                0.46334204341934343,
                0.12311338823271939,
                0.4117178129006137,
                0.6616572831606166,
                0.12364015413612096,
                0.6616572831606166,
                0.39591511418886133,
                0.6616572831606166,
                0.6231364137554674,
                0.48585494969906073,
                0.04533409704132452,
                0.6616572831606166,
                0.3291414086368394,
                0.6616572831606166,
                0.29204699367693165,
                0.267803740297835,
                0.3938876181926305,
                0.16490580516184022,
                0.07303900000000002,
                0.4685257192135356,
                0.6616572831606167,
                0.6616572831606167,
                0.4850339364567762,
                0.4110049463315931,
                0.6616572831606164,
                0.6071024553011581,
                0.5904741518811395,
                0.025548154611165108,
                0.6616572831606167,
                0.6616572831606166,
                0.397892740909981,
                0.4543823702825499,
                0.6616572831606166,
                0.1477451296036616,
                0.3972807269221764,
                0.4417984762867347,
                0.649280190330904,
                0.42121909520869494,
                0.565746097950085,
                0.6616572831606167,
                0.5595084045991093,
                0.5135728229668036,
                0.41960042264470887,
                0.6616572831606166,
                0.055365916295027545,
                0.6616572831606164,
                0.47119119184801195,
                0.47733067070004576,
                0.6616572831606166,
                0.4828656058214902,
                0.6616572831606164,
                0.6616572831606164,
                0.30229672751534764,
                0.1656940665852476,
                0.6616572831606166,
                0.6616572831606167,
                0.6616572831606167,
                0.6616572831606164,
                0.1347265849023882,
                0.5516517959394557,
                0.3708530464245492,
                0.6248637597300617,
                0.21870435521359283,
                0.16702281750126946,
                0.6616572831606166,
                0.377136308180945,
                0.2686313507216422,
                0.30446532609508525,
                0.04379607970850102,
                0.27539793332651974,
                0.4953087030623583,
                0.5848287198731692,
                0.5583448747069223,
                0.6616572831606164,
                0.6616572831606166,
                0.073039,
                0.45814490818590264,
                0.22966449471699765,
                0.6616572831606166,
                0.6616572831606164,
                0.0852354,
                0.45896850097029807,
                0.2723777973592416,
                0.6616572831606167,
                0.5080571100930125,
                0.6616572831606166,
                0.6616572831606167,
                0.3104586753979239,
                0.6337982982798235,
                0.14732339497292324,
                0.5964103385016403,
                0.532813847389557,
                0.43208687670932805,
                0.323379793575903,
                0.3616866392618918,
                0.09408888018923972,
                0.014048058550772846,
                0.4298713381855962,
                0.38141400651900303,
                0.5245640081838099,
                0.5787527816409322,
                0.25000165123850626,
                0.2581662361511683,
                0.6265144762103337,
                0.6616572831606167,
                0.019893381732304483,
                0.4260577978527319,
                0.6616572831606166,
                0.6616572831606167,
                0.3980318388032637,
                0.6389170758773989,
                0.05960815996753355,
                0.0862872594438463,
                0.4229865332742201,
                0.6616572831606164,
                0.20028952718880222,
                0.1667847702371137,
                0.31180019000075054,
                0.47662253278897854,
                0.6616572831606167,
                0.17858597056125147,
                0.24040380177869897,
                0.635593593872637,
                0.2465087329467237,
                0.36200335112235915,
                0.43410675972615786,
                0.0852354,
                0.6467260744664626,
                0.07525,
                0.044732499999999994,
                0.049500980390632,
                0.3892498989654058,
                0.6616572831606166,
                0.015587149373411546,
                0.3797402846787316,
                0.28544047463320243,
                0.08182114468184964,
                0.4709240504225065,
                0.14084925187219866,
                0.42158447143999567,
                0.22188247534079483,
                0.20686876618351857
            ],
            "photocathode": [
                2872,
                700,
                1091,
                791,
                4598,
                2874,
                4093,
                4596,
                2514,
                2106,
                2858,
                3083,
                3089,
                2050,
                3078,
                4666,
                4690,
                2525,
                4687,
                3239,
                4720,
                161,
                4594,
                2311,
                1031,
                4526,
                4666,
                4589,
                4653,
                4505,
                3215,
                4669,
                676,
                3107,
                2906,
                308,
                2909,
                2684,
                4685,
                4310,
                939,
                4712,
                4653,
                4604,
                517,
                4658,
                4565,
                4598,
                2543,
                3806,
                4749,
                4497,
                3104,
                2824,
                945,
                2929,
                4521,
                2351,
                4505,
                3492,
                4643,
                62,
                2795,
                4621,
                4621,
                4565,
                4471,
                61,
                4681,
                3211,
                4453,
                4480,
                2231,
                4727,
                2704,
                3490,
                3293,
                1800,
                4564,
                4543,
                2349,
                3650,
                4543,
                2932,
                4927,
                4642,
                4685,
                150,
                4567,
                1529,
                2427,
                984,
                4691,
                55,
                2350,
                3729,
                4664,
                4026,
                2292,
                3432,
                3234,
                2308,
                4637,
                2097,
                150,
                4337,
                4723,
                1432,
                788,
                4740,
                4676,
                3257,
                1474,
                2564,
                4238,
                2359,
                4555,
                4605,
                983,
                4430,
                3543,
                1989,
                3720,
                3202,
                111,
                3241,
                1361,
                4555,
                1395,
                1597,
                4679,
                4669,
                2178,
                4261,
                3504,
                3337,
                4565,
                1524,
                4688,
                3080,
                2966,
                4529,
                2895,
                4060,
                2030,
                4551,
                4632,
                366,
                3290,
                4665,
                4699,
                4745,
                498,
                1522,
                4635,
                4495,
                1234,
                4647,
                3226,
                1544,
                4552,
                4624,
                2483,
                2674,
                2823,
                4648,
                4629,
                4729,
                4613,
                2507,
                373,
                4715,
                4641,
                3902,
                4709,
                690,
                4724,
                4401,
                3320,
                2526,
                4637,
                4624,
                4927,
                4166,
                2562,
                689,
                4005,
                2319,
                4429,
                1206,
                940,
                499,
                4530,
                2742,
                702,
                4752,
                4220,
                4693,
                4671,
                3196,
                4012,
                1792,
                2960,
                1664,
                3234,
                4687,
                3004,
                2864,
                1712,
                127,
                4125,
                1481,
                4143,
                2440,
                2566,
                2168,
                4585,
                4640,
                1498,
                3139,
                4751,
                4653,
                4662,
                3774,
                1399,
                1387,
                654,
                2989,
                4720,
                4829,
                3377,
                1563,
                1514,
                4387,
                4699,
                3124,
                4641,
                3203,
                4518,
                685,
                76,
                4506,
                4580,
                2547,
                3149,
                4683,
                1107,
                710,
                80,
                1424,
                3110,
                1979,
                4680,
                2306,
                4551,
                1344,
                4697,
                4542,
                4521,
                1632,
                551,
                4669,
                3874,
                2089,
                2068,
                1383,
                234,
                2367,
                4395,
                350,
                1505,
                4492,
                2294,
                4645,
                3595,
                2063,
                2567,
                1280,
                4572,
                4187,
                843,
                4571,
                1109,
                2889,
                3133,
                4682,
                3239,
                2149,
                1481,
                3725,
                3979,
                3427,
                2900,
                4700,
                944,
                2209,
                14,
                442,
                4167,
                3852,
                1190,
                4897,
                318,
                573,
                1686,
                4563,
                4612,
                1695,
                2599,
                4670,
                4732,
                1429,
                1371,
                4686,
                2109,
                2535,
                4671,
                382,
                1375,
                4486,
                4729,
                1413,
                4623,
                1999,
                4480,
                3239,
                4799,
                3446,
                564,
                4507,
                477,
                3129,
                3487,
                4572,
                4673,
                4463,
                2073,
                3275,
                4658,
                2646,
                1868,
                4270,
                2710,
                3342,
                4818,
                4620,
                4665,
                1297,
                4327,
                4827,
                2304,
                4680,
                4268,
                2502,
                528,
                1558,
                1469,
                4610,
                3236,
                836,
                2919,
                4673,
                890,
                4630,
                2801,
                4557,
                4365,
                3431,
                330,
                4682,
                2434,
                4702,
                2094,
                1849,
                2721,
                1177,
                505,
                3319,
                4716,
                4499,
                3426,
                2791,
                4648,
                4159,
                4106,
                174,
                4825,
                4441,
                2695,
                3187,
                4577,
                1062,
                2843,
                3153,
                4563,
                3043,
                4049,
                4472,
                3826,
                3673,
                2868,
                4587,
                386,
                4695,
                3439,
                3394,
                4451,
                3370,
                4599,
                4524,
                2139,
                1162,
                4571,
                4533,
                4600,
                4734,
                973,
                3931,
                2668,
                4312,
                1537,
                1188,
                4702,
                2660,
                1856,
                2196,
                300,
                1865,
                3543,
                4175,
                3923,
                4679,
                4711,
                537,
                3156,
                1657,
                4482,
                4654,
                618,
                3309,
                1971,
                4567,
                3619,
                4684,
                4707,
                2124,
                4573,
                1040,
                3996,
                3796,
                3077,
                2305,
                2573,
                723,
                95,
                2992,
                2720,
                3668,
                4076,
                1758,
                1809,
                4302,
                4683,
                154,
                3002,
                4668,
                4738,
                2971,
                4495,
                369,
                573,
                2894,
                4633,
                1443,
                1154,
                2213,
                3315,
                4708,
                1232,
                1662,
                4431,
                1751,
                2626,
                3021,
                564,
                4523,
                506,
                291,
                348,
                2753,
                4753,
                98,
                2723,
                2075,
                574,
                3228,
                989,
                2976,
                1545,
                1469
            ]
        },
        "detections": 500,
        "events": 346193
    }
}