{
    "job_args": {
        "metric_limit": 500,
        "seed": 2126668979
    },
    "job_id": "batch_142_do_500",
    "result": {
        "collections": {
            "crystal": [
                0.6616572831606164,
                0.6616572831606167,
                0.6616572831606166,
                0.540047229403881,
                0.6616572831606166,
                0.073039,
                0.16161150999039198,
                0.49916564584232026,
                0.41052764825905447,
                0.29216744744975326,
                0.40573872509342396,
                0.17275906672635855,
                0.3387230172127848,
                0.6616572831606167,
                0.39099247102611834,
                0.6616572831606167,
                0.32411234451501736,
                0.493044875121687,
                0.43781810452943926,
                0.03188886066304686,
                0.21265737527012996,
                0.16426116742438784,
                0.37754312843855686,
                0.563587593893957,
                0.19543284553638401,
                0.06662968017623305,
                0.14987743044443855,
                0.1962245863530513,
                0.6616572831606166,
                0.6616572831606167,
                0.6616572831606164,
                0.6616572831606166,
                0.5915431955249026,
                0.24668402353327307,
                0.06670311293133968,
                0.6616572831606167,
                0.6616572831606167,
                0.44960235729525677,
                0.3937790684455019,
                0.18379411575197727,
                0.5168741185788525,
                0.4682295841019569,
                0.5705797323372541,
                0.6616572831606166,
                0.04721299975777793,
                0.30710675661492287,
                0.6616572831606164,
                0.266352510698307,
                0.06499906573456138,
                0.10373033146321287,
                0.49756690497826295,
                0.24886816620272112,
                0.6616572831606164,
                0.6222482387416098,
                0.4192499939044202,
                0.6616572831606166,
                0.6616572831606166,
                0.6616572831606166,
                0.514727720335107,
                0.03503040618773841,
                0.6616572831606164,
                0.6616572831606167,
                0.40570475419745244,
                0.48442745407324195,
                0.6616572831606166,
                0.15109274866293299,
                0.6616572831606166,
                0.19989245031161096,
                0.49687939516897806,
                0.6616572831606166,
                0.6616572831606164,
                0.042464261602011,
                0.46429463935319254,
                0.6616572831606167,
                0.5084648111478117,
                0.24416893841881793,
                0.6616572831606167,
                0.25299503560447095,
                0.07525,
                0.6616572831606166,
                0.39113127097114436,
                0.16787463577861866,
                0.4808366227104701,
                0.421351513384098,
                0.6616572831606166,
                0.08192635394293435,
                0.6616572831606166,
                0.6616572831606166,
                0.48588142438234583,
                0.04429456322549241,
                0.6616572831606164,
                0.6616572831606167,
                0.309528520411692,
                0.49895262769300197,
                0.6616572831606164,
                0.4120322570948813,
                0.27946729995632624,
                0.4148452227887739,
                0.02856593286235032,
                0.272610760184704,
                0.31118233704254583,
                0.6616572831606164,
                0.0852354,
                0.5326718274195951,
                0.6616572831606164,
                0.6616572831606166,
                0.6616572831606164,
                0.6616572831606167,
                0.6273799787779056,
                0.03568675263431598,
                0.6616572831606166,
                0.6616572831606167,
                0.09598330452087134,
                0.6616572831606167,
                0.44227226676372955,
                0.3400610162601906,
                0.476994678559326,
                0.6616572831606166,
                0.6616572831606167,
                0.6616572831606167,
                0.01106394898257368,
                0.6616572831606167,
                0.4921352145633455,
                0.14252261508041597,
                0.6616572831606164,
                0.1462820000649318,
                0.027077701002185317,
                0.6616572831606166,
                0.08474069999999999,
                0.6616572831606167,
                0.373034520710886,
                0.6616572831606166,
                0.10091261570464838,
                0.1819786846605141,
                0.6616572831606164,
                0.48735992333964395,
                0.6616572831606166,
                0.1018713935402963,
                0.4823602379863796,
                0.0412606847147482,
                0.6616572831606167,
                0.16126324953792906,
                0.2512316644320494,
                0.4344894110718498,
                0.6616572831606167,
                0.08015441758923136,
                0.18246203508826891,
                0.6616572831606164,
                0.6616572831606167,
                0.3518774546091781,
                0.07303899999999999,
                0.22915884528461694,
                0.6616572831606166,
                0.4167381973251132,
                0.5103989142773937,
                0.44081364994705063,
                0.6616572831606167,
                0.2536446756448737,
                0.6616572831606167,
                0.6616572831606167,
                0.6616572831606166,
                0.6616572831606164,
                0.6616572831606166,
                0.023813614583792164,
                0.023250951434158895,
                0.24624878156516206,
                0.6616572831606166,
                0.4541112398674251,
                0.02431156012257396,
                0.32339270617202553,
                0.417407869925425,
                0.569712564746143,
                0.11884983825987028,
                0.6616572831606167,
                0.6616572831606167,
                0.19368725265882733,
                0.4234290431671862,
                0.5098961916678648,
                0.6616572831606166,
                0.508724867215111,
                0.372677777878909,
                0.6616572831606166,
                0.38278955587759717,
                0.6616572831606167,
                0.184257730876291,
                0.6616572831606164,
                0.6616572831606166,
                0.6616572831606166,
                0.11551353879931582,
                0.6616572831606167,
                0.6616572831606166,
                0.2719381168387278,
                0.6616572831606167,
                0.6616572831606166,
                0.28085746386526356,
                0.5014006651949503,
                0.6616572831606167,
                0.20919372328626065,
                0.6616572831606166,
                0.2581311611845794,
                0.04239100619298919,
                0.3660844414390551,
                0.499243581018871,
                0.6616572831606166,
                0.20009567511362397,
                0.41758611320439526,
                0.13139255042800224,
                0.43122181158017114,
                0.4086509532933772,
                0.32190173961026347,
                0.6616572831606166,
                0.6616572831606164,
                0.6331922496248329,
                0.6616572831606166,
                0.5220627413912199,
                0.6616572831606164,
                0.22311964093495026,
                0.1149911085240719,
                0.58239149333045,
                0.38698618949835695,
                0.0606179307171929,
                0.06367781268866163,
                0.6616572831606167,
                0.3899563745975946,
                0.28883619454809567,
                0.6616572831606166,
                0.16718414399949316,
                0.08326051743246277,
                0.6616572831606166,
                0.09415540033750694,
                0.6616572831606164,
                0.24302558180305558,
                0.2012196588105672,
                0.08763412252057678,
                0.6616572831606164,
                0.6616572831606164,
                0.1899003466998282,
                0.47742686888845143,
                0.22053139068713462,
                0.6616572831606166,
                0.6616572831606167,
                0.6616572831606166,
                0.6616572831606166,
                0.015640862010969148,
                0.6616572831606166,
                0.08653324405427443,
                0.6616572831606166,
                0.4575114219769032,
                0.0665539112543404,
                0.4624496358430224,
                0.6616572831606167,
                0.35439730207468434,
                0.033406272007821536,
                0.6616572831606164,
                0.6616572831606166,
                0.2941083880928229,
                0.44080746247407065,
                0.6616572831606166,
                0.6616572831606166,
                0.6616572831606167,
                0.3786287258151395,
                0.23317498359432895,
                0.20307416568014036,
                0.03733079046832016,
                0.6616572831606167,
                0.6616572831606164,
                0.35907471758320875,
                0.5085077837385803,
                0.13232042620444703,
                0.2345130740267442,
                0.6616572831606167,
                0.2369006268177542,
                0.37290826299988883,
                0.39104422137979333,
                0.6616572831606164,
                0.6447838523690164,
                0.22226521437626973,
                0.14639213758738334,
                0.49925696216044557,
                0.6616572831606164,
                0.6616572831606164,
                0.4893480412947735,
                0.6616572831606166,
                0.6040359010928853,
                0.3910626330140744,
                0.3486348926474626,
                0.6616572831606166,
                0.36655945075644714,
                0.014289586486933903,
                0.6616572831606166,
                0.24207231418338346,
                0.27794100433627483,
                0.0072598845953760205,
                0.6616572831606167,
                0.17021391596730656,
                0.3056985537641769,
                0.639294941608119,
                0.5432369124306037,
                0.013736164815809526,
                0.6616572831606164,
                0.06910758302575548,
                0.6616572831606166,
                0.6285376269992881,
                0.24908391568286095,
                0.1569786383692885,
                0.6616572831606166,
                0.6616572831606166,
                0.6616572831606166,
                0.3472282534284509,
                0.36274688619977985,
                0.6616572831606167,
                0.44316163445649603,
                0.5146009252098357,
                0.6616572831606167,
                0.11501698828083518,
                0.4002356249253913,
                0.46003863292479785,
                0.6616572831606166,
                0.6616572831606167,
                0.11299539845858388,
                0.6616572831606166,
                0.6616572831606166,
                0.11714688723916454,
                0.08733726345306836,
                0.4851596950329803,
                0.6616572831606166,
                0.6616572831606166,
                0.6616572831606164,
                0.6616572831606164,
                0.6616572831606166,
                0.42000073547935546,
                0.2076857576204387,
                0.3362352686142177,
                0.6616572831606166,
                0.4210090861924545,
                0.6616572831606164,
                0.2060552562646021,
                0.6616572831606166,
                0.4692502557840235,
                0.30334085677925227,
                0.3214994544790569,
                0.6616572831606164,
                0.6616572831606167,
                0.4150532810336827,
                0.6616572831606164,
                0.14436253440412972,
                0.13754069579771888,
                0.6616572831606166,
                0.6616572831606166,
                0.6616572831606166,
                0.6373541854702729,
                0.39930697762948003,
                0.22669156720683792,
                0.15128699190730488,
                0.5718268366289131,
                0.3464408039629182,
                0.2814911401295065,
                0.4834324546666352,
                0.6616572831606164,
                0.5645849413442188,
                0.6616572831606164,
                0.2655594983048631,
                0.2886037140860311,
                0.2738254723159664,
                0.4191453729120907,
                0.6431793530338141,
                0.6080426535476868,
                0.6616572831606164,
                0.264708827124677,
                0.6616572831606164,
                0.19325362571300758,
                0.05812795803893738,
                0.343853577444621,
                0.16394972094724028,
                0.6616572831606166,
                0.09799782943497726,
                0.397782048973226,
                0.22210860426890885,
                0.43738698313224017,
                0.6616572831606163,
                0.5127199455775794,
                0.6616572831606166,
                0.07525,
                0.43652178660493884,
                0.44802487830369875,
                0.046755375123668785,
                0.36392243743853214,
                0.6616572831606167,
                0.6616572831606164,
                0.07303899999999999,
                0.243819080304176,
                0.4328226835763982,
                0.10867270527468555,
                0.07525,
                0.6616572831606167,
                0.2774815501059988,
                0.20329676056928667,
                0.6616572831606166,
                0.428802764107077,
                0.6616572831606164,
                0.5762638036990401,
                0.48553562108297604,
                0.6616572831606164,
                0.6616572831606166,
                0.005688687725499159,
                0.2843857584352919,
                0.3576067647838878,
                0.6616572831606164,
                0.07525000000000001,
                0.5352650006523545,
                0.37048396128646754,
                0.4102398281039367,
                0.38610479852698054,
                0.6616572831606166,
                0.06282057698880195,
                0.6616572831606166,
                0.6616572831606167,
                0.43618499396101945,
                0.6616572831606166,
                0.08523540000000002,
                0.4181878663030455,
                0.17924885401321228,
                0.6616572831606164,
                0.2370409310872362,
                0.6616572831606166,
                0.06253237999086436,
                0.2771882568464234,
                0.6616572831606164,
                0.07303900000000002,
                0.15303038659790683,
                0.08333082876936493,
                0.6616572831606166,
                0.5211444555494211,
                0.6276059189676129,
                0.41042456068516064,
                0.6616572831606167,
                0.11207400653816824,
                0.6616572831606167,
                0.6616572831606167,
                0.24750302386136785,
                0.11628161593653419,
                0.07525,
                0.011881580724802776,
                0.6616572831606167,
                0.01990404672819035,
                0.15688064779538582,
                0.3035193698184858,
                0.6616572831606166,
                0.45077436873743426,
                0.440137359655975,
                0.6616572831606166,
                0.4672913630454207,
                0.6616572831606164,
                0.45931529901943735,
                0.2733394020443163,
                0.41672749643206564,
                0.06777754254199647,
                0.6616572831606166,
                0.6616572831606166,
                0.6616572831606166,
                0.6616572831606166,
                0.3468344744451817,
                0.47443424328269107,
                0.6616572831606166,
                0.6616572831606166,
                0.6616572831606167,
                0.2808797640127828,
                0.6616572831606167,
                0.6616572831606164,
                0.11674029866861324,
                0.6616572831606167,
                0.6616572831606166,
                0.6616572831606167,
                0.4917444552539588,
                0.6616572831606167,
                0.1970842579691909,
                0.10426382562417624,
                0.39630782387054353,
                0.6616572831606166,
                0.5376385826410398,
                0.6616572831606166,
                0.14680115534426696,
                0.6616572831606164,
                0.23216043961890181,
                0.6616572831606167,
                0.6616572831606166,
                0.06429611062393736,
                0.4240535970380501,
                0.6616572831606166,
                0.6616572831606166,
                0.1486448950850151,
                0.6616572831606166,
                0.6616572831606168,
                0.6616572831606166,
                0.6616572831606166,
                0.4466361480660117,
                0.2896542303303367,
                0.6616572831606164,
                0.21701332640994814,
                0.6616572831606167
            ],
            "photocathode": [
                4776,
                4677,
                4612,
                3849,
                4622,
                512,
                1126,
                3523,
                2885,
                1985,
                2789,
                1208,
                2309,
                4671,
                2801,
                4599,
                2206,
                3433,
                3075,
                225,
                1528,
                1121,
                2653,
                3980,
                1351,
                453,
                1085,
                1382,
                4652,
                4685,
                4730,
                4598,
                4096,
                1753,
                450,
                4756,
                4645,
                3131,
                2781,
                1291,
                3697,
                3243,
                3945,
                4601,
                319,
                2173,
                4676,
                1895,
                463,
                707,
                3566,
                1759,
                4670,
                4440,
                2786,
                4645,
                4833,
                4613,
                3673,
                259,
                4726,
                4603,
                2866,
                3381,
                4681,
                1032,
                4630,
                1364,
                3733,
                4601,
                4562,
                298,
                3309,
                4566,
                3665,
                1726,
                4512,
                1761,
                497,
                4732,
                2802,
                1183,
                3473,
                3012,
                4587,
                586,
                4657,
                4716,
                3457,
                317,
                4670,
                4543,
                2264,
                3486,
                4695,
                2821,
                1969,
                2866,
                193,
                1891,
                2217,
                4673,
                616,
                3653,
                4576,
                4695,
                4724,
                4730,
                4500,
                261,
                4828,
                4613,
                688,
                4589,
                3141,
                2351,
                3464,
                4634,
                4552,
                4712,
                63,
                4629,
                3455,
                985,
                4634,
                983,
                194,
                4673,
                639,
                4516,
                2494,
                4694,
                752,
                1288,
                4834,
                3411,
                4614,
                717,
                3313,
                282,
                4795,
                1110,
                1831,
                3032,
                4663,
                565,
                1279,
                4742,
                4547,
                2477,
                500,
                1600,
                4610,
                2915,
                3657,
                3150,
                4638,
                1798,
                4579,
                4639,
                4672,
                4741,
                4802,
                160,
                165,
                1671,
                4580,
                3180,
                165,
                2269,
                2844,
                4021,
                856,
                4535,
                4675,
                1301,
                2973,
                3495,
                4771,
                3680,
                2674,
                4706,
                2769,
                4568,
                1263,
                4537,
                4636,
                4657,
                847,
                4639,
                4582,
                1866,
                4496,
                4580,
                2035,
                3393,
                4601,
                1393,
                4571,
                1736,
                284,
                2451,
                3498,
                4617,
                1423,
                2836,
                906,
                2974,
                2791,
                2308,
                4771,
                4736,
                4364,
                4753,
                3587,
                4632,
                1624,
                819,
                4020,
                2756,
                406,
                404,
                4729,
                2722,
                2038,
                4612,
                1177,
                567,
                4645,
                654,
                4545,
                1702,
                1470,
                615,
                4732,
                4620,
                1326,
                3360,
                1519,
                4704,
                4664,
                4590,
                4673,
                129,
                4539,
                603,
                4695,
                3255,
                452,
                3230,
                4667,
                2460,
                264,
                4683,
                4534,
                2088,
                3180,
                4490,
                4693,
                4681,
                2685,
                1610,
                1426,
                273,
                4667,
                4612,
                2454,
                3507,
                942,
                1649,
                4661,
                1698,
                2569,
                2701,
                4605,
                4439,
                1512,
                1032,
                3581,
                4636,
                4681,
                3378,
                4499,
                4202,
                2737,
                2478,
                4664,
                2572,
                102,
                4579,
                1653,
                2000,
                50,
                4615,
                1276,
                2167,
                4673,
                3875,
                106,
                4863,
                505,
                4642,
                4372,
                1729,
                1115,
                4747,
                4695,
                4832,
                2562,
                2507,
                4430,
                3033,
                3648,
                4680,
                849,
                2748,
                3212,
                4620,
                4596,
                776,
                4650,
                4708,
                805,
                576,
                3343,
                4494,
                4550,
                4659,
                4624,
                4748,
                2931,
                1510,
                2411,
                4705,
                2916,
                4652,
                1452,
                4769,
                3263,
                2169,
                2290,
                4611,
                4557,
                3003,
                4679,
                1002,
                967,
                4571,
                4494,
                4577,
                4386,
                2749,
                1572,
                1070,
                4137,
                2441,
                1958,
                3362,
                4648,
                3915,
                4594,
                1877,
                1958,
                1888,
                2913,
                4362,
                4276,
                4680,
                1852,
                4642,
                1347,
                392,
                2301,
                1177,
                4652,
                628,
                2844,
                1592,
                3009,
                4599,
                3682,
                4693,
                517,
                3111,
                3241,
                336,
                2622,
                4612,
                4675,
                540,
                1769,
                3002,
                733,
                542,
                4810,
                1973,
                1376,
                4577,
                2933,
                4634,
                3947,
                3405,
                4642,
                4700,
                45,
                2038,
                2424,
                4667,
                505,
                3774,
                2612,
                2863,
                2626,
                4641,
                463,
                4659,
                4718,
                3105,
                4657,
                604,
                2990,
                1207,
                4807,
                1638,
                4561,
                460,
                1956,
                4680,
                498,
                1109,
                571,
                4591,
                3626,
                4463,
                2842,
                4730,
                797,
                4685,
                4594,
                1673,
                840,
                591,
                74,
                4703,
                111,
                1120,
                2243,
                4743,
                3074,
                3219,
                4612,
                3405,
                4648,
                3225,
                1868,
                2895,
                469,
                4640,
                4651,
                4644,
                4619,
                2420,
                3213,
                4733,
                4522,
                4602,
                1949,
                4681,
                4584,
                853,
                4615,
                4646,
                4647,
                3516,
                4562,
                1315,
                755,
                2926,
                4647,
                3757,
                4563,
                1014,
                4579,
                1655,
                4563,
                4564,
                438,
                3047,
                4821,
                4514,
                1103,
                4749,
                4597,
                4694,
                4604,
                3190,
                2082,
                4608,
                1585,
                4575
            ]
        },
        "detections": 500,
        "events": 196385
    }
}