{
    "job_args": {
        "metric_limit": 500,
        "seed": 259946209
    },
    "job_id": "batch_138_do_500",
    "result": {
        "collections": {
            "crystal": [
                0.6616572831606167,
                0.6616572831606166,
                0.6616572831606166,
                0.264675187338096,
                0.6358821072612333,
                0.45736716468747995,
                0.4751942112983377,
                0.31586493355247547,
                0.26860182898896845,
                0.37930008751962296,
                0.223271493446157,
                0.42074929462273597,
                0.6616572831606164,
                0.49745102288460685,
                0.05195674041065301,
                0.6616572831606167,
                0.6616572831606166,
                0.6616572831606166,
                0.6616572831606166,
                0.39684114796999126,
                0.35197735433686783,
                0.6184476135171402,
                0.6616572831606166,
                0.04102364165976724,
                0.42270041895626775,
                0.6616572831606166,
                0.6616572831606166,
                0.4298205892622313,
                0.6616572831606167,
                0.49510718870493153,
                0.6616572831606166,
                0.6616572831606167,
                0.45619567135807476,
                0.6616572831606166,
                0.6252024250197575,
                0.07275321684110536,
                0.16281024337084998,
                0.6616572831606164,
                0.6616572831606167,
                0.3977286856469745,
                0.43120878520953676,
                0.42327550246101164,
                0.6616572831606164,
                0.5145094882057712,
                0.43519402234203125,
                0.6616572831606166,
                0.4252549730092018,
                0.15715515146712578,
                0.24510003626182908,
                0.4600015635693044,
                0.073039,
                0.3509903554727775,
                0.04410323133600558,
                0.502285381392071,
                0.6616572831606164,
                0.0408022,
                0.6616572831606164,
                0.6616572831606167,
                0.6616572831606164,
                0.6616572831606164,
                0.5921277977861945,
                0.39169734319161675,
                0.02917769140423543,
                0.22174322252906392,
                0.29523527167120467,
                0.25566048062146596,
                0.059106639883327206,
                0.41299004666760575,
                0.6616572831606164,
                0.02400057523787988,
                0.6616572831606166,
                0.4834955612111653,
                0.6616572831606164,
                0.483969433586966,
                0.12482302066400076,
                0.6616572831606166,
                0.4119357562601146,
                0.01938951411146561,
                0.6616572831606166,
                0.264973839203934,
                0.26088112482478976,
                0.4356343992415017,
                0.03561755358062302,
                0.37923850831847883,
                0.45293540594986453,
                0.030717087675622774,
                0.0903049132051163,
                0.6616572831606167,
                0.6616572831606164,
                0.6616572831606164,
                0.26579222897995247,
                0.6616572831606164,
                0.07310539474148753,
                0.21711865286334248,
                0.10462159093310641,
                0.5220726578196121,
                0.44598450366955067,
                0.4531070353107218,
                0.3033966253384273,
                0.2761373174829203,
                0.4162673163332117,
                0.6616572831606164,
                0.6616572831606166,
                0.23663761415063866,
                0.4854568414570651,
                0.08073269407356759,
                0.14692636898055333,
                0.08198946722282796,
                0.5830465334617685,
                0.1388759407368464,
                0.46694481010013034,
                0.4398336132393773,
                0.4217320600683654,
                0.31132921014330783,
                0.45261532591805376,
                0.3331666422221198,
                0.3570445402740489,
                0.43257557324826384,
                0.6616572831606167,
                0.6616572831606164,
                0.0433849728596295,
                0.07525,
                0.422009768122342,
                0.356092706780469,
                0.5491607632955443,
                0.41813498915811476,
                0.011470293941918676,
                0.6616572831606167,
                0.2689616939802899,
                0.6616572831606168,
                0.4250121338819913,
                0.42581565980460834,
                0.6616572831606164,
                0.6616572831606167,
                0.6616572831606166,
                0.6616572831606166,
                0.6616572831606167,
                0.6616572831606164,
                0.4684233369042629,
                0.4921899045277367,
                0.6616572831606167,
                0.319672421225932,
                0.6616572831606166,
                0.49084804258056125,
                0.4162603172037465,
                0.6616572831606166,
                0.19700929116613006,
                0.6616572831606167,
                0.07605920702337826,
                0.3979871569953618,
                0.6616572831606166,
                0.6616572831606166,
                0.6616572831606164,
                0.21397264156157259,
                0.6616572831606166,
                0.6616572831606166,
                0.15075684888319163,
                0.2905776417669773,
                0.4742891610322423,
                0.012446861939432785,
                0.6616572831606164,
                0.493179810289712,
                0.6616572831606167,
                0.6616572831606164,
                0.48996909030828695,
                0.35401457706631634,
                0.46315852928986734,
                0.22093173912595704,
                0.6616572831606166,
                0.17675832074635933,
                0.6616572831606166,
                0.6616572831606164,
                0.33531819777332633,
                0.5543619546825012,
                0.6616572831606166,
                0.12633984452958225,
                0.6616572831606166,
                0.6616572831606167,
                0.6616572831606167,
                0.6616572831606167,
                0.6048718874130956,
                0.02478657267983153,
                0.6616572831606166,
                0.6616572831606166,
                0.1454761616797673,
                0.2975728450625008,
                0.1965922756572151,
                0.6616572831606166,
                0.6616572831606167,
                0.38458730587199935,
                0.3542989457984881,
                0.11324674552587688,
                0.0438482897939837,
                0.6548957995350231,
                0.6616572831606166,
                0.03126637416362507,
                0.6616572831606166,
                0.6616572831606166,
                0.5285977922941065,
                0.4911241090458603,
                0.6616572831606166,
                0.2801267977640881,
                0.06585148169080654,
                0.153932502985248,
                0.058180424149872456,
                0.16355182722746586,
                0.07525,
                0.6286554508006659,
                0.41519943509498003,
                0.6462433112981317,
                0.037109943647848254,
                0.10083138883519682,
                0.5112933390925203,
                0.02240909740992425,
                0.21338657412069378,
                0.467819972492857,
                0.118461117738904,
                0.027109906651631932,
                0.6616572831606166,
                0.14346042777880766,
                0.6616572831606167,
                0.6616572831606164,
                0.20936926047673632,
                0.6616572831606164,
                0.31632814654772035,
                0.4723043977903047,
                0.6616572831606166,
                0.6616572831606166,
                0.6616572831606166,
                0.21599043215292815,
                0.6616572831606164,
                0.2639758701214854,
                0.13515487597247466,
                0.3833140056877496,
                0.6616572831606166,
                0.23176669510417616,
                0.037078201727060445,
                0.6616572831606167,
                0.21315266846221986,
                0.2987411280224212,
                0.6616572831606164,
                0.6616572831606167,
                0.015436159362905943,
                0.6616572831606167,
                0.6616572831606166,
                0.2566836575113207,
                0.6616572831606166,
                0.2728521813856587,
                0.0469435,
                0.15621802499751247,
                0.6576592409907113,
                0.19584501221495304,
                0.39707959238581125,
                0.6616572831606167,
                0.6616572831606167,
                0.6616572831606167,
                0.6616572831606167,
                0.25001625539541644,
                0.08922722644102478,
                0.21770202317485932,
                0.6616572831606166,
                0.18351156467692925,
                0.6616572831606164,
                0.6616572831606163,
                0.6375513448193346,
                0.602171664878267,
                0.6616572831606166,
                0.08523540000000002,
                0.5744990300594189,
                0.6616572831606166,
                0.4718238615876121,
                0.49053274594180596,
                0.6616572831606166,
                0.6616572831606166,
                0.515452588452906,
                0.304310264437489,
                0.6142925161434217,
                0.6616572831606167,
                0.6616572831606167,
                0.6616572831606166,
                0.6616572831606166,
                0.6616572831606166,
                0.4723415366713747,
                0.42335859507427465,
                0.6616572831606166,
                0.3098949509734966,
                0.6616572831606164,
                0.11529120743914645,
                0.460189966338665,
                0.6616572831606166,
                0.28736138310332987,
                0.056928900000000004,
                0.6616572831606166,
                0.41207720092506844,
                0.4309456156178408,
                0.4547719698311655,
                0.6616572831606167,
                0.27696526699340845,
                0.6616572831606166,
                0.10951094815628826,
                0.6616572831606166,
                0.19486293268331129,
                0.6616572831606164,
                0.42642824114340505,
                0.4742347881175198,
                0.6616572831606167,
                0.6616572831606166,
                0.23862609701903348,
                0.24832025778037525,
                0.4638053969319175,
                0.5758914975488771,
                0.27141275362039924,
                0.07525,
                0.2196623032605476,
                0.17165255664083218,
                0.29459631847941714,
                0.6616572831606167,
                0.44448865376785524,
                0.5120887511087164,
                0.07524999999999998,
                0.27488820959252697,
                0.0232808453874499,
                0.5743450551910863,
                0.6616572831606166,
                0.4025130887554166,
                0.4138256425432403,
                0.45307439738621824,
                0.07151078260086807,
                0.4179805804250527,
                0.6616572831606166,
                0.22942430630714236,
                0.6616572831606167,
                0.2968907044870649,
                0.539492380981881,
                0.12369423536229329,
                0.23624918905190795,
                0.39454259073052345,
                0.6616572831606167,
                0.03519292321577261,
                0.6616572831606164,
                0.5200290805069152,
                0.24715925609182435,
                0.6616572831606164,
                0.472022931278135,
                0.35317028245096194,
                0.2432971159860532,
                0.6616572831606167,
                0.3026330329144391,
                0.06796490633767482,
                0.5991148396089118,
                0.32521193913273466,
                0.2494087483726335,
                0.6616572831606166,
                0.06558600028544126,
                0.061984819480693565,
                0.1458056341361775,
                0.6616572831606167,
                0.43044188477269424,
                0.6616572831606166,
                0.6616572831606166,
                0.4267287409534594,
                0.6616572831606168,
                0.025335602288878104,
                0.6616572831606167,
                0.09120101633092226,
                0.39476267210641347,
                0.3330028918474779,
                0.03196309020123855,
                0.6616572831606166,
                0.2663185228565137,
                0.4108061991401882,
                0.6294204831606166,
                0.6616572831606167,
                0.6616572831606166,
                0.35853139211702845,
                0.2547785623598529,
                0.3578566667006363,
                0.49536904190871905,
                0.6616572831606166,
                0.6616572831606166,
                0.42542314023318617,
                0.6616572831606167,
                0.3775386779236538,
                0.25442479487253716,
                0.6616572831606166,
                0.6616572831606166,
                0.26828768224705674,
                0.07131827261985024,
                0.3583628227713742,
                0.3348442316146298,
                0.09674917909050618,
                0.19658164451018723,
                0.3138655196377357,
                0.07524999999999998,
                0.28840181445759205,
                0.3973752289126167,
                0.6616572831606166,
                0.6616572831606166,
                0.38213117897557536,
                0.09819587145276178,
                0.08523540000000002,
                0.22350682937857347,
                0.17195781530910206,
                0.073039,
                0.6616572831606166,
                0.2021330969096945,
                0.2931186288671488,
                0.03921267331548495,
                0.6616572831606167,
                0.18497603655975542,
                0.6616572831606166,
                0.21361793026749415,
                0.6463808825613421,
                0.6616572831606164,
                0.033740191501076044,
                0.6616572831606166,
                0.6616572831606166,
                0.06712189857305063,
                0.5471430259425857,
                0.6616572831606167,
                0.09354411426538567,
                0.6616572831606164,
                0.5655084732277368,
                0.30141641561962973,
                0.3249247400503688,
                0.6616572831606164,
                0.6616572831606166,
                0.6616572831606163,
                0.5918952854590968,
                0.6616572831606166,
                0.6616572831606164,
                0.6616572831606164,
                0.6616572831606167,
                0.3491262410550957,
                0.3848252823106904,
                0.4554734976517779,
                0.49746706459288453,
                0.6410114173801492,
                0.2822357218122247,
                0.08070505245378234,
                0.5267659090567739,
                0.6616572831606164,
                0.6616572831606166,
                0.5917429448595417,
                0.0981089651021342,
                0.6616572831606164,
                0.6616572831606163,
                0.6616572831606166,
                0.30411050609516366,
                0.6616572831606167,
                0.6616572831606167,
                0.6616572831606166,
                0.6616572831606166,
                0.6616572831606166,
                0.2893337323006092,
                0.3192438405832324,
                0.45947278611031006,
                0.4034214958570878,
                0.6616572831606164,
                0.6616572831606166,
                0.15259147536335071,
                0.0518536524745038,
                0.22214165603241037,
                0.5272355092525105,
                0.07276750516705438,
                0.6616572831606166,
                0.6616572831606167,
                0.07188288081392946,
                0.07525,
                0.28826718309089017,
                0.34955272246830843,
                0.1415473399086148,
                0.2563652843354316,
                0.034745044327614216,
                0.6616572831606164,
                0.6616572831606164,
                0.6616572831606166,
                0.6616572831606167,
                0.2548209998380326,
                0.6616572831606167,
                0.3594651700039979,
                0.04776085169519351,
                0.3831914539498499,
                0.6616572831606164,
                0.4741960793122823,
                0.6616572831606166,
                0.365540384054034,
                0.6616572831606166,
                0.048201059076326214,
                0.37847576549956535,
                0.6616572831606166,
                0.6616572831606167,
                0.5592197657775886,
                0.25709308280048926,
                0.08474069999999999,
                0.4953808175224634,
                0.07622488644907399,
                0.6616572831606166,
                0.23602703666843278,
                0.6616572831606167
            ],
            "photocathode": [
                4748,
                4639,
                4690,
                1906,
                4508,
                3251,
                3230,
                2228,
                1941,
                2690,
                1600,
                2916,
                4711,
                3495,
                359,
                4729,
                4697,
                4550,
                4691,
                2798,
                2451,
                4298,
                4605,
                283,
                3071,
                4667,
                4713,
                2980,
                4715,
                3329,
                4740,
                4644,
                3200,
                4730,
                4549,
                521,
                1118,
                4708,
                4447,
                2663,
                3106,
                3040,
                4561,
                3565,
                2883,
                4637,
                2876,
                1090,
                1662,
                3230,
                505,
                2494,
                300,
                3555,
                4570,
                297,
                4568,
                4650,
                4782,
                4723,
                4154,
                2792,
                187,
                1547,
                2119,
                1801,
                428,
                2904,
                4720,
                168,
                4654,
                3286,
                4594,
                3408,
                939,
                4640,
                2886,
                130,
                4630,
                1753,
                1822,
                3009,
                254,
                2705,
                3126,
                222,
                567,
                4866,
                4814,
                4694,
                1935,
                4633,
                499,
                1520,
                755,
                3584,
                3096,
                3198,
                2134,
                1911,
                2910,
                4577,
                4625,
                1646,
                3535,
                579,
                1002,
                549,
                4084,
                968,
                3231,
                2977,
                3023,
                2164,
                3166,
                2266,
                2536,
                3091,
                4642,
                4555,
                313,
                562,
                2914,
                2459,
                3970,
                3019,
                80,
                4631,
                1899,
                4565,
                3006,
                3078,
                4643,
                4586,
                4692,
                4642,
                4673,
                4525,
                3320,
                3384,
                4678,
                2190,
                4666,
                3556,
                2887,
                4696,
                1361,
                4640,
                537,
                2763,
                4514,
                4594,
                4491,
                1448,
                4566,
                4686,
                1073,
                2023,
                3284,
                78,
                4746,
                3402,
                4701,
                4660,
                3351,
                2609,
                3310,
                1529,
                4694,
                1198,
                4611,
                4594,
                2366,
                3867,
                4604,
                864,
                4819,
                4604,
                4527,
                4700,
                4184,
                155,
                4823,
                4610,
                1042,
                2070,
                1363,
                4587,
                4691,
                2676,
                2502,
                815,
                288,
                4566,
                4760,
                211,
                4556,
                4643,
                3738,
                3697,
                4544,
                2004,
                417,
                1120,
                400,
                1104,
                508,
                4342,
                2977,
                4509,
                247,
                709,
                3593,
                151,
                1506,
                3275,
                786,
                196,
                4721,
                956,
                4774,
                4786,
                1502,
                4479,
                2165,
                3313,
                4672,
                4551,
                4533,
                1487,
                4627,
                1870,
                932,
                2835,
                4662,
                1664,
                271,
                4527,
                1563,
                2186,
                4572,
                4726,
                109,
                4628,
                4866,
                1807,
                4506,
                1989,
                311,
                1142,
                4619,
                1384,
                2761,
                4508,
                4788,
                4777,
                4534,
                1735,
                624,
                1529,
                4613,
                1271,
                4815,
                4518,
                4434,
                4199,
                4673,
                602,
                3911,
                4555,
                3347,
                3390,
                4643,
                4665,
                3649,
                2172,
                4565,
                4605,
                4602,
                4730,
                4565,
                4631,
                3310,
                3026,
                4545,
                2123,
                4656,
                852,
                3325,
                4660,
                2026,
                397,
                4728,
                2952,
                2947,
                3277,
                4781,
                1987,
                4624,
                795,
                4657,
                1398,
                4685,
                3006,
                3281,
                4694,
                4592,
                1705,
                1732,
                3276,
                3966,
                1813,
                531,
                1535,
                1238,
                2085,
                4818,
                3100,
                3564,
                548,
                1899,
                162,
                4087,
                4672,
                2782,
                2814,
                3232,
                482,
                2890,
                4596,
                1653,
                4785,
                2104,
                3762,
                862,
                1643,
                2774,
                4727,
                240,
                4730,
                3634,
                1847,
                4796,
                3393,
                2429,
                1714,
                4707,
                2103,
                481,
                4171,
                2298,
                1671,
                4693,
                481,
                454,
                1009,
                4610,
                2980,
                4594,
                4659,
                3212,
                4649,
                172,
                4632,
                655,
                2675,
                2487,
                223,
                4629,
                1888,
                2915,
                4410,
                4557,
                4650,
                2524,
                1735,
                2450,
                3490,
                4586,
                4608,
                2933,
                4663,
                2640,
                1747,
                4626,
                4672,
                1844,
                492,
                2558,
                2340,
                687,
                1385,
                2152,
                552,
                2032,
                2659,
                4750,
                4668,
                2701,
                696,
                583,
                1575,
                1224,
                509,
                4683,
                1411,
                2019,
                264,
                4738,
                1285,
                4711,
                1506,
                4671,
                4726,
                246,
                4617,
                4684,
                487,
                3875,
                4713,
                674,
                4737,
                3900,
                2134,
                2250,
                4586,
                4575,
                4630,
                4075,
                4629,
                4624,
                4545,
                4718,
                2384,
                2821,
                3137,
                3497,
                4652,
                2000,
                559,
                3697,
                4766,
                4594,
                4031,
                670,
                4639,
                4628,
                4557,
                2106,
                4555,
                4672,
                4572,
                4769,
                4649,
                1951,
                2210,
                3266,
                2752,
                4706,
                4566,
                1027,
                334,
                1589,
                3793,
                506,
                4586,
                4698,
                477,
                571,
                2027,
                2570,
                994,
                1869,
                221,
                4870,
                4547,
                4373,
                4707,
                1799,
                4713,
                2500,
                352,
                2739,
                4570,
                3307,
                4640,
                2798,
                4605,
                322,
                2561,
                4689,
                4648,
                4022,
                1739,
                585,
                3361,
                543,
                4654,
                1647,
                4429
            ]
        },
        "detections": 500,
        "events": 181304
    }
}