{
    "job_args": {
        "metric_limit": 500,
        "seed": 1105364792
    },
    "job_id": "batch_121_do_500",
    "result": {
        "collections": {
            "crystal": [
                1.27125934028356,
                0.864452833843544,
                0.20306245806665874,
                1.0935886256319387,
                0.19972938485198657,
                1.3324980931528798,
                1.1732266212015405,
                0.0006802774795273692,
                0.4764536611148773,
                1.1732266212015403,
                1.098683278789108,
                0.5427173753333873,
                1.1732266212015405,
                0.030429625115832915,
                0.5279330510531766,
                0.17327232193654885,
                1.33249809315288,
                0.8143193749035044,
                0.8501450257264915,
                0.44452396417520273,
                0.9070800975916999,
                1.1732266212015403,
                0.6565191265625312,
                0.281663060934365,
                0.3902361941988024,
                0.2888486563139826,
                0.1496632964214044,
                0.8219581634912013,
                1.17322662120154,
                0.9193637255167274,
                1.3324980931528798,
                0.33069847173354816,
                0.659341060192002,
                0.4293068285991866,
                1.1732266212015405,
                0.716697569674775,
                0.4098544786056779,
                0.12451144720953303,
                0.6970965190402723,
                0.6979020456471063,
                1.0632569285964737,
                1.1732266212015405,
                0.9498550287417191,
                1.1732266212015405,
                1.1732266212015405,
                0.9129891000193526,
                0.16668235209458832,
                0.059496717973760216,
                1.33249809315288,
                1.1732266212015405,
                0.9494067990600035,
                1.3324980931528798,
                0.07525,
                0.5411408092556093,
                1.3324980931528798,
                0.5852199902767785,
                1.1732266212015405,
                0.7917705146289918,
                0.05438944141706781,
                0.5429983523927892,
                0.747607120804139,
                0.4559629938328399,
                0.32059139281989535,
                1.0511963613570527,
                1.0283158501590866,
                0.9223780018804625,
                0.8505834169262072,
                1.0813520745949619,
                0.71751595761085,
                0.4221457882045367,
                0.8734818687810308,
                0.1651417115892987,
                1.1732266212015405,
                0.7803117840311925,
                1.082409020089439,
                0.2442678730378037,
                1.1732266212015403,
                0.6459013664795578,
                0.7424190039063573,
                0.9791875849354201,
                0.9436198748802548,
                0.4450376787524081,
                0.39650694259327157,
                0.4789560776662398,
                0.6786596968074294,
                0.9889389537899567,
                1.1732266212015405,
                0.2760358755986274,
                0.669229585812228,
                1.015437398352936,
                1.1732266212015408,
                0.8221894973236537,
                0.3508722460331268,
                1.1732266212015405,
                1.3324980931528798,
                0.03802667809371307,
                1.3324980931528798,
                0.09276569250104982,
                1.33249809315288,
                1.33249809315288,
                0.7145383760053038,
                0.389622807349004,
                0.05504577535968491,
                1.1732266212015405,
                0.5757813077880292,
                0.5722428586663977,
                1.3324980931528798,
                0.03931499414102059,
                1.3324980931528798,
                0.047837674503829315,
                1.3324980931528798,
                0.07307913966336366,
                0.24440842497451687,
                0.4729426553413889,
                0.25302715625816996,
                0.20022968365398586,
                1.1732266212015408,
                0.8381604347272842,
                0.9830406024900538,
                0.1809844377091142,
                1.1732266212015405,
                0.6012072832297954,
                1.33249809315288,
                0.27887770957402735,
                0.8343336027564411,
                1.1732266212015405,
                0.829085836259993,
                0.9909209378633108,
                0.24035922423478817,
                0.5843345154851158,
                0.25062854738496704,
                0.8626360237164297,
                0.21682222891527766,
                1.3324980931528796,
                1.034161703279627,
                0.5876611984557348,
                0.8899383739370601,
                0.5109989099999999,
                0.3456019249307998,
                0.2564104539353845,
                0.8940288337352946,
                0.930462218951084,
                0.8361310623141801,
                1.3324980931528798,
                0.8413512263559966,
                0.5756484446069942,
                0.2917003124497735,
                0.8153838016825641,
                0.33390884181131264,
                0.3709889148842478,
                0.014443599694990317,
                0.07303900000000002,
                1.3324980931528798,
                1.1212763609960708,
                0.47431279136866,
                0.6215917810023439,
                1.1732266212015408,
                1.3324980931528803,
                0.758743235006792,
                0.35124559330522653,
                0.5768236593556492,
                0.6434228303109663,
                0.5340044392024059,
                1.3324980931528796,
                1.3324980931528798,
                1.3324980931528798,
                0.3333896687445669,
                1.33249809315288,
                0.2182468844615446,
                0.8697013824455047,
                0.5478746431727408,
                0.5522039437364372,
                1.3324980931528798,
                0.6892203287497777,
                1.1928967918756943,
                0.5289444866335091,
                0.795478100482299,
                0.7960604030613029,
                0.503528929894696,
                0.06068547207950448,
                0.14262854077415066,
                1.1732266212015405,
                0.30087460166926455,
                0.3834583633884028,
                1.3324980931528803,
                0.3960213984027944,
                0.9281363285441233,
                1.3324980931528798,
                0.6134871370579652,
                0.5253416038464467,
                1.1732266212015405,
                0.2411755991019494,
                0.09486033813736161,
                1.3324980931528796,
                0.07303900000000002,
                0.13804678944577997,
                0.8214991831528798,
                1.3324980931528798,
                0.44078967615098075,
                0.6935675416254004,
                1.3324980931528798,
                0.3962287913995647,
                0.5435733603638688,
                0.23419463217192693,
                1.1732266212015405,
                0.6793208858340478,
                0.4898133374390017,
                0.6421257874192552,
                0.8490628656054258,
                0.2957195067576486,
                0.33329270232238883,
                0.9538960813639966,
                1.3324980931528798,
                0.7725819808087251,
                0.06640178185563728,
                1.0994499510845397,
                1.1732266212015405,
                0.5201142930942181,
                0.5321892421864669,
                0.07525,
                0.3002830855128432,
                0.7817101836174657,
                0.9157807517608596,
                0.18050181314643585,
                1.1732266212015403,
                0.5442922934217759,
                0.650688473641624,
                1.1859425828114039,
                1.1732266212015403,
                1.1732266212015405,
                0.4682236727602075,
                1.021104114117094,
                0.11317250636126053,
                0.47025463141433577,
                0.9408516160440342,
                0.3459546171728033,
                1.1564885870643091,
                1.1732266212015408,
                1.1732266212015408,
                0.19363115319546229,
                1.1732266212015405,
                1.1732266212015403,
                0.6885782032455545,
                0.23292407136655902,
                0.04656923322536288,
                1.3324980931528803,
                1.1732266212015405,
                1.3324980931528798,
                0.9147035144728147,
                0.1198495936011843,
                0.9952132887785139,
                0.07525000000000001,
                0.22032158293684181,
                1.2272327531293385,
                0.9458256684012013,
                0.5137680428997441,
                1.3324980931528798,
                0.4372195261521724,
                1.33249809315288,
                0.18759645112724876,
                0.435195591738232,
                1.3324980931528798,
                0.7955996707585347,
                0.6849138770376346,
                0.33120267146868787,
                0.7249374262311036,
                0.2824850952327954,
                1.3324980931528798,
                0.18520524189040802,
                0.45116544235154377,
                1.3324980931528798,
                0.7596148635302116,
                1.1732266212015403,
                0.5492060991170138,
                0.822494485550042,
                0.02801595022568326,
                0.5705827455956408,
                1.1732266212015405,
                0.8662112530561326,
                1.0814047589096776,
                1.33249809315288,
                1.33249809315288,
                0.9281043717089859,
                0.4766214187618769,
                0.522406445769528,
                0.027310256417716172,
                0.5878188394456656,
                0.41954845613024283,
                0.24734460678782463,
                0.09297307498678054,
                0.9209781552037677,
                1.1441478963882215,
                0.25910483708117976,
                0.6951689934511971,
                0.5761516199156334,
                1.1732266212015408,
                1.3324980931528798,
                1.1732266212015408,
                1.3324980931528796,
                1.026967340599326,
                0.6757537583501387,
                1.1732266212015405,
                0.7957085507304286,
                1.0807129768479726,
                0.9779504370173351,
                0.27955790320818386,
                0.8175757832611837,
                0.14741618681496985,
                0.37063452984249184,
                0.025948175403810225,
                0.1641612183793255,
                1.1732266212015408,
                0.7358063152731028,
                0.9343448352056453,
                0.3762285119644747,
                0.6890687357143124,
                0.6183486500392447,
                1.1732266212015403,
                0.14418648467556128,
                0.51099891,
                1.1732266212015405,
                1.3324980931528798,
                0.44664614990006507,
                1.33249809315288,
                0.38477427874195036,
                0.6181031109336883,
                0.001699623647731019,
                1.0902741956907507,
                1.1732266212015408,
                0.7916119465389243,
                1.3324980931528798,
                0.6909719397502878,
                1.084614584737751,
                0.5142420990532276,
                1.1732266212015403,
                0.7805727713843696,
                0.06504262505384509,
                1.0345487061365513,
                0.7972380312953042,
                0.176143749446679,
                0.6176694882218939,
                1.1488113966849496,
                1.1732266212015405,
                0.7208670013723746,
                1.0912384789704952,
                0.04215056977244447,
                1.1732266212015405,
                0.7480918845808802,
                0.858781382554631,
                0.6671089368863279,
                1.1732266212015405,
                1.0220548510587268,
                1.3324980931528798,
                0.4746479131537084,
                0.4296626030867339,
                0.676614619860724,
                0.5915147546272188,
                1.3324980931528796,
                0.5695313205179631,
                1.0021653772533383,
                0.43036101462954807,
                0.2808905780519181,
                1.1732266212015405,
                0.12637583910262823,
                0.027226671889619275,
                0.7030325538504683,
                0.5278319989285462,
                0.5207902147901148,
                0.7861107806067706,
                0.2581390162352679,
                1.3324980931528794,
                1.0401453545701513,
                0.2784956245835866,
                0.20334086554812192,
                1.33249809315288,
                1.1732266212015405,
                0.21236186037421934,
                0.9809721225718177,
                0.0847407,
                0.594156571835892,
                0.051186762959554766,
                0.4254224690759177,
                0.6460856911173576,
                0.13178649346575333,
                0.001431814741351456,
                1.085455180006369,
                1.3324980931528798,
                1.3324980931528796,
                1.33249809315288,
                0.67995206338513,
                0.4499862148936686,
                1.3324980931528798,
                0.3458263469929347,
                0.663201704732516,
                1.1449267149083928,
                0.9343061771626847,
                0.4771487391843653,
                0.6472354368612268,
                0.036368461771772775,
                0.3782085320480195,
                1.1732266212015405,
                0.5765067986547525,
                1.1188434009231694,
                1.3324980931528798,
                1.33249809315288,
                0.22972672422316087,
                0.2894470450794349,
                1.1732266212015405,
                0.37161046961992406,
                1.0985014584555444,
                1.100852409109639,
                0.46472400978110917,
                0.9446489602865389,
                0.4172156555329294,
                0.15082811795592121,
                0.41315138045450206,
                0.059405098384944566,
                0.6672298848719357,
                0.9710561287675156,
                1.1732266212015405,
                0.8026162505358626,
                0.05873640426350146,
                1.0062087003738838,
                0.8419559494552307,
                0.44965001565730833,
                0.507543007910391,
                1.3324980931528796,
                1.0881269003897838,
                0.09777669193518268,
                0.30674207401905357,
                0.5439968185252247,
                0.2799693763458931,
                0.6344591990003536,
                1.1732266212015405,
                0.42346175963547744,
                0.12861448419438815,
                0.48079839369086635,
                0.18917813325717958,
                0.5829360990480109,
                0.09606764325987979,
                0.49245467865946624,
                0.6243460582702989,
                0.4273412851275642,
                0.8050058527711854,
                0.6879713882059918,
                0.5982814111982704,
                0.13968080145522932,
                1.1223268524243577,
                0.687149185809283,
                0.45105096200415484,
                0.9426594564694921,
                0.8585839577657381,
                1.3324980931528798,
                0.10041465060320498,
                0.030897522979298153,
                1.0221349869525644,
                0.9449429204649074,
                1.1732266212015405,
                0.3897332286203809,
                0.6012428123229951,
                0.40132471645972256,
                1.1732266212015405,
                0.24880181762780482,
                0.26755181792226956,
                0.7183839416036019,
                0.181637566770398,
                0.8606117620395084,
                0.4781914358332216,
                0.054086195111108015,
                0.45341773118484324,
                0.06669338994389218,
                1.1732266212015405,
                0.6116931568875887,
                0.460766608580466,
                1.0150391886580963,
                1.3324980931528796,
                0.3072510250588324,
                0.5286712189489546,
                0.6378417572161613,
                0.5222066924608686,
                0.7301807281026944,
                0.23765504061268114,
                1.1732266212015405,
                0.7214135619656727,
                1.3324980931528798,
                0.2651771198348754,
                1.1732266212015403,
                0.4241481484743515,
                0.14381198979931398,
                1.33249809315288,
                0.3285490136810734,
                0.9467675273884613,
                0.32072842275732916,
                0.16580496841021586,
                1.3324980931528798,
                0.6546256117663813,
                0.7450633027958004,
                1.3324980931528798,
                0.5644371849317725,
                0.7225017446657119
            ],
            "photocathode": [
                8929,
                6035,
                1390,
                7764,
                1446,
                9391,
                8436,
                5,
                3348,
                8258,
                7561,
                3871,
                8135,
                201,
                3567,
                1222,
                9328,
                5658,
                5920,
                3031,
                6433,
                8250,
                4600,
                1990,
                2825,
                1987,
                1071,
                5924,
                8250,
                6315,
                9304,
                2347,
                4528,
                3120,
                7946,
                5215,
                2940,
                822,
                4976,
                4854,
                7432,
                8229,
                6404,
                8378,
                8191,
                6315,
                1111,
                384,
                9277,
                8090,
                6665,
                9051,
                553,
                3848,
                9393,
                4067,
                8243,
                5575,
                395,
                3753,
                5164,
                3121,
                2269,
                7406,
                6940,
                6425,
                5836,
                7681,
                5062,
                2945,
                6066,
                1231,
                8227,
                5528,
                7631,
                1877,
                8320,
                4444,
                5273,
                6942,
                6898,
                3071,
                2811,
                3538,
                4864,
                6940,
                8303,
                1920,
                4820,
                7165,
                8450,
                5786,
                2492,
                8263,
                9443,
                253,
                9350,
                637,
                9455,
                9293,
                5010,
                2829,
                396,
                8306,
                3981,
                3970,
                9402,
                270,
                9362,
                347,
                9357,
                536,
                1744,
                3401,
                1727,
                1441,
                8320,
                5870,
                7322,
                1282,
                8122,
                4336,
                9288,
                2031,
                5990,
                8383,
                6037,
                6940,
                1704,
                4173,
                1753,
                6075,
                1527,
                9252,
                7402,
                4235,
                6312,
                3531,
                2409,
                1867,
                6158,
                6598,
                5796,
                9056,
                5928,
                4047,
                2062,
                5753,
                2431,
                2689,
                102,
                492,
                9049,
                8016,
                3400,
                4489,
                8253,
                9390,
                5247,
                2427,
                4057,
                4579,
                3737,
                9620,
                9285,
                9326,
                2361,
                9118,
                1488,
                6356,
                3799,
                3837,
                9390,
                4878,
                8409,
                3725,
                5616,
                5680,
                3595,
                398,
                1001,
                8230,
                2112,
                2689,
                9456,
                2765,
                6431,
                9341,
                4311,
                3860,
                8148,
                1758,
                660,
                9218,
                477,
                981,
                5728,
                9375,
                3029,
                4891,
                9208,
                2826,
                3704,
                1607,
                8168,
                4890,
                3512,
                4523,
                6020,
                2062,
                2217,
                6712,
                9409,
                5580,
                446,
                7802,
                8356,
                3583,
                3784,
                527,
                2130,
                5458,
                6556,
                1254,
                8212,
                3863,
                4562,
                8275,
                8255,
                8147,
                3422,
                7290,
                772,
                3265,
                6757,
                2411,
                8079,
                8137,
                8388,
                1355,
                8137,
                8101,
                4780,
                1595,
                327,
                9332,
                8083,
                9529,
                6572,
                861,
                7072,
                524,
                1601,
                8659,
                6605,
                3586,
                9669,
                3228,
                9580,
                1360,
                3029,
                9225,
                5690,
                4881,
                2287,
                5269,
                1974,
                9358,
                1382,
                3248,
                9436,
                5680,
                8095,
                3835,
                5929,
                204,
                4009,
                8132,
                5959,
                7938,
                9290,
                9307,
                6588,
                3273,
                3718,
                182,
                4106,
                3029,
                1756,
                637,
                6430,
                8104,
                1797,
                4801,
                4034,
                8220,
                9264,
                8373,
                9447,
                7464,
                4864,
                8243,
                5682,
                7490,
                7079,
                1995,
                5786,
                1078,
                2570,
                187,
                1103,
                8349,
                5296,
                6513,
                2709,
                4942,
                4308,
                8201,
                1074,
                3592,
                8166,
                9547,
                3171,
                9276,
                2792,
                4336,
                13,
                7599,
                8350,
                5647,
                9254,
                4781,
                7704,
                3689,
                8319,
                5555,
                482,
                7295,
                5523,
                1217,
                4450,
                8017,
                8228,
                5155,
                7611,
                280,
                8037,
                5232,
                6149,
                4710,
                8180,
                7267,
                9367,
                3365,
                3142,
                4686,
                4190,
                9383,
                3944,
                7040,
                3036,
                1881,
                8151,
                947,
                190,
                4986,
                3734,
                3664,
                5534,
                1761,
                9365,
                7238,
                1950,
                1492,
                9515,
                8270,
                1525,
                7182,
                608,
                4197,
                360,
                3038,
                4424,
                931,
                12,
                7598,
                9446,
                9081,
                9199,
                4868,
                3134,
                9097,
                2394,
                4488,
                7968,
                6706,
                3268,
                4422,
                268,
                2657,
                8173,
                4192,
                7834,
                9243,
                9499,
                1652,
                2106,
                8260,
                2650,
                7506,
                7754,
                3218,
                6519,
                2955,
                1079,
                2888,
                387,
                4553,
                7029,
                8486,
                5529,
                453,
                6925,
                6016,
                3180,
                3494,
                9401,
                7714,
                702,
                2155,
                3777,
                1897,
                4432,
                8213,
                3057,
                878,
                3333,
                1328,
                4125,
                655,
                3459,
                4326,
                3067,
                5776,
                4955,
                4197,
                977,
                7758,
                4836,
                3179,
                6507,
                6122,
                9181,
                679,
                199,
                7212,
                6523,
                8193,
                2775,
                4210,
                2736,
                8062,
                1677,
                1869,
                5097,
                1309,
                6025,
                3435,
                341,
                3166,
                489,
                8494,
                4282,
                3274,
                7116,
                9385,
                2172,
                3692,
                4424,
                3664,
                5175,
                1695,
                8442,
                4956,
                9469,
                1894,
                8002,
                3050,
                965,
                9387,
                2205,
                6569,
                2248,
                1096,
                9405,
                4640,
                5117,
                9085,
                4044,
                5038
            ]
        },
        "detections": 500,
        "events": 87494
    }
}