{
    "job_args": {
        "metric_limit": 500,
        "seed": 2222618720
    },
    "job_id": "batch_103_do_500",
    "result": {
        "collections": {
            "crystal": [
                0.49894799184887384,
                0.1244838864320128,
                0.7223376478286215,
                1.1732266212015405,
                0.5549431633351627,
                1.1732266212015405,
                0.8828438466634564,
                0.7483581846833076,
                0.44736330682853054,
                0.29440932362453154,
                1.3170597901759424,
                0.3150351799364425,
                0.040695034902811456,
                1.3324980931528798,
                0.8402475790598244,
                1.3324980931528798,
                0.8805518234333589,
                0.5611771511490553,
                1.3324980931528796,
                0.6311670771410708,
                0.8409513159226252,
                0.8048086539883965,
                0.8170321070375735,
                0.7919287603142229,
                1.3324980931528798,
                0.5099950618583251,
                0.7704289230719283,
                0.7868848246955477,
                0.2846227821576772,
                0.367646298863722,
                0.9253627759406187,
                0.88438529528274,
                1.3324980931528798,
                0.37076780318345304,
                0.09130331567501448,
                0.28485796381366957,
                1.1732266212015405,
                0.6260993758488772,
                0.7910820451428449,
                0.604321012122215,
                0.4481184115486688,
                1.1732266212015405,
                1.1732266212015405,
                0.23191332856983565,
                0.9363017938047653,
                0.14632882686565377,
                1.1732266212015408,
                0.59027016783637,
                0.8995521730070303,
                0.4291479919339206,
                0.7060394780081023,
                1.1732266212015405,
                0.23244681861870267,
                0.3645978507854464,
                0.7853179754653496,
                0.21754818190757896,
                0.724470914534285,
                1.0740993882144179,
                1.3324980931528798,
                0.9294945903305919,
                0.22998787293093328,
                0.9075910621653552,
                0.32412969756637944,
                0.5908518857709436,
                0.7528406672676368,
                0.6156641464941733,
                0.6447352466433255,
                0.6189031182314888,
                1.1732266212015405,
                1.3324980931528798,
                0.7493992152821587,
                1.3324980931528798,
                0.04789195241188704,
                0.7557346624067949,
                0.737912670033473,
                1.1732266212015405,
                0.9492336633306966,
                0.7186556841848019,
                0.5908741379628994,
                0.6837079134119046,
                0.9447125264069042,
                0.18834515776959845,
                0.5287111189636468,
                0.2398376629931862,
                1.3324980931528798,
                0.8337634787938717,
                0.8649275663629876,
                0.23834170457532938,
                0.5319167022507622,
                0.9422803402766099,
                0.926180060181677,
                1.137104421000182,
                1.33249809315288,
                1.1732266212015405,
                1.1732266212015408,
                0.17694507291571449,
                1.1732266212015405,
                0.2996753185313745,
                0.5780776133874124,
                1.1732266212015405,
                0.34600730598092966,
                0.31348100420822644,
                1.3324980931528798,
                0.25215791952541583,
                1.0943221190309502,
                0.7898422825606994,
                0.2290229747581773,
                0.3257975637836748,
                1.1732266212015405,
                0.2839279489497072,
                0.36535359255374306,
                0.8292873150983922,
                0.870710313263414,
                1.1732266212015405,
                0.8314051163685952,
                0.07525,
                1.1732266212015405,
                0.04755182448429918,
                0.22531256949337616,
                0.04103263064046314,
                0.2740733680357603,
                0.47067618384050014,
                0.2905146772531975,
                0.6818256690521726,
                1.1732266212015405,
                1.3324980931528798,
                0.9129631104605334,
                1.1732266212015405,
                0.44768436471712786,
                0.06263541017727703,
                1.1732266212015405,
                0.26954384891198735,
                1.0527421304359177,
                0.5185151132250729,
                1.1732266212015405,
                0.2719106193524961,
                0.40979996446489353,
                0.9002205689675766,
                0.7940454820938869,
                0.6083117521447101,
                1.140714425753957,
                0.6807434826929207,
                0.5838877095131881,
                0.29032478598411887,
                0.7288228733698423,
                0.07525000000000001,
                0.9545443348268043,
                0.13049980851242682,
                0.24916924853011657,
                0.6731343749390911,
                0.705955457977065,
                1.33249809315288,
                0.2274231774189745,
                0.9241145018244146,
                0.805861152930038,
                0.8156978746967491,
                1.3324980931528798,
                0.8233105529997052,
                0.021554590819562014,
                0.40447907002082295,
                0.4079728488596542,
                1.1732266212015405,
                0.23978392030267973,
                1.3324980931528796,
                1.1732266212015403,
                0.3665285514790365,
                0.8404402344861559,
                0.4134714165486547,
                1.1732266212015403,
                0.887062839311567,
                0.5038049691604743,
                1.3324980931528796,
                1.3324980931528796,
                1.0455676879726439,
                0.14930414879838189,
                0.6282756900343242,
                0.073039,
                0.738395010783548,
                0.11647269654830283,
                0.790080242640067,
                0.6682080233062201,
                0.6697090118162297,
                0.07525,
                0.2105241277993144,
                0.5097083000607235,
                0.07524999999999998,
                0.9574450990046987,
                1.3324980931528798,
                0.13724534022520418,
                0.8001416138779647,
                0.3630813990546806,
                0.07525,
                0.694572073891742,
                0.6588783904105185,
                0.6255687396459509,
                0.0033346095337124515,
                0.8185887697104408,
                0.7502411869693199,
                1.1405189776810876,
                0.3008967564420426,
                1.3324980931528798,
                1.1160184888883706,
                1.163151168173384,
                0.7122360691442613,
                0.8101582373236292,
                0.4511743629924265,
                0.922420006597146,
                0.4482785242405315,
                0.6605743274661725,
                0.8837113747181237,
                0.08496292637863086,
                1.1732266212015405,
                0.47544685642091283,
                1.1732266212015405,
                0.4866784087011803,
                0.6513597265932601,
                1.1732266212015405,
                1.1732266212015403,
                0.5625650829247235,
                1.3324980931528798,
                1.1732266212015405,
                0.24751371083615992,
                0.9157019510942462,
                0.7365482709889548,
                0.6936602426337362,
                0.6407728786403029,
                0.010395293017729124,
                0.6748855365840323,
                1.1732266212015403,
                1.1732266212015405,
                0.2926484223309571,
                0.9239223324937033,
                0.9530317926316823,
                0.07854485826470564,
                0.5798521144891485,
                0.8161011257501007,
                1.3324980931528796,
                0.7819887652456586,
                1.1732266212015405,
                0.1453683254654266,
                0.5472136181736871,
                1.33249809315288,
                0.24228239036834892,
                0.7972720154090249,
                0.6734162925190216,
                0.028137138953441533,
                0.41734170977748275,
                0.7759107442687776,
                0.1859132136389089,
                0.6128929404406401,
                0.6398820398975782,
                0.4731081531129606,
                0.15097482781144622,
                0.847197538406032,
                0.9775450986050706,
                0.7924020760658117,
                0.6102276060560425,
                1.1732266212015405,
                0.8068998463121748,
                1.3324980931528798,
                0.5603040543281672,
                0.10624507479561522,
                1.0907239083166658,
                0.48546126629461833,
                0.4829026058176581,
                1.0749461474778483,
                0.8271780242028303,
                0.20886821132006883,
                1.1732266212015405,
                0.6507906707207716,
                0.4141581273411942,
                0.481135344000713,
                1.058947785390747,
                1.1732266212015405,
                0.8253394919318836,
                0.3084569762278936,
                0.8213357532296728,
                1.1732266212015405,
                0.16251150965435116,
                0.822455903506787,
                1.1732266212015405,
                0.18735482307610263,
                0.7887499220077058,
                1.3324980931528796,
                0.6487261151393382,
                0.9574483192726015,
                0.4700338510171526,
                0.244768391652243,
                0.24188339419134844,
                1.3324980931528798,
                0.22587256509515208,
                1.3324980931528798,
                0.010634345337286577,
                0.17132036352112243,
                0.6358792797263374,
                0.9366166232981642,
                0.48494105803539256,
                0.3048518267314113,
                0.535188561627004,
                0.8081999229488931,
                1.1732266212015405,
                0.6466032174247316,
                0.431165030106521,
                0.1438054631349147,
                1.0599769588516739,
                0.0034492802509007436,
                1.1732266212015403,
                1.3324980931528796,
                0.849826628068285,
                0.9641473915081605,
                1.1732266212015405,
                0.4632236817488566,
                1.1732266212015403,
                1.33249809315288,
                1.1732266212015403,
                0.396868386688228,
                1.1732266212015405,
                0.6952250418848891,
                1.3324980931528798,
                0.8124319557993852,
                0.21775574294563382,
                0.6982270821334766,
                0.536437225047068,
                1.1732266212015408,
                0.6868056984350789,
                1.3324980931528798,
                0.435378182330033,
                0.6203682856657926,
                1.3324980931528798,
                1.3324980931528798,
                1.0787489898723723,
                1.1888004846601956,
                1.068761714057003,
                0.12399817214817754,
                0.8607747119311813,
                0.3973318434696417,
                1.0007653454867012,
                1.0525167457011622,
                1.3324980931528798,
                0.6743939337412787,
                0.49808470038037084,
                0.6753190216352251,
                0.1665442425706681,
                0.4574225732586332,
                0.9175543119817324,
                1.0956745952092668,
                0.2442129177536252,
                0.7079157531574334,
                0.9659402495523213,
                1.1732266212015405,
                0.3919474352160348,
                0.8533499494721645,
                0.5748903458154964,
                0.0545339335895354,
                0.07525000000000001,
                1.1732266212015403,
                0.008490625721762513,
                0.22421086155001002,
                0.2791951912507368,
                1.1732266212015405,
                1.3324980931528798,
                0.8660395820686464,
                0.3258458784803525,
                0.07525,
                0.7065702407966686,
                0.9181301528467554,
                0.17859729682849923,
                1.3324980931528796,
                1.33249809315288,
                0.6618863958667476,
                0.07303899999999999,
                0.4211601474458366,
                1.33249809315288,
                1.1732266212015405,
                0.5608940029688312,
                0.23450514882050766,
                0.7222849272184421,
                1.3324980931528796,
                0.1387429552460235,
                0.6358348814853894,
                1.0746763204862277,
                0.3405408371474854,
                0.5704556690691109,
                0.41992391603955487,
                1.1732266212015405,
                0.7399720766453676,
                0.9000632058701259,
                1.3324980931528798,
                0.6610844743365422,
                0.1045070923262483,
                0.6195035294908818,
                0.5765816460973341,
                0.2546815220682962,
                0.8031891448523563,
                1.1732266212015408,
                0.4822987406060402,
                0.5353586340557014,
                0.42337038061931365,
                0.47289347188870573,
                1.3324980931528798,
                1.3324980931528798,
                1.3324980931528798,
                0.9813049140842918,
                0.5745197167749057,
                1.3324980931528796,
                0.5782790695700993,
                1.1732266212015408,
                1.1732266212015405,
                0.05587500651211896,
                0.02297431409309514,
                0.2226168549665155,
                0.7838095313863954,
                1.1732266212015405,
                0.11112063853755327,
                0.7912301135812781,
                0.9147839348168477,
                0.7753699675029158,
                1.0264423066591093,
                0.3909478736964386,
                0.7679568410629977,
                0.6306930513550724,
                1.3324980931528798,
                0.3627717517742939,
                0.265327956821511,
                1.1732266212015408,
                1.3324980931528798,
                1.3324980931528798,
                0.6834055306105542,
                0.7304675286902185,
                0.9944745757336283,
                0.07663300138969753,
                1.0939566970293142,
                1.1732266212015405,
                0.5155522137271449,
                0.5328391967647104,
                0.6570342318170592,
                0.4288811294881889,
                0.7065764473892203,
                1.1732266212015405,
                1.1732266212015405,
                0.6517893720418255,
                0.6276695744811898,
                1.3324980931528798,
                1.0829368783638822,
                1.149016159861274,
                0.4615815239773855,
                0.8585056781265983,
                0.47370850005728016,
                0.9510001972140122,
                1.1732266212015405,
                0.08523539999999999,
                1.0861433465642107,
                0.7471738261293935,
                0.7795875495449177,
                0.30244283765136676,
                0.13422753728009051,
                0.7453996567620554,
                0.07522195764451159,
                0.7535006682267316,
                1.1732266212015405,
                0.10631870871029148,
                0.6872951284651189,
                1.3324980931528798,
                0.826090912742718,
                1.1936347250528123,
                0.8332498528216599,
                0.4821323782510393,
                0.8228702251926361,
                1.1732266212015405,
                0.7916897660883817,
                0.8138527654807646,
                0.5474582013053935,
                0.20441847808393968,
                0.5895710812928432,
                0.5586386017289637,
                0.15008368010262463,
                0.8524312008475672,
                0.7725292820237579,
                0.41353586818639665,
                0.11129025941528414,
                0.6812892259153491,
                1.3324980931528798,
                0.40249006052563846,
                0.06990136661804514,
                0.8147271901935326,
                0.9343314508464312,
                0.23169764935919734,
                0.19041275620911813,
                0.9405119873766815,
                0.8525563487781538,
                0.37620638447333177,
                0.01149850904045735,
                0.07998451875404433,
                0.4400957693423168,
                0.8199271771244346,
                1.3324980931528798,
                1.3324980931528798,
                1.3324980931528798,
                1.1149964318569168,
                0.6409824318873918
            ],
            "photocathode": [
                3498,
                867,
                5042,
                8135,
                3902,
                8281,
                6181,
                5388,
                3176,
                1958,
                9126,
                2247,
                315,
                9264,
                5993,
                9579,
                6054,
                3887,
                9442,
                4353,
                5894,
                5615,
                5734,
                5710,
                9230,
                3490,
                5482,
                5564,
                1966,
                2593,
                6497,
                6385,
                9345,
                2585,
                649,
                1992,
                8239,
                4406,
                5499,
                4381,
                3001,
                8140,
                8465,
                1640,
                6626,
                1064,
                8180,
                4189,
                6244,
                3011,
                5030,
                8131,
                1653,
                2576,
                5560,
                1543,
                5205,
                7443,
                9488,
                6629,
                1626,
                6315,
                2401,
                4039,
                5316,
                4329,
                4447,
                4304,
                8426,
                9148,
                5189,
                9218,
                339,
                5296,
                5138,
                7978,
                6963,
                4973,
                4273,
                4907,
                6517,
                1341,
                3825,
                1668,
                9444,
                5938,
                6258,
                1644,
                3659,
                6630,
                6306,
                8151,
                9501,
                8147,
                8204,
                1278,
                8106,
                2098,
                4075,
                8478,
                2463,
                2214,
                9259,
                1765,
                7629,
                5404,
                1577,
                2273,
                8251,
                1964,
                2528,
                5831,
                5995,
                8169,
                5909,
                519,
                8296,
                375,
                1596,
                287,
                1894,
                3297,
                2104,
                4727,
                8092,
                9140,
                6440,
                8199,
                3216,
                423,
                7994,
                1884,
                7438,
                3608,
                8251,
                1970,
                2860,
                6268,
                5585,
                4326,
                8071,
                4746,
                4171,
                1994,
                5102,
                541,
                6629,
                970,
                1744,
                4762,
                4977,
                9157,
                1504,
                6329,
                5685,
                5527,
                9407,
                5918,
                155,
                2858,
                2905,
                8264,
                1630,
                9341,
                8335,
                2625,
                5895,
                2892,
                8249,
                6222,
                3542,
                9276,
                9754,
                7409,
                1101,
                4368,
                507,
                5145,
                808,
                5493,
                4780,
                4581,
                567,
                1533,
                3622,
                502,
                6824,
                9287,
                993,
                5537,
                2517,
                498,
                4906,
                4688,
                4572,
                24,
                5706,
                5128,
                8093,
                2115,
                9369,
                7735,
                8219,
                4899,
                5666,
                3140,
                6412,
                3181,
                4595,
                6283,
                647,
                8088,
                3250,
                8250,
                3457,
                4646,
                8327,
                8050,
                3850,
                9338,
                8047,
                1646,
                6459,
                5119,
                4951,
                4463,
                67,
                4694,
                8391,
                8256,
                2104,
                6435,
                6482,
                581,
                4176,
                5804,
                9292,
                5546,
                7997,
                1030,
                3819,
                9383,
                1715,
                5705,
                4682,
                203,
                2959,
                5696,
                1351,
                4253,
                4486,
                3346,
                1120,
                5961,
                7025,
                5569,
                4258,
                8181,
                5711,
                9135,
                3993,
                740,
                7620,
                3401,
                3341,
                7651,
                5703,
                1513,
                7989,
                4540,
                2859,
                3363,
                7266,
                8299,
                5903,
                2130,
                5790,
                8078,
                1173,
                5928,
                8215,
                1302,
                5524,
                9285,
                4640,
                6701,
                3260,
                1736,
                1703,
                9684,
                1612,
                9379,
                79,
                1217,
                4573,
                6437,
                3450,
                2140,
                3787,
                5592,
                8299,
                4356,
                3099,
                1015,
                7460,
                24,
                8392,
                9347,
                5859,
                6902,
                8120,
                3274,
                8277,
                9344,
                8332,
                2767,
                8184,
                5092,
                9304,
                5668,
                1533,
                5011,
                3773,
                8445,
                4972,
                9583,
                3009,
                4411,
                9140,
                9239,
                7537,
                8518,
                7392,
                897,
                6177,
                2833,
                7208,
                7469,
                9348,
                4840,
                3440,
                4760,
                1277,
                3157,
                6477,
                7742,
                1795,
                4982,
                6784,
                8309,
                2768,
                6008,
                3888,
                393,
                559,
                8287,
                50,
                1563,
                1951,
                8286,
                9193,
                6131,
                2406,
                549,
                5138,
                6307,
                1271,
                9539,
                9336,
                4564,
                506,
                2763,
                9105,
                8326,
                3858,
                1702,
                4999,
                9340,
                976,
                4516,
                7546,
                2386,
                4069,
                2898,
                8111,
                5260,
                6286,
                9254,
                4579,
                782,
                4374,
                4058,
                1776,
                5635,
                8236,
                3403,
                3841,
                2987,
                3299,
                9193,
                9452,
                9286,
                6845,
                3961,
                9519,
                4067,
                8353,
                8165,
                400,
                165,
                1570,
                5389,
                8202,
                796,
                5668,
                6522,
                5363,
                7199,
                2749,
                5509,
                4355,
                9286,
                2598,
                1877,
                8257,
                9309,
                9428,
                4803,
                5267,
                7060,
                537,
                7686,
                8211,
                3684,
                3723,
                4676,
                2926,
                4931,
                8230,
                8502,
                4551,
                4533,
                9546,
                7545,
                8017,
                3187,
                5963,
                3389,
                6645,
                8123,
                602,
                7661,
                5199,
                5445,
                2007,
                946,
                5124,
                535,
                5263,
                7982,
                704,
                4786,
                9380,
                5791,
                8274,
                5780,
                3361,
                5759,
                8375,
                5459,
                5662,
                3770,
                1445,
                4079,
                3780,
                1038,
                6088,
                5511,
                2839,
                820,
                4663,
                9416,
                2837,
                506,
                5878,
                6569,
                1641,
                1251,
                6473,
                5937,
                2542,
                80,
                553,
                3148,
                5656,
                9364,
                9389,
                9478,
                7775,
                4427
            ]
        },
        "detections": 500,
        "events": 82553
    }
}