{
    "job_args": {
        "metric_limit": 500,
        "seed": 3210569009
    },
    "job_id": "batch_37_do_500",
    "result": {
        "collections": {
            "crystal": [
                0.9578710188828335,
                0.6707063760532316,
                1.3324980931528798,
                0.5017397554864524,
                0.6680452996251374,
                0.1819123328626379,
                0.5829870238881262,
                1.3324980931528798,
                1.1732266212015405,
                0.5080058533362063,
                0.8232184376522368,
                0.08817065827169879,
                0.5937019530131299,
                0.8105372469944443,
                1.3324980931528796,
                0.22946038309112943,
                1.0815783335870055,
                0.39310838330429254,
                1.1732266212015405,
                0.3948466909938866,
                0.3243080287120829,
                0.5504553309489925,
                0.1637551781421275,
                0.1194063331855385,
                1.3324980931528798,
                0.2637221582823579,
                1.1732266212015405,
                0.15724501130194546,
                0.2484882995200035,
                1.1732266212015405,
                0.08003109268971964,
                0.8131376309880751,
                0.7603675885542119,
                1.1069375646073158,
                1.3324980931528798,
                0.5208697873570796,
                1.1732266212015403,
                0.03918316068758829,
                0.8601153716944133,
                0.4939033145981343,
                0.6415456569828709,
                0.06992717426270278,
                0.2864931276130988,
                0.46554961984369087,
                0.9160869340694997,
                0.8493496395365354,
                1.3324980931528798,
                0.2749377781460727,
                1.1732266212015403,
                0.9624957466041738,
                1.1732266212015405,
                0.9378714217445656,
                1.3324980931528796,
                0.06976947546813594,
                0.940034516749694,
                0.7627087872654488,
                1.1732266212015403,
                0.5605475362384179,
                1.3324980931528803,
                0.3630785733136955,
                0.2928740534776207,
                1.3324980931528794,
                0.37963120344101015,
                1.3324980931528798,
                0.5185686199487283,
                1.3324980931528798,
                1.048338477023131,
                0.21412290725720243,
                0.6215852450371581,
                1.1732266212015405,
                0.4454854211372259,
                1.0847009666549658,
                0.4802760274535445,
                0.4108992627555266,
                1.3324980931528798,
                0.5303486079004494,
                0.1108444868418408,
                0.6153754054007526,
                1.3324980931528798,
                0.041556861038092974,
                1.33249809315288,
                1.1732266212015405,
                0.68965963983932,
                1.1732266212015405,
                0.7878460293754765,
                0.6987738237558654,
                0.8558214569779504,
                0.5626808294502363,
                0.7488971956117417,
                0.34436685886820734,
                0.34968339732971226,
                0.5560895120855772,
                0.511758899617796,
                0.1424739558600655,
                0.9160395427191544,
                0.05067288057493147,
                0.8115327320382345,
                0.8722793457461563,
                0.5081460189124264,
                0.16580985053735486,
                0.6295194623554785,
                1.1554231260229786,
                0.5854384737829024,
                0.03563031143842088,
                1.1732266212015405,
                0.07525,
                1.3324980931528798,
                0.6462049435944912,
                0.44623054790959876,
                1.1732266212015405,
                1.3324980931528798,
                1.1357253813519794,
                0.14832056937351912,
                1.3324980931528796,
                0.4850930010315357,
                0.8725565581764712,
                0.82149918315288,
                0.5515384221099863,
                0.4369944888548083,
                0.7176799787458314,
                0.558065658800853,
                1.1732266212015405,
                0.9078081177512638,
                1.3324980931528798,
                1.1732266212015408,
                0.5346087562484437,
                1.1732266212015405,
                0.9770452812802606,
                1.3324980931528798,
                0.32456768624627713,
                0.5177594156813573,
                1.0760975760364835,
                0.8363139627747614,
                0.3580041764599052,
                0.7067862716197124,
                0.20544020941281438,
                0.4027101952577759,
                0.026820970576133304,
                0.07303900000000002,
                0.5172116826712354,
                1.3324980931528798,
                1.1732266212015408,
                0.9513818486261831,
                0.4004163956729515,
                1.1732266212015405,
                0.8899744575289111,
                0.6245607668829731,
                1.1010963879266853,
                1.3324980931528796,
                0.1276855293682313,
                0.029448864459856505,
                0.24402543652139874,
                1.3324980931528798,
                0.4959356388560552,
                0.45867802937920554,
                0.7038314870826604,
                0.8651902788692869,
                0.8615340794246592,
                0.8385675908798509,
                0.02068662139326294,
                0.7567018823666649,
                0.005425456463844069,
                0.31440751244049614,
                0.2937472091044232,
                0.5033840511800758,
                0.023247467611643112,
                0.51099891,
                1.1732266212015405,
                0.9254572670125376,
                0.8582087097898216,
                0.5325143051388401,
                1.3324980931528798,
                0.2502738420552185,
                1.3324980931528798,
                1.1189644059073198,
                0.6367037173795771,
                1.1732266212015405,
                0.34701600220574,
                0.6506269726217857,
                0.7464300526045489,
                0.7972300035573257,
                0.9075253057792844,
                0.9525226850861065,
                1.1732266212015405,
                0.6183257968823346,
                0.6722748271896106,
                0.9421078070433846,
                0.4602237740706239,
                0.7778901030787061,
                0.8816273180044645,
                0.8925571859243653,
                0.8370796062948556,
                0.7899881428635553,
                0.44688087591664416,
                0.35460375431838653,
                0.5861589251116336,
                0.428096471106656,
                0.27687423149105805,
                1.056886600243174,
                0.7113771294634674,
                0.9247981378380343,
                0.8408213704018511,
                0.11483345191117653,
                1.1732266212015405,
                0.5808999632259915,
                0.928148056796801,
                1.3324980931528796,
                1.3324980931528798,
                0.1055963417715844,
                0.36389790478330186,
                1.1732266212015408,
                0.10907231874712876,
                1.3324980931528798,
                1.33249809315288,
                0.8771191969888894,
                1.3324980931528798,
                1.061669292107352,
                1.3324980931528798,
                0.9489853855744473,
                0.19497104094246884,
                0.016481766836953682,
                0.03529557397342553,
                0.9267540506235377,
                0.677902028388311,
                0.09926055633232367,
                1.0112852721198269,
                0.8023342131409782,
                0.3978693401243567,
                0.9068618044928182,
                0.6218384928304239,
                0.07525,
                0.0042179955810564,
                0.2977713167843077,
                0.5450474101372811,
                1.1581028026748665,
                0.12264676637332395,
                0.14183603861412067,
                0.2611219529209796,
                0.5861778899867077,
                0.348424384823651,
                0.8248076833991649,
                0.5230013916535942,
                0.7325383582225415,
                1.3324980931528798,
                0.49992702979680964,
                0.5517652818745912,
                0.5050326196545342,
                0.5245268603987685,
                1.1732266212015405,
                0.3843288645860875,
                0.4097910454139216,
                0.5220176094451606,
                0.24236794748895216,
                0.8585983593786555,
                1.3324980931528798,
                0.26263379786544083,
                1.3324980931528798,
                0.8650756063469374,
                1.3324980931528798,
                0.8786636753321692,
                0.23909243855852536,
                0.954175778851173,
                0.773821226764696,
                0.8049408331063352,
                0.21723542696299036,
                0.82149918315288,
                0.9896985207952835,
                0.015409519743863733,
                1.1554314844210285,
                1.0667220598359475,
                0.34092411881481055,
                0.073039,
                0.23140942080293925,
                0.0876557,
                0.8029138881219754,
                0.06920431923764303,
                1.1732266212015408,
                1.1732266212015408,
                0.7145748169413413,
                0.29364605067376537,
                0.5122718025865477,
                0.4504547139945789,
                0.1115969510083199,
                1.1732266212015405,
                0.973935718986852,
                0.91660808878582,
                0.6898957917183375,
                1.0475214111184987,
                0.7728218251992807,
                1.1732266212015405,
                0.5805611257424237,
                1.0472954547618996,
                0.009034608600938741,
                0.5504094383239908,
                0.9299204997206323,
                0.2182010742017252,
                0.5174260974542964,
                0.6103588469868202,
                0.5567445393028746,
                0.8069198198595735,
                0.9868120940022774,
                0.3394296755416535,
                0.8713750772815017,
                0.07412853149952114,
                0.6003245435841452,
                0.795359393874882,
                0.21539193331141948,
                0.6330381858693722,
                0.4196029379645875,
                1.151766326472827,
                0.3045726398010935,
                0.6430112315563111,
                0.2892179468384284,
                0.10464642360508011,
                0.8589138331104611,
                0.9599022119430561,
                0.32673456856414906,
                0.8647957627490406,
                0.022099241049606033,
                0.2920418556345154,
                1.3324980931528798,
                1.1732266212015405,
                0.22657101215413533,
                0.6802877582397486,
                0.9208483217792893,
                0.3518025479327251,
                0.8304216346609347,
                0.026411029472251935,
                1.1732266212015405,
                0.31064889893539027,
                0.5109989100000001,
                0.7875389186212375,
                1.3324980931528798,
                0.9262130498549205,
                1.33249809315288,
                1.1732266212015405,
                0.4446028945771289,
                0.8111205585216735,
                0.07303899999999999,
                0.5100155553672885,
                1.1732266212015405,
                0.0691587897174312,
                0.6592974812570165,
                0.07673692769614338,
                0.15639379912320728,
                0.5679338475310447,
                1.2266560234236594,
                0.48112499313489754,
                0.5402118312762798,
                0.6438020091898922,
                0.8001596358400751,
                0.518212470927491,
                0.7562260601827965,
                0.5168862160274246,
                0.3794144834711715,
                1.3324980931528796,
                0.18138208105426512,
                0.5017296837981258,
                0.596217114834765,
                0.33076258425976657,
                1.1732266212015405,
                1.3324980931528796,
                0.800528600084255,
                0.31050027315287987,
                1.1732266212015405,
                0.2527606813800609,
                1.3324980931528798,
                0.9888161703903957,
                0.7209519868034155,
                0.9383431232908699,
                0.7557228319620901,
                1.3324980931528803,
                0.5289171918246691,
                1.1146953386242302,
                0.2605508692689579,
                1.33249809315288,
                0.9267992065745415,
                1.3324980931528798,
                1.1732266212015405,
                1.3324980931528798,
                0.07303899999999999,
                1.3324980931528798,
                0.0876557,
                1.1732266212015405,
                0.2905904688868699,
                1.1732266212015405,
                0.7529986934610211,
                1.1732266212015405,
                0.5000281808045544,
                0.704076169068234,
                0.6210269082397644,
                0.26561475985921223,
                0.6837821754123796,
                1.3324980931528798,
                0.42818012031628067,
                0.2791413601679332,
                1.1732266212015405,
                0.087534,
                0.7891759000517464,
                0.16959450619057773,
                0.9585387119888534,
                0.612141194447432,
                0.8835289498633478,
                0.1361020944007257,
                0.9700122512887053,
                0.1603456025850888,
                0.6172670441424707,
                1.1732266212015405,
                1.1732266212015405,
                0.4445227778586056,
                0.5181054046208299,
                1.1583322738699695,
                1.1732266212015405,
                0.5935895278323723,
                1.1732266212015405,
                1.0147153723377949,
                0.5926645378394558,
                1.1732266212015405,
                0.26309289283768267,
                0.34665997242787094,
                0.018874339441385224,
                1.1732266212015405,
                1.1732266212015408,
                0.07525,
                0.01896449609318762,
                0.1973436420168414,
                0.4371943779173528,
                1.011660517689095,
                0.06486088759326925,
                0.7591609323793242,
                0.005843609913496306,
                1.0767785390016849,
                0.42113426916287333,
                0.7994753449072814,
                0.8587077016032654,
                0.3377383426141931,
                0.07457514633717388,
                0.6152761433518343,
                0.9760352367636536,
                0.6292008631111584,
                1.3324980931528798,
                0.46032662464359625,
                1.3093147796054223,
                0.6731184531758999,
                1.1732266212015405,
                0.9670628132579469,
                0.24770001419252385,
                0.9822453495127712,
                0.6498760906826268,
                1.1726248328313322,
                1.33249809315288,
                0.810905973465682,
                1.1732266212015405,
                0.41602535146058645,
                1.0581739706633495,
                0.5073811518698499,
                0.26553999849332444,
                0.2931334006223,
                0.8966338494584768,
                0.9105537990452583,
                1.1732266212015405,
                1.3324980931528798,
                1.0915485314770685,
                0.28256807878050816,
                0.6035440533523301,
                1.1732266212015403,
                0.9189248113322827,
                0.6988748769752384,
                1.0187410831598003,
                0.4509785589118116,
                0.3239337170662624,
                0.9113292785928198,
                0.6655025148274318,
                1.3324980931528798,
                0.9079204091932938,
                0.0736455817910236,
                0.4690888321661968,
                0.9528248503473977,
                0.3056822306637667,
                0.47495019075016975,
                0.009863599183689842,
                1.1599768299812583,
                0.838483385445951,
                0.21980342697283495,
                1.1070655385692008,
                0.4079322654143499,
                0.20433361497813474,
                1.1732266212015405,
                1.1732266212015405,
                0.7049621393544533,
                1.1732266212015408,
                0.404544992593848,
                0.5690344927678392,
                1.3324980931528798,
                1.33249809315288,
                1.1732266212015405,
                0.5109989100000001,
                0.32754786244126805,
                0.17517218028649245,
                1.3324980931528798
            ],
            "photocathode": [
                6674,
                4767,
                9400,
                3521,
                4635,
                1304,
                4134,
                9234,
                8340,
                3567,
                5817,
                641,
                4164,
                5760,
                9381,
                1710,
                7526,
                2730,
                8107,
                2858,
                2274,
                3815,
                1138,
                829,
                9568,
                1839,
                8307,
                1038,
                1741,
                8382,
                558,
                5828,
                5272,
                7733,
                9386,
                3595,
                8248,
                284,
                6046,
                3443,
                4662,
                478,
                2094,
                3222,
                6445,
                5966,
                9248,
                1932,
                8418,
                6670,
                8343,
                6567,
                9476,
                481,
                6607,
                5305,
                8361,
                3956,
                9298,
                2500,
                2075,
                9440,
                2756,
                9243,
                3754,
                9443,
                7579,
                1527,
                4263,
                8162,
                3134,
                7792,
                3362,
                2823,
                9410,
                3639,
                747,
                4357,
                9198,
                315,
                9246,
                8198,
                4874,
                8194,
                5606,
                4856,
                5996,
                4189,
                5461,
                2374,
                2593,
                3878,
                3727,
                938,
                6522,
                320,
                5587,
                6114,
                3598,
                1114,
                4599,
                8067,
                4126,
                235,
                8366,
                509,
                9421,
                4605,
                3030,
                8162,
                9595,
                8121,
                1052,
                9260,
                3392,
                6021,
                5855,
                3855,
                3036,
                5014,
                3802,
                8047,
                6539,
                9475,
                8332,
                3815,
                8333,
                6963,
                9330,
                2309,
                3724,
                7598,
                5834,
                2402,
                5142,
                1464,
                2853,
                193,
                506,
                3620,
                9691,
                8216,
                6558,
                2757,
                8228,
                6149,
                4386,
                7789,
                9187,
                872,
                201,
                1708,
                9343,
                3417,
                3271,
                4967,
                6151,
                6021,
                5817,
                144,
                5348,
                44,
                2347,
                2103,
                3625,
                149,
                3557,
                8113,
                6426,
                5924,
                3794,
                9284,
                1802,
                9648,
                7733,
                4517,
                8256,
                2443,
                4489,
                5391,
                5541,
                6168,
                6754,
                8169,
                4377,
                4792,
                6614,
                3224,
                5572,
                6334,
                6169,
                5806,
                5552,
                3191,
                2452,
                4213,
                2979,
                1985,
                7366,
                4928,
                6479,
                5871,
                752,
                8378,
                4016,
                6529,
                9431,
                9323,
                791,
                2501,
                8216,
                779,
                9394,
                9430,
                6274,
                9715,
                7350,
                9544,
                6800,
                1372,
                118,
                267,
                6548,
                4882,
                740,
                7207,
                5677,
                2813,
                6451,
                4365,
                514,
                35,
                2032,
                3911,
                8120,
                903,
                1042,
                1887,
                4057,
                2380,
                6024,
                3840,
                5154,
                9232,
                3377,
                3756,
                3593,
                3522,
                8110,
                2717,
                2998,
                3641,
                1736,
                6058,
                9193,
                1860,
                9319,
                5961,
                9411,
                6180,
                1638,
                6821,
                5388,
                5608,
                1551,
                5621,
                6890,
                113,
                8007,
                7558,
                2421,
                553,
                1522,
                597,
                5611,
                527,
                8072,
                8419,
                5240,
                1992,
                3491,
                3186,
                790,
                8188,
                7050,
                6393,
                4877,
                7382,
                5438,
                8415,
                4092,
                7228,
                67,
                3890,
                6689,
                1464,
                3592,
                4392,
                3947,
                5750,
                6867,
                2335,
                6099,
                475,
                4193,
                5501,
                1503,
                4414,
                2983,
                7945,
                2126,
                4514,
                2025,
                761,
                6001,
                6522,
                2329,
                6072,
                151,
                2030,
                9306,
                8248,
                1642,
                4805,
                6389,
                2556,
                5851,
                184,
                8296,
                2150,
                3540,
                5592,
                9179,
                6704,
                9233,
                8370,
                3104,
                5634,
                484,
                3629,
                8218,
                482,
                4568,
                545,
                1103,
                3986,
                8650,
                3344,
                3823,
                4580,
                5512,
                3519,
                5319,
                3646,
                2756,
                9328,
                1255,
                3493,
                4161,
                2236,
                8399,
                9405,
                5588,
                2229,
                8132,
                1822,
                9246,
                7027,
                5037,
                6728,
                5150,
                9239,
                3712,
                7878,
                1784,
                9703,
                6610,
                9340,
                8397,
                9396,
                506,
                9536,
                576,
                8232,
                2028,
                8308,
                5360,
                8349,
                3535,
                4946,
                4437,
                1882,
                4682,
                9328,
                2993,
                2102,
                8312,
                585,
                5646,
                1218,
                6503,
                4242,
                6215,
                984,
                6800,
                1123,
                4342,
                8267,
                8433,
                3209,
                3566,
                7941,
                8418,
                4221,
                8333,
                7191,
                4341,
                8152,
                1810,
                2524,
                145,
                8516,
                8291,
                501,
                121,
                1400,
                3018,
                7193,
                479,
                5299,
                48,
                7499,
                3006,
                5488,
                5974,
                2446,
                518,
                4318,
                7009,
                4368,
                9115,
                3260,
                9060,
                4685,
                8015,
                6970,
                1765,
                7012,
                4674,
                8265,
                9503,
                5921,
                8201,
                2908,
                7392,
                3560,
                1865,
                2045,
                6348,
                6348,
                8249,
                9414,
                7872,
                1988,
                4182,
                8059,
                6592,
                4943,
                7339,
                3176,
                2238,
                6257,
                4777,
                9163,
                6597,
                522,
                3151,
                6625,
                2115,
                3329,
                68,
                8123,
                5938,
                1550,
                7676,
                2854,
                1462,
                8161,
                8122,
                5101,
                8182,
                2876,
                4128,
                9390,
                9552,
                8261,
                3571,
                2194,
                1282,
                9291
            ]
        },
        "detections": 500,
        "events": 88178
    }
}