{
    "job_args": {
        "metric_limit": 500,
        "seed": 2479633371
    },
    "job_id": "batch_123_do_500",
    "result": {
        "collections": {
            "crystal": [
                1.1732266212015405,
                0.3684375309972885,
                0.8608393213071626,
                0.015693071334061212,
                1.1732266212015408,
                0.7724504590120665,
                0.42920742571453313,
                1.1732266212015405,
                0.24573993429823218,
                1.3324980931528798,
                1.1338799078594082,
                0.9376439538943925,
                0.11976917730401104,
                1.3324980931528798,
                1.33249809315288,
                0.6572282237324346,
                1.1732266212015405,
                0.2349360804838213,
                0.41809673860575797,
                0.33685078093100485,
                0.6473965040883595,
                0.7427010050668865,
                0.3951872007541853,
                0.07224018581097025,
                0.8812304325879035,
                0.2333436527738585,
                1.2767119176504511,
                0.27678244375624234,
                1.3324980931528798,
                0.29665209220041655,
                0.9526732982593642,
                0.540224595100571,
                0.35165959314028566,
                0.5876141809934727,
                0.509087908780165,
                0.6628369320116526,
                0.7499227688603441,
                0.6209855500150855,
                0.7623436413662142,
                0.1632831412977824,
                1.1732266212015408,
                0.11558691817131307,
                0.3337165779506233,
                0.05965307034818634,
                0.34933642605869586,
                1.0906146183899783,
                0.6066690301973425,
                0.3404707459445148,
                0.9389650260325149,
                0.44871788283444725,
                0.3184558721900226,
                1.0216600867860712,
                1.1732266212015403,
                1.1732266212015405,
                1.262801947186235,
                0.8999871559368826,
                0.19479185215361366,
                1.1732266212015405,
                0.224737148399208,
                1.1732266212015405,
                1.109881028390796,
                0.47049591369746924,
                0.7378102957898034,
                0.731262197550998,
                0.37752621505337325,
                0.6570441631640279,
                0.08415200713553335,
                0.7703402719264888,
                0.637298681303732,
                1.3324980931528796,
                1.1732266212015405,
                1.3324980931528798,
                0.7253094592245399,
                0.5277823003337475,
                0.0765647726175186,
                0.5309393466898785,
                0.7106371485763404,
                0.3043572431087903,
                0.19786888159020666,
                0.23624924289075008,
                1.1732266212015405,
                0.06442762076833264,
                0.2711928486652053,
                0.7764602529842398,
                0.08593717829876835,
                1.3324980931528798,
                0.6635257896164923,
                0.7607624062049468,
                0.5964790379879654,
                1.1280837606771708,
                1.3324980931528796,
                0.059895899999999995,
                0.9475184959303525,
                0.6057909955327452,
                0.0529412,
                0.5911571297127054,
                0.5352679486269891,
                0.2155974544672744,
                0.30286176867887604,
                0.3694491649338205,
                1.33249809315288,
                1.042628941769327,
                0.3135941277502997,
                0.9311147366595212,
                0.5687152371800259,
                0.21441968224628474,
                0.040049245743123296,
                0.07525000000000001,
                0.736363563767032,
                0.37753779329175646,
                0.9342637017639178,
                1.0465255821293662,
                0.041919674226314485,
                1.33249809315288,
                1.00687730165049,
                0.9228457258924183,
                0.34986061866695206,
                0.7729549792663596,
                0.6837738605671747,
                1.1732266212015405,
                0.4550554159474141,
                0.04367809896248206,
                0.19630946926080567,
                1.3136243595408756,
                0.7294978374881007,
                0.1639248879230133,
                0.4219385598823477,
                1.3324980931528798,
                0.04473250000000001,
                0.23876994972458565,
                0.51099891,
                0.9119222504676583,
                0.24398852528178572,
                0.16905585839639473,
                0.3292076092129944,
                0.5619238050435982,
                0.8131085799680049,
                0.23632384726111433,
                0.7041747348315011,
                0.18821268159165552,
                0.7974240316747088,
                0.7942968738763108,
                0.9504882480147263,
                0.3923263623323511,
                0.07525,
                0.45335272583947384,
                1.3324980931528798,
                1.030425112986602,
                0.6644256770013389,
                0.5631965676961178,
                0.8492255028480022,
                1.3324980931528798,
                0.8927782607392604,
                0.9211219245660229,
                0.7390543881954283,
                0.6121746957202963,
                0.7787535791263666,
                0.0852354,
                0.8757826678667725,
                0.3347993381316226,
                0.3849128071565161,
                1.0048789298705292,
                0.2860882821573044,
                0.0852354,
                0.7315016156612827,
                1.3324980931528796,
                0.987715965969221,
                1.1732266212015403,
                0.06175958231587997,
                0.4975948660585796,
                0.14139643071866992,
                0.577651788597175,
                0.5821525770952888,
                0.36341331474784,
                0.25288164466392415,
                1.33249809315288,
                0.1050255763312149,
                0.6246073302777555,
                0.3113823792755716,
                1.3324980931528794,
                0.51099891,
                1.227801221372142,
                0.4776070642942251,
                0.3243950563104787,
                1.1732266212015405,
                0.7434981502876268,
                0.6782214266716933,
                0.073039,
                1.1732266212015408,
                1.3324980931528803,
                0.7594284271422027,
                0.4151167711003142,
                0.07167178139123487,
                0.27539357141712045,
                0.07525,
                1.1732266212015408,
                0.40280339706005036,
                1.3324980931528798,
                0.5658896453314664,
                0.008161013689762409,
                0.19385611199251296,
                0.816326832259275,
                0.4090598627457134,
                0.32911481823027006,
                0.2888847716850398,
                1.1732266212015405,
                0.6424657976751251,
                0.42185173673993726,
                1.084119830522403,
                1.3324980931528798,
                0.521650333408666,
                0.31057115852113304,
                0.073039,
                0.21745628951743,
                1.1732266212015405,
                0.8328742834888118,
                1.33249809315288,
                0.8999152199914372,
                0.39303677398146664,
                0.10705261549271705,
                1.1732266212015405,
                1.1732266212015405,
                0.3687289898720806,
                0.3522235160079811,
                0.2946543950724806,
                0.4106778300519608,
                0.5430106819119885,
                0.7732749958837892,
                1.1239690119501209,
                0.32689267444542425,
                0.16708974385945963,
                1.3324980931528798,
                0.7952537674802302,
                1.073570422854034,
                0.14251580370044267,
                0.10559461571022787,
                1.048342840688386,
                0.4526710545695232,
                1.3324980931528798,
                0.148516540283815,
                0.6047827470619844,
                1.3324980931528798,
                0.38612963875241446,
                0.5794562158812159,
                0.9757952466327954,
                0.07524999999999998,
                0.5969772218116356,
                0.36766635150581417,
                0.7171158642162774,
                0.07851996117651816,
                0.34316923580704517,
                0.25721987261119783,
                0.9253313958476433,
                0.022083582246525735,
                1.1732266212015405,
                0.7114760791640085,
                1.1732266212015405,
                0.5035101627210663,
                1.3324980931528798,
                0.8360542606663306,
                0.9112658035370538,
                1.1732266212015405,
                1.1295138857331304,
                0.6921550955314972,
                0.6881975614766759,
                1.1732266212015405,
                1.3324980931528796,
                1.195135523025806,
                1.3324980931528798,
                1.1732266212015405,
                0.28127698564495235,
                0.8935440221274168,
                1.3324980931528798,
                1.3324980931528798,
                0.51099891,
                0.25429017678269694,
                1.1732266212015405,
                1.3324980931528796,
                1.1732266212015408,
                0.5329343963553795,
                0.5210099236782426,
                0.15616794269088718,
                0.8063574307107456,
                0.6839237128774472,
                0.8993227324976477,
                0.6083798351262061,
                0.25680713762952934,
                0.7208786025476291,
                1.054591532884308,
                0.0852354,
                0.23890100998714273,
                0.7341690235394984,
                1.3324980931528798,
                0.7975543561171184,
                1.1732266212015405,
                0.1323400942967239,
                1.3324980931528798,
                0.22338344336873756,
                1.1732266212015408,
                0.4531645518053385,
                0.4954315060302108,
                0.5956318397509011,
                0.7888419316265017,
                0.5855803875060267,
                0.24591775668164817,
                0.8674313246716214,
                1.0157667281596345,
                0.10861422663117458,
                0.2298558283034677,
                0.8574204465249324,
                0.15531248902490924,
                1.1238745042303582,
                1.056228771042933,
                0.503950939909497,
                1.1429298501365468,
                0.08089939150008751,
                1.1732266212015408,
                0.809332785831584,
                0.5361863468377928,
                1.3324980931528796,
                1.1732266212015405,
                0.8449344946266273,
                1.1732266212015405,
                0.22321217661374435,
                0.3198475054474143,
                0.34973695416964906,
                0.39963491912111276,
                1.1566172364554628,
                0.7834623583562479,
                0.8043043355995683,
                0.07982828955963273,
                0.627458318324672,
                0.17123998451115996,
                0.5904166532637369,
                0.8857811163813046,
                1.3324980931528798,
                0.2994851575542189,
                0.762448759591616,
                0.5327321079309774,
                0.8387801336101792,
                1.1732266212015408,
                0.1244788939115411,
                0.7238145857333819,
                1.1732266212015403,
                0.9047252753224266,
                0.4564069641699489,
                0.24679175114005836,
                0.9442985840376382,
                1.1732266212015405,
                0.028091837913488862,
                0.3269041046862901,
                1.3324980931528796,
                0.5143326583063135,
                1.1732266212015405,
                0.7600899806132262,
                0.1982139000989577,
                1.3324980931528798,
                0.8647243339743789,
                0.4687265280576271,
                0.34429177417311224,
                1.177871343580127,
                0.6474222295959113,
                0.9287577715453041,
                0.9558195414636859,
                1.3324980931528798,
                0.9479402928230451,
                1.1732266212015405,
                0.4593301821925666,
                0.5628290806460793,
                0.4947681532925663,
                0.6587391001520211,
                0.11125036438905443,
                0.42791784938705163,
                0.7942933471604212,
                0.7262488299642321,
                0.7935937526432957,
                1.3324980931528798,
                0.37631596913286325,
                0.4813561277562016,
                0.5491455740058773,
                1.1732266212015405,
                0.8303833414682861,
                0.4888364841809186,
                1.1188314338444945,
                0.9370991587025607,
                1.3324980931528798,
                1.1791328095023146,
                0.5618686925906038,
                1.1732266212015405,
                0.9063011981990441,
                0.3183836934706918,
                0.5692315204586514,
                0.9003606734815857,
                0.49977333045243477,
                0.3866335166479237,
                1.1732266212015405,
                0.9340325374082702,
                1.1732266212015405,
                0.6583494888844298,
                0.3255838382390567,
                0.8422367389689633,
                0.7904259175210069,
                1.3324980931528798,
                1.1732266212015405,
                1.1732266212015403,
                1.1732266212015405,
                0.2761236059224257,
                0.7408394645084208,
                0.32229179231368776,
                0.3530832777587,
                1.0945986903534233,
                0.26953769734923394,
                0.3754487718111599,
                1.0756992850021254,
                0.008514318378297914,
                0.4275993017972923,
                1.2353275358127047,
                0.6882628566102473,
                0.4594689388397801,
                0.8655904346626793,
                0.1584887940118953,
                0.1395045723507622,
                1.1732266212015405,
                0.8245354244365605,
                1.3324980931528798,
                1.3324980931528798,
                0.2483428965145429,
                1.3324980931528798,
                1.3324980931528798,
                0.1580583345769327,
                1.3324980931528798,
                0.70119356245191,
                0.6738741075797393,
                1.1732266212015403,
                0.4055287757420709,
                0.21039056873246853,
                1.274222515184518,
                1.3324980931528798,
                0.17869420109030096,
                0.4408763963552718,
                0.21526427851722651,
                0.7312621382063753,
                0.12133408958051262,
                0.07448759831133223,
                1.3324980931528798,
                1.1732266212015408,
                0.43589077826460887,
                0.23150197043150494,
                0.6501378683736745,
                0.5438724586621689,
                0.0876557,
                0.2551783938003919,
                0.5564310908737021,
                0.8399684452773751,
                0.33207772866249985,
                0.39740208403919897,
                0.5524841039373671,
                0.48157959453024035,
                0.7403542517975525,
                1.3324980931528798,
                0.23432610325706293,
                1.1343869542361729,
                0.8587462161028221,
                1.1732266212015405,
                1.1814464201757748,
                1.1732266212015405,
                1.1732266212015405,
                0.12843070449731853,
                1.33249809315288,
                0.2776705700498398,
                0.48023455901077083,
                0.8813459839050668,
                0.35518933539329167,
                1.1732266212015405,
                1.0299103802825185,
                0.5736152555732719,
                1.3324980931528798,
                1.007432478009244,
                1.1732266212015408,
                0.9556014405293896,
                0.7618731355224302,
                1.3324980931528796,
                0.6085598900551488,
                1.33249809315288,
                0.3212652724941898,
                1.3324980931528798,
                1.1732266212015403,
                0.8973565107623501,
                1.1732266212015405,
                0.8495212590864263,
                0.35887927011581855,
                1.1732266212015405,
                0.6246150592571865,
                0.776868521533236,
                0.5070880835515992,
                0.4624854251881819,
                0.46247129762719624,
                0.37192026130362593,
                0.5836309912034883,
                0.36030662626122306
            ],
            "photocathode": [
                8218,
                2599,
                5942,
                98,
                8422,
                5332,
                2990,
                8058,
                1728,
                9483,
                7794,
                6690,
                809,
                9587,
                9464,
                4699,
                8206,
                1598,
                3040,
                2385,
                4496,
                5284,
                2842,
                523,
                6060,
                1713,
                8754,
                1965,
                9391,
                2080,
                6534,
                3955,
                2468,
                4063,
                3660,
                4539,
                5260,
                4482,
                5362,
                1184,
                8267,
                771,
                2318,
                428,
                2412,
                7655,
                4438,
                2382,
                6518,
                3178,
                2233,
                7196,
                8379,
                8206,
                8871,
                6345,
                1271,
                8032,
                1566,
                8171,
                7835,
                3229,
                5121,
                5152,
                2564,
                4491,
                523,
                5332,
                4486,
                9232,
                8177,
                9483,
                5071,
                3779,
                557,
                3619,
                4939,
                2119,
                1383,
                1651,
                8328,
                432,
                1854,
                5371,
                598,
                9332,
                4642,
                5439,
                4193,
                7883,
                9360,
                402,
                6663,
                4260,
                367,
                4139,
                3836,
                1522,
                2235,
                2619,
                9399,
                7478,
                2264,
                6474,
                3974,
                1515,
                305,
                548,
                5121,
                2643,
                6621,
                7516,
                284,
                9512,
                6999,
                6482,
                2512,
                5458,
                4690,
                8217,
                3124,
                292,
                1431,
                9124,
                5106,
                1144,
                2945,
                9109,
                284,
                1672,
                3531,
                6358,
                1630,
                1175,
                2490,
                3907,
                5605,
                1633,
                5193,
                1354,
                5658,
                5619,
                6606,
                2748,
                521,
                3147,
                9690,
                7480,
                4737,
                4000,
                5949,
                9392,
                6194,
                6545,
                5128,
                4360,
                5289,
                612,
                6305,
                2395,
                2634,
                7164,
                1895,
                631,
                5034,
                9730,
                6888,
                8117,
                444,
                3501,
                1013,
                3983,
                4027,
                2596,
                1756,
                9425,
                704,
                4503,
                2087,
                9281,
                3534,
                8590,
                3363,
                2195,
                8344,
                5421,
                4801,
                487,
                8428,
                9268,
                5392,
                2832,
                479,
                1952,
                562,
                8273,
                2815,
                9203,
                3935,
                53,
                1311,
                5700,
                2908,
                2305,
                1996,
                8385,
                4542,
                2943,
                7659,
                9502,
                3673,
                2156,
                485,
                1551,
                8271,
                5960,
                9447,
                6363,
                2635,
                788,
                8171,
                8237,
                2596,
                2533,
                2032,
                2875,
                3670,
                5498,
                7714,
                2428,
                1162,
                9238,
                5489,
                7485,
                1029,
                707,
                7331,
                3262,
                9586,
                1037,
                4472,
                9270,
                2816,
                4122,
                6805,
                504,
                4154,
                2627,
                5138,
                545,
                2455,
                1839,
                6519,
                151,
                8245,
                5072,
                8107,
                3723,
                9429,
                6008,
                6275,
                8178,
                7850,
                4876,
                4716,
                8175,
                9214,
                8307,
                9293,
                8315,
                1948,
                6522,
                9520,
                9233,
                3473,
                1837,
                8228,
                9672,
                8111,
                3671,
                3691,
                1102,
                5705,
                4708,
                6445,
                4161,
                1805,
                4978,
                7399,
                637,
                1646,
                5440,
                9432,
                5419,
                8383,
                939,
                9310,
                1589,
                8287,
                3315,
                3481,
                4123,
                5651,
                4194,
                1646,
                5998,
                7171,
                826,
                1578,
                6112,
                1063,
                7912,
                7460,
                3527,
                8007,
                543,
                8233,
                5697,
                3828,
                9301,
                8193,
                5898,
                8226,
                1571,
                2246,
                2473,
                2797,
                8211,
                5462,
                5651,
                515,
                4498,
                1253,
                4152,
                6272,
                9434,
                2039,
                5329,
                3709,
                5942,
                8357,
                866,
                5039,
                8147,
                6471,
                3227,
                1682,
                6632,
                8336,
                203,
                2344,
                9576,
                3588,
                8128,
                5366,
                1379,
                9537,
                6108,
                3429,
                2408,
                8239,
                4685,
                6478,
                6824,
                9646,
                6552,
                8052,
                3341,
                4035,
                3516,
                4652,
                767,
                3173,
                5677,
                5049,
                5631,
                9563,
                2652,
                3414,
                3905,
                8337,
                5646,
                3300,
                7868,
                6791,
                9255,
                8312,
                3989,
                8172,
                6376,
                2109,
                4002,
                6454,
                3602,
                2716,
                8364,
                6557,
                8301,
                4867,
                2207,
                5993,
                5747,
                9557,
                8148,
                8395,
                8039,
                1879,
                5202,
                2177,
                2441,
                7633,
                1944,
                2676,
                7670,
                62,
                2882,
                8707,
                4792,
                3178,
                5975,
                1160,
                961,
                8354,
                5727,
                9231,
                9433,
                1746,
                9356,
                9333,
                1155,
                9380,
                4915,
                4782,
                8220,
                2812,
                1538,
                9007,
                9382,
                1167,
                3042,
                1588,
                5157,
                866,
                540,
                9418,
                8324,
                3120,
                1681,
                4564,
                3871,
                612,
                1764,
                3941,
                5798,
                2297,
                2750,
                3972,
                3353,
                5209,
                9396,
                1617,
                7850,
                6062,
                8269,
                8395,
                8155,
                8315,
                945,
                9289,
                1970,
                3342,
                6095,
                2579,
                8274,
                7121,
                4143,
                9472,
                7130,
                8303,
                6697,
                5588,
                9272,
                4257,
                9193,
                2310,
                9340,
                8296,
                6519,
                8141,
                5755,
                2449,
                8178,
                4484,
                5404,
                3518,
                3166,
                3365,
                2577,
                4045,
                2379
            ]
        },
        "detections": 500,
        "events": 81457
    }
}