{
    "job_args": {
        "metric_limit": 300,
        "seed": 1596251513
    },
    "job_id": "batch_30_do_300",
    "result": {
        "collections": {
            "crystal": [
                0.19713868811323265,
                0.2231174224270963,
                1.0,
                0.7839079496908693,
                0.05949524106258641,
                0.38354183922431906,
                0.783343096482428,
                1.0,
                0.6193126482729685,
                0.9999999999999998,
                1.0000000000000002,
                1.0000000000000002,
                0.9999999999999999,
                1.0,
                0.9999999999999999,
                0.5137766438671648,
                1.0,
                1.0,
                0.712625682434929,
                1.0,
                0.5988744216439622,
                1.0,
                0.7680255678203287,
                1.0,
                1.0,
                1.0,
                0.09859210283903051,
                1.0,
                0.1809980738842959,
                1.0,
                0.2785653077982688,
                1.0,
                0.9999999999999999,
                1.0,
                0.613019258522129,
                0.9999999999999999,
                1.0,
                0.35635348371703734,
                0.026684142731343896,
                0.4860042450893638,
                1.0,
                1.0,
                1.0,
                0.41427638687186663,
                0.6591767524472477,
                1.0,
                0.022282233342456492,
                0.4021043127401937,
                0.6986971071715127,
                1.0,
                0.32394498570190344,
                0.9999999999999999,
                0.10888951737855002,
                1.0,
                0.6738748705984592,
                0.49269968105546524,
                0.7266163408587349,
                1.0,
                0.9999999999999999,
                0.5836732862127083,
                1.0,
                0.6842066893186896,
                1.0,
                1.0,
                0.769318876351971,
                1.0000000000000002,
                0.4107781820825134,
                0.9999999999999999,
                0.1008607952066306,
                1.0000000000000002,
                1.0000000000000002,
                1.0,
                1.0,
                1.0,
                0.6417472415257554,
                1.0,
                1.0,
                1.0,
                1.0,
                0.027487968482424293,
                1.0000000000000002,
                0.7505554374799517,
                1.0,
                0.07651361455819561,
                1.0,
                1.0000000000000002,
                1.0,
                0.7315863532450636,
                1.0000000000000002,
                0.036257493791972295,
                0.12409112356152263,
                0.6425825789238029,
                0.4233047275580798,
                1.0,
                1.0,
                1.0,
                1.0000000000000002,
                1.0,
                1.0000000000000002,
                1.0,
                0.2622391824632937,
                0.7496794791957484,
                0.9999999999999999,
                0.11876872310643083,
                0.049499752222409654,
                0.7968572527462429,
                1.0,
                1.0,
                0.7918258908701364,
                0.5147551646990093,
                0.9999999999999999,
                1.0,
                1.0,
                0.09031565347148807,
                1.0,
                0.47329811363493285,
                0.5025763207053104,
                1.0,
                1.0,
                1.0,
                1.0,
                1.0,
                0.12118251993170759,
                0.17926098379864797,
                0.6985561454785528,
                0.7292032411578208,
                0.20632362385431557,
                1.0,
                1.0000000000000002,
                1.0,
                0.48311901832171783,
                0.9999999999999998,
                1.0,
                0.15866519716015592,
                1.0,
                0.04698902796823068,
                0.4332866885511859,
                0.8010208055292106,
                1.0,
                1.0,
                0.9999999999999999,
                0.6963689996437686,
                1.0,
                0.9999999999999999,
                0.9999999999999998,
                0.3082368124752537,
                1.0,
                1.0,
                0.42364719937704315,
                0.9999999999999998,
                0.6645993473595456,
                0.9999999999999999,
                0.12284991285045876,
                1.0,
                0.22231394861895815,
                1.0,
                0.45569774399006346,
                0.7790558707842717,
                0.7261236679729833,
                0.40521277288638036,
                1.0,
                1.0,
                1.0000000000000002,
                1.0,
                0.40345512084628776,
                0.9999999999999999,
                0.7006462340350068,
                0.4497110529978934,
                1.0,
                0.00866380396695221,
                1.0,
                1.0,
                0.004492151310367509,
                0.5053681586636742,
                1.0,
                1.0,
                0.01653917091009227,
                1.0,
                1.0,
                1.0,
                1.0,
                0.9999999999999999,
                0.31664031859821495,
                1.0,
                1.0,
                0.1760630688846826,
                1.0,
                0.6666415331748167,
                1.0,
                1.0000000000000002,
                1.0,
                0.08690865649482915,
                0.19120869721566802,
                0.6671928339195932,
                1.0000000000000002,
                0.4343976436583718,
                0.8267537945027412,
                1.0,
                1.0000000000000002,
                1.0,
                0.4923904295302902,
                0.7884625650588917,
                0.7021740370973479,
                1.0,
                0.7088700667101223,
                1.0,
                1.0,
                0.7019758577309022,
                0.9999999999999999,
                1.0000000000000002,
                0.559228491091667,
                0.7422129361125533,
                1.0,
                0.7272469043147571,
                0.9999999999999999,
                1.0,
                0.45967974277433843,
                0.9999999999999999,
                0.8310028857091895,
                0.10407771629197338,
                0.5165080459921628,
                0.03454925412586474,
                1.0,
                0.5045258137709626,
                0.13253636327952623,
                0.3207403879281332,
                1.0,
                0.9999999999999999,
                0.555247285122516,
                0.28256216407358214,
                1.0,
                1.0000000000000002,
                1.0,
                0.07279235916245663,
                0.9999999999999999,
                1.0,
                0.9999999999999999,
                0.15490186192949285,
                1.0,
                1.0,
                1.0,
                1.0,
                0.754446371354241,
                1.0000000000000002,
                1.0000000000000002,
                0.15572749231862695,
                1.0,
                1.0,
                1.0,
                1.0,
                0.04741169884569496,
                1.0000000000000002,
                0.29437761246761374,
                0.27871443472686064,
                0.9999999999999999,
                0.16670855365139536,
                1.0000000000000002,
                0.35165736794250724,
                1.0,
                1.0,
                1.0,
                0.5620344519803282,
                0.9999999999999999,
                0.8624334334801779,
                0.9999999999999999,
                1.0,
                0.724662360172146,
                1.0,
                1.0,
                0.623185112544151,
                0.2961771770744078,
                0.7783764565089063,
                0.4381658645122251,
                1.0,
                0.9999999999999999,
                1.0000000000000002,
                1.0,
                0.49707560729024397,
                1.0,
                0.9999999999999999,
                1.0,
                0.27576185968695277,
                1.0,
                0.07170307651512797,
                0.7709382025340957,
                0.5075402491050693,
                0.9999999999999998,
                0.35022422873777637,
                0.5017786417782872,
                0.9999999999999999,
                1.0,
                0.676785152555756,
                1.0,
                1.0000000000000002,
                1.0,
                0.801106048548924,
                0.2704416151010972,
                1.0,
                0.255368015071019,
                1.0
            ],
            "photocathode": [
                1406,
                1562,
                7012,
                5531,
                417,
                2859,
                5520,
                7188,
                4416,
                7003,
                7088,
                7024,
                7254,
                7042,
                7076,
                3694,
                7100,
                7460,
                4984,
                7063,
                4385,
                7006,
                5603,
                7343,
                7242,
                7103,
                713,
                7102,
                1288,
                7043,
                2017,
                7274,
                7216,
                7201,
                4287,
                7223,
                7201,
                2559,
                173,
                3554,
                7242,
                7331,
                7186,
                2905,
                4764,
                7118,
                168,
                2993,
                4986,
                7309,
                2297,
                7205,
                789,
                7296,
                4752,
                3539,
                5250,
                7178,
                7183,
                4182,
                7193,
                4862,
                7176,
                7207,
                5439,
                7519,
                2916,
                7193,
                733,
                6951,
                7267,
                7183,
                7379,
                7154,
                4605,
                7244,
                7157,
                7048,
                7194,
                192,
                7083,
                5370,
                7138,
                574,
                7016,
                7147,
                6936,
                5341,
                7029,
                280,
                875,
                4477,
                2928,
                7114,
                7063,
                7230,
                7127,
                7161,
                7133,
                7204,
                1951,
                5235,
                7104,
                845,
                360,
                5740,
                7180,
                7129,
                5630,
                3698,
                6987,
                7086,
                7201,
                627,
                7173,
                3229,
                3699,
                7115,
                7298,
                7206,
                7132,
                7181,
                857,
                1296,
                5067,
                5221,
                1500,
                7069,
                7220,
                7107,
                3571,
                7182,
                7153,
                1181,
                7121,
                356,
                3114,
                5919,
                7122,
                7146,
                7308,
                4973,
                7179,
                7075,
                7247,
                2254,
                7031,
                7233,
                3134,
                6956,
                4636,
                7138,
                947,
                7197,
                1600,
                7104,
                3291,
                5445,
                5228,
                2915,
                6944,
                7041,
                7037,
                7179,
                2948,
                7257,
                5048,
                3153,
                7147,
                70,
                7086,
                7239,
                35,
                3799,
                7143,
                7123,
                112,
                7429,
                7049,
                7084,
                7042,
                7180,
                2188,
                7051,
                7079,
                1335,
                7331,
                4662,
                7119,
                7128,
                7160,
                616,
                1320,
                4753,
                7142,
                3195,
                5860,
                7053,
                7104,
                7281,
                3613,
                5782,
                4966,
                7086,
                5053,
                7220,
                7299,
                5006,
                7113,
                7146,
                3964,
                5258,
                7104,
                5162,
                6991,
                7450,
                3262,
                7154,
                5833,
                742,
                3800,
                258,
                7180,
                3639,
                976,
                2203,
                7059,
                6936,
                3849,
                2050,
                7210,
                7197,
                7379,
                529,
                7124,
                7142,
                7008,
                1084,
                7092,
                7120,
                6966,
                7200,
                5464,
                7005,
                7000,
                1110,
                6894,
                7035,
                7180,
                6945,
                319,
                7232,
                2115,
                1933,
                7161,
                1181,
                7113,
                2470,
                7126,
                6945,
                6994,
                3953,
                7178,
                6146,
                7196,
                7076,
                5190,
                7328,
                7335,
                4565,
                2109,
                5571,
                3091,
                7241,
                7036,
                7026,
                7163,
                3654,
                7194,
                7168,
                7219,
                2053,
                7090,
                503,
                5457,
                3583,
                7188,
                2480,
                3623,
                7044,
                7225,
                4705,
                7081,
                7216,
                7266,
                5690,
                1872,
                7253,
                1823,
                7121
            ]
        },
        "detections": 300,
        "events": 382
    }
}