{
    "job_args": {
        "metric_limit": 300,
        "seed": 4129732356
    },
    "job_id": "batch_13_do_300",
    "result": {
        "collections": {
            "crystal": [
                1.0,
                1.0,
                1.0,
                0.04164305161515336,
                1.0,
                0.03499484044856438,
                1.0000000000000002,
                0.6543851946915928,
                0.9999999999999999,
                0.9999999999999998,
                1.0000000000000002,
                0.9999999999999997,
                0.9999999999999999,
                0.2938076059370407,
                0.5908778280175457,
                0.7128366933363175,
                0.03598511577649821,
                1.0,
                1.0,
                0.15884948673113833,
                0.10926727682698889,
                1.0,
                1.0,
                1.0000000000000002,
                1.0,
                1.0,
                1.0,
                1.0,
                0.9999999999999999,
                0.5592032096069147,
                0.7316382905328997,
                1.0,
                1.0,
                0.9999999999999999,
                1.0,
                0.7004044566661054,
                1.0,
                1.0000000000000002,
                1.0,
                0.5968568246411703,
                1.0,
                1.0,
                0.9999999999999999,
                1.0000000000000002,
                0.6915406483040879,
                0.48372965887714914,
                0.4267740087155312,
                1.0,
                1.0000000000000002,
                0.16764660011264831,
                1.0,
                0.6543307039184992,
                0.9999999999999999,
                1.0000000000000002,
                0.9999999999999998,
                0.04056845128099718,
                0.13377939306337075,
                0.04793751170100791,
                0.6929817466497273,
                0.9999999999999999,
                0.17821612971503342,
                0.9999999999999999,
                0.9999999999999998,
                1.0,
                0.5870600157010785,
                1.0,
                1.0,
                0.5786907509067206,
                0.23890232504863518,
                1.0,
                0.22178648537044518,
                0.7745264797879151,
                1.0,
                0.9999999999999998,
                0.4881213024131945,
                1.0000000000000002,
                1.0,
                1.0,
                0.5333617393111685,
                1.0,
                0.9999999999999999,
                1.0,
                0.03168371631576761,
                0.7969523419536269,
                1.0000000000000002,
                1.0000000000000002,
                0.6398731801112914,
                1.0000000000000002,
                0.9999999999999999,
                0.6163981496679273,
                1.0,
                1.0,
                1.0,
                1.0,
                1.0,
                0.5931911137175322,
                0.6537864996094701,
                1.0,
                0.06792199404541899,
                0.6737998724876757,
                1.0,
                0.12384979557267328,
                0.0935835291244651,
                0.9999999999999999,
                0.9999999999999999,
                1.0,
                0.5106241786803372,
                1.0,
                0.05153465019905423,
                1.0,
                0.3487841892391158,
                0.13161316676794077,
                0.03071885155484677,
                0.525457606973388,
                1.0,
                0.7103987730692377,
                1.0000000000000002,
                1.0,
                1.0,
                0.40238711476927186,
                0.06154060471895828,
                0.5400831831776008,
                0.6541713704946133,
                1.0000000000000002,
                0.34365520493597895,
                1.0,
                1.0,
                0.9999999999999999,
                1.0,
                0.9999999999999999,
                0.4987931296182966,
                1.0,
                1.0,
                0.9999999999999999,
                1.0,
                0.07894170125205835,
                1.0,
                0.9999999999999999,
                1.0,
                0.6812156613439824,
                0.9999999999999998,
                1.0,
                0.6987407668114434,
                1.0000000000000002,
                0.46013798878662243,
                0.9999999999999999,
                0.9999999999999999,
                1.0,
                1.0000000000000002,
                0.03203152280647281,
                0.08399916172221644,
                0.15210439250401764,
                1.0,
                1.0,
                1.0,
                0.00793235041832685,
                0.9999999999999999,
                0.7985647743476085,
                0.3945566525905876,
                0.4662236949732427,
                0.477736891563274,
                0.7482480660549445,
                1.0,
                0.7610959921025506,
                0.0007566652710889743,
                1.0,
                1.0,
                0.16358404430046533,
                0.6160038065055392,
                0.6929389280903928,
                0.9999999999999999,
                1.0,
                1.0,
                1.0,
                1.0,
                1.0,
                0.9999999999999999,
                1.0,
                1.0,
                1.0,
                0.2725024715956229,
                1.0,
                0.6322059986615673,
                1.0,
                1.0,
                0.3397571678083833,
                0.9999999999999999,
                1.0,
                0.15901824278494348,
                0.9999999999999998,
                1.0,
                0.7451570893516726,
                0.9999999999999999,
                0.6281649753858285,
                0.5846623208397747,
                0.060258568151255965,
                1.0000000000000002,
                1.0,
                0.9999999999999999,
                0.361457697609497,
                0.6714010465231531,
                0.4557474083763801,
                1.0,
                0.0006429545493192856,
                0.7349479824979341,
                0.10129945161975407,
                1.0000000000000002,
                0.23320025044365722,
                1.0,
                0.9713904999999999,
                1.0,
                1.0,
                1.0,
                1.0,
                0.9999999999999999,
                1.0000000000000002,
                1.0,
                1.0000000000000002,
                0.24882766913251597,
                1.0,
                1.0,
                1.0,
                0.19393584567799438,
                1.0,
                0.9999999999999999,
                0.7774528496706761,
                0.9999999999999999,
                0.9999999999999999,
                0.6735541426540369,
                1.0,
                1.0,
                1.0,
                1.0,
                0.9999999999999999,
                0.9999999999999999,
                0.44716228466458713,
                1.0,
                0.7232014766492445,
                1.0,
                0.9999999999999999,
                1.0,
                0.5686160440437075,
                0.9999999999999999,
                0.07743792159191498,
                1.0,
                0.9999999999999999,
                0.4371151120570788,
                1.0,
                0.7892780403457866,
                1.0,
                0.27619892593302175,
                1.0,
                1.0,
                0.4422518429920287,
                1.0,
                0.4093700147370321,
                1.0000000000000002,
                1.0,
                1.0,
                0.7574220236712917,
                0.44199360986587927,
                1.0,
                0.6805878860997681,
                0.629270221096826,
                0.7514112207584801,
                0.9999999999999998,
                0.26643136456583716,
                1.0,
                1.0,
                1.0,
                0.13269102252477694,
                1.0,
                0.7377544402759675,
                0.9999999999999999,
                0.753142613648958,
                0.29042357028680305,
                1.0,
                0.9999999999999998,
                0.9999999999999999,
                0.9999999999999999,
                1.0,
                0.413383962988508,
                0.8098588419212286,
                0.4504288682433882,
                0.7885258976640812,
                1.0,
                1.0000000000000002,
                1.0,
                1.0000000000000002,
                0.5259776769259302,
                1.0,
                0.24704167955959022,
                1.0000000000000002,
                1.0,
                0.3717518651282459,
                1.0,
                0.9999999999999999,
                1.0,
                0.1858600790146413,
                1.0
            ],
            "photocathode": [
                7081,
                7197,
                7151,
                303,
                7169,
                255,
                7293,
                4658,
                7162,
                7279,
                7018,
                7035,
                7070,
                2023,
                4209,
                5133,
                262,
                7233,
                7118,
                1166,
                811,
                7122,
                7024,
                7170,
                7077,
                7125,
                7291,
                7087,
                7180,
                3874,
                5303,
                7151,
                7259,
                7135,
                7210,
                4977,
                6943,
                7286,
                7133,
                4098,
                7048,
                7172,
                7023,
                7080,
                5106,
                3449,
                2978,
                7280,
                7069,
                1214,
                7182,
                4726,
                7017,
                7294,
                7154,
                295,
                936,
                323,
                4889,
                7110,
                1276,
                7179,
                7161,
                7179,
                4181,
                7221,
                7204,
                4246,
                1687,
                7074,
                1540,
                5650,
                7156,
                7223,
                3535,
                7401,
                7141,
                7098,
                3828,
                7174,
                6878,
                7255,
                222,
                5704,
                7304,
                7197,
                4587,
                7049,
                7058,
                4468,
                7128,
                7150,
                7007,
                7284,
                7160,
                4202,
                4653,
                7056,
                531,
                4703,
                7181,
                911,
                703,
                7151,
                7037,
                7161,
                3631,
                7112,
                415,
                7191,
                2442,
                956,
                227,
                3742,
                7005,
                5073,
                7205,
                7262,
                6995,
                2888,
                463,
                3795,
                4736,
                6955,
                2456,
                7074,
                7054,
                7051,
                7054,
                7082,
                3521,
                7220,
                7149,
                7109,
                7211,
                522,
                7260,
                7075,
                7093,
                4963,
                7186,
                6979,
                5042,
                7365,
                3268,
                7129,
                7408,
                7164,
                7224,
                206,
                633,
                1053,
                7094,
                7114,
                7207,
                70,
                7251,
                5711,
                2767,
                3309,
                3285,
                5396,
                7006,
                5433,
                2,
                7038,
                7226,
                1120,
                4328,
                4931,
                7016,
                7244,
                7188,
                7228,
                7104,
                7157,
                7136,
                7110,
                7284,
                7099,
                1956,
                6972,
                4516,
                7193,
                7037,
                2530,
                7053,
                7010,
                1242,
                7204,
                7190,
                5273,
                7042,
                4494,
                4199,
                406,
                7109,
                7200,
                7082,
                2529,
                4830,
                3271,
                7074,
                5,
                5202,
                714,
                7077,
                1675,
                7148,
                6795,
                7231,
                7043,
                6982,
                7087,
                7311,
                7056,
                7138,
                7198,
                1800,
                7182,
                7123,
                6918,
                1419,
                6923,
                7159,
                5554,
                7074,
                7032,
                4741,
                6973,
                7157,
                7102,
                7120,
                7265,
                7074,
                3189,
                7204,
                5186,
                7346,
                7068,
                7085,
                4064,
                7280,
                546,
                7041,
                7292,
                3205,
                7223,
                5693,
                7053,
                1980,
                7037,
                7073,
                3195,
                7160,
                2947,
                7403,
                7107,
                7152,
                5398,
                3125,
                7139,
                4828,
                4471,
                5260,
                7078,
                1902,
                6971,
                7159,
                7126,
                949,
                7029,
                5145,
                7076,
                5362,
                2124,
                7223,
                7111,
                7008,
                7201,
                7334,
                2965,
                5680,
                3126,
                5647,
                7085,
                7038,
                7352,
                7203,
                3795,
                7195,
                1700,
                7149,
                7097,
                2731,
                7088,
                7111,
                7324,
                1344,
                7202
            ]
        },
        "detections": 300,
        "events": 368
    }
}