{
    "job_args": {
        "metric_limit": 300,
        "seed": 4129921452
    },
    "job_id": "batch_24_do_300",
    "result": {
        "collections": {
            "crystal": [
                1.0,
                1.0,
                1.0,
                0.38433309113347586,
                1.0000000000000002,
                0.6123147476941303,
                0.558569680079964,
                1.0000000000000002,
                0.8014369797295049,
                0.5933485757629902,
                1.0,
                0.2585910395644493,
                0.6920601380238194,
                0.504611941169163,
                0.5954697198127339,
                0.5175565480765543,
                1.0,
                1.0,
                1.0,
                0.6273827319076912,
                0.35817210508875347,
                1.0000000000000002,
                0.605498527599475,
                0.3819670196212523,
                1.0,
                0.9999999999999999,
                0.9999999999999999,
                0.9999999999999998,
                0.6326086055423279,
                0.9999999999999999,
                0.7351829064969688,
                0.7188618929995237,
                0.27356763521198435,
                1.0,
                0.7090902503034332,
                1.0,
                0.7854757417134565,
                1.0,
                1.0000000000000002,
                1.0000000000000002,
                0.2555709661252837,
                0.3291729673287813,
                0.9999999999999999,
                0.4606477036027556,
                0.0306218,
                0.13081428658215777,
                1.0,
                0.327341585882585,
                1.0,
                0.6287592801874541,
                1.0,
                1.0,
                0.721006682299779,
                1.0,
                0.9999999999999999,
                1.0,
                0.21716500754626633,
                1.0,
                0.39138008075463726,
                0.548942616073785,
                1.0000000000000002,
                0.7226792883116243,
                1.0,
                1.0,
                1.0,
                1.0,
                1.0,
                0.5966126122013347,
                0.44037245902876987,
                1.0,
                1.0,
                0.755236364447336,
                0.7557348279281079,
                0.42715476684131226,
                1.0,
                1.0,
                0.19669751763634735,
                0.22032649451981434,
                1.0,
                0.25649220100481496,
                0.004816836994087748,
                0.34634963836594235,
                0.5852376879869291,
                1.0,
                1.0,
                0.7622398547489317,
                0.6804553479477976,
                0.9999999999999999,
                0.9999999999999999,
                0.6976047386994685,
                0.44473533354847633,
                0.2512851339499924,
                1.0,
                1.0,
                0.1949654566630622,
                0.5064466031013309,
                0.0875953253011974,
                1.0,
                0.16265701895292103,
                0.6017645371743006,
                1.0,
                1.0000000000000002,
                1.0,
                1.0,
                0.4871291962087293,
                1.0,
                0.9999999999999999,
                0.4032839571822645,
                0.9999999999999999,
                0.9999999999999999,
                0.533271927692712,
                0.18268802112536275,
                1.0,
                0.9999999999999999,
                0.4949625305539434,
                0.2733329821641935,
                1.0,
                0.6516052692935901,
                0.6182960636421868,
                1.0,
                1.0,
                0.4501498266894184,
                0.18282568539758237,
                0.3935067590840496,
                1.0,
                1.0,
                0.2159960869338078,
                1.0,
                1.0000000000000002,
                0.41758545715597695,
                1.0,
                1.0,
                1.0,
                1.0000000000000002,
                1.0,
                1.0,
                1.0,
                0.18209605157238284,
                1.0,
                0.6276697532004459,
                0.03110855980339755,
                0.6497006049065327,
                0.6738218405898801,
                0.12668541484088425,
                0.7875531757556751,
                0.7074644375478201,
                1.0,
                0.6228855101634134,
                0.04879606579889862,
                1.0,
                1.0000000000000002,
                0.45578081899452194,
                1.0,
                1.0,
                0.17600847352355042,
                1.0000000000000002,
                1.0,
                1.0,
                1.0,
                0.4577156723918056,
                1.0,
                1.0,
                0.9999999999999999,
                0.42881900697816966,
                1.0,
                1.0,
                1.0,
                1.0,
                0.4312118111625515,
                0.2731158978168392,
                1.0,
                0.7005821938444176,
                1.0,
                0.6068478091449078,
                0.6102084768222278,
                1.0000000000000002,
                1.0,
                1.0,
                0.15912262054545967,
                1.0,
                1.0,
                0.14325314809975842,
                0.5783591180828028,
                1.0,
                1.0000000000000002,
                0.6263466373722932,
                1.0,
                1.0000000000000002,
                1.0,
                0.792467500504251,
                0.7097179950498058,
                0.9999999999999999,
                0.379294095513796,
                1.0,
                1.0,
                1.0,
                0.9999999999999999,
                0.2327406517476439,
                1.0,
                0.11126454159412114,
                0.6638476140161728,
                0.39755825343201645,
                0.8533013247166397,
                1.0,
                0.6524307690065052,
                0.19496260963909018,
                1.0,
                0.633571244481496,
                0.3269457400322916,
                0.5717056006399065,
                0.6968266205346796,
                0.6982674018572541,
                1.0,
                0.9999999999999999,
                1.0,
                0.6433226722663726,
                0.6236396462444311,
                0.7718389670790147,
                0.9999999999999999,
                1.0,
                0.4447865319566714,
                1.0,
                0.47183329613555425,
                0.6780873458061074,
                0.38988953900597123,
                1.0,
                1.0,
                0.9999999999999998,
                1.0,
                0.9999999999999999,
                0.45337531195661257,
                0.797366307343988,
                1.0,
                1.0,
                1.0,
                0.06899426931174168,
                1.0,
                0.05346098089004914,
                0.3467280197313583,
                0.572946743964456,
                1.0,
                1.0,
                1.0,
                0.027223554137338256,
                0.7337598814907996,
                1.0,
                0.3210376971229679,
                0.5424175082190599,
                0.6225175930888143,
                1.0,
                0.9999999999999999,
                1.0000000000000002,
                1.0,
                0.6068913077203865,
                0.9999999999999999,
                0.6318985405896229,
                1.0,
                0.19866788930757562,
                1.0,
                0.3275066706698947,
                0.6280269267800931,
                1.0,
                0.31942472288946616,
                0.5143568080926945,
                0.15103645705958624,
                1.0,
                0.7260231481603202,
                1.0,
                0.6422152151168488,
                1.0,
                1.0,
                0.4410951384492682,
                1.0,
                0.13713078032611403,
                0.9999999999999999,
                0.5943124598465659,
                0.7380501922424763,
                1.0,
                0.61567210986934,
                0.2427987885648598,
                0.10020878310271651,
                0.5773664999087988,
                0.7647231225653878,
                1.0,
                1.0,
                1.0,
                0.28556676343991294,
                0.4108494123564223,
                0.9999999999999999,
                0.660146722801099,
                1.0,
                0.6017098096056589,
                1.0,
                1.0,
                0.9999999999999999,
                0.4901689232035434,
                0.36228965285512293,
                1.0,
                1.0,
                0.9999999999999998
            ],
            "photocathode": [
                7062,
                6988,
                7094,
                2802,
                7239,
                4512,
                3928,
                7235,
                5703,
                4102,
                7286,
                1842,
                4951,
                3582,
                4080,
                3823,
                7269,
                7123,
                6905,
                4388,
                2592,
                7126,
                4291,
                2675,
                7269,
                7184,
                7064,
                7339,
                4672,
                6975,
                5191,
                5146,
                2054,
                7284,
                5008,
                7113,
                5627,
                7164,
                6972,
                7058,
                1859,
                2297,
                7023,
                3292,
                229,
                949,
                7161,
                2316,
                6940,
                4524,
                7126,
                7053,
                5236,
                7078,
                6973,
                7141,
                1565,
                7152,
                2841,
                4047,
                6987,
                5188,
                7114,
                7366,
                7040,
                7048,
                7206,
                4195,
                3118,
                7107,
                6993,
                5429,
                5361,
                2998,
                7116,
                7064,
                1421,
                1608,
                7141,
                1778,
                38,
                2510,
                4054,
                7111,
                7183,
                5323,
                4852,
                7229,
                7230,
                4912,
                3298,
                1833,
                7051,
                7125,
                1380,
                3603,
                635,
                7117,
                1182,
                4187,
                7130,
                7107,
                7101,
                7136,
                3542,
                7118,
                7088,
                2805,
                7173,
                7201,
                3997,
                1282,
                7298,
                7033,
                3529,
                1970,
                7005,
                4549,
                4459,
                7155,
                7027,
                3173,
                1298,
                2791,
                7070,
                7227,
                1578,
                7189,
                7128,
                3023,
                7304,
                7175,
                6998,
                7132,
                7230,
                7319,
                7144,
                1352,
                7139,
                4504,
                215,
                4710,
                4954,
                901,
                5588,
                4885,
                7240,
                4551,
                356,
                7120,
                7030,
                3327,
                7028,
                6899,
                1209,
                7177,
                7028,
                7136,
                7278,
                3199,
                7160,
                7323,
                7081,
                3058,
                7246,
                7160,
                7029,
                7047,
                2932,
                1974,
                7182,
                4881,
                7018,
                4340,
                4407,
                7099,
                7093,
                7074,
                1180,
                7115,
                7265,
                1000,
                4141,
                7148,
                7147,
                4516,
                7366,
                7125,
                7344,
                5711,
                5047,
                7157,
                2727,
                7241,
                7095,
                7207,
                7172,
                1694,
                7145,
                787,
                4784,
                2930,
                6025,
                7111,
                4635,
                1349,
                7310,
                4765,
                2305,
                4123,
                5079,
                5003,
                7278,
                7273,
                7108,
                4584,
                4443,
                5574,
                7132,
                7406,
                3168,
                7069,
                3520,
                4806,
                2859,
                7016,
                7299,
                7192,
                7143,
                7102,
                3239,
                5587,
                7191,
                7125,
                7176,
                485,
                7247,
                380,
                2491,
                4183,
                7053,
                7448,
                7181,
                200,
                5424,
                6954,
                2281,
                3799,
                4354,
                7105,
                7008,
                7131,
                7082,
                4246,
                7136,
                4573,
                7123,
                1332,
                7206,
                2286,
                4587,
                7031,
                2320,
                3572,
                1058,
                7098,
                5204,
                7179,
                4718,
                7099,
                7419,
                3136,
                7168,
                995,
                7170,
                4190,
                5300,
                7147,
                4245,
                1847,
                666,
                4048,
                5524,
                7192,
                7180,
                7072,
                1949,
                2796,
                7011,
                4631,
                7064,
                4399,
                7174,
                7135,
                6950,
                3486,
                2665,
                7144,
                7088,
                7087
            ]
        },
        "detections": 300,
        "events": 378
    }
}