{
    "job_args": {
        "metric_limit": 300,
        "seed": 1160525261
    },
    "job_id": "batch_100_do_300",
    "result": {
        "collections": {
            "crystal": [
                0.1618715424823265,
                0.1708927270702295,
                1.0,
                1.0,
                0.48877726291795565,
                0.29079599791356353,
                1.0,
                0.5679946627333223,
                1.0000000000000002,
                0.9999999999999998,
                1.0,
                1.0,
                0.47107753850749345,
                0.20031011034523727,
                0.9999999999999999,
                0.7285652303443193,
                0.06625158658905417,
                0.06779485129583918,
                0.17807043785131815,
                1.0,
                0.6949041664342233,
                0.6242080247439755,
                0.6058524589637295,
                0.6285345020415909,
                1.0,
                0.19975410494907472,
                0.7646494759487643,
                0.1970448286650225,
                0.42944918628665946,
                0.3269301362974546,
                0.5034251906818763,
                1.0000000000000002,
                0.6547579362238602,
                1.0,
                0.5891470846321095,
                1.0,
                1.0,
                0.5778037392688468,
                0.9999999999999999,
                1.0,
                1.0,
                0.7280944297241575,
                1.0,
                0.9999999999999999,
                0.694206924875227,
                0.0625752674950566,
                1.0,
                1.0,
                0.9999999999999999,
                1.0,
                0.4516671727085574,
                0.03989597861280936,
                0.7339974137066684,
                1.0,
                1.0,
                0.5928780996680699,
                0.9999999999999999,
                0.9999999999999999,
                0.4052686826016818,
                1.0,
                1.0000000000000002,
                1.0,
                0.12356866085999729,
                0.9999999999999999,
                1.0,
                0.691425722762775,
                1.0,
                1.0000000000000002,
                0.634677246725079,
                0.5464742992892785,
                1.0,
                0.5493703607044175,
                0.9999999999999999,
                1.0000000000000002,
                1.0,
                0.3349779890268497,
                1.0,
                1.0000000000000002,
                1.0000000000000002,
                0.6433611473337595,
                1.0,
                0.24776611372298352,
                1.0,
                1.0,
                0.5098152986402954,
                0.46894667716080674,
                1.0,
                1.0,
                0.7391473266906797,
                0.7601256126822481,
                0.0777348385383403,
                0.1433347876646335,
                0.9999999999999999,
                1.0000000000000002,
                1.0,
                0.6864167411187778,
                0.9999999999999998,
                1.0,
                1.0,
                1.0,
                1.0,
                0.6231200417122393,
                1.0,
                0.6825953017187311,
                0.07587523855502465,
                0.5184750892600793,
                1.0,
                1.0000000000000002,
                0.09026967698646138,
                0.25813752800344086,
                0.9999999999999998,
                0.9999999999999999,
                1.0,
                0.7136130051425074,
                0.5078279631036656,
                1.0,
                0.6884511176677799,
                0.9999999999999998,
                0.9999999999999998,
                1.0000000000000002,
                0.7490490423673146,
                0.7544386149508411,
                0.9995297454697634,
                0.6266862980622723,
                1.0,
                0.2705200424021318,
                1.0,
                0.6698751894515339,
                1.0,
                0.9999999999999999,
                1.0,
                0.9999999999999999,
                1.0,
                0.2971907984871339,
                0.3359414062827913,
                1.0000000000000002,
                0.49679226117658914,
                1.0,
                1.0,
                1.0,
                0.6803876058403379,
                0.29324624393358995,
                0.9999999999999999,
                1.0,
                0.10954089884577933,
                1.0,
                1.0,
                0.5444549117793973,
                0.6446038550759927,
                0.2215303659544637,
                0.4100339067388324,
                0.3982890297269508,
                0.9999999999999998,
                1.0,
                0.41295762163016075,
                0.9999999999999999,
                1.0,
                0.6587970305914133,
                0.9999999999999999,
                0.9999999999999999,
                1.0,
                1.0,
                0.3820176544402999,
                0.3529960965305754,
                0.7412211573829233,
                0.9999999999999999,
                1.0,
                1.0,
                1.0,
                1.0,
                1.0,
                0.9999999999999999,
                1.0000000000000002,
                0.15004344507286893,
                0.37906033110384396,
                1.0000000000000002,
                0.23138181513324285,
                1.0,
                1.0,
                0.5125966043539645,
                0.050516724843673755,
                1.0000000000000002,
                1.0,
                0.26559149700617146,
                1.0,
                0.9999999999999999,
                1.0,
                0.9999999999999999,
                0.9999999999999999,
                0.473069383969327,
                0.9999999999999999,
                1.0,
                0.4314651531926228,
                0.6863985118670916,
                1.0,
                1.0,
                0.772049195027848,
                1.0,
                0.9999999999999999,
                0.6316361805545323,
                1.0,
                0.11956284207376355,
                1.0,
                0.07256919059101408,
                0.3958950414891731,
                1.0,
                0.18831169972400819,
                1.0000000000000002,
                0.9999999999999999,
                0.04624279418589883,
                1.0,
                0.6055715398454358,
                0.5979474322735763,
                1.0,
                1.0,
                0.37836814421987264,
                1.0,
                0.7453205987513745,
                1.0,
                1.0,
                1.0,
                0.9999999999999999,
                0.4572713023798338,
                0.9999999999999999,
                1.0,
                0.7921469801862668,
                0.4170160396543382,
                0.9999999999999999,
                0.2791613088840369,
                0.6208364910055391,
                1.0,
                0.020569093376531677,
                0.2791809507745856,
                0.32618591945680087,
                0.45182408729619045,
                1.0000000000000002,
                1.0,
                0.23265359379398654,
                0.9999999999999999,
                1.0,
                1.0,
                1.0,
                0.550795799224387,
                0.12718564356752604,
                1.0,
                0.4879779678744912,
                1.0000000000000002,
                0.9999999999999998,
                1.0000000000000002,
                1.0,
                1.0,
                1.0,
                0.8163669473117086,
                0.7544764360394997,
                1.0,
                0.36014077096330355,
                0.9999999999999999,
                1.0,
                1.0000000000000002,
                1.0,
                0.4939553909569119,
                0.49582632564414314,
                1.0,
                0.1149811570257928,
                0.9999999999999999,
                0.36512255637007823,
                1.0,
                0.33742468031334527,
                1.0,
                0.38600357083517467,
                0.8623632911251582,
                0.42034991824784546,
                1.0,
                0.28584648299178506,
                0.9999999999999999,
                0.20082493335344864,
                1.0,
                0.24875020363600875,
                1.0,
                0.42668897191697075,
                1.0,
                1.0,
                1.0,
                1.0,
                1.0,
                1.0000000000000002,
                1.0,
                0.9999999999999999,
                1.0,
                1.0000000000000002,
                1.0,
                0.2734235224821826,
                1.0,
                0.9999999999999999,
                0.9999999999999999,
                0.4183998111164626,
                1.0,
                0.7478591011572153,
                0.37981242579173263,
                0.9999999999999999
            ],
            "photocathode": [
                1171,
                1199,
                7036,
                7405,
                3456,
                2059,
                7219,
                4058,
                7295,
                7185,
                6975,
                7071,
                3491,
                1403,
                7220,
                5155,
                474,
                504,
                1314,
                7134,
                4926,
                4414,
                4255,
                4379,
                7035,
                1381,
                5452,
                1431,
                3002,
                2362,
                3626,
                7114,
                4650,
                7034,
                4209,
                7294,
                7001,
                4220,
                7342,
                7238,
                7311,
                5271,
                7092,
                7309,
                4953,
                411,
                7104,
                7046,
                6954,
                7183,
                3341,
                323,
                5149,
                7247,
                7171,
                4202,
                7105,
                7023,
                2938,
                6961,
                7225,
                7131,
                864,
                7028,
                7142,
                4911,
                7023,
                7026,
                4606,
                3973,
                7079,
                3938,
                7328,
                7179,
                7129,
                2406,
                7275,
                7189,
                7100,
                4423,
                7112,
                1808,
                7326,
                7167,
                3517,
                3322,
                7153,
                7071,
                5190,
                5426,
                519,
                1024,
                7019,
                7122,
                7217,
                4943,
                7015,
                6978,
                7153,
                6979,
                7048,
                4322,
                6983,
                4908,
                540,
                3621,
                7491,
                7231,
                596,
                1791,
                7099,
                7066,
                7279,
                5188,
                3551,
                7178,
                4900,
                7129,
                6913,
                7241,
                5261,
                5407,
                6991,
                4448,
                7013,
                1888,
                6973,
                4688,
                7041,
                7225,
                7205,
                7094,
                7108,
                2181,
                2536,
                7332,
                3533,
                7291,
                7258,
                6873,
                4716,
                2123,
                7053,
                7090,
                771,
                7026,
                7157,
                3844,
                4469,
                1513,
                2986,
                2787,
                7283,
                7225,
                2897,
                7062,
                7114,
                4758,
                7090,
                7127,
                7259,
                7116,
                2720,
                2544,
                5267,
                7125,
                7092,
                7112,
                7106,
                7057,
                7230,
                7104,
                7241,
                1136,
                2734,
                7110,
                1711,
                7196,
                7077,
                3643,
                350,
                7370,
                7098,
                1933,
                7024,
                7123,
                7162,
                7207,
                7306,
                3300,
                6991,
                7349,
                3044,
                4789,
                7040,
                7024,
                5576,
                7137,
                6991,
                4544,
                7266,
                823,
                7216,
                538,
                2840,
                7261,
                1379,
                7103,
                7203,
                331,
                7139,
                4389,
                4340,
                7024,
                7039,
                2773,
                7188,
                5306,
                7050,
                7198,
                7165,
                7010,
                3479,
                7284,
                7137,
                5603,
                2916,
                6950,
                2014,
                4359,
                7156,
                145,
                1924,
                2320,
                3166,
                7163,
                7214,
                1673,
                7139,
                7188,
                7085,
                7161,
                3846,
                874,
                7023,
                3401,
                7169,
                7143,
                7242,
                7171,
                7087,
                7157,
                5846,
                5393,
                7320,
                2643,
                7420,
                7093,
                7021,
                6996,
                3536,
                3583,
                7015,
                762,
                7009,
                2566,
                7247,
                2393,
                7148,
                2782,
                6119,
                2966,
                7135,
                2079,
                7148,
                1372,
                6926,
                1743,
                7162,
                2915,
                7022,
                7193,
                7043,
                7116,
                7110,
                7044,
                7200,
                7289,
                7102,
                7098,
                6965,
                1913,
                7127,
                7145,
                7220,
                2869,
                7050,
                5369,
                2797,
                7065
            ]
        },
        "detections": 300,
        "events": 362
    }
}