{
    "job_args": {
        "metric_limit": 300,
        "seed": 1135745196
    },
    "job_id": "batch_94_do_300",
    "result": {
        "collections": {
            "crystal": [
                0.5464993958425813,
                1.0,
                1.0,
                0.9999999999999998,
                0.16767230520229215,
                1.0,
                0.06775534637332181,
                1.0,
                1.0,
                0.7789401729952377,
                1.0,
                0.5398771375031576,
                1.0,
                0.9999999999999999,
                0.48617187062452577,
                0.7081249479819895,
                0.348279179219074,
                1.0,
                0.7744794042534638,
                0.5926682698199992,
                1.0,
                1.0,
                1.0000000000000002,
                0.6006207714856867,
                1.0,
                1.0000000000000002,
                1.0000000000000002,
                0.1745351824793383,
                0.344148396064348,
                1.0,
                1.0000000000000002,
                0.7331359718134219,
                1.0,
                0.9999999999999998,
                0.14246684979498503,
                0.2037487019360984,
                0.9999999999999999,
                1.0,
                1.0,
                0.0016600770455007519,
                1.0,
                0.11858935642137602,
                1.0,
                0.9999999999999999,
                0.6677290249180914,
                0.9677058000000001,
                0.7762932493412698,
                0.6304189116662766,
                0.6201651899249389,
                1.0,
                0.9999999999999999,
                1.0,
                1.0,
                1.0,
                0.6914171229836433,
                0.3530501985520188,
                1.0,
                1.0,
                0.8114843259436133,
                1.0,
                1.0,
                0.05908877077901242,
                1.0,
                0.650663161633948,
                1.0,
                1.0,
                1.0,
                0.5083980873590261,
                0.23222123292354613,
                0.24986495841100587,
                1.0,
                0.6743543857196197,
                1.0,
                0.31603799810422667,
                1.0,
                0.4607731357511602,
                0.5166713103782399,
                1.0,
                1.0,
                0.7973442926969412,
                1.0,
                0.7050094796137389,
                0.7169758525305081,
                0.4826816392051746,
                0.9999999999999998,
                0.2047544457726852,
                1.0,
                1.0,
                0.13185130541426426,
                1.0,
                1.0,
                0.8921095930318339,
                0.14487536217690278,
                1.0000000000000002,
                1.0,
                0.4813383258801344,
                0.36202101123045544,
                0.7162994213055234,
                1.0,
                0.47622722105086307,
                1.0,
                1.0,
                0.758173653934417,
                0.032031245909509676,
                1.0,
                1.0,
                0.7862368684760208,
                1.0,
                1.0,
                0.23688612569387135,
                0.8369261751240444,
                0.6740240349280714,
                0.02962744551344698,
                1.0,
                0.7009672183531107,
                0.3611431320708017,
                0.2847032550993655,
                0.9999999999999999,
                0.5704411993224154,
                0.5000276517958828,
                0.9999999999999998,
                1.0000000000000002,
                0.09514584368357204,
                0.17447611584029976,
                1.0000000000000002,
                1.0,
                0.7298713379455141,
                0.7191216871307358,
                1.0,
                0.6158637895805101,
                1.0,
                0.04380667618625733,
                0.37737563728251694,
                1.0,
                0.4870163236933457,
                1.0,
                0.5862637396325094,
                1.0000000000000002,
                0.287048545596174,
                1.0,
                0.9999999999999999,
                1.0000000000000002,
                0.9999999999999998,
                1.0,
                1.0,
                0.38272791499065906,
                1.0,
                1.0,
                0.7028938924306625,
                0.617386906991195,
                1.0,
                0.235792474281606,
                0.03975975873923531,
                0.2837639739380451,
                0.40190073337547094,
                1.0000000000000002,
                1.0,
                1.0,
                0.9999999999999999,
                1.0000000000000002,
                0.9999999999999998,
                0.6095506427510057,
                1.0,
                0.6241022137560059,
                1.0,
                1.0,
                0.5848370429185711,
                0.9999999999999999,
                0.25877336761375114,
                0.41778826600993696,
                1.0,
                1.0,
                0.40266830434116935,
                0.38057894195590714,
                0.49219543118031484,
                1.0,
                1.0,
                0.8711721312163618,
                1.0,
                1.0,
                1.0000000000000002,
                0.8303749965353312,
                0.6561308112265327,
                1.0,
                0.7003006528166141,
                0.5992225507146791,
                0.6329534216537432,
                0.9999999999999999,
                0.5379154007903232,
                0.6917674689128711,
                1.0,
                0.1295822215448098,
                0.5421461690467995,
                0.9999999999999999,
                0.36508609051790897,
                0.4370415158777635,
                1.0,
                0.5322494155091425,
                0.44147711153031155,
                1.0,
                0.7508515718556873,
                0.22724242904258507,
                0.10315496435078096,
                1.0,
                1.0,
                1.0,
                1.0,
                0.12930295577709017,
                0.6518753954607399,
                1.0000000000000002,
                1.0,
                0.5658294823401162,
                0.7960101112414051,
                0.9999999999999999,
                0.12506999011348297,
                0.7482468870017142,
                1.0,
                1.0,
                0.6597393265871027,
                0.40161849060095145,
                0.9999999999999999,
                1.0,
                0.511008935734826,
                1.0,
                1.0,
                0.39779475371554746,
                0.9999999999999999,
                1.0,
                1.0,
                1.0,
                0.9999999999999999,
                0.23344480593861572,
                1.0,
                0.1525679428572072,
                0.6616244847053386,
                1.0,
                1.0,
                1.0,
                0.9999999999999999,
                0.4566651120696202,
                0.9999999999999999,
                0.7605326009543371,
                0.7960030073109806,
                0.7301067080822793,
                1.0,
                0.24006350613740557,
                1.0,
                0.9999999999999998,
                0.4425458959245935,
                1.0,
                0.9999999999999998,
                1.0,
                0.864379833548202,
                1.0,
                0.13429510136392991,
                1.0,
                1.0,
                1.0,
                0.06670692170967996,
                1.0000000000000002,
                0.2658626121961014,
                0.6978375464131682,
                0.5788606797341795,
                1.0,
                0.5675103287338138,
                0.75014266537634,
                1.0,
                0.011907588090897205,
                1.0,
                0.9999999999999999,
                0.9999999999999999,
                0.46816353657666915,
                0.13567973721473403,
                0.7441737556480749,
                0.7641749393283251,
                1.0,
                0.6666870574957708,
                1.0,
                1.0,
                0.7910575903791599,
                0.4751783348932449,
                1.0,
                1.0,
                0.5636855537443549,
                1.0,
                1.0,
                0.1353979924425318,
                0.33264085930850307,
                1.0,
                0.05897691328565486,
                1.0,
                0.9999999999999999,
                1.0000000000000002,
                1.0,
                0.7968669686541132,
                1.0,
                1.0,
                0.5931799154135752,
                1.0,
                1.0
            ],
            "photocathode": [
                4046,
                7170,
                7241,
                7088,
                1227,
                7165,
                455,
                7230,
                7298,
                5521,
                7107,
                3962,
                7291,
                7108,
                3421,
                5072,
                2512,
                7229,
                5683,
                4395,
                7108,
                7131,
                7308,
                4383,
                7088,
                7115,
                7112,
                1255,
                2424,
                7306,
                7303,
                5174,
                7444,
                7189,
                1009,
                1493,
                7293,
                6946,
                7087,
                10,
                7045,
                808,
                7159,
                7433,
                4876,
                7080,
                5457,
                4489,
                4369,
                7181,
                7213,
                7093,
                7242,
                7167,
                4981,
                2522,
                7103,
                7124,
                5783,
                7281,
                7223,
                419,
                6929,
                4560,
                7111,
                7159,
                7296,
                3667,
                1720,
                1841,
                7014,
                4872,
                7037,
                2250,
                7001,
                3229,
                3650,
                7029,
                6930,
                5675,
                7080,
                5041,
                5167,
                3437,
                7125,
                1475,
                7159,
                7160,
                1013,
                7090,
                7132,
                6438,
                1047,
                7215,
                7058,
                3489,
                2527,
                5008,
                7182,
                3409,
                7253,
                7101,
                5441,
                242,
                7135,
                7160,
                5707,
                7024,
                6959,
                1805,
                5970,
                4821,
                215,
                7180,
                5046,
                2559,
                2152,
                7149,
                3941,
                3510,
                7107,
                6928,
                721,
                1186,
                7066,
                7168,
                5397,
                5210,
                7089,
                4371,
                7069,
                305,
                2601,
                7227,
                3557,
                7204,
                4106,
                7088,
                1979,
                7163,
                7132,
                7240,
                7171,
                7376,
                7083,
                2775,
                7341,
                6973,
                5028,
                4401,
                7055,
                1659,
                294,
                2003,
                2823,
                7067,
                7189,
                7158,
                7042,
                7099,
                7123,
                4267,
                7117,
                4442,
                7041,
                7161,
                4268,
                7151,
                1924,
                2976,
                7102,
                7114,
                2717,
                2610,
                3558,
                7129,
                6977,
                6264,
                7248,
                7311,
                7093,
                6021,
                4777,
                7154,
                5088,
                4238,
                4360,
                7045,
                3825,
                4936,
                7166,
                1000,
                3813,
                7159,
                2522,
                3117,
                7107,
                3740,
                3053,
                7109,
                5214,
                1653,
                753,
                7154,
                7076,
                7265,
                7002,
                847,
                4591,
                7033,
                7166,
                4075,
                5636,
                7109,
                905,
                5475,
                7139,
                7028,
                4585,
                2859,
                7126,
                7066,
                3614,
                7249,
                7192,
                2788,
                7002,
                7121,
                7016,
                7117,
                7169,
                1713,
                7147,
                1122,
                4648,
                7200,
                7155,
                7161,
                7324,
                3243,
                7044,
                5455,
                5724,
                5294,
                7262,
                1732,
                7171,
                7069,
                3164,
                7144,
                7119,
                7086,
                6087,
                7105,
                960,
                7045,
                7018,
                7277,
                484,
                7104,
                1940,
                4929,
                4110,
                7158,
                4061,
                5314,
                7110,
                97,
                7008,
                7090,
                7271,
                3243,
                993,
                5244,
                5408,
                7064,
                4880,
                7026,
                6910,
                5692,
                3208,
                7102,
                7220,
                4059,
                7264,
                6946,
                972,
                2446,
                7044,
                434,
                7185,
                6937,
                7172,
                7102,
                5856,
                7240,
                7172,
                4250,
                7234,
                7267
            ]
        },
        "detections": 300,
        "events": 377
    }
}