{
    "job_args": {
        "metric_limit": 100,
        "seed": 1295999542
    },
    "job_id": "batch_133_do_100",
    "result": {
        "collections": {
            "crystal": [
                1.0,
                1.0,
                0.9999999999999999,
                0.9999999999999999,
                1.0,
                0.5286322794393249,
                1.0,
                0.31746160917928246,
                0.4212584766851899,
                1.0,
                1.0,
                0.9999999999999999,
                1.0,
                1.0,
                0.03511569118474123,
                1.0000000000000002,
                0.6242020679271235,
                0.770327194998947,
                0.9999999999999999,
                0.011235325644989858,
                0.7662820770802974,
                0.8844858124551549,
                1.0,
                1.0,
                1.0,
                1.0,
                1.0,
                0.4776272458314086,
                1.0,
                0.7023584280768691,
                0.7804363159424295,
                1.0,
                1.0,
                0.8089870575619778,
                0.9999999999999999,
                1.0,
                1.0,
                1.0,
                1.0,
                1.0,
                1.0,
                0.1171120027848005,
                0.7833663785943362,
                0.9999999999999999,
                1.0,
                0.9999999999999999,
                0.5930718466727659,
                0.7938760751196925,
                1.0000000000000002,
                0.9999999999999998,
                1.0,
                0.08391963212562314,
                1.0000000000000002,
                0.13730928511298868,
                0.7442679661985172,
                1.0,
                0.7090598446594504,
                1.0,
                1.0,
                1.0,
                0.39576644864613786,
                1.0,
                0.08288682159076433,
                0.7770691301345303,
                1.0,
                0.35474841706370186,
                0.9999999999999999,
                1.0,
                0.4527795602436254,
                1.0,
                0.1879148253239475,
                1.0000000000000002,
                0.5454083533574108,
                0.2711664879607398,
                1.0,
                0.9999999999999999,
                1.0,
                0.7327609128179365,
                0.03626448140312788,
                0.29519143718695445,
                0.6273579522555657,
                0.3597294303154881,
                0.6750192977547131,
                0.7763397248158412,
                0.9999999999999999,
                1.0,
                1.0,
                0.11588815520642869,
                0.9999999999999999,
                1.0,
                1.0,
                1.0,
                0.7824857165324302,
                0.5779967408078417,
                1.0,
                1.0,
                1.0,
                1.0,
                1.0,
                0.9999999999999999
            ],
            "photocathode": [
                6957,
                7143,
                7067,
                7270,
                7205,
                3806,
                6960,
                2222,
                2928,
                7066,
                7081,
                6886,
                7137,
                7155,
                251,
                7201,
                4295,
                5285,
                7225,
                83,
                5601,
                6370,
                7250,
                7124,
                7293,
                7002,
                7115,
                3470,
                7125,
                5076,
                5522,
                7093,
                7079,
                5888,
                7117,
                7157,
                7131,
                7049,
                6992,
                7275,
                7217,
                847,
                5524,
                7063,
                7057,
                7170,
                4337,
                5609,
                7192,
                7149,
                7066,
                593,
                7177,
                1011,
                5292,
                7164,
                5152,
                7180,
                7011,
                7061,
                2798,
                7126,
                632,
                5632,
                7061,
                2582,
                7008,
                7019,
                3234,
                7123,
                1289,
                7171,
                3773,
                1872,
                7201,
                7082,
                7213,
                5304,
                259,
                2110,
                4444,
                2648,
                4999,
                5601,
                7160,
                7098,
                7128,
                871,
                7114,
                7219,
                6985,
                7046,
                5705,
                4076,
                7176,
                7115,
                6903,
                7189,
                7154,
                7014
            ]
        },
        "detections": 100,
        "events": 122
    }
}