{
    "job_args": {
        "metric_limit": 500,
        "seed": 525810093
    },
    "job_id": "batch_110_do_500",
    "result": {
        "collections": {
            "crystal": [
                0.9640559192236222,
                1.4080131975450247,
                1.0858368332064599,
                0.11455155391632688,
                0.9640559192236221,
                0.8340616075897496,
                0.4915433666403484,
                0.19411533892655927,
                0.8673810337567198,
                0.07303899999999999,
                0.34427858112655685,
                0.754006460458395,
                0.3119607163684496,
                0.7193598637916532,
                0.3470507251648405,
                1.408013197545025,
                0.07524999999999998,
                0.07525,
                1.1120768331818676,
                0.43130926584790624,
                0.024799679290245458,
                0.19124281454943987,
                0.5753577130583928,
                0.32936481255840017,
                0.6424954258963578,
                0.0317338499313522,
                0.34427858112655685,
                0.57930579632014,
                0.3442785811265569,
                0.045545734884299194,
                0.69646102058993,
                0.24469729216765215,
                0.3442785811265569,
                0.5761653611077997,
                1.408013197545025,
                0.5496713092801065,
                0.5933677990991572,
                0.3827300403645174,
                0.44396036297130925,
                0.38731248425930676,
                0.042955799999999995,
                0.7789048647004684,
                0.9640559192236222,
                0.2871976266149959,
                0.5185823276727102,
                0.09164879756437572,
                0.8673810337567198,
                0.7789048647004684,
                0.3442785811265569,
                1.0858368332064599,
                0.7667388792770428,
                1.1120768331818678,
                0.022994318266087443,
                0.3606577222444941,
                0.25165081650464355,
                1.4080131975450247,
                0.254068962013599,
                0.5546838759082644,
                0.635121444232589,
                0.7789048647004683,
                0.8415736858305894,
                0.16229471633041853,
                1.408013197545025,
                0.5409923192127268,
                0.4796684120297571,
                0.34427858112655696,
                0.13282202437857746,
                0.6607768521750182,
                0.22002960457340082,
                0.7789048647004684,
                0.5759461425952119,
                1.0858368332064599,
                1.0858368332064599,
                0.6823874659769291,
                0.5431126339875387,
                0.883736524817742,
                1.0858368332064599,
                0.4439603629713093,
                0.24469729216765215,
                0.36778939426329954,
                0.30146759876147855,
                0.2395616842921694,
                0.07525000000000001,
                0.7615443802165247,
                0.63149036156634,
                0.24469729216765215,
                0.4574975442852359,
                0.06067941428613635,
                0.3423487116794702,
                0.26742935759653835,
                0.07524999999999998,
                0.05532562220005138,
                0.24469729216765215,
                0.3442785811265569,
                0.8673810337567199,
                0.2972725191219448,
                0.07525,
                0.4798694524988818,
                0.34427858112655696,
                1.4080131975450252,
                1.4080131975450252,
                0.24029441446056535,
                1.1120768331818678,
                0.05873780055642938,
                0.1675615683299212,
                0.14850454908448207,
                0.6176210517197526,
                0.7789048647004685,
                0.1606852237017764,
                0.9640559192236223,
                0.3442785811265569,
                0.3442785811265569,
                0.1172791148945703,
                1.4080131975450247,
                0.12178174758776705,
                0.964055919223622,
                0.1591087129637183,
                0.5370821073835329,
                0.31044598861302464,
                0.22972423476849513,
                0.6320239145123514,
                0.36806466613435973,
                0.41037251304212186,
                0.3442785811265569,
                0.2752313027590396,
                0.08523539999999999,
                0.6920197125592537,
                0.3408177114410619,
                0.2278162762721958,
                0.3442785811265569,
                0.5147641066131194,
                0.5035548824683088,
                0.3151586397741265,
                0.34427858112655685,
                0.07524999999999998,
                0.34427858112655696,
                0.07303899999999999,
                1.4080131975450252,
                0.512692049123394,
                0.5431742785002541,
                0.7789048647004684,
                0.7350208898140402,
                1.0858368332064596,
                0.04053847106979913,
                0.6548759620822989,
                0.7381001533001109,
                0.056131200000000006,
                0.01846837248267308,
                0.3442785811265569,
                1.0858368332064599,
                0.3442785811265569,
                0.6762163178013914,
                0.8353311264249651,
                0.5310494698977276,
                0.6233142521444006,
                0.3094856573467504,
                1.408013197545025,
                0.7789048647004684,
                0.7189951584900576,
                0.4485654876556968,
                0.4517294593011814,
                0.4169352976315422,
                0.927353016844,
                0.7789048647004685,
                0.3968782392551166,
                0.340503711351939,
                0.6640991495411533,
                0.7789048647004686,
                0.35368501954334086,
                0.15478653861426075,
                0.9640559192236222,
                1.0106595153401474,
                0.3188841177086644,
                0.03432528449066763,
                0.6886695277208056,
                1.2077823897542899,
                1.408013197545025,
                1.112076833181868,
                0.34427858112655685,
                0.04438941251661965,
                0.26089157738100904,
                0.13403179408716465,
                0.47935534716120465,
                0.027261589160225252,
                0.36609564670978334,
                0.5903579430886623,
                0.48231918018273623,
                0.7599828317785258,
                0.8693091581501524,
                0.1121785422558853,
                0.46357492209690954,
                0.47137358132820634,
                0.3578304740663109,
                0.5411611720218377,
                1.408013197545025,
                1.408013197545025,
                0.44396036297130936,
                0.4159673924000093,
                0.4012711315477034,
                1.1120768331818676,
                0.11746064154740377,
                0.9640559192236221,
                1.408013197545025,
                0.2428484756216418,
                0.7789048647004685,
                0.4940739767145336,
                0.17683333987589495,
                0.23763094044932376,
                0.3046272434017326,
                0.8599734643869011,
                0.34427858112655685,
                0.3442785811265569,
                0.3442785811265569,
                0.4111165114560972,
                0.3442785811265569,
                0.3442785811265569,
                0.32910252347974756,
                0.0554189,
                0.7201727938597126,
                1.0897368119742794,
                0.6713296506720531,
                0.7928917677513748,
                1.0858368332064599,
                0.810450678744846,
                1.408013197545025,
                0.7789048647004683,
                0.34427858112655696,
                0.7789048647004684,
                0.3442785811265569,
                0.08438339554809542,
                0.4111165114560972,
                0.34427858112655685,
                0.8572687893507589,
                0.5631881095776955,
                0.40864284893372094,
                0.3442785811265569,
                0.3412433150780557,
                1.1120768331818676,
                0.07027887828004287,
                0.5617941804823982,
                0.6402168457392307,
                0.10481008915261185,
                0.073039,
                0.6562128365613942,
                0.34427858112655685,
                1.4080131975450254,
                0.9640559192236222,
                1.4080131975450247,
                0.07525,
                0.7789048647004684,
                0.7193598637916532,
                0.5711924658434706,
                0.5416914058069983,
                0.9640559192236223,
                0.07303899999999999,
                1.1767238516278593,
                0.07303899999999999,
                0.9640559192236222,
                0.26055526704020654,
                0.4111165114560972,
                0.24469729216765218,
                0.19987222183112416,
                1.0858368332064596,
                0.35217119074882,
                0.36305895324858356,
                0.7680631399277291,
                0.3442785811265569,
                0.1461405470142485,
                0.3442785811265569,
                0.6378108787759036,
                0.9640559192236222,
                0.3919079197375862,
                0.6968468114648365,
                0.27659626072216653,
                0.23910458351533412,
                0.7026709178988488,
                0.9193372168731732,
                0.9640559192236222,
                0.39924028610134227,
                0.39471791634582337,
                0.18374250522253088,
                0.9193372168731733,
                0.9640559192236222,
                0.24469729216765213,
                0.9640559192236222,
                0.4462256214457491,
                0.34427858112655685,
                0.5388853195437184,
                0.7789048647004684,
                1.0682457521858209,
                0.3442785811265569,
                0.7136551757654399,
                0.34427858112655685,
                0.025456269634825113,
                0.7789048647004685,
                0.4612143482165851,
                0.6644551024058873,
                0.9414508885731772,
                0.6829140596383849,
                0.23867292597982415,
                0.6907025251997276,
                0.22020653770705767,
                0.1883060870424479,
                0.34427858112655685,
                0.6964873581296207,
                0.9458608649875747,
                0.3442785811265569,
                0.24469729216765213,
                0.7789048647004682,
                0.08118452445681645,
                1.2991330441718387,
                0.3442785811265569,
                0.5862647941086815,
                0.3295031364750869,
                0.5730939093647547,
                0.344278581126557,
                0.3442785811265569,
                0.44396036297130925,
                0.34427858112655696,
                0.34427858112655685,
                1.0799412059136642,
                0.3944315971543041,
                0.049874727744689984,
                0.18520464703347883,
                0.3174265726099882,
                0.34427858112655685,
                0.3442785811265569,
                0.43709714399810695,
                1.1120768331818678,
                0.5862647941086815,
                0.3442785811265569,
                0.5830977916033361,
                0.34427858112655685,
                0.779671963151381,
                0.4784333121840222,
                1.112076833181868,
                0.08668273383423164,
                0.2865772229797689,
                0.08417492076378208,
                0.8237585140454188,
                0.34427858112655685,
                0.7937950705304433,
                0.3442785811265569,
                0.86738103375672,
                0.21329170470435765,
                0.1789642061879322,
                0.7789048647004683,
                0.8075792778414581,
                0.86738103375672,
                0.6068211442474833,
                0.629520297665409,
                0.4111165114560972,
                1.120794501485929,
                0.7789048647004684,
                0.24469729216765218,
                0.12166808997999368,
                0.18801093902938093,
                0.4721489453297791,
                0.3442785811265569,
                0.44396036297130936,
                0.34427858112655685,
                0.34427858112655685,
                0.2827604076403019,
                0.11147777946928544,
                0.6977230087731203,
                0.9640559192236222,
                1.0858368332064599,
                0.3442785811265568,
                0.34427858112655696,
                0.44396036297130925,
                0.3442785811265569,
                0.3442785811265569,
                0.7789048647004684,
                0.3442785811265569,
                0.6886695277208057,
                0.9640559192236222,
                0.7789048647004684,
                1.4080131975450247,
                0.9235978195548955,
                0.34427858112655685,
                0.34427858112655685,
                0.19301682418489996,
                0.34427858112655696,
                0.6662386249752308,
                0.6930285059521071,
                0.5157562925205976,
                0.4397179931161017,
                0.3589883636719552,
                1.1157882128294543,
                0.4111165114560971,
                0.48980164934973264,
                0.22925057978089772,
                0.6313422777515678,
                0.24469729216765215,
                0.2326596161660942,
                1.2129444931966773,
                0.8398844410858136,
                0.09976012255572163,
                0.08474070000000002,
                0.20469989844296244,
                0.6192739705140544,
                0.8632664640212488,
                0.22109130221621776,
                0.7789048647004685,
                0.4574621345151117,
                0.7789048647004684,
                0.02040750682216841,
                1.0692543573154474,
                0.45464385718720035,
                0.5049802321141426,
                0.07525,
                0.7789048647004683,
                0.34427858112655685,
                0.34427858112655696,
                1.0858368332064599,
                0.9640559192236223,
                1.1731645185845179,
                0.6987306881610859,
                0.4439603629713093,
                0.2517519807073168,
                1.408013197545025,
                0.3607957760552103,
                0.34427858112655685,
                0.6754050515943003,
                0.7789048647004684,
                0.4439603629713093,
                0.3677893942632995,
                0.22930307110529421,
                0.19276202999364417,
                0.002960235232410734,
                1.4080131975450247,
                0.24469729216765215,
                0.4111165114560972,
                0.7789048647004684,
                0.07525,
                0.46579528921505153,
                0.9640559192236221,
                0.5907454250323322,
                0.9117353032480287,
                0.5839926255210363,
                0.3442785811265569,
                0.272126726573463,
                0.6603836856978723,
                0.7789048647004683,
                0.9640559192236224,
                0.34427858112655696,
                0.44396036297130936,
                0.4111165114560971,
                0.08469867615832377,
                0.9886571757457784,
                0.34427858112655685,
                0.34427858112655696,
                1.1120768331818678,
                1.0897368119742792,
                0.6158348452097873,
                0.1883227586920125,
                0.34427858112655685,
                0.28987523566319817,
                0.1979969902033282,
                0.5342149641070093,
                0.22782228518282482,
                0.07525,
                0.45381149424533535,
                0.17988798773190956,
                0.637841185340126,
                0.44396036297130925,
                0.0585416931656485,
                0.4439603629713093,
                0.17474180357450614,
                0.8476738311158653,
                0.47051169072678417,
                0.04499977396728627,
                0.7597884427351612,
                0.34427858112655685,
                0.002934994383324674,
                0.7662845885612578,
                0.5901191925693987,
                0.20693190818876395,
                0.3442785811265569,
                0.34427858112655685,
                0.4081251299478988,
                0.6379865721517132,
                0.23824269674363413,
                0.34427858112655685,
                0.07525,
                0.7689515891362463,
                1.0858368332064599,
                1.1389166559449637,
                0.8673810337567198,
                1.2129444931966777,
                0.00505548156922464,
                0.16490743593618684,
                0.06496981896013243,
                1.408013197545025,
                0.9640559192236223,
                0.17455632139303817,
                0.8673810337567198,
                0.22069087296509665,
                0.07525,
                1.1120768331818678
            ],
            "photocathode": [
                6828,
                9765,
                7490,
                828,
                6855,
                5874,
                3429,
                1356,
                6010,
                514,
                2393,
                5529,
                2223,
                4935,
                2439,
                10165,
                573,
                506,
                7749,
                3028,
                169,
                1365,
                4035,
                2291,
                4605,
                206,
                2358,
                4108,
                2417,
                326,
                5084,
                1773,
                2470,
                4209,
                9795,
                3859,
                4257,
                2705,
                3039,
                2769,
                276,
                5444,
                6637,
                2071,
                3780,
                600,
                6170,
                5337,
                2440,
                7618,
                5349,
                7858,
                162,
                2520,
                1827,
                10037,
                1803,
                3986,
                4387,
                5576,
                5816,
                1125,
                9984,
                3767,
                3410,
                2441,
                948,
                4531,
                1473,
                5380,
                4080,
                7698,
                7610,
                4771,
                4048,
                6232,
                7662,
                3058,
                1737,
                2564,
                2175,
                1626,
                560,
                5512,
                4496,
                1679,
                3124,
                443,
                2358,
                1901,
                552,
                391,
                1733,
                2412,
                6371,
                2121,
                480,
                3380,
                2402,
                9833,
                9636,
                1718,
                7834,
                401,
                1219,
                1021,
                4407,
                5385,
                1141,
                6764,
                2339,
                2328,
                792,
                10033,
                903,
                6736,
                1122,
                3878,
                2201,
                1685,
                4480,
                2642,
                2927,
                2414,
                1964,
                632,
                4768,
                2404,
                1605,
                2391,
                3577,
                3512,
                2266,
                2389,
                529,
                2443,
                495,
                9800,
                3578,
                3764,
                5437,
                5144,
                7610,
                289,
                4614,
                5289,
                366,
                110,
                2448,
                7562,
                2441,
                4758,
                5801,
                3602,
                4496,
                2182,
                9702,
                5383,
                4916,
                3182,
                3109,
                3045,
                6466,
                5245,
                2786,
                2349,
                4726,
                5458,
                2519,
                1103,
                6572,
                7041,
                2261,
                232,
                5024,
                8333,
                9812,
                7899,
                2402,
                309,
                1807,
                971,
                3238,
                187,
                2565,
                4093,
                3509,
                5344,
                6277,
                804,
                3353,
                3287,
                2551,
                3822,
                10043,
                9785,
                3108,
                2927,
                2727,
                7794,
                763,
                6724,
                9834,
                1721,
                5368,
                3465,
                1269,
                1670,
                2093,
                6034,
                2402,
                2361,
                2350,
                2835,
                2407,
                2440,
                2303,
                355,
                4940,
                7701,
                4739,
                5436,
                7726,
                5695,
                10126,
                5489,
                2358,
                5558,
                2418,
                545,
                2836,
                2496,
                6032,
                3974,
                2771,
                2427,
                2385,
                7762,
                539,
                4181,
                4345,
                765,
                526,
                4825,
                2475,
                9887,
                6787,
                10112,
                485,
                5329,
                4989,
                3998,
                3857,
                6683,
                491,
                8416,
                512,
                6829,
                1861,
                2747,
                1723,
                1408,
                7746,
                2540,
                2518,
                5267,
                2393,
                1098,
                2388,
                4596,
                6863,
                2710,
                4778,
                1964,
                1660,
                4866,
                6341,
                6887,
                2901,
                2714,
                1269,
                6403,
                6792,
                1690,
                6887,
                3197,
                2451,
                3773,
                5624,
                7683,
                2345,
                5057,
                2467,
                162,
                5416,
                3272,
                4669,
                6619,
                4688,
                1589,
                4733,
                1579,
                1282,
                2467,
                4685,
                6757,
                2346,
                1674,
                5547,
                571,
                9212,
                2363,
                3927,
                2359,
                4019,
                2363,
                2392,
                3042,
                2347,
                2450,
                7401,
                2671,
                344,
                1303,
                2211,
                2402,
                2486,
                3004,
                7805,
                4094,
                2363,
                4055,
                2388,
                5352,
                3360,
                7630,
                655,
                1977,
                562,
                5952,
                2392,
                5674,
                2383,
                6152,
                1487,
                1240,
                5520,
                5710,
                6133,
                4358,
                4494,
                2901,
                7759,
                5545,
                1680,
                855,
                1313,
                3370,
                2436,
                3136,
                2391,
                2416,
                1956,
                720,
                4928,
                6787,
                7768,
                2439,
                2429,
                3027,
                2454,
                2446,
                5418,
                2459,
                4793,
                6840,
                5307,
                9844,
                6567,
                2358,
                2360,
                1296,
                2445,
                4662,
                4778,
                3601,
                3195,
                2565,
                7771,
                2898,
                3457,
                1545,
                4329,
                1658,
                1602,
                8419,
                6066,
                675,
                580,
                1390,
                4314,
                5910,
                1573,
                5295,
                3179,
                5411,
                139,
                7760,
                3204,
                3600,
                511,
                5609,
                2422,
                2409,
                7417,
                6815,
                8294,
                5026,
                3095,
                1725,
                9997,
                2518,
                2457,
                4692,
                5463,
                3084,
                2645,
                1650,
                1310,
                22,
                9760,
                1694,
                2914,
                5792,
                525,
                3180,
                7003,
                4254,
                6643,
                4123,
                2408,
                1947,
                4670,
                5441,
                6690,
                2397,
                3160,
                2814,
                623,
                6969,
                2441,
                2405,
                7607,
                7507,
                4398,
                1341,
                2412,
                2105,
                1367,
                3623,
                1615,
                564,
                3229,
                1291,
                4435,
                3155,
                433,
                3050,
                1227,
                6035,
                3222,
                320,
                5311,
                2407,
                10,
                5322,
                4197,
                1472,
                2386,
                2400,
                2828,
                4466,
                1723,
                2437,
                489,
                5406,
                7747,
                8127,
                6018,
                8507,
                42,
                1126,
                467,
                10144,
                6933,
                1241,
                6211,
                1577,
                527,
                8005
            ]
        },
        "detections": 500,
        "events": 92205
    }
}