{
    "job_args": {
        "metric_limit": 500,
        "seed": 352142193
    },
    "job_id": "batch_132_do_500",
    "result": {
        "collections": {
            "crystal": [
                0.3442785811265569,
                1.408013197545025,
                0.7789048647004682,
                0.34427858112655685,
                0.5782762575841554,
                0.3162980746523691,
                0.34427858112655685,
                1.4080131975450252,
                0.3796071721545405,
                1.1120768331818676,
                0.34427858112655685,
                1.408013197545025,
                0.7789048647004684,
                0.24469729216765218,
                0.24469729216765218,
                0.4062017024301244,
                0.3368228006079936,
                0.08324865869713083,
                0.3952044722912349,
                0.6734944459848021,
                0.32219988817396156,
                1.408013197545025,
                0.4536788579684129,
                0.3442785811265569,
                0.24469729216765218,
                1.1120768331818676,
                0.1282451506571652,
                0.7193471736023049,
                0.3442785811265569,
                0.21559855087600865,
                0.4327913314423541,
                0.27202432205812505,
                0.4111165114560972,
                0.41111651145609723,
                1.528040952103697,
                0.44396036297130936,
                0.7789048647004685,
                0.5645602919802333,
                0.9640559192236222,
                0.04835087145171447,
                0.07524999999999998,
                0.15456572937144059,
                0.4187206828887432,
                0.5628273194150581,
                1.112076833181868,
                0.11949801671115051,
                0.3442785811265569,
                0.32826308168708696,
                0.34427858112655685,
                1.408013197545025,
                0.4449238938285652,
                0.4091949786679525,
                0.4439603629713093,
                0.03386035088136086,
                0.07525,
                0.028013340262186492,
                0.19699214103597618,
                0.4480967450823919,
                0.44655896745313334,
                0.06374689479456253,
                0.17038842875508287,
                0.24469729216765215,
                0.7789048647004684,
                0.2003920214051215,
                0.058540338139931314,
                0.7789048647004683,
                0.09111892229761104,
                0.0555480607474792,
                0.9640559192236224,
                0.926290660326935,
                1.1120768331818678,
                0.19063385363904578,
                0.03631068517515179,
                0.28165621618597514,
                0.3388634587330496,
                1.112076833181868,
                0.9193372168731733,
                1.1231834458270251,
                0.14290214799812806,
                0.5537232504110549,
                0.534269198810448,
                0.5168672724750444,
                0.34427858112655696,
                1.0858368332064599,
                0.5639889353995464,
                0.9193372168731733,
                0.12178174758776708,
                1.408013197545025,
                0.5758064345537135,
                0.23533892302203419,
                0.755395092582654,
                0.34427858112655696,
                1.1120768331818676,
                0.49663373419014634,
                0.3470720168123032,
                0.11103105679797987,
                0.4111165114560972,
                0.34427858112655696,
                0.34427858112655696,
                0.3052554225450057,
                0.5602738919119162,
                0.5350401130531115,
                0.03738129653418126,
                0.2007261196583853,
                0.24836948420554014,
                0.38729738466144426,
                0.18890227740783894,
                0.5962768749275211,
                1.408013197545025,
                0.3810896786088268,
                0.15405631408833176,
                0.24469729216765213,
                1.0858368332064599,
                0.6537000499128157,
                0.22002038284476177,
                0.7591742051481913,
                0.7789048647004684,
                0.340095149160506,
                0.36815052835446155,
                0.7789048647004684,
                0.25555168580070764,
                0.04891109710251662,
                1.0858368332064599,
                0.29203535633552596,
                0.3791851541742715,
                0.18567361325052897,
                1.4080131975450252,
                0.3887576981298587,
                0.0996735566699064,
                0.15531619066412006,
                0.15087646519483777,
                0.17079425172099422,
                0.7789048647004683,
                0.645914397094276,
                0.8666904120968556,
                0.3224823437907447,
                0.15225350312461014,
                0.4084578779617965,
                0.8673810337567199,
                0.28080606293290333,
                0.964055919223622,
                0.3442785811265569,
                0.44396036297130936,
                0.534481188991875,
                0.964055919223622,
                1.0552333600554262,
                0.26265877496907913,
                0.34427858112655685,
                0.24579408855952323,
                0.4339097205281751,
                1.4080131975450247,
                0.32875199544413536,
                0.2261517999095077,
                0.020834634386555972,
                1.0858368332064599,
                0.46684097530491997,
                1.0858368332064599,
                0.5691873122402822,
                0.897014287545025,
                0.3215180199130343,
                0.7789048647004685,
                0.09981154321976403,
                0.9640559192236223,
                0.9640559192236221,
                0.28162605953588166,
                0.5693597062855172,
                0.34427858112655696,
                0.2998973160420301,
                1.2129444931966777,
                0.07524999999999998,
                0.2660556312597304,
                0.20691040015700124,
                0.5406163276910997,
                0.24469729216765215,
                0.32762624297863085,
                0.2753877342935098,
                0.0852354,
                0.24469729216765215,
                0.5664428810675812,
                0.034613857158246275,
                0.15109654444001894,
                0.86738103375672,
                0.22988472307295166,
                0.9870898410877822,
                0.073039,
                0.8999470607572165,
                1.4080131975450252,
                1.2991330441718387,
                0.01709888625617484,
                0.3442785811265569,
                0.008206799455226623,
                1.2555473926165779,
                0.967800483478205,
                1.408013197545025,
                0.32231758947522066,
                0.34427858112655696,
                0.6034761530739483,
                0.07043229370659043,
                0.6850734535683184,
                0.7789048647004685,
                0.3580211189114961,
                0.7902576071190486,
                0.12620007244826237,
                0.5717856888140684,
                0.2085313664698678,
                0.3442785811265569,
                0.2721005546142963,
                0.3864361076508508,
                0.4659406176359891,
                0.29177996088247965,
                1.4080131975450252,
                0.34427858112655685,
                0.24610596308633378,
                0.09394559408740788,
                0.171666389091414,
                0.2995126158396835,
                0.5886306854162031,
                0.36533542900009075,
                0.7436101416689207,
                0.49601514274793146,
                0.5623773553844651,
                0.7315461549122367,
                0.2870943464895237,
                0.3992997769438882,
                0.016665834469018245,
                0.13609180780380198,
                0.15007710372540087,
                0.34427858112655685,
                0.7789048647004685,
                0.3309600504517447,
                0.07833430816048725,
                0.5639889353995464,
                0.3442785811265569,
                0.011079842095572223,
                0.7789048647004683,
                0.08168592587828788,
                0.403385167164544,
                0.5636551496081978,
                0.9640559192236221,
                0.024256637147160975,
                0.05639798704684296,
                0.004083183343283281,
                0.33093010418919855,
                0.34427858112655685,
                1.0858368332064599,
                1.2259950441718386,
                0.9640559192236221,
                0.09084394313375233,
                0.3442785811265569,
                0.2726432158821015,
                0.073039,
                0.23705920141612968,
                1.1120768331818678,
                0.08523539999999999,
                0.2828971377216128,
                0.7794606752044402,
                0.503474131734551,
                0.07524999999999998,
                0.17378837282094473,
                0.32700150234278846,
                0.5752975191998819,
                0.2685061526909836,
                0.6245867881968812,
                0.8663426760023428,
                1.1120768331818678,
                0.19804532597553193,
                0.34427858112655696,
                1.0858368332064599,
                0.3442785811265569,
                0.47316915481853566,
                0.025725282133227834,
                0.34427858112655685,
                0.8282496498079541,
                1.0897368119742792,
                0.5316458683150924,
                0.04740160009721944,
                0.3442785811265569,
                0.34427858112655696,
                0.0852354,
                0.07525,
                0.7655203575496303,
                0.8561937556355158,
                0.7789048647004685,
                0.9640559192236222,
                0.4439603629713093,
                0.09425278630640355,
                0.07303899999999999,
                1.1120768331818678,
                1.4080131975450247,
                0.9640559192236221,
                1.4080131975450252,
                0.09066379699270799,
                0.21837479153614542,
                0.35587239823496836,
                1.408013197545025,
                0.34427858112655685,
                0.7500903245320925,
                0.941607495890907,
                0.3442785811265569,
                0.0847407,
                0.3442785811265569,
                0.9204601833799321,
                0.7789048647004684,
                0.9505167606515293,
                0.7789048647004684,
                1.0858368332064599,
                0.34427858112655685,
                0.073039,
                0.6746410840987509,
                0.073039,
                0.34427858112655685,
                0.6733630420573384,
                0.37806412422751906,
                0.073039,
                0.6468736387721068,
                0.725026392842892,
                0.07524999999999998,
                0.3442785811265569,
                0.964055919223622,
                0.5404038878267716,
                1.0012979580528165,
                0.3442785811265569,
                0.07525,
                0.4206652380963485,
                1.408013197545025,
                0.07899370101724273,
                0.10543922430012942,
                0.41111651145609723,
                0.3442785811265569,
                1.0858368332064599,
                0.4902204025174779,
                0.3442785811265569,
                0.3442785811265569,
                0.34427858112655696,
                1.0021707330111382,
                0.7789048647004683,
                0.36844308024893413,
                0.2589725972756104,
                0.3442785811265569,
                1.1120768331818678,
                0.6390540323204921,
                1.0052521213244057,
                0.34427858112655685,
                0.5974312472972658,
                0.073039,
                0.17115578354148975,
                1.0858368332064599,
                0.7721759252413152,
                1.1120768331818676,
                0.4017556094609187,
                0.49680734083104444,
                0.3442785811265569,
                0.9640559192236222,
                0.9640559192236223,
                0.7789048647004683,
                0.3222882110710105,
                0.613315007650855,
                0.4640381860903637,
                0.12641759493610777,
                0.9595094488275888,
                0.6854568369837153,
                0.3442785811265569,
                0.16833535364989372,
                0.3442785811265569,
                0.34427858112655685,
                0.7057825110737326,
                0.5732202344236236,
                0.8517088968758568,
                1.4080131975450247,
                1.249947682297829,
                0.23786134801522996,
                0.3442785811265568,
                0.9180612884080266,
                0.4481165842496549,
                0.44396036297130925,
                0.114007073190801,
                0.5846726673152067,
                0.5174638785424192,
                0.24469729216765213,
                0.02417601459671792,
                0.3378850294016861,
                0.3331161178386133,
                0.7259071380108962,
                0.7789048647004685,
                0.34427858112655685,
                1.0858368332064599,
                0.7345300997104087,
                0.34427858112655696,
                0.4476719984243994,
                0.37386281272524746,
                0.321945000019661,
                0.21578042452067203,
                0.35094486230927374,
                0.3137080519370585,
                1.0672349778572463,
                0.15400970759096066,
                1.1120768331818678,
                0.44396036297130936,
                1.2129444931966775,
                0.9640559192236222,
                0.4004253812254062,
                0.1376298944680544,
                0.1794484017509358,
                0.47859115916287753,
                0.7778623510877971,
                0.34427858112655696,
                0.34427858112655685,
                0.02327658678418143,
                0.24469729216765213,
                0.7178533753480354,
                1.08583683320646,
                0.0785333368679979,
                0.7185184591822391,
                0.24469729216765215,
                0.9640559192236222,
                0.3442785811265569,
                0.4159200747840466,
                1.0749148230721235,
                0.3442785811265569,
                0.9461501076808564,
                1.4080131975450252,
                0.670389693079754,
                0.28950636349329384,
                1.408013197545025,
                0.8272080541357538,
                0.7554249874801154,
                0.2636657407871148,
                0.7789048647004684,
                0.3442785811265569,
                0.24469729216765218,
                0.4302382510844307,
                1.4080131975450252,
                0.7789048647004684,
                0.11588244874899488,
                0.3197255483720724,
                0.7055719569839818,
                0.4111165114560971,
                0.3442785811265569,
                0.34427858112655685,
                0.0847407,
                0.03913908739258093,
                1.2129444931966775,
                1.0858368332064599,
                0.18956537741055585,
                0.29584919461690684,
                0.7434789858292703,
                0.9640559192236222,
                0.24469729216765215,
                0.41140785815991676,
                0.1282631529432863,
                0.4861111936202579,
                1.0858368332064599,
                0.8613010143371571,
                0.31238285635334584,
                1.408013197545025,
                0.3422963011869917,
                0.9640559192236221,
                0.7403387792406935,
                0.14466097602144493,
                0.34427858112655685,
                0.8829132801687978,
                0.301730963358241,
                1.408013197545025,
                0.717052341123154,
                0.23086154481036048,
                0.7264586218290572,
                0.8440939448210691,
                0.4439603629713093,
                0.0466405,
                0.4111165114560972,
                0.7789048647004684,
                0.3442785811265569,
                0.5862417906525901,
                0.26940578477879973,
                1.0897368119742794,
                1.1732974445035422,
                0.07303899999999999,
                0.44396036297130925,
                0.08202967402896966,
                0.5686786375681584,
                0.7789048647004684,
                0.5506789181929123,
                0.3442785811265569,
                1.2914929064070682,
                0.11221234854400419,
                0.061783609257105694,
                0.6462811785388499,
                0.028357701703860372,
                0.926290660326935,
                1.1635157676671821,
                0.3442785811265569,
                0.4439729959987078,
                0.26321625458816655,
                0.3442785811265569,
                0.41111651145609723,
                1.4080131975450247,
                0.06972646849381514,
                0.3442785811265569,
                0.21264074718517764,
                0.17160629427087576
            ],
            "photocathode": [
                2425,
                9925,
                5439,
                2419,
                4006,
                2242,
                2400,
                9806,
                2645,
                7786,
                2388,
                9836,
                5487,
                1726,
                1702,
                2956,
                2323,
                556,
                2768,
                4770,
                2336,
                9761,
                3234,
                2346,
                1805,
                7912,
                885,
                4983,
                2485,
                1540,
                3057,
                1862,
                2857,
                2823,
                10790,
                3152,
                5556,
                4032,
                6640,
                303,
                525,
                1074,
                2838,
                4059,
                7771,
                860,
                2354,
                2382,
                2426,
                9825,
                3141,
                2870,
                3110,
                224,
                552,
                191,
                1332,
                3140,
                3144,
                454,
                1296,
                1693,
                5642,
                1450,
                395,
                5522,
                590,
                440,
                6781,
                6500,
                7876,
                1394,
                230,
                1973,
                2456,
                8064,
                6390,
                7928,
                1002,
                3891,
                3737,
                3711,
                2474,
                7902,
                3897,
                6273,
                884,
                9977,
                4057,
                1669,
                5265,
                2461,
                8045,
                3540,
                2389,
                774,
                2777,
                2388,
                2439,
                2232,
                4054,
                3682,
                266,
                1370,
                1748,
                2760,
                1349,
                4246,
                9841,
                2786,
                1095,
                1721,
                7501,
                4530,
                1522,
                5284,
                5521,
                2414,
                2592,
                5444,
                1806,
                331,
                7444,
                2050,
                2736,
                1388,
                9635,
                2722,
                678,
                1147,
                987,
                1254,
                5586,
                4448,
                6093,
                2278,
                1084,
                2850,
                5918,
                1961,
                6755,
                2394,
                3009,
                3763,
                6686,
                7343,
                1897,
                2450,
                1742,
                3095,
                9897,
                2340,
                1563,
                136,
                7764,
                3229,
                7649,
                4113,
                6272,
                2197,
                5637,
                694,
                6712,
                6837,
                1889,
                3913,
                2440,
                2054,
                8495,
                561,
                1827,
                1430,
                3857,
                1611,
                2328,
                1937,
                593,
                1717,
                4001,
                225,
                1006,
                6178,
                1529,
                6803,
                539,
                6354,
                9980,
                9061,
                138,
                2357,
                68,
                8831,
                6895,
                9815,
                2251,
                2322,
                4251,
                475,
                4723,
                5458,
                2484,
                5641,
                878,
                4019,
                1457,
                2395,
                1944,
                2761,
                3338,
                1999,
                9870,
                2363,
                1712,
                666,
                1194,
                2108,
                4220,
                2487,
                5183,
                3574,
                3887,
                5044,
                2017,
                2796,
                125,
                886,
                1057,
                2358,
                5597,
                2252,
                557,
                3993,
                2332,
                74,
                5400,
                554,
                2792,
                3916,
                6706,
                164,
                380,
                41,
                2341,
                2432,
                7477,
                8694,
                6720,
                681,
                2360,
                1992,
                535,
                1777,
                7672,
                581,
                1986,
                5622,
                3560,
                510,
                1197,
                2318,
                4066,
                1887,
                4328,
                6027,
                7757,
                1388,
                2354,
                7586,
                2411,
                3301,
                172,
                2508,
                5705,
                7706,
                3733,
                312,
                2348,
                2428,
                647,
                517,
                5226,
                6014,
                5509,
                6797,
                3100,
                664,
                450,
                7947,
                9936,
                6740,
                10094,
                618,
                1442,
                2499,
                10062,
                2497,
                5277,
                6615,
                2383,
                573,
                2359,
                6533,
                5602,
                6694,
                5486,
                7599,
                2415,
                500,
                4628,
                545,
                2391,
                4673,
                2702,
                503,
                4657,
                5112,
                510,
                2345,
                6705,
                3737,
                7001,
                2407,
                501,
                2973,
                9992,
                540,
                741,
                2947,
                2425,
                7639,
                3437,
                2400,
                2346,
                2362,
                7123,
                5311,
                2594,
                1810,
                2489,
                7743,
                4501,
                7032,
                2487,
                4254,
                537,
                1201,
                7624,
                5292,
                7780,
                2885,
                3459,
                2293,
                6832,
                6922,
                5617,
                2234,
                4137,
                3287,
                914,
                6744,
                4748,
                2332,
                1239,
                2466,
                2453,
                4885,
                4010,
                6084,
                9745,
                9039,
                1562,
                2317,
                6406,
                3155,
                3041,
                830,
                4087,
                3557,
                1732,
                158,
                2374,
                2373,
                5112,
                5349,
                2287,
                7537,
                5136,
                2403,
                3223,
                2564,
                2209,
                1543,
                2458,
                2254,
                7421,
                1071,
                7849,
                3028,
                8682,
                6692,
                2866,
                975,
                1269,
                3391,
                5451,
                2337,
                2427,
                144,
                1763,
                5034,
                7782,
                571,
                5103,
                1675,
                6828,
                2343,
                2986,
                7566,
                2401,
                6594,
                9965,
                4632,
                2028,
                10028,
                5814,
                5410,
                1858,
                5404,
                2451,
                1689,
                2999,
                9979,
                5446,
                804,
                2274,
                4990,
                2806,
                2438,
                2298,
                539,
                262,
                8714,
                7324,
                1279,
                2076,
                5120,
                6668,
                1697,
                2823,
                907,
                3423,
                7657,
                5993,
                2238,
                9796,
                2366,
                6870,
                5328,
                993,
                2424,
                6109,
                2031,
                9863,
                5041,
                1608,
                5141,
                5759,
                3111,
                343,
                2885,
                5522,
                2294,
                4166,
                1867,
                7689,
                8242,
                503,
                3207,
                612,
                3946,
                5472,
                3785,
                2500,
                9021,
                787,
                431,
                4476,
                189,
                6602,
                8267,
                2430,
                3122,
                1792,
                2370,
                2816,
                9754,
                471,
                2362,
                1467,
                1233
            ]
        },
        "detections": 500,
        "events": 84538
    }
}