{
    "job_args": {
        "metric_limit": 300,
        "seed": 3012307691
    },
    "job_id": "batch_263_do_300",
    "result": {
        "collections": {
            "crystal": [
                0.20754413556198378,
                0.6616572831606166,
                0.6616572831606166,
                0.03220554880011693,
                0.24599790562748536,
                0.6616572831606166,
                0.6616572831606167,
                0.6616572831606167,
                0.6616572831606166,
                0.274864573648808,
                0.031818949382708,
                0.6616572831606164,
                0.3399682262073672,
                0.25532691182947875,
                0.6616572831606167,
                0.6616572831606163,
                0.23919221221085635,
                0.6616572831606166,
                0.20742914967167755,
                0.272223023969301,
                0.6616572831606167,
                0.6616572831606164,
                0.46863464459243054,
                0.42945411229195124,
                0.6616572831606167,
                0.6616572831606167,
                0.34690046644984684,
                0.18770345988815962,
                0.6616572831606166,
                0.6616572831606166,
                0.23749881345069973,
                0.4169673487604135,
                0.6616572831606164,
                0.6616572831606166,
                0.20647554820687353,
                0.6616572831606166,
                0.6616572831606166,
                0.19143999106366588,
                0.03181892113436901,
                0.054908056945080386,
                0.6616572831606166,
                0.4524778409142278,
                0.5024301737569472,
                0.6616572831606167,
                0.46654960881299695,
                0.11899329604297158,
                0.6616572831606164,
                0.6616572831606164,
                0.6616572831606166,
                0.4475142786329569,
                0.6616572831606167,
                0.6616572831606164,
                0.45057412607832525,
                0.05439771202364807,
                0.14754284507791005,
                0.21807536675647993,
                0.6616572831606166,
                0.28516229401158233,
                0.6616572831606166,
                0.42007050356168985,
                0.6616572831606166,
                0.24448503483891443,
                0.6616572831606166,
                0.6616572831606164,
                0.6616572831606166,
                0.224149210106581,
                0.6616572831606167,
                0.6616572831606166,
                0.6616572831606166,
                0.1991451797669534,
                0.6616572831606166,
                0.6616572831606166,
                0.267117911973756,
                0.3406426310458965,
                0.6616572831606167,
                0.6616572831606166,
                0.2423181097149771,
                0.12686133095780486,
                0.6616572831606164,
                0.6616572831606166,
                0.6616572831606166,
                0.03220534728277747,
                0.6616572831606166,
                0.4770141632868954,
                0.1378250267058917,
                0.6616572831606167,
                0.3982155590081596,
                0.6616572831606164,
                0.6616572831606166,
                0.6616572831606166,
                0.3552238965473119,
                0.6616572831606166,
                0.6616572831606167,
                0.031580608586737724,
                0.6616572831606166,
                0.42778227500918936,
                0.6616572831606167,
                0.23261870510124122,
                0.3741244536671139,
                0.5079941810892387,
                0.10547117003010743,
                0.4458411960838566,
                0.6616572831606166,
                0.1853542958608283,
                0.3295284393941606,
                0.12184998503768597,
                0.10296267772422962,
                0.45078024323244364,
                0.6616572831606167,
                0.6616572831606166,
                0.6616572831606167,
                0.2167575802592202,
                0.2307231326053476,
                0.6616572831606166,
                0.6616572831606166,
                0.6616572831606166,
                0.4835198145969881,
                0.6616572831606164,
                0.4543511619707322,
                0.032205523896644946,
                0.6616572831606166,
                0.13834686937713425,
                0.6616572831606166,
                0.6616572831606164,
                0.16190982650276808,
                0.3568680471542427,
                0.6616572831606164,
                0.446387186454722,
                0.6616572831606166,
                0.03292864903834003,
                0.35821142803378603,
                0.6616572831606164,
                0.6616572831606166,
                0.3070364989695391,
                0.6616572831606164,
                0.09685853775964148,
                0.6616572831606164,
                0.334819969332791,
                0.038048411296174645,
                0.2948503464614501,
                0.6616572831606167,
                0.031818759308739224,
                0.6616572831606166,
                0.6616572831606167,
                0.6616572831606167,
                0.6616572831606167,
                0.4442879360448267,
                0.6616572831606164,
                0.4567302342738643,
                0.6616572831606167,
                0.28911977037455344,
                0.4203521371502409,
                0.6616572831606167,
                0.03245588407913128,
                0.19772823581711912,
                0.0032715569623842818,
                0.06802615079936547,
                0.6616572831606166,
                0.6616572831606167,
                0.6616572831606167,
                0.6616572831606164,
                0.440950591822169,
                0.4313843346156643,
                0.6616572831606167,
                0.6330477831606166,
                0.03220566012161117,
                0.47545374097793736,
                0.6616572831606166,
                0.037161832773420334,
                0.422545205909729,
                0.3482301428327331,
                0.03631693540936643,
                0.03181857593021171,
                0.6616572831606167,
                0.47508790405380347,
                0.6616572831606164,
                0.13963963857742112,
                0.3206401050313944,
                0.1817843304437164,
                0.6616572831606166,
                0.6616572831606166,
                0.6616572831606167,
                0.6616572831606166,
                0.6616572831606167,
                0.6616572831606166,
                0.06566589570783499,
                0.434326815118115,
                0.03220578930831243,
                0.03220545315038179,
                0.03181860403096618,
                0.30211463463367877,
                0.6616572831606166,
                0.6616572831606166,
                0.6616572831606166,
                0.15490421901432838,
                0.6616572831606167,
                0.6616572831606164,
                0.09713052730103156,
                0.6616572831606166,
                0.3854610910504831,
                0.24439824563797152,
                0.6616572831606166,
                0.21855477803493753,
                0.6616572831606166,
                0.6616572831606166,
                0.6616572831606166,
                0.36165150424179077,
                0.6616572831606164,
                0.3175808736712239,
                0.6616572831606164,
                0.6616572831606166,
                0.2669104682294396,
                0.6616572831606164,
                0.37594536919959926,
                0.6616572831606164,
                0.6616572831606164,
                0.6616572831606164,
                0.38967626526543186,
                0.3858489847999473,
                0.5072663757162036,
                0.4721967866867915,
                0.24130977334882153,
                0.6616572831606164,
                0.6616572831606167,
                0.42310235907995,
                0.6616572831606167,
                0.03181888540228882,
                0.01223093102845374,
                0.05128177402529669,
                0.6616572831606166,
                0.006769317441294831,
                0.6616572831606166,
                0.09514012478523358,
                0.6616572831606166,
                0.11622636493249139,
                0.6616572831606167,
                0.6616572831606164,
                0.0322057071350926,
                0.6616572831606164,
                0.6616572831606163,
                0.18977977262256873,
                0.6616572831606166,
                0.6616572831606164,
                0.3242704331400271,
                0.6616572831606164,
                0.6616572831606167,
                0.036391765611343656,
                0.6616572831606167,
                0.6616572831606164,
                0.6616572831606166,
                0.08246611756599675,
                0.4184856449474494,
                0.21389937885654633,
                0.4695940124197763,
                0.0035729023609570865,
                0.33926511842260326,
                0.6616572831606166,
                0.6616572831606166,
                0.6616572831606166,
                0.442178990040908,
                0.6616572831606166,
                0.28628715841300045,
                0.4442959534840526,
                0.6616572831606166,
                0.6616572831606164,
                0.29140451968797526,
                0.6616572831606163,
                0.14197888040253526,
                0.1489963222502838,
                0.6616572831606166,
                0.6616572831606166,
                0.24175845905936907,
                0.6616572831606166,
                0.2978594830798116,
                0.6616572831606167,
                0.6616572831606167,
                0.6616572831606166,
                0.6616572831606166,
                0.032205479213987365,
                0.032205692302213575,
                0.12897111598365496,
                0.6616572831606166,
                0.6616572831606167,
                0.5513276736400093,
                0.6616572831606166,
                0.6616572831606166,
                0.6616572831606167,
                0.46892078549880517,
                0.285151444652458,
                0.6616572831606167,
                0.3973863110676734,
                0.6616572831606167,
                0.03220569381383149,
                0.4280708322645682,
                0.6616572831606167,
                0.6616572831606167,
                0.03161158557252155,
                0.6616572831606164,
                0.6616572831606166,
                0.03220576772977689
            ]
        },
        "detections": 300,
        "events": 87664
    }
}