{
    "job_args": {
        "metric_limit": 300,
        "seed": 3810789906
    },
    "job_id": "batch_205_do_300",
    "result": {
        "collections": {
            "crystal": [
                0.36790154121955476,
                0.6616572831606167,
                0.4158083158396766,
                0.0633007710176714,
                0.5006760147123595,
                0.6616572831606166,
                0.16377832575057316,
                0.6616572831606166,
                0.6616572831606164,
                0.38851507132666785,
                0.3278637615477409,
                0.6616572831606166,
                0.6616572831606166,
                0.6616572831606167,
                0.1272345233586787,
                0.2185589871387159,
                0.21510570003171103,
                0.46193925066474434,
                0.4431151344688319,
                0.6616572831606167,
                0.07610505383840749,
                0.0167919375475859,
                0.6616572831606167,
                0.6616572831606167,
                0.32966047071189913,
                0.6616572831606166,
                0.6616572831606164,
                0.6616572831606166,
                0.3124875069313521,
                0.6616572831606166,
                0.1593625629120896,
                0.6616572831606164,
                0.29280904895047094,
                0.5216292486658295,
                0.6616572831606164,
                0.031818722643312994,
                0.03220558633426489,
                0.6616572831606166,
                0.05130721086766843,
                0.6616572831606166,
                0.6616572831606166,
                0.6616572831606164,
                0.2751183555810991,
                0.3122905000117714,
                0.6616572831606166,
                0.6616572831606167,
                0.4233529445101779,
                0.03220572423700722,
                0.6616572831606167,
                0.38263216975003694,
                0.4407775192981089,
                0.6616572831606166,
                0.5159821207857904,
                0.4669662020579111,
                0.4297380036498899,
                0.6616572831606167,
                0.40647202401581584,
                0.6616572831606166,
                0.22883837092917492,
                0.4844099297002005,
                0.6616572831606166,
                0.6616572831606167,
                0.6616572831606166,
                0.6616572831606166,
                0.6616572831606166,
                0.6616572831606167,
                0.6616572831606166,
                0.6616572831606167,
                0.6616572831606166,
                0.6616572831606167,
                0.6616572831606164,
                0.3404562034946683,
                0.6616572831606167,
                0.6616572831606167,
                0.6616572831606166,
                0.42866101226800263,
                0.08321312428994943,
                0.050667396616551064,
                0.6616572831606166,
                0.031748772637590794,
                0.6616572831606166,
                0.6616572831606167,
                0.3865290766151141,
                0.6616572831606166,
                0.6616572831606166,
                0.6616572831606164,
                0.6616572831606164,
                0.19772165544525022,
                0.1670063518530121,
                0.6616572831606164,
                0.032205854477402956,
                0.43187576245843334,
                0.0341171810378198,
                0.6616572831606166,
                0.6616572831606164,
                0.6616572831606168,
                0.6616572831606167,
                0.4620468893192814,
                0.6616572831606166,
                0.6616572831606164,
                0.6616572831606164,
                0.6616572831606167,
                0.6616572831606166,
                0.03220542731113532,
                0.6616572831606163,
                0.6616572831606166,
                0.6616572831606166,
                0.34618111542776125,
                0.6616572831606167,
                0.6616572831606166,
                0.285365809584967,
                0.1896739895715524,
                0.03220580197312636,
                0.6616572831606166,
                0.2708958234013193,
                0.2431543387304589,
                0.03220579047189162,
                0.6616572831606166,
                0.6616572831606164,
                0.6616572831606166,
                0.6616572831606166,
                0.6616572831606166,
                0.0318185411609459,
                0.03220537894439622,
                0.018771590912782132,
                0.036392025105578575,
                0.6616572831606166,
                0.20884720281452532,
                0.06304732557448234,
                0.6616572831606164,
                0.2783382742590393,
                0.0318188749917331,
                0.051143688400054114,
                0.4051874377513186,
                0.6616572831606167,
                0.6616572831606167,
                0.6616572831606167,
                0.6616572831606166,
                0.13343882756827374,
                0.010525505541697289,
                0.6616572831606166,
                0.6616572831606166,
                0.16425298710659647,
                0.3564626095538028,
                0.48028054254987285,
                0.6616572831606167,
                0.319575324567486,
                0.6616572831606167,
                0.17026864647762538,
                0.6616572831606166,
                0.6616572831606164,
                0.10394947687022849,
                0.6616572831606166,
                0.03639176771469353,
                0.03220534710150332,
                0.6616572831606164,
                0.03220583217031764,
                0.45681798185706995,
                0.6616572831606164,
                0.05221917682167746,
                0.6616572831606166,
                0.6616572831606166,
                0.6616572831606166,
                0.6616572831606167,
                0.28096681507203286,
                0.6616572831606166,
                0.0322055889494376,
                0.6616572831606167,
                0.10803698165125275,
                0.6616572831606166,
                0.032205825233630025,
                0.244497741418043,
                0.6616572831606166,
                0.3165421207806386,
                0.6616572831606164,
                0.3886414077324341,
                0.0322054644017541,
                0.17243747664913928,
                0.6616572831606164,
                0.03181887886743915,
                0.31881345334209515,
                0.6616572831606167,
                0.6616572831606167,
                0.0651332261202705,
                0.2570908532292814,
                0.6616572831606167,
                0.6616572831606164,
                0.30927861241121235,
                0.6616572831606166,
                0.42688013569858424,
                0.09174548325819354,
                0.6616572831606164,
                0.6616572831606164,
                0.26942849783978967,
                0.029572504366987037,
                0.03181870215836722,
                0.6616572831606166,
                0.11889831882478773,
                0.6616572831606164,
                0.021260201399745604,
                0.4412306190653538,
                0.31832254723607367,
                0.6616572831606166,
                0.13507688836001563,
                0.39260290039423257,
                0.6616572831606166,
                0.42177604439452876,
                0.6616572831606163,
                0.6616572831606164,
                0.6616572831606166,
                0.6616572831606167,
                0.6616572831606163,
                0.3015316819673339,
                0.5213670675112603,
                0.6616572831606164,
                0.03220549401817782,
                0.24623331240940785,
                0.6616572831606164,
                0.03220568361716184,
                0.6616572831606166,
                0.056415411569235574,
                0.051756961868880125,
                0.6616572831606163,
                0.6616572831606164,
                0.036391958930548585,
                0.03181850648225797,
                0.20261410917840467,
                0.07344556213666142,
                0.6616572831606167,
                0.42066501578490717,
                0.3955127138312686,
                0.6616572831606164,
                0.6616572831606167,
                0.6616572831606166,
                0.023268565200469382,
                0.6616572831606164,
                0.3152597724413496,
                0.3173479674453397,
                0.21096034903464733,
                0.2851296254368465,
                0.6616572831606167,
                0.6616572831606166,
                0.6616572831606166,
                0.6616572831606166,
                0.6616572831606163,
                0.36944432864719234,
                0.6616572831606166,
                0.005800787028135357,
                0.6616572831606166,
                0.6616572831606164,
                0.012632147344358136,
                0.6616572831606166,
                0.6616572831606167,
                0.6616572831606166,
                0.6616572831606166,
                0.2251641853995477,
                0.6616572831606166,
                0.6616572831606167,
                0.6616572831606166,
                0.6616572831606166,
                0.417540033138342,
                0.6616572831606167,
                0.14947008975702736,
                0.44055269076327097,
                0.10644321820590129,
                0.6616572831606166,
                0.6616572831606166,
                0.6616572831606167,
                0.6616572831606167,
                0.38901689694364816,
                0.6616572831606167,
                0.6616572831606166,
                0.6616572831606166,
                0.6616572831606167,
                0.4982786133574729,
                0.6616572831606164,
                0.16214425042040387,
                0.6616572831606167,
                0.4557405096753729,
                0.09187210999310202,
                0.4798765097972335,
                0.020427152536482862,
                0.15036296436648322,
                0.3557181798911122,
                0.6616572831606167,
                0.004079853688531731,
                0.6616572831606166,
                0.0059471906046184575,
                0.18865294877467106,
                0.6616572831606164,
                0.3936597851274498,
                0.6616572831606164,
                0.2635982896252463,
                0.6616572831606166,
                0.03220567460363496,
                0.6616572831606166,
                0.6616572831606167,
                0.07494904206616448,
                0.03598242450751754,
                0.6616572831606164
            ]
        },
        "detections": 300,
        "events": 78165
    }
}