{
    "job_args": {
        "metric_limit": 300,
        "seed": 191092215
    },
    "job_id": "batch_215_do_300",
    "result": {
        "collections": {
            "crystal": [
                0.6616572831606164,
                0.037244772604193635,
                0.3488114016606046,
                0.6616572831606166,
                0.6616572831606166,
                0.6616572831606166,
                0.2351737490476225,
                0.3209398199327046,
                0.6616572831606166,
                0.6616572831606164,
                0.4343097052952365,
                0.2624390320181691,
                0.4194856976946456,
                0.055163848968143525,
                0.6616572831606167,
                0.18960113902204925,
                0.6616572831606167,
                0.4623261828080848,
                0.16046528541192148,
                0.2456823713166323,
                0.6616572831606167,
                0.6616572831606164,
                0.32058559550849003,
                0.34192822638191417,
                0.35459450452661573,
                0.6616572831606166,
                0.6616572831606166,
                0.26281105253646503,
                0.42521418785595044,
                0.3439994950119226,
                0.6616572831606164,
                0.054649132723464056,
                0.4258903607847043,
                0.6616572831606167,
                0.6616572831606167,
                0.6616572831606167,
                0.6616572831606166,
                0.010688961635860306,
                0.2113111937746349,
                0.22044417369017244,
                0.27519152084248744,
                0.6616572831606164,
                0.33207820108530206,
                0.2990941404197021,
                0.6616572831606166,
                0.6616572831606167,
                0.6616572831606164,
                0.6616572831606166,
                0.6616572831606167,
                0.01821908460113275,
                0.6616572831606164,
                0.03220557037743464,
                0.30517381803524907,
                0.3502857317738004,
                0.6616572831606167,
                0.4488076793860606,
                0.6616572831606166,
                0.44600257804931587,
                0.35567489415784426,
                0.6616572831606164,
                0.6616572831606166,
                0.6616572831606164,
                0.3231797148366973,
                0.6616572831606167,
                0.6616572831606166,
                0.6616572831606167,
                0.6616572831606164,
                0.6616572831606164,
                0.3497140903608431,
                0.4609300598933662,
                0.6616572831606167,
                0.6616572831606166,
                0.031818731823886295,
                0.2864302657922436,
                0.6616572831606166,
                0.1481417505642275,
                0.37543861044844606,
                0.637219362266963,
                0.6616572831606166,
                0.6616572831606164,
                0.6616572831606166,
                0.3583518027358654,
                0.6616572831606164,
                0.13575162155911613,
                0.6616572831606163,
                0.1965616571424904,
                0.2579717138466858,
                0.6616572831606166,
                0.17735657732021615,
                0.6616572831606166,
                0.6616572831606166,
                0.03220548118526021,
                0.6616572831606163,
                0.6616572831606166,
                0.6616572831606166,
                0.6616572831606166,
                0.03220575815330031,
                0.232277055250523,
                0.036316844178507696,
                0.45039663059446766,
                0.6616572831606163,
                0.3088404180297783,
                0.25601069964905376,
                0.03220538299089513,
                0.22123709353668836,
                0.6616572831606164,
                0.44453922501123516,
                0.6616572831606166,
                0.6616572831606166,
                0.6616572831606167,
                0.4626298900806924,
                0.6616572831606166,
                0.6616572831606166,
                0.6616572831606167,
                0.14302622445818114,
                0.18411153548519266,
                0.43415966897968655,
                0.6616572831606166,
                0.6616572831606166,
                0.6616572831606166,
                0.037260711224349645,
                0.6616572831606164,
                0.21643528924004396,
                0.08248436813947724,
                0.6616572831606166,
                0.6616572831606166,
                0.39662801610796866,
                0.06734645350229485,
                0.36807922988966496,
                0.008085737916090636,
                0.6616572831606166,
                0.6616572831606167,
                0.29465831577263685,
                0.6616572831606166,
                0.24313898498797026,
                0.031818917669001974,
                0.6616572831606166,
                0.6616572831606166,
                0.3295352772053332,
                0.6616572831606166,
                0.6616572831606164,
                0.6616572831606167,
                0.6616572831606167,
                0.6616572831606166,
                0.6616572831606167,
                0.6616572831606166,
                0.6616572831606166,
                0.6616572831606166,
                0.3877376234123951,
                0.06380799492362965,
                0.45839401699835125,
                0.6616572831606166,
                0.2757668435934629,
                0.6616572831606167,
                0.6616572831606166,
                0.6616572831606167,
                0.33474257207773733,
                0.6616572831606166,
                0.6616572831606166,
                0.6616572831606167,
                0.6616572831606166,
                0.33785544648533744,
                0.6616572831606166,
                0.09892794779130708,
                0.6616572831606167,
                0.6616572831606164,
                0.033858740217822425,
                0.6616572831606167,
                0.6616572831606166,
                0.6616572831606164,
                0.6616572831606166,
                0.23451337731445263,
                0.20650936371764106,
                0.6616572831606167,
                0.4998194909172804,
                0.6616572831606164,
                0.6616572831606167,
                0.34070961045601766,
                0.6616572831606167,
                0.6616572831606164,
                0.6616572831606167,
                0.37940354346207034,
                0.03181874375449951,
                0.3013523750325055,
                0.6616572831606166,
                0.3051984522906136,
                0.08477334856085195,
                0.036391857449119144,
                0.6616572831606166,
                0.6616572831606166,
                0.03631665724741521,
                0.6616572831606167,
                0.45428807221846645,
                0.10161390474733721,
                0.03220546499113901,
                0.6616572831606166,
                0.03442941332898908,
                0.6616572831606166,
                0.6616572831606166,
                0.03220583419665768,
                0.6616572831606164,
                0.6616572831606166,
                0.09274018238134007,
                0.6616572831606167,
                0.6616572831606164,
                0.037447147957952384,
                0.06275262965159778,
                0.6616572831606166,
                0.6616572831606164,
                0.6616572831606167,
                0.6616572831606164,
                0.6616572831606167,
                0.24235476839512218,
                0.6616572831606166,
                0.6616572831606167,
                0.6616572831606164,
                0.6616572831606166,
                0.4208161638273986,
                0.6616572831606166,
                0.03220570216175349,
                0.6616572831606167,
                0.6616572831606164,
                0.4552294760330288,
                0.03220558681218511,
                0.6616572831606166,
                0.4117974257476819,
                0.6616572831606164,
                0.03220542818594928,
                0.6616572831606164,
                0.266062003683562,
                0.6616572831606167,
                0.6616572831606167,
                0.6616572831606167,
                0.6616572831606166,
                0.6616572831606166,
                0.6616572831606167,
                0.03181859714407401,
                0.6616572831606167,
                0.40045273322533326,
                0.6616572831606164,
                0.6616572831606164,
                0.6616572831606164,
                0.6616572831606166,
                0.039965116831973235,
                0.6616572831606167,
                0.39360869041800167,
                0.6616572831606164,
                0.6616572831606166,
                0.4314404409874488,
                0.6616572831606164,
                0.29157190964424806,
                0.032205784102032294,
                0.6616572831606167,
                0.29044463490285855,
                0.4790777912684049,
                0.02086058354042681,
                0.6616572831606166,
                0.6616572831606164,
                0.6616572831606167,
                0.44988406464471964,
                0.6616572831606166,
                0.6616572831606166,
                0.6616572831606166,
                0.024281400035252365,
                0.6616572831606167,
                0.031818625097509684,
                0.6616572831606164,
                0.4578659830241706,
                0.03204013064287048,
                0.1667953542472443,
                0.6616572831606164,
                0.24707736598814617,
                0.6616572831606167,
                0.6616572831606164,
                0.44139193730088216,
                0.10881355722771811,
                0.2787869686967409,
                0.6616572831606167,
                0.6616572831606164,
                0.6616572831606166,
                0.03472039045107134,
                0.6616572831606166,
                0.6616572831606166,
                0.6616572831606166,
                0.6616572831606166,
                0.6616572831606167,
                0.3281177277344583,
                0.33741748548188977,
                0.6616572831606166,
                0.2974151960161303,
                0.6616572831606166,
                0.48997606665157,
                0.1497860256937077,
                0.6616572831606167,
                0.24539101005170283,
                0.6616572831606167,
                0.6616572831606166,
                0.2589464479327017,
                0.0493664808403127,
                0.4013496687952958
            ]
        },
        "detections": 300,
        "events": 92716
    }
}