{
    "job_args": {
        "metric_limit": 300,
        "seed": 1410567872
    },
    "job_id": "batch_170_do_300",
    "result": {
        "collections": {
            "crystal": [
                0.6616572831606166,
                0.053285126960164644,
                0.03220584695318722,
                0.03220539769325358,
                0.6616572831606166,
                0.6616572831606166,
                0.30392454882766584,
                0.6616572831606167,
                0.6294204831606165,
                0.6616572831606167,
                0.6616572831606164,
                0.19473008679813308,
                0.4510955872992341,
                0.059220404741241905,
                0.6616572831606166,
                0.469950049003978,
                0.279300285770414,
                0.0635866973504603,
                0.6616572831606164,
                0.6616572831606164,
                0.29119178880236396,
                0.6616572831606167,
                0.6616572831606166,
                0.0020570808029973797,
                0.43035200842022814,
                0.1973332647958925,
                0.6616572831606166,
                0.6616572831606167,
                0.6616572831606167,
                0.05892975377348242,
                0.45589137907267296,
                0.3265024589240555,
                0.052030777562385944,
                0.6616572831606166,
                0.6616572831606166,
                0.034075779627679034,
                0.23334036256124235,
                0.6616572831606164,
                0.6616572831606167,
                0.20768310537186557,
                0.03181848937760998,
                0.6616572831606166,
                0.6616572831606164,
                0.32385171803339446,
                0.6616572831606167,
                0.6616572831606166,
                0.6616572831606166,
                0.6616572831606166,
                0.03163658454358487,
                0.6616572831606164,
                0.08210365419798615,
                0.6616572831606164,
                0.6616572831606167,
                0.29910897467884234,
                0.6616572831606164,
                0.2215014832553492,
                0.6224541428400093,
                0.3226157940896702,
                0.13106255404224976,
                0.6616572831606164,
                0.03181882514599635,
                0.6616572831606166,
                0.6616572831606164,
                0.6616572831606166,
                0.6616572831606166,
                0.6616572831606166,
                0.6616572831606166,
                0.6616572831606164,
                0.6616572831606166,
                0.6616572831606166,
                0.4047288027998446,
                0.4815063298963067,
                0.6616572831606167,
                0.6616572831606166,
                0.46796520609597475,
                0.4288589291585958,
                0.03220572669149311,
                0.03220555102412948,
                0.6616572831606167,
                0.036316810636221136,
                0.6616572831606166,
                0.229983745169833,
                0.38346887488233694,
                0.4534052309386023,
                0.6616572831606166,
                0.48366245758540594,
                0.6616572831606166,
                0.18866058705572808,
                0.06595889205206251,
                0.2260616696242539,
                0.6616572831606166,
                0.6616572831606166,
                0.03220562063835554,
                0.44599531491376576,
                0.3544746327690303,
                0.6616572831606166,
                0.1779714383938651,
                0.4082183264723135,
                0.45614409072990175,
                0.036392165313531476,
                0.6616572831606164,
                0.6616572831606167,
                0.6616572831606166,
                0.6616572831606167,
                0.03220538297993613,
                0.07046446822996266,
                0.6616572831606166,
                0.6616572831606164,
                0.24185811634755178,
                0.5141964100365963,
                0.6616572831606164,
                0.299735344735678,
                0.6616572831606164,
                0.6616572831606166,
                0.6616572831606167,
                0.10295644249849342,
                0.036392167660272416,
                0.03975285070611523,
                0.6616572831606167,
                0.4852274042622997,
                0.4699159364647072,
                0.6616572831606167,
                0.6616572831606164,
                0.07196333610665073,
                0.10680368020382358,
                0.6616572831606166,
                0.029197274956227814,
                0.4503089193211615,
                0.6616572831606166,
                0.22722114055031242,
                0.3767246861896685,
                0.4187775994533402,
                0.6616572831606166,
                0.6616572831606164,
                0.263420232141005,
                0.43234876642595443,
                0.6616572831606167,
                0.6616572831606166,
                0.6616572831606166,
                0.6616572831606167,
                0.10141969649619909,
                0.6616572831606164,
                0.6616572831606166,
                0.6616572831606167,
                0.22523430665473154,
                0.6616572831606166,
                0.6616572831606167,
                0.6616572831606166,
                0.6616572831606166,
                0.6616572831606167,
                0.6616572831606167,
                0.6616572831606166,
                0.6616572831606164,
                0.6616572831606167,
                0.6616572831606167,
                0.6616572831606166,
                0.6616572831606166,
                0.6616572831606167,
                0.20772216781171027,
                0.6616572831606166,
                0.36731583822116204,
                0.6616572831606166,
                0.6616572831606166,
                0.03639187309820888,
                0.6616572831606166,
                0.40433671746658495,
                0.6616572831606164,
                0.6616572831606167,
                0.6616572831606164,
                0.6616572831606164,
                0.35011349386729596,
                0.6616572831606167,
                0.3417336994031986,
                0.30233111375453403,
                0.6616572831606167,
                0.6616572831606166,
                0.6616572831606167,
                0.42974008986374923,
                0.6616572831606164,
                0.44477941836741897,
                0.6616572831606167,
                0.43776032704582124,
                0.20321893667213614,
                0.03181884608599245,
                0.6616572831606164,
                0.6616572831606166,
                0.6616572831606166,
                0.6616572831606167,
                0.21011816610149397,
                0.6616572831606166,
                0.12505627291564,
                0.09443624441904395,
                0.6616572831606167,
                0.6616572831606166,
                0.6616572831606164,
                0.6616572831606164,
                0.008651297993477079,
                0.6616572831606166,
                0.6616572831606166,
                0.6616572831606164,
                0.3811192715799461,
                0.6616572831606166,
                0.39993449105422885,
                0.6616572831606166,
                0.6616572831606166,
                0.6616572831606164,
                0.09208090393261048,
                0.6616572831606166,
                0.6616572831606167,
                0.28740957480080587,
                0.33225999812603574,
                0.4485391983401068,
                0.6616572831606166,
                0.6616572831606164,
                0.2302294566606451,
                0.23855603448421164,
                0.6616572831606164,
                0.42247594529027954,
                0.6616572831606166,
                0.2504189039402343,
                0.6616572831606166,
                0.3123469246959786,
                0.22907983677543042,
                0.6616572831606164,
                0.40972036477250545,
                0.3036200763895033,
                0.6616572831606167,
                0.6616572831606164,
                0.6616572831606166,
                0.031818922758660606,
                0.35674582304257146,
                0.6616572831606167,
                0.6616572831606164,
                0.003493251777485274,
                0.33052250190574584,
                0.30853256139104784,
                0.03220540078805714,
                0.3872424450114067,
                0.6616572831606166,
                0.032205731367746356,
                0.6616572831606167,
                0.6616572831606167,
                0.6616572831606166,
                0.028157985594910277,
                0.6616572831606166,
                0.6616572831606166,
                0.2503369266577638,
                0.054698168614260245,
                0.4611985795651721,
                0.4008674844738587,
                0.3981428335987123,
                0.6616572831606166,
                0.6616572831606164,
                0.4375146328863698,
                0.4347692625980029,
                0.6616572831606164,
                0.03181873600133066,
                0.03239573030211329,
                0.6616572831606166,
                0.3944372107113099,
                0.01204520113560148,
                0.4371965526605827,
                0.6616572831606166,
                0.6616572831606166,
                0.2636816058607003,
                0.6616572831606166,
                0.6616572831606167,
                0.4373762828276978,
                0.6616572831606164,
                0.6616572831606166,
                0.6616572831606164,
                0.6616572831606167,
                0.6616572831606167,
                0.44516237648698564,
                0.032205406868355366,
                0.6616572831606167,
                0.6616572831606166,
                0.33485919005952847,
                0.6616572831606164,
                0.6616572831606166,
                0.08862465265171882,
                0.6616572831606164,
                0.6616572831606166,
                0.6616572831606166,
                0.6616572831606167,
                0.6616572831606164,
                0.19707991358948584,
                0.061153764221502205,
                0.6616572831606166,
                0.28126037734273357,
                0.6616572831606167,
                0.43874367076954945,
                0.6616572831606166,
                0.03639188328293578,
                0.4546953887471522,
                0.6616572831606167,
                0.6616572831606167,
                0.4716821550986311,
                0.13431313038676918,
                0.6616572831606166
            ]
        },
        "detections": 300,
        "events": 81859
    }
}