{
    "job_args": {
        "metric_limit": 300,
        "seed": 1219526395
    },
    "job_id": "batch_21_do_300",
    "result": {
        "collections": {
            "crystal": [
                0.03181862009772215,
                0.18215573851099232,
                0.6616572831606167,
                0.6616572831606167,
                0.06491435543372082,
                0.6616572831606164,
                0.4163494912233505,
                0.6616572831606166,
                0.6616572831606164,
                0.6616572831606164,
                0.33983750986822936,
                0.6616572831606167,
                0.6616572831606166,
                0.6616572831606166,
                0.4641315764712916,
                0.04567005390329415,
                0.032270439623697134,
                0.6616572831606164,
                0.6616572831606166,
                0.13343200382054643,
                0.4236852223075416,
                0.032205590070594016,
                0.6616572831606167,
                0.07495925244315793,
                0.07007663005686299,
                0.0709913502947288,
                0.016242852883172794,
                0.2931600215572504,
                0.6616572831606166,
                0.6616572831606164,
                0.4852870537475664,
                0.03220559752609295,
                0.6616572831606166,
                0.01211359948186741,
                0.6616572831606166,
                0.2051294140923165,
                0.3622558371276604,
                0.27211474991769047,
                0.6616572831606167,
                0.6616572831606164,
                0.38182723178860356,
                0.1607943580705421,
                0.6616572831606167,
                0.03220569738273479,
                0.032205451229589996,
                0.44148934031381226,
                0.2771962127585958,
                0.6616572831606166,
                0.6616572831606168,
                0.6616572831606167,
                0.6616572831606167,
                0.03143053043611485,
                0.3430776445884378,
                0.4715473679653059,
                0.031029723198658453,
                0.6616572831606167,
                0.6616572831606167,
                0.6616572831606167,
                0.6616572831606166,
                0.17268606074522802,
                0.6616572831606167,
                0.3936646977010987,
                0.33217312395014964,
                0.10848424250208388,
                0.6616572831606167,
                0.6616572831606167,
                0.6616572831606166,
                0.6616572831606164,
                0.6484138805138988,
                0.3683655406970124,
                0.6616572831606166,
                0.6616572831606166,
                0.19863098607453872,
                0.032205521211767674,
                0.6616572831606166,
                0.057965299384228446,
                0.6616572831606167,
                0.25004878498412597,
                0.6616572831606164,
                0.6616572831606166,
                0.6616572831606166,
                0.4569810537966408,
                0.6616572831606166,
                0.10375867514306025,
                0.011610946971082892,
                0.6616572831606166,
                0.24755636861451177,
                0.6616572831606164,
                0.6616572831606166,
                0.6616572831606166,
                0.6616572831606164,
                0.6616572831606166,
                0.6616572831606164,
                0.20901183813688545,
                0.32593510334080344,
                0.6616572831606166,
                0.6616572831606166,
                0.45943333983058876,
                0.6616572831606167,
                0.6616572831606167,
                0.6616572831606166,
                0.23701376053709478,
                0.20524299781508054,
                0.6616572831606167,
                0.4655418278929931,
                0.6616572831606164,
                0.21240507846378853,
                0.048378941831411795,
                0.6616572831606166,
                0.6616572831606166,
                0.003265568748380391,
                0.6616572831606167,
                0.16483958026449663,
                0.6616572831606166,
                0.03220579004033863,
                0.6616572831606164,
                0.22659896503471139,
                0.6616572831606166,
                0.3802262184384858,
                0.33527249773865375,
                0.6616572831606166,
                0.6616572831606166,
                0.6616572831606166,
                0.6616572831606166,
                0.18383696328470783,
                0.45726893442745864,
                0.22931755789239427,
                0.6616572831606166,
                0.6616572831606166,
                0.026309834142524746,
                0.6616572831606166,
                0.6616572831606166,
                0.6616572831606167,
                0.34710464539519204,
                0.6616572831606166,
                0.3623714425696676,
                0.6616572831606166,
                0.6616572831606166,
                0.6616572831606167,
                0.6616572831606164,
                0.6616572831606166,
                0.03818372687104543,
                0.10686201262523531,
                0.03181847930260781,
                0.17065466209331415,
                0.6616572831606167,
                0.3856343877088282,
                0.6616572831606166,
                0.14924104101768476,
                0.14453538509193942,
                0.2235708080168807,
                0.40955188499651857,
                0.2756321979454407,
                0.01420029033558734,
                0.24650929466655333,
                0.6616572831606166,
                0.03220567824136541,
                0.6616572831606166,
                0.6616572831606167,
                0.6616572831606167,
                0.43331339680638326,
                0.6616572831606166,
                0.6616572831606166,
                0.6616572831606164,
                0.6616572831606164,
                0.011781623499751917,
                0.3523351705856886,
                0.6616572831606166,
                0.03181893196918466,
                0.4314063326605062,
                0.6616572831606166,
                0.12399433403760819,
                0.2495759478396718,
                0.6616572831606164,
                0.6616572831606167,
                0.465531788278819,
                0.6616572831606166,
                0.2613926629008735,
                0.6616572831606166,
                0.6616572831606166,
                0.36139998531872264,
                0.03220558273593583,
                0.26225476129929515,
                0.001653029797079597,
                0.39535559866236814,
                0.6616572831606167,
                0.6616572831606166,
                0.6616572831606167,
                0.6616572831606164,
                0.6616572831606164,
                0.03220535133715179,
                0.17222246478022946,
                0.0322054661531727,
                0.6616572831606166,
                0.6616572831606166,
                0.6616572831606167,
                0.12419968667266545,
                0.036316630092552926,
                0.02321033395025601,
                0.2524826608447651,
                0.6616572831606167,
                0.6616572831606166,
                0.2627600617486069,
                0.05015155109105951,
                0.020165509797912762,
                0.6616572831606166,
                0.36013543705981843,
                0.43948231344478933,
                0.20280351564689236,
                0.6616572831606168,
                0.2848891945750144,
                0.6616572831606164,
                0.6616572831606164,
                0.3427624170247445,
                0.6616572831606166,
                0.6616572831606166,
                0.37675943251871014,
                0.4684103557082474,
                0.6616572831606164,
                0.4757230443055658,
                0.6616572831606164,
                0.42078183731734436,
                0.6616572831606164,
                0.6616572831606164,
                0.6616572831606167,
                0.6616572831606166,
                0.6616572831606166,
                0.12287399140439126,
                0.3849238889851018,
                0.6616572831606166,
                0.6616572831606167,
                0.6616572831606167,
                0.6616572831606164,
                0.6616572831606167,
                0.3456738884385152,
                0.6616572831606166,
                0.6616572831606167,
                0.40401773978790206,
                0.6616572831606167,
                0.0322056630341878,
                0.42685335157292814,
                0.2632884522343062,
                0.6616572831606167,
                0.03726088440085964,
                0.23479341629622144,
                0.6616572831606166,
                0.6616572831606166,
                0.04810675013589294,
                0.6616572831606167,
                0.37164940274919267,
                0.6616572831606164,
                0.6616572831606166,
                0.3782278450562168,
                0.6616572831606166,
                0.261844064985841,
                0.413966112295271,
                0.6616572831606167,
                0.6616572831606164,
                0.6616572831606164,
                0.6616572831606164,
                0.49727730660264025,
                0.6616572831606166,
                0.03220557983527241,
                0.6616572831606164,
                0.6616572831606164,
                0.503215308533961,
                0.20241846469721236,
                0.00779617741183225,
                0.00815076270388948,
                0.2459019107458459,
                0.6616572831606167,
                0.6616572831606166,
                0.3514702387462232,
                0.6616572831606164,
                0.5263636857305249,
                0.1961739818747617,
                0.6616572831606163,
                0.03220568934890891,
                0.053358915887155134,
                0.6616572831606166,
                0.45705754094150036,
                0.6616572831606164,
                0.024951816429599552,
                0.028582249578252922,
                0.20099993273492583,
                0.3078101606180368,
                0.3454060278156126,
                0.315755390637887,
                0.6616572831606166,
                0.6616572831606166,
                0.03220541882841312,
                0.22661197912879866,
                0.6616572831606166,
                0.6616572831606167,
                0.4896085673392035,
                0.5310699543007456,
                0.6616572831606166,
                0.6616572831606164,
                0.45588734904462747,
                0.036316764536115036
            ]
        },
        "detections": 300,
        "events": 82575
    }
}