{
    "job_args": {
        "metric_limit": 500,
        "seed": 1041711997
    },
    "job_id": "batch_131_do_500",
    "result": {
        "collections": {
            "crystal": [
                1.0636549103809434,
                0.5696973581252411,
                0.18983684688810773,
                0.30785770052003125,
                0.5696973581252411,
                0.4643752448633436,
                0.31703122107561554,
                0.3318787107378813,
                0.5696973581252411,
                0.5696973581252411,
                0.7218650852468779,
                0.5696973581252411,
                0.02976442736317536,
                0.6122402273480526,
                0.07525,
                1.0636549103809436,
                0.34257750434278805,
                0.51099891,
                0.1772674882047649,
                1.0636549103809434,
                0.3785663032843982,
                0.5696973581252411,
                0.25393537314185954,
                0.15862080053857514,
                0.5696973581252411,
                1.0636549103809432,
                0.5696973581252411,
                1.0636549103809434,
                0.569697358125241,
                0.4233674561270049,
                1.0636549103809432,
                0.7028522078969016,
                1.0636549103809436,
                0.2188397659939631,
                0.07524985977302309,
                0.8279155637451893,
                0.6449211657846787,
                0.07060828472194552,
                0.569697358125241,
                0.48075247526063425,
                0.2888068353354829,
                1.77021471651483,
                0.5696973581252411,
                1.0636549103809432,
                0.699653829235003,
                0.5696973581252411,
                0.20115140322715588,
                0.1675885603534657,
                0.47994280845642445,
                0.08820239999999999,
                0.4852715016073729,
                0.45966334873107656,
                1.0636549103809434,
                0.4197261490326276,
                0.12996495607223169,
                0.5696973581252411,
                0.30546006633023426,
                0.04442950000000002,
                0.04910464002814141,
                0.7349576376250068,
                0.36618281420610443,
                1.0636549103809434,
                0.07524999999999998,
                0.46893566874389836,
                0.4046565497418604,
                1.0636549103809434,
                0.4478818316280244,
                0.5696973581252411,
                0.5696973581252411,
                0.28403208888428544,
                0.2892495066156473,
                0.4241855746558345,
                1.0636549103809434,
                0.315613755558553,
                0.3798187018651756,
                0.33805047517064424,
                0.30912712394213143,
                0.22480819580558523,
                0.5696973581252412,
                0.5696973581252411,
                0.5696973581252411,
                0.15801993670395803,
                0.1966504164212406,
                1.0636549103809432,
                0.5696973581252411,
                0.45310735995594115,
                0.011586005835127144,
                1.0636549103809436,
                0.07525,
                0.11628893761670117,
                0.3140504665986207,
                0.49328982614624306,
                0.08711742428033559,
                0.2558649898618808,
                0.5696973581252411,
                0.7916085495005614,
                0.2761416341700184,
                0.21268980565678863,
                0.5696973581252412,
                0.5696973581252411,
                0.5696973581252414,
                0.3763905278158317,
                0.8194449119014988,
                0.5696973581252411,
                0.04694333199532669,
                0.23860734673476974,
                0.5696973581252411,
                0.894294276417787,
                1.0636549103809434,
                0.5696973581252411,
                0.18785976508318508,
                0.11462193274305976,
                0.8321548105133181,
                0.5696973581252411,
                0.569697358125241,
                0.32410366348794495,
                0.5696973581252411,
                0.5696973581252411,
                0.4333488754642315,
                0.38439652067124686,
                0.11354680416533203,
                0.29516994615452175,
                0.5696973581252411,
                0.7393970791471001,
                0.6847285714948321,
                0.6835614290157251,
                1.0636549103809436,
                0.5696973581252411,
                0.5696973581252412,
                0.2642193039015919,
                0.27381951814595173,
                0.2410088837126324,
                0.15997295470922274,
                0.14977197482625026,
                0.43169203216071567,
                0.5696973581252411,
                1.0636549103809434,
                0.5247642266094626,
                0.31396365550115823,
                0.5696973581252411,
                0.07524999999999998,
                0.19052330770868886,
                0.19259578177719386,
                0.008516602705749908,
                0.4390055109883202,
                0.5696973581252411,
                0.09604667337834571,
                0.13526403758979627,
                0.5696973581252411,
                0.5061794226618175,
                0.5696973581252411,
                0.3508124828910748,
                1.0636549103809434,
                0.07524999999999998,
                0.569697358125241,
                0.10001393155561673,
                0.19279698626906044,
                0.24195791139991088,
                1.5879677914081174,
                0.6170900503102672,
                0.45818861882330686,
                0.14678161172948823,
                0.364223202112113,
                0.5696973581252411,
                0.5368484114419578,
                0.3922382390817893,
                1.0636549103809434,
                0.24328415256337907,
                0.51099891,
                0.5696973581252411,
                0.5696973581252411,
                0.08262440416871972,
                1.0636549103809434,
                0.5696973581252411,
                0.5696973581252411,
                0.5696973581252411,
                1.0344235241099629,
                0.8491674201550499,
                0.22217299423070053,
                0.649268839304137,
                0.7249166621718828,
                0.5696973581252412,
                0.8399705809571203,
                1.0636549103809432,
                1.7702147165148299,
                0.34138592285505825,
                0.073039,
                0.09598447262333921,
                0.5696973581252411,
                0.7115637655864105,
                0.11259386072299156,
                0.5696973581252411,
                0.24091989792332125,
                0.569697358125241,
                0.5696973581252412,
                0.5696973581252411,
                0.20243417771449684,
                0.5696973581252411,
                0.6752382191364003,
                0.2924117000942782,
                0.20457688967060783,
                0.769055284857411,
                0.5696973581252411,
                0.7383316913225669,
                0.23610977010686512,
                0.0852354,
                1.259749949557011,
                0.5696973581252411,
                0.28384706286667727,
                0.7029053705242583,
                0.07525,
                0.20019613273971162,
                1.7702147165148299,
                0.5060322838134512,
                0.6244635993725635,
                0.1165075689088807,
                0.5696973581252411,
                0.5696973581252411,
                0.31249020250568255,
                0.07303914258670144,
                0.5696973581252411,
                1.0636549103809434,
                0.3666161573063237,
                0.2906224023821545,
                1.0636549103809434,
                0.07525,
                0.5253151753479951,
                0.830988893938819,
                0.07524947508626151,
                0.1514730346509599,
                0.5696973581252411,
                0.073039,
                0.39115211084465973,
                0.08134852455549871,
                1.0636549103809434,
                0.18989596235846942,
                0.29451020123699134,
                0.5696973581252411,
                0.7259370606873738,
                1.460624954520431,
                0.5696973581252411,
                0.07303899999999999,
                0.32685434803391356,
                0.42977829321944777,
                0.7172245960066183,
                0.32889150457165495,
                0.8975236814292167,
                0.8319973063458808,
                1.0636549103809434,
                0.13740948478404913,
                0.29203287634130903,
                0.6256672744349938,
                0.7099573238851778,
                0.43802706665903196,
                0.1819187567998627,
                0.200727915045014,
                0.1055180258141706,
                0.5367390118979549,
                0.569697358125241,
                1.2982449028981178,
                0.1803047595624936,
                0.37270693345158534,
                1.0636549103809434,
                0.5696973581252411,
                0.30949776805806367,
                0.33063044792783647,
                0.9416037625478515,
                0.07524999105994139,
                0.7842292487246965,
                0.2188068236279957,
                0.5696973581252411,
                0.5696973581252411,
                0.4239614850699035,
                0.073039,
                0.569697358125241,
                0.4784679953111639,
                0.43891265614692243,
                0.07303920074337468,
                0.5696973581252412,
                0.8013365114198441,
                0.37173588441798594,
                0.08523467709944796,
                0.17963917929972034,
                0.07132480999999999,
                0.5696973581252411,
                0.882230683182871,
                0.3074132254584674,
                0.17954076070125613,
                1.0636549103809436,
                0.08294934192064984,
                1.0636549103809434,
                1.77021471651483,
                0.3263759343556267,
                0.5696973581252412,
                0.2880419426391183,
                0.17253881959760164,
                0.3617350457502679,
                0.3418591789285762,
                0.5696973581252411,
                0.10752429213083993,
                0.12165201210708837,
                0.08993951062958722,
                0.07303899999999999,
                0.34794641032139273,
                0.5696973581252411,
                0.04156850269841135,
                0.1627505136221623,
                0.5097549006801422,
                0.3366153055638652,
                0.017514952825316565,
                0.109875895703747,
                0.1121580639111417,
                0.5696973581252412,
                0.04711460485002861,
                0.565030613837119,
                1.0636549103809434,
                0.3859164520288194,
                0.06282761405114834,
                1.0636549103809434,
                1.0636549103809432,
                0.8161500400943315,
                1.1670902266873324,
                0.5696973581252411,
                0.3079158950536983,
                0.306218838131167,
                0.7066259601614154,
                0.5696973581252411,
                1.1233716456837999,
                0.4518065964648846,
                0.07524999999999998,
                0.15265877365043423,
                0.567274805018332,
                1.0636549103809436,
                0.8547239657867821,
                0.5696973581252411,
                0.5696973581252411,
                0.5696973581252411,
                0.08474055816719323,
                0.8277470075387905,
                0.6919792378509588,
                0.5696973581252411,
                0.4294619916564376,
                0.2848346887151279,
                0.2171287134978483,
                0.6349724993968369,
                0.18115620663003823,
                0.6434161431611426,
                0.381875166163876,
                0.5696973581252411,
                0.42932021583505753,
                0.6060245011361937,
                0.0997252452575631,
                1.0636549103809434,
                0.96961866601431,
                1.0636549103809434,
                0.5696973581252412,
                0.5696973581252412,
                0.7473240503720964,
                0.22045497744057618,
                0.33660580802723966,
                0.5970420955320027,
                0.3061033565417707,
                0.5696973581252411,
                0.5696973581252411,
                0.6472296574046628,
                0.21594650901907414,
                0.5696973581252411,
                0.18213305468135338,
                1.0636549103809436,
                0.30389521050248125,
                0.5696973581252411,
                0.5037428357933564,
                0.569697358125241,
                0.569697358125241,
                1.0350454103809432,
                0.3846769911355382,
                0.6320625066196,
                0.5696973581252412,
                0.36784758073192575,
                0.8000335301017455,
                0.26406537003226704,
                0.36988997797572454,
                1.0636549103809436,
                0.0733702327821043,
                0.5696973581252411,
                0.5975059519646336,
                0.7328146160540613,
                0.5696973581252411,
                0.5696973581252412,
                0.5696973581252411,
                0.3498755425624394,
                0.5696973581252411,
                0.1655189425377746,
                0.7337297774180848,
                0.6823820980592168,
                1.0636549103809434,
                0.3687558279073593,
                0.33458135932381755,
                0.31975996137032126,
                0.07303915498132946,
                0.292975390806289,
                1.5343153049288922,
                0.1782184872662116,
                0.0466405,
                0.8144929369498833,
                0.5191115446164576,
                0.2544558684313974,
                0.5696973581252412,
                0.6752933501217194,
                0.18706544705552888,
                0.7618318101604262,
                1.0636549103809434,
                0.22742862265866975,
                0.43769685871161484,
                0.5696973581252411,
                0.3514154736222313,
                0.05299835956042946,
                1.4650608825296687,
                0.5696973581252412,
                0.5696973581252411,
                0.569697358125241,
                1.0636549103809432,
                0.6687030669797872,
                0.731415905920014,
                0.16950862470411765,
                0.09142384306296114,
                0.36823236286955946,
                0.5696973581252411,
                0.5696973581252411,
                0.01946823536272757,
                0.6636744612221342,
                0.07303886867843945,
                0.5696973581252411,
                0.5696973581252411,
                0.569697358125241,
                0.5696973581252411,
                0.5696973581252412,
                0.07462213485714653,
                0.35907575443056594,
                0.5696973581252412,
                0.5696973581252411,
                1.0636549103809434,
                0.44963474691715055,
                0.08374084824337269,
                0.06296575879320421,
                0.5696973581252411,
                0.5696973581252411,
                0.05037524312364472,
                0.16205809126034315,
                0.5696973581252411,
                0.5696973581252411,
                0.5696973581252412,
                1.0636549103809434,
                0.5696973581252411,
                1.6333522685061845,
                0.5471148195120934,
                0.32455082607534175,
                1.0636549103809434,
                1.0636549103809434,
                0.569697358125241,
                0.7686581990800349,
                0.5696973581252411,
                0.5696973581252411,
                1.0636549103809434,
                0.20761391691800293,
                0.7378699799013269,
                0.3070686753195746,
                0.15079303057023996,
                0.5696973581252411,
                0.5696973581252411,
                1.0636549103809432,
                0.8491349045284551,
                1.0636549103809434,
                0.5487901618636531,
                0.5696973581252411,
                0.4904155376652164,
                1.0636549103809434,
                0.0447325,
                0.15111513654858844,
                0.21597813108690445,
                0.2637647370151974,
                0.16532995751247692,
                0.046430543923347,
                0.569697358125241,
                0.7614993250719027,
                0.5733362381429182,
                0.569697358125241,
                0.28662676387556013,
                0.3895964805808413,
                0.5696973581252411,
                0.569697358125241,
                0.04664058382840779,
                0.7687972962399433,
                0.33347707757633693,
                0.32465206572108213,
                0.2658977700199504,
                0.07840786834380997,
                0.25337715305481145,
                1.0636549103809432,
                0.3940605937993968
            ],
            "photocathode": [
                7299,
                3950,
                1285,
                2119,
                3927,
                3221,
                2223,
                2249,
                3930,
                3856,
                5048,
                4016,
                214,
                4566,
                513,
                7552,
                2369,
                3654,
                1180,
                7504,
                2628,
                4056,
                1726,
                1044,
                4006,
                7401,
                3978,
                7500,
                4142,
                3026,
                7460,
                4923,
                7209,
                1554,
                534,
                5955,
                4500,
                505,
                3987,
                3419,
                1979,
                12302,
                4008,
                7608,
                4824,
                4014,
                1383,
                1085,
                3405,
                604,
                3403,
                3240,
                7529,
                2919,
                973,
                3936,
                2120,
                313,
                385,
                5097,
                2527,
                7706,
                534,
                3277,
                2920,
                7461,
                3199,
                4034,
                4063,
                2036,
                2067,
                2942,
                7612,
                2398,
                2573,
                2353,
                2160,
                1546,
                3979,
                4022,
                4028,
                1073,
                1361,
                7522,
                4084,
                3217,
                60,
                7557,
                528,
                856,
                2210,
                3531,
                613,
                1820,
                3836,
                5323,
                1882,
                1417,
                3764,
                4101,
                3992,
                2763,
                5639,
                3893,
                313,
                1742,
                3976,
                6242,
                7459,
                3951,
                1365,
                819,
                5744,
                4041,
                4023,
                2321,
                4178,
                4021,
                3097,
                2697,
                845,
                2042,
                3935,
                5229,
                4823,
                4863,
                7506,
                3997,
                3845,
                1852,
                1907,
                1719,
                1103,
                1067,
                3075,
                3931,
                7306,
                3630,
                2148,
                4062,
                523,
                1336,
                1373,
                65,
                3112,
                3892,
                664,
                942,
                4022,
                3553,
                3914,
                2501,
                7524,
                485,
                4033,
                730,
                1295,
                1720,
                11247,
                4252,
                3197,
                1060,
                2419,
                3976,
                3676,
                2671,
                7494,
                1717,
                3597,
                3961,
                3961,
                549,
                7502,
                4044,
                3947,
                4036,
                7270,
                5941,
                1545,
                4613,
                5082,
                3972,
                5798,
                7222,
                12315,
                2372,
                506,
                674,
                3806,
                5139,
                764,
                3967,
                1641,
                3906,
                4015,
                4017,
                1397,
                4008,
                4756,
                2037,
                1463,
                5388,
                4012,
                5301,
                1665,
                619,
                8704,
                3850,
                2037,
                5124,
                505,
                1430,
                12335,
                3528,
                4334,
                832,
                4033,
                3892,
                2256,
                554,
                4057,
                7375,
                2641,
                1995,
                7628,
                528,
                3795,
                6033,
                504,
                1085,
                3955,
                496,
                2648,
                596,
                7292,
                1365,
                2169,
                3891,
                5102,
                10529,
                3927,
                507,
                2339,
                2980,
                5066,
                2323,
                6341,
                6026,
                7790,
                990,
                2094,
                4328,
                5030,
                3156,
                1270,
                1421,
                800,
                3784,
                4168,
                9022,
                1205,
                2681,
                7871,
                3964,
                2183,
                2319,
                6658,
                459,
                5369,
                1489,
                3947,
                4001,
                3043,
                526,
                3993,
                3431,
                3059,
                535,
                3921,
                5736,
                2679,
                609,
                1297,
                528,
                4052,
                6199,
                2151,
                1248,
                7468,
                534,
                7547,
                12196,
                2321,
                3961,
                2128,
                1181,
                2496,
                2341,
                4007,
                767,
                841,
                606,
                532,
                2492,
                3878,
                280,
                1147,
                3583,
                2427,
                140,
                779,
                810,
                3963,
                324,
                3844,
                7291,
                2738,
                412,
                7617,
                7360,
                5574,
                8374,
                4039,
                2126,
                2170,
                5000,
                4110,
                7885,
                3172,
                512,
                1081,
                3996,
                7344,
                5999,
                3935,
                3904,
                4013,
                555,
                5955,
                4926,
                3997,
                3050,
                1902,
                1501,
                4439,
                1321,
                4535,
                2751,
                4118,
                3079,
                4140,
                643,
                7463,
                6909,
                7373,
                4013,
                3959,
                5160,
                1511,
                2380,
                4247,
                2125,
                4052,
                3860,
                4470,
                1503,
                4098,
                1241,
                7347,
                2129,
                3961,
                3581,
                4028,
                4003,
                7218,
                2609,
                4476,
                4007,
                2484,
                5763,
                1820,
                2707,
                7633,
                547,
                3950,
                4087,
                5042,
                4185,
                4171,
                3774,
                2438,
                4011,
                1160,
                5301,
                4819,
                7444,
                2595,
                2295,
                2186,
                506,
                2039,
                10910,
                1259,
                342,
                5801,
                3627,
                1795,
                4035,
                4659,
                1331,
                5183,
                7380,
                1550,
                3041,
                4034,
                2414,
                326,
                10159,
                4049,
                3967,
                3830,
                7788,
                4710,
                5037,
                1259,
                662,
                2598,
                3975,
                3862,
                119,
                4668,
                508,
                3982,
                3902,
                4024,
                4091,
                4133,
                543,
                2467,
                3954,
                4038,
                7466,
                3220,
                592,
                442,
                4009,
                3937,
                354,
                1155,
                3940,
                3875,
                3920,
                7651,
                3810,
                11551,
                3719,
                2282,
                7545,
                7723,
                3999,
                5344,
                3990,
                3914,
                7492,
                1557,
                5193,
                2189,
                1039,
                3925,
                4137,
                7609,
                6027,
                7594,
                3889,
                3928,
                3445,
                7420,
                331,
                1027,
                1624,
                1829,
                1154,
                325,
                3933,
                5525,
                4046,
                4050,
                2066,
                2663,
                4024,
                4138,
                332,
                5537,
                2370,
                2210,
                2003,
                517,
                1740,
                7590,
                2820
            ]
        },
        "detections": 500,
        "events": 62262
    }
}