{
    "job_args": {
        "metric_limit": 500,
        "seed": 606820852
    },
    "job_id": "batch_101_do_500",
    "result": {
        "collections": {
            "crystal": [
                0.5696973581252411,
                1.0636549103809434,
                0.8142521476723439,
                0.10241689304825052,
                0.4139977017804646,
                0.21924701194321472,
                0.2795563465020564,
                0.8888951604690064,
                1.0636549103809434,
                0.569697358125241,
                0.8418446998000847,
                0.9145253201575777,
                0.5696973581252412,
                0.7123374073222914,
                1.0636549103809434,
                0.27640307478536263,
                1.0636549103809434,
                0.0067878774506321396,
                1.0636549103809434,
                1.0636549103809434,
                0.5696973581252411,
                0.3737153657424445,
                1.0636549103809434,
                0.5696973581252412,
                0.6165601191513744,
                0.714672803685723,
                0.8722520221979688,
                0.5975290741305116,
                0.4306984313386294,
                0.26460429317439793,
                0.2969504710056959,
                1.0636549103809434,
                0.23022154872486,
                0.08523524881950388,
                0.8035954809844941,
                1.0636549103809434,
                1.0415296287706535,
                0.5696973581252411,
                0.5696973581252412,
                0.33718155973003383,
                0.4106660389821857,
                0.5949228579113385,
                1.0636549103809434,
                0.5696973581252411,
                0.6789586718231988,
                0.07525000000000001,
                0.7759975638068317,
                0.5696973581252412,
                0.17745770766245483,
                1.0636549103809436,
                0.5696973581252411,
                0.8553249068137194,
                0.5696973581252411,
                0.18554500409794278,
                0.2748555185782257,
                0.10832119937189179,
                0.5696973581252411,
                0.09436698075950234,
                0.5696973581252411,
                0.569697358125241,
                0.3921152509181747,
                0.16352659836200825,
                0.569697358125241,
                0.3031859125887958,
                0.17119058357749464,
                0.3896091450430068,
                1.0636549103809434,
                0.3992381423093788,
                0.300195377128182,
                0.17998906828501418,
                0.5696973581252411,
                0.569697358125241,
                1.0636549103809436,
                0.4247050929700941,
                0.27265954015193444,
                0.11017667561005107,
                0.07524974206209234,
                1.0636549103809434,
                0.16595575311640573,
                0.262923081407255,
                0.5503323957809139,
                0.3263708146091143,
                0.5696973581252411,
                0.569697358125241,
                0.5381503881509156,
                0.4709642945053153,
                0.019215993678552867,
                0.569697358125241,
                0.5696973581252411,
                0.4020076334501138,
                0.5696973581252411,
                1.0636549103809434,
                0.5696973581252411,
                0.5696973581252411,
                0.6799425377908634,
                1.0636549103809434,
                0.7724984997800088,
                1.2592158065148298,
                1.0636549103809434,
                0.5925525137129162,
                0.5696973581252411,
                0.5696973581252411,
                0.5696973581252411,
                0.5696973581252411,
                0.5696973581252412,
                0.5696973581252411,
                0.5696973581252411,
                0.569697358125241,
                0.11690762803354267,
                1.0636549103809434,
                0.32559397452296435,
                1.0636549103809432,
                0.05570787017832579,
                0.0691671414636058,
                0.24243684606440574,
                0.4294152820164155,
                1.0636549103809434,
                0.053504732282701695,
                0.5696973581252412,
                0.4884676546080138,
                1.0636549103809434,
                0.259132294658311,
                0.04389684852291176,
                0.06893157839922891,
                0.6090645530359786,
                0.5178514553494429,
                1.0636549103809436,
                0.5417333047462483,
                0.5696973581252411,
                0.5696973581252412,
                0.5696973581252411,
                0.19217865501780965,
                0.01011149000972883,
                0.04237616152315571,
                0.5696973581252411,
                0.5867680487473665,
                0.1053020421630228,
                1.0636549103809434,
                0.5696973581252412,
                1.0636549103809434,
                0.024888622445008335,
                0.12261882501855864,
                0.09725539258509065,
                0.5696973581252411,
                0.5696973581252412,
                0.569697358125241,
                0.5696973581252411,
                0.569697358125241,
                0.2542073474650815,
                0.5696973581252411,
                0.5696973581252411,
                1.0636549103809434,
                1.0636549103809434,
                0.07303899999999999,
                0.5696973581252411,
                1.0636549103809434,
                0.6133950215546286,
                1.0636549103809436,
                0.2315927826764318,
                0.4724383363037723,
                0.39051183597262185,
                0.5350536516326674,
                0.5696973581252412,
                0.003160000998458312,
                0.006397025461195471,
                0.5696973581252411,
                0.2948918404085217,
                0.5696973581252412,
                0.5696973581252411,
                0.16440611524038373,
                0.5696973581252411,
                0.5696973581252412,
                0.298826667434477,
                0.5696973581252411,
                0.46918173825644105,
                1.0636549103809434,
                1.0636549103809436,
                0.5696973581252411,
                0.3889541582771219,
                0.5696973581252412,
                0.48414471953530197,
                0.5696973581252411,
                0.5696973581252411,
                0.09276250100695549,
                0.2666629152980865,
                0.6240079079256179,
                0.5696973581252411,
                0.5696973581252411,
                1.0636549103809434,
                0.6977411851721519,
                0.4565934893577587,
                0.4527094151680977,
                0.5696973581252411,
                1.0636549103809434,
                1.0636549103809434,
                0.5696973581252411,
                0.3834433275879839,
                0.5696973581252414,
                0.5696973581252411,
                0.06136665074999614,
                0.073039,
                0.08787736286274236,
                0.438575484943023,
                0.569697358125241,
                0.07271365530867598,
                0.07525000000000001,
                0.24823293480711703,
                0.023692953447666032,
                0.569697358125241,
                0.08523530291909434,
                0.5696973581252411,
                0.5696973581252411,
                0.7547383418919489,
                0.5696973581252411,
                0.5696973581252411,
                0.5696973581252411,
                0.5696973581252411,
                0.2192645925552771,
                0.2589893438747244,
                0.5696973581252411,
                0.14081784245576096,
                0.6376304964697538,
                1.0636549103809434,
                0.3629888742124905,
                0.5696973581252411,
                0.5696973581252411,
                0.5696973581252411,
                0.08473997718971898,
                0.5696973581252411,
                0.07525000000000001,
                0.569697358125241,
                0.07525013114778721,
                0.3348524839278456,
                0.5696973581252411,
                1.0636549103809436,
                0.24902621527604843,
                1.0636549103809436,
                0.4361653850729224,
                0.16959001040937438,
                0.37008712197825594,
                0.5696973581252411,
                0.5015067056062558,
                0.33233549440739174,
                1.0636549103809434,
                0.6959447581399539,
                0.4224369809163513,
                0.4212977791772516,
                0.5696973581252411,
                0.3209089376504895,
                0.07525032176871063,
                1.0590203989482672,
                0.3314535645253875,
                0.7286429964110559,
                0.12267138789134345,
                1.0636549103809434,
                0.19445156640144667,
                1.2373856238693708,
                0.49675533880386186,
                0.24471981084999397,
                0.008537678686336925,
                1.0636549103809434,
                0.2673035968704168,
                0.3852439302305838,
                0.6849635410472178,
                1.0636549103809434,
                0.5696973581252411,
                0.5696973581252411,
                0.14909458653395646,
                0.5696973581252411,
                0.5696973581252411,
                0.9715505732387607,
                0.4281942398678079,
                0.5696973581252411,
                0.5696973581252411,
                0.10627523741991303,
                0.28131179179325705,
                0.014855232187461542,
                0.5696973581252411,
                0.08523518728654494,
                0.10375583723194809,
                0.035743040183864316,
                0.3814659161872852,
                0.3728740665195498,
                1.0636549103809434,
                0.2700002730612759,
                0.5696973581252412,
                0.26689039388801317,
                0.07303900000000002,
                0.569697358125241,
                0.3468620560948519,
                0.27845672191067394,
                0.5696973581252411,
                0.3064423351419862,
                0.052998307649885744,
                0.8659598537845534,
                0.3840624012660026,
                0.569697358125241,
                1.0636549103809434,
                0.07303903719674117,
                0.569697358125241,
                0.5696973581252411,
                0.5696973581252411,
                0.2571329523584375,
                0.021410532562391615,
                0.005726681369288111,
                0.5696973581252412,
                1.1101151370448343,
                0.5183868660988362,
                0.5696973581252412,
                0.12376122284083485,
                0.08523568816330318,
                0.5696973581252411,
                1.0636549103809434,
                1.0636549103809432,
                0.46465952145617473,
                1.0636549103809436,
                1.0199987975157532,
                0.3587421587743257,
                0.5696973581252411,
                0.1434030654738586,
                0.5696973581252411,
                1.7702147165148299,
                0.43150392330240434,
                0.724703607077308,
                0.7810999213563641,
                0.41254666735858864,
                0.5696973581252411,
                1.0636549103809434,
                0.18352994409797252,
                0.5696973581252411,
                0.5696973581252411,
                1.0636549103809432,
                1.4052071163381914,
                0.5696973581252412,
                0.045363182462176965,
                0.15414389119503355,
                1.0636549103809434,
                0.4505794845554769,
                1.7702147165148299,
                1.0636549103809434,
                0.28041512318751827,
                0.7691648692352654,
                0.5696973581252411,
                0.569697358125241,
                0.2702755783986447,
                0.22923575035671576,
                0.16491462953927516,
                0.3212280317103378,
                1.0636549103809432,
                0.3460623835088248,
                1.7702147165148294,
                1.0636549103809434,
                0.08523540000000002,
                0.5696973581252411,
                0.5696973581252409,
                0.569697358125241,
                1.0636549103809434,
                0.06564832460228032,
                1.048088288288852,
                0.24704851890827717,
                0.062138013266666015,
                0.8040700170361771,
                0.5696973581252411,
                0.1395156006225049,
                0.330969745723719,
                0.5696973581252411,
                0.5696973581252411,
                0.5696973581252411,
                0.20447071370172362,
                0.5696973581252411,
                0.5696973581252411,
                0.36641564854230124,
                0.29037109227954416,
                0.2944845398860329,
                0.3902191719528708,
                1.0636549103809436,
                0.3245669894832242,
                1.0636549103809434,
                0.269765435826289,
                0.5696973581252411,
                0.24608505977989403,
                0.07525000000000001,
                0.5696973581252411,
                0.15075687819132755,
                0.569697358125241,
                1.0636549103809434,
                0.07525,
                0.7448709307621154,
                0.0849400555303863,
                0.02381100333321451,
                0.6138862593797576,
                1.0636549103809434,
                1.0636549103809434,
                0.39307315047703617,
                1.0636549103809432,
                0.569697358125241,
                1.0636549103809434,
                0.18523702415760407,
                0.42949541278929165,
                0.00515881938000784,
                0.5210515798169278,
                1.0636549103809434,
                0.5696973581252412,
                1.0636549103809432,
                0.08474046732727268,
                0.5696973581252411,
                0.20434749669022678,
                0.5696973581252411,
                0.2113956228273691,
                0.282580031360986,
                0.6250559645985483,
                0.16976801614185666,
                0.6809854524216774,
                0.3177961138955827,
                0.07303921690777808,
                0.5696973581252412,
                0.150841051282539,
                1.0636549103809434,
                0.5696973581252411,
                2.339912074640071,
                0.10944722374668224,
                0.08765549362878047,
                0.38855468798937587,
                0.6277664725204736,
                0.0852356580384109,
                0.5696973581252411,
                0.5696973581252411,
                1.0636549103809434,
                0.08523540698513841,
                0.3233707929663439,
                0.23597813229739317,
                1.0636549103809432,
                0.8287365233419612,
                0.569697358125241,
                0.2580945532529121,
                0.4428442376555604,
                0.04664958971719935,
                0.6105373999628502,
                0.07303902890159737,
                0.3629146800053047,
                0.13245421369965243,
                0.07303899999999999,
                0.07525015486216609,
                0.085235563346314,
                0.14993440938164238,
                0.5696973581252411,
                0.5696973581252411,
                0.5696973581252411,
                0.5696973581252411,
                0.569697358125241,
                0.0525235237160645,
                0.7167008720170044,
                1.0313607103809435,
                0.2683170824785508,
                0.005619006467473708,
                0.044721994464425485,
                0.569697358125241,
                0.5183757683507105,
                0.005153979751002513,
                0.21278317654860207,
                0.0673886407988653,
                0.677303905401474,
                0.2479687852150002,
                0.32811747525975565,
                0.2723273845207129,
                0.17183064723094513,
                0.40378461911966357,
                0.3119474174329654,
                0.11464144232988493,
                0.3034119685247677,
                0.5696973581252411,
                0.38640615811411666,
                0.1514261518399863,
                0.5258995897162809,
                0.35160528761143073,
                0.09058001118905046,
                0.4332860432978043,
                1.0636549103809434,
                0.5696973581252411,
                0.5060776473526245,
                0.07524999999999998,
                0.5965785758509291,
                0.5696973581252411,
                0.0852354,
                0.5410878581252412,
                0.27993089758750556,
                0.5696973581252412,
                0.6652628186649243,
                0.3261375711282306,
                0.5696973581252412,
                0.07525,
                0.5696973581252411,
                1.7702147165148299,
                0.2513172182696766,
                0.49511006602537977,
                0.38865263400634453,
                0.236301769423794,
                0.569697358125241,
                0.5696973581252411,
                0.7457548258410054
            ],
            "photocathode": [
                3803,
                7595,
                5911,
                728,
                2874,
                1466,
                1971,
                6468,
                7451,
                4083,
                5988,
                6667,
                3985,
                4915,
                7681,
                1991,
                7722,
                50,
                7531,
                7395,
                3912,
                2588,
                7597,
                4047,
                4321,
                5045,
                6445,
                4094,
                3069,
                1916,
                2005,
                7435,
                1669,
                630,
                5758,
                7307,
                7207,
                3984,
                4091,
                2305,
                2831,
                4136,
                7433,
                3957,
                4736,
                532,
                5469,
                3999,
                1271,
                7307,
                4104,
                5972,
                3915,
                1285,
                1993,
                762,
                3835,
                677,
                3950,
                4118,
                2755,
                1190,
                4072,
                2044,
                1201,
                2847,
                7441,
                2906,
                2122,
                1300,
                3968,
                3914,
                7289,
                2872,
                1959,
                742,
                524,
                7423,
                1213,
                1902,
                3815,
                2306,
                4008,
                3962,
                3844,
                3338,
                129,
                4114,
                3864,
                2860,
                3938,
                7713,
                4017,
                3981,
                4646,
                7501,
                5393,
                8769,
                7592,
                4111,
                3896,
                4001,
                3954,
                4062,
                3995,
                4135,
                4103,
                4034,
                780,
                7434,
                2273,
                7548,
                425,
                501,
                1710,
                3050,
                7518,
                383,
                4133,
                3475,
                7755,
                1820,
                300,
                456,
                4282,
                3592,
                7513,
                3928,
                3998,
                3949,
                4031,
                1292,
                77,
                312,
                3885,
                4100,
                694,
                7498,
                3886,
                7554,
                199,
                858,
                668,
                3995,
                3906,
                4028,
                4111,
                4146,
                1772,
                3834,
                4019,
                7296,
                7478,
                507,
                4009,
                7368,
                4324,
                7550,
                1573,
                3349,
                2691,
                3878,
                4087,
                22,
                43,
                3975,
                2064,
                4007,
                3859,
                1171,
                3900,
                3981,
                2167,
                3989,
                3271,
                7561,
                7364,
                3901,
                2680,
                4045,
                3282,
                3891,
                4034,
                668,
                1887,
                4363,
                3936,
                3887,
                7651,
                4919,
                3285,
                3184,
                4032,
                7669,
                7559,
                4019,
                2669,
                3985,
                3938,
                445,
                515,
                598,
                3112,
                4113,
                520,
                517,
                1719,
                178,
                3989,
                606,
                3975,
                4048,
                5404,
                3929,
                4001,
                3901,
                3893,
                1570,
                1811,
                3999,
                991,
                4417,
                7414,
                2478,
                3978,
                4153,
                4081,
                593,
                3945,
                536,
                3965,
                548,
                2389,
                4040,
                7388,
                1700,
                7526,
                3287,
                1204,
                2650,
                3942,
                3444,
                2317,
                7486,
                4877,
                2999,
                2977,
                4018,
                2321,
                498,
                7284,
                2300,
                5110,
                880,
                7704,
                1445,
                8514,
                3424,
                1840,
                62,
                7433,
                1925,
                2713,
                4807,
                7310,
                4043,
                3994,
                1029,
                4061,
                3978,
                7038,
                2960,
                4000,
                4069,
                786,
                2036,
                102,
                4008,
                569,
                742,
                257,
                2602,
                2616,
                7440,
                1984,
                4034,
                1830,
                529,
                3957,
                2406,
                1985,
                3995,
                2158,
                348,
                6042,
                2655,
                3955,
                7327,
                454,
                4016,
                4004,
                4075,
                1822,
                150,
                52,
                3986,
                7764,
                3547,
                3892,
                883,
                607,
                3984,
                7474,
                7434,
                3127,
                7393,
                7297,
                2448,
                3932,
                1016,
                3965,
                12209,
                3005,
                4944,
                5513,
                2838,
                3933,
                7487,
                1303,
                3978,
                4031,
                7432,
                10090,
                3958,
                311,
                1088,
                7581,
                3149,
                12246,
                7310,
                1940,
                5520,
                3979,
                4085,
                1799,
                1646,
                1174,
                2224,
                7520,
                2459,
                12923,
                7436,
                621,
                3973,
                3915,
                3974,
                7369,
                469,
                7391,
                1737,
                408,
                5599,
                4029,
                941,
                2308,
                4019,
                3789,
                3919,
                1395,
                4215,
                4057,
                2522,
                2108,
                2005,
                2757,
                7379,
                2288,
                7589,
                1830,
                3909,
                1822,
                528,
                4030,
                1035,
                3944,
                7570,
                496,
                5232,
                600,
                156,
                4478,
                7448,
                7508,
                2793,
                7600,
                3940,
                7375,
                1272,
                2947,
                38,
                3642,
                7392,
                3889,
                7583,
                621,
                3989,
                1373,
                4052,
                1523,
                1957,
                4262,
                1163,
                5018,
                2284,
                480,
                3933,
                1095,
                7501,
                3886,
                16383,
                763,
                629,
                2748,
                4347,
                601,
                4047,
                3930,
                7415,
                635,
                2279,
                1605,
                7437,
                5787,
                3975,
                1813,
                3087,
                318,
                4225,
                524,
                2593,
                945,
                522,
                496,
                613,
                1054,
                3996,
                4064,
                3931,
                3890,
                4029,
                361,
                5087,
                7174,
                1899,
                48,
                330,
                4105,
                3641,
                40,
                1498,
                442,
                4877,
                1859,
                2212,
                1895,
                1294,
                2979,
                2222,
                844,
                2182,
                4004,
                2746,
                1031,
                3767,
                2545,
                590,
                2911,
                7508,
                4030,
                3407,
                533,
                4229,
                4070,
                612,
                3842,
                1977,
                3997,
                4606,
                2159,
                3917,
                546,
                4011,
                12623,
                1771,
                3521,
                2630,
                1640,
                4054,
                3855,
                5425
            ]
        },
        "detections": 500,
        "events": 57821
    }
}