{
    "job_args": {
        "metric_limit": 500,
        "seed": 1356699275
    },
    "job_id": "batch_144_do_500",
    "result": {
        "collections": {
            "crystal": [
                0.569697358125241,
                0.5696973581252411,
                0.35950592180349866,
                1.0636549103809432,
                1.0636549103809434,
                0.5189217444291792,
                1.0636549103809434,
                1.0636549103809432,
                0.5696973581252411,
                1.0636549103809434,
                1.0636549103809436,
                0.5696973581252411,
                0.28387185759875944,
                1.0636549103809434,
                0.2069155367288102,
                0.046943499999999985,
                0.6698564055809898,
                1.0636549103809434,
                0.5696973581252412,
                1.0636549103809432,
                0.5696973581252411,
                0.5696973581252411,
                0.1513687475427853,
                1.0636549103809434,
                0.038161441607687197,
                0.5696973581252411,
                0.5696973581252411,
                0.44645544873011545,
                0.182136108296973,
                0.43757067336736144,
                0.4139186246803173,
                0.5696973581252411,
                0.011423346360118936,
                0.234859117683572,
                0.5696973581252411,
                0.21572709535306345,
                1.0636549103809434,
                0.2886115710130526,
                0.8232757799240795,
                1.0636549103809434,
                0.04875886156568643,
                0.0005880797890402967,
                0.06480995882200646,
                0.09692752239114022,
                1.3928367637422587,
                0.5696973581252411,
                1.4008813909690967,
                0.8052486807022695,
                0.5696973581252412,
                0.5696973581252411,
                0.0752498551627333,
                0.1457535651028607,
                1.0636549103809432,
                0.5696973581252411,
                1.384632008463841,
                0.5696973581252411,
                1.7702147165148299,
                0.569697358125241,
                0.07525,
                0.0858011071569589,
                1.0065191699724891,
                0.5696973581252411,
                0.3679851534611447,
                0.05674468529810861,
                0.5696973581252411,
                0.5696973581252411,
                0.3980882334123541,
                1.0636549103809436,
                0.5696973581252412,
                0.7561617073994868,
                0.5696973581252411,
                0.5696973581252411,
                0.5696973581252411,
                0.2588956910227423,
                0.5696973581252412,
                0.28223776821014057,
                0.32231679944646,
                0.5696973581252411,
                1.0636549103809432,
                0.5696973581252411,
                0.569697358125241,
                0.3719463519927846,
                0.5696973581252411,
                0.5696973581252412,
                1.0636549103809434,
                0.08523568926223202,
                0.21629619373323272,
                0.4927462414912632,
                0.5273889449033395,
                1.0636549103809432,
                0.5696973581252412,
                0.5242085516538677,
                0.2732275667175957,
                0.4379472848152558,
                0.6654066236857945,
                0.3507869050327298,
                0.47178277290650505,
                1.0636549103809432,
                0.6856529288524469,
                0.5696973581252411,
                0.18994941278183541,
                1.0636549103809434,
                1.0636549103809436,
                0.5696973581252411,
                0.5696973581252411,
                0.5696973581252412,
                1.0636549103809436,
                0.5696973581252411,
                0.2832089856314192,
                0.4345448900609524,
                0.3901050946082465,
                0.5696973581252411,
                0.188198973358141,
                0.4016074055899881,
                0.19951185482015243,
                1.0636549103809434,
                0.42579501451334356,
                0.5656712588776541,
                0.06811315042985276,
                0.24217437222166788,
                1.0636549103809434,
                0.4527433584844224,
                0.2512399255560064,
                0.20978737680212425,
                0.5696973581252411,
                0.7715881875201959,
                0.42664152950852974,
                0.31842580504925405,
                0.563398048465559,
                0.09538663956930221,
                0.5696973581252412,
                0.5696973581252411,
                0.03441818966754451,
                0.10621198284164113,
                0.5696973581252412,
                0.5696973581252411,
                1.0636549103809434,
                1.0636549103809434,
                0.8232616975308634,
                0.5696973581252411,
                0.2235317074247291,
                0.073039,
                0.5696973581252412,
                0.5696973581252411,
                0.5696973581252411,
                0.09891690029134764,
                0.5696973581252411,
                0.569697358125241,
                0.5696973581252411,
                1.0636549103809434,
                0.269784932694782,
                0.22751280511838157,
                0.5696973581252411,
                0.520558724329791,
                0.5696973581252411,
                1.0636549103809434,
                0.5696973581252411,
                0.5696973581252411,
                0.49969600912320394,
                0.11020434479779098,
                0.1104049023060203,
                0.08523539999999999,
                0.6634028017466697,
                1.77021471651483,
                1.0636549103809434,
                0.5696973581252411,
                0.569697358125241,
                0.07303913246852353,
                1.0636549103809432,
                0.5152938625637346,
                1.0636549103809434,
                0.5696973581252411,
                0.1944215717135422,
                0.34198678752262057,
                0.5469264909692915,
                0.3400331342677485,
                1.0636549103809434,
                0.22137286250081112,
                1.0636549103809434,
                1.0636549103809434,
                1.0636549103809434,
                0.569697358125241,
                0.39571848061594217,
                0.5696973581252411,
                0.6531339493672628,
                0.5335327305976034,
                1.0636549103809434,
                0.008641252893111906,
                0.003662514426886476,
                0.0876554673922526,
                0.28573623368527157,
                1.0636549103809436,
                1.2751513558023084,
                0.5696973581252411,
                1.0636549103809434,
                1.0636549103809434,
                0.5696973581252412,
                0.5156364954616225,
                0.5696973581252411,
                0.021638355677534582,
                1.0636549103809434,
                1.0636549103809434,
                1.0636549103809432,
                0.2933784444920209,
                0.5696973581252411,
                0.037748329710177386,
                1.0187409951439823,
                0.03647657987353403,
                0.2771893673471394,
                0.22500792443539444,
                0.7523362301852319,
                0.3129987437650127,
                0.24781960609791479,
                0.7966513979957256,
                0.5526713254170036,
                0.10493040359438754,
                1.5280367079765684,
                0.24582096639536832,
                0.282214121094051,
                0.0589245,
                0.04033670935807965,
                0.6554489810618531,
                0.5696973581252412,
                0.28336347202796475,
                0.07525005167545205,
                0.5696973581252411,
                0.5696973581252411,
                0.6687586767510063,
                0.2144251726069421,
                0.5357301523965675,
                0.5696973581252411,
                0.18005346156699742,
                0.20699188023149862,
                0.28408221654197713,
                0.31551408142215626,
                0.7975005116388211,
                0.5696973581252412,
                1.0636549103809434,
                0.360922314523759,
                0.5696973581252412,
                0.5696973581252412,
                0.5696973581252411,
                0.49641530633066444,
                0.5696973581252411,
                0.08753401332670399,
                0.3601191660952269,
                0.07524949756533852,
                0.22590909082764477,
                0.5696973581252411,
                0.07525000000000001,
                0.24320056281241137,
                0.5052860828505261,
                0.5696973581252411,
                0.08606916537726661,
                0.13873012358585785,
                1.0636549103809434,
                0.20624139069582492,
                1.0636549103809434,
                0.3588232590663045,
                1.0636549103809436,
                1.0636549103809434,
                1.0636549103809434,
                0.5696973581252411,
                0.3631354015244352,
                0.07309957866608552,
                0.5578581179474127,
                0.3107602334625253,
                0.5696973581252411,
                1.0636549103809434,
                0.5696973581252411,
                0.04300472351185625,
                0.025016194482654353,
                0.03317047904578452,
                0.5696973581252411,
                0.8535457571413089,
                0.1980470738258035,
                0.5696973581252411,
                0.6992244490650521,
                0.073039,
                1.0636549103809434,
                0.8833531507645163,
                0.6618729351562821,
                0.569697358125241,
                1.0636549103809434,
                0.5696973581252411,
                0.08474069999999999,
                1.0636549103809432,
                1.0636549103809436,
                0.4509738617748765,
                0.5301197054025694,
                0.5696973581252411,
                0.1558632242914732,
                0.2078374843173691,
                1.0636549103809434,
                0.5778315480778498,
                0.2531323768711474,
                0.6972034487239216,
                0.6035346529507188,
                0.5696973581252409,
                0.021405828312147324,
                0.43471233426994277,
                0.5696973581252412,
                0.6879269058943509,
                0.2284502507665977,
                1.0636549103809432,
                1.0636549103809436,
                1.0636549103809434,
                0.2809475051499902,
                0.5810548760192191,
                1.77021471651483,
                0.5696973581252411,
                0.29406933201444596,
                0.5696973581252411,
                0.5696973581252411,
                0.005802167447641171,
                1.0636549103809434,
                0.1843067631728479,
                0.5696973581252411,
                0.42079062624716435,
                1.0636549103809434,
                0.22888543250256804,
                0.04846561797915161,
                0.5696973581252411,
                0.05293082197100895,
                1.0636549103809434,
                0.3744394033820746,
                1.0636549103809434,
                0.25764007323996596,
                1.0636549103809434,
                0.01371610629696729,
                1.0636549103809436,
                0.34922989639569385,
                0.382379327741128,
                0.5696973581252412,
                0.5696973581252412,
                0.29311624318243895,
                1.0636549103809434,
                1.0636549103809434,
                0.30958329932415574,
                0.16123457543546063,
                0.04573176170691806,
                1.0636549103809434,
                0.5696973581252411,
                0.21235207076026785,
                0.569697358125241,
                1.0636549103809432,
                0.2564067437216621,
                0.5696973581252411,
                0.23579873335751766,
                0.21601613306511264,
                1.0636549103809434,
                0.5696973581252412,
                0.12527092724414773,
                0.5696973581252411,
                0.5696973581252411,
                0.48551831755301533,
                0.5696973581252411,
                1.0636549103809434,
                0.5696973581252411,
                0.5696973581252411,
                0.5696973581252411,
                1.0636549103809434,
                0.07524989490698457,
                0.7951206143298877,
                0.5696973581252412,
                1.0636549103809434,
                0.5696973581252412,
                0.8521989308043864,
                0.5696973581252411,
                0.09637970545200752,
                0.6934806512199727,
                0.23021728579321024,
                0.3002924343108667,
                0.47349486452079953,
                0.5696973581252412,
                1.0636549103809432,
                1.0636549103809434,
                0.89458418264131,
                0.49492371170005744,
                0.5696973581252411,
                0.42369583922061627,
                0.33263889255021145,
                1.0636549103809432,
                1.3870269370945763,
                0.5696973581252411,
                0.4145616228225269,
                0.3695286799772151,
                0.5696973581252411,
                0.5696973581252411,
                0.2754637341520493,
                0.2770788065734162,
                0.5696973581252411,
                0.49951965533271914,
                0.3844817300351877,
                0.07525014827100591,
                0.32045812947155,
                0.07525009913991128,
                0.5696973581252411,
                0.7172248230511261,
                0.5333101450650968,
                0.11647735012109761,
                0.9760907870254478,
                0.8042720943086898,
                0.3495527838047813,
                0.30631087330828416,
                0.4357213952234518,
                0.5918438445501485,
                1.241041411717032,
                0.27311153078022066,
                0.5696973581252411,
                0.7853423594075231,
                0.18232274774282464,
                0.5696973581252411,
                0.5696973581252412,
                0.5696973581252412,
                1.0636549103809434,
                0.8254240680526159,
                0.27985629691273467,
                0.08841404944351966,
                1.0386059810929567,
                1.0636549103809432,
                0.5696973581252411,
                1.0636549103809434,
                0.0778855785822393,
                0.11333465488634137,
                0.09746414230814199,
                0.6044659073835479,
                1.0636549103809434,
                1.0636549103809434,
                1.0636549103809434,
                0.2211178998628888,
                0.5696973581252411,
                1.0636549103809436,
                0.569697358125241,
                0.7234459299867767,
                0.5696973581252412,
                0.7727100600975964,
                0.5696973581252411,
                0.30615972717307655,
                0.5696973581252412,
                0.07944243992022235,
                1.0636549103809434,
                1.0636549103809434,
                0.5696973581252411,
                0.22245653750631283,
                0.5696973581252411,
                0.2471614896035489,
                0.25598375656254546,
                0.2408510846729049,
                0.7440073028806619,
                0.0911077672994512,
                0.04841893654770196,
                0.5696973581252412,
                0.2520165485721203,
                1.7702147165148296,
                0.5696973581252411,
                1.0636549103809434,
                0.23834558289209423,
                0.7937135064871627,
                0.569697358125241,
                0.003565101003596749,
                0.29404376146394434,
                0.5696973581252411,
                0.3517708885458733,
                0.22527217584843054,
                0.31865858111726364,
                0.4689870070852154,
                0.6683385462106177,
                0.3689400002500021,
                1.0636549103809432,
                0.40232563702490876,
                0.569697358125241,
                0.07524999999999998,
                0.5696973581252412,
                1.0636549103809434,
                0.2859794298076048,
                0.1822909067136273,
                0.2939712545886437,
                1.0636549103809434,
                0.1572383908367103,
                0.024337653303485612,
                0.5696973581252411,
                0.5287512335948015,
                0.5696973581252411,
                0.2921621905164336,
                0.8858535315116705,
                0.5696973581252411,
                0.09422756155654448,
                0.19704635981821045,
                1.0636549103809434,
                0.5696973581252411,
                0.569697358125241,
                0.7951203081615299,
                0.139442132701742,
                0.36172033778220547,
                0.044429398760156766,
                1.0636549103809434,
                0.5696973581252411,
                1.0636549103809432,
                0.3853529367243318
            ],
            "photocathode": [
                4182,
                3929,
                2526,
                7419,
                7458,
                3560,
                7565,
                7685,
                4009,
                7506,
                7355,
                3980,
                1987,
                7233,
                1438,
                337,
                4890,
                7590,
                4031,
                7509,
                4124,
                3923,
                1083,
                7359,
                270,
                3922,
                4103,
                3073,
                1261,
                3137,
                3019,
                3988,
                65,
                1631,
                3932,
                1482,
                7553,
                2051,
                5886,
                7504,
                346,
                1,
                447,
                671,
                9850,
                3935,
                9792,
                5545,
                3932,
                4043,
                576,
                1073,
                7312,
                4046,
                9822,
                4129,
                12489,
                3984,
                481,
                593,
                7104,
                4056,
                2627,
                375,
                4046,
                4163,
                2877,
                7384,
                4153,
                5294,
                3987,
                4063,
                4002,
                1862,
                3994,
                2027,
                2321,
                3963,
                7647,
                4163,
                3922,
                2700,
                3956,
                3946,
                7543,
                595,
                1483,
                3439,
                3688,
                7524,
                4065,
                3665,
                1877,
                3054,
                4586,
                2495,
                3303,
                7595,
                4865,
                3848,
                1300,
                7420,
                7448,
                3959,
                3949,
                3976,
                7403,
                4052,
                2023,
                2895,
                2789,
                4124,
                1340,
                2862,
                1394,
                7453,
                2979,
                3988,
                451,
                1752,
                7644,
                3164,
                1785,
                1442,
                3916,
                5535,
                2879,
                2106,
                3919,
                705,
                3992,
                4085,
                237,
                771,
                4108,
                3968,
                7464,
                7651,
                5738,
                3944,
                1479,
                542,
                3929,
                3861,
                4016,
                754,
                3964,
                4117,
                3951,
                7428,
                1881,
                1626,
                4041,
                3551,
                4074,
                7232,
                4071,
                3948,
                3574,
                790,
                737,
                617,
                4512,
                12268,
                7386,
                4055,
                3901,
                542,
                7420,
                3627,
                7659,
                4009,
                1338,
                2414,
                3774,
                2369,
                7385,
                1647,
                7396,
                7463,
                7512,
                3966,
                2774,
                4065,
                4454,
                3645,
                7622,
                53,
                34,
                591,
                1992,
                7471,
                8863,
                3950,
                7335,
                7538,
                3963,
                3654,
                4061,
                148,
                7517,
                7580,
                7453,
                2078,
                4031,
                259,
                7101,
                281,
                2035,
                1606,
                5310,
                2188,
                1701,
                5582,
                3906,
                684,
                11112,
                1761,
                2043,
                421,
                244,
                4615,
                4041,
                2021,
                505,
                4086,
                3907,
                4731,
                1562,
                3849,
                4004,
                1282,
                1444,
                2024,
                2221,
                5452,
                3909,
                7496,
                2473,
                4004,
                3894,
                4010,
                3447,
                4120,
                598,
                2509,
                510,
                1565,
                3942,
                489,
                1728,
                3599,
                3884,
                615,
                1005,
                7439,
                1450,
                7306,
                2515,
                7441,
                7508,
                7236,
                4033,
                2521,
                469,
                3920,
                2233,
                4056,
                7397,
                4292,
                321,
                158,
                240,
                3953,
                5891,
                1432,
                3996,
                5045,
                485,
                7462,
                6409,
                4671,
                4002,
                7491,
                3957,
                609,
                7420,
                7524,
                3062,
                3657,
                3905,
                1063,
                1429,
                7703,
                4082,
                1897,
                4978,
                4280,
                4095,
                162,
                2966,
                4039,
                4821,
                1689,
                7231,
                7577,
                7335,
                1935,
                3993,
                12485,
                3991,
                2080,
                3918,
                3883,
                42,
                7329,
                1255,
                3980,
                2921,
                7625,
                1563,
                322,
                4059,
                393,
                7312,
                2476,
                7783,
                1851,
                7694,
                89,
                7336,
                2489,
                2693,
                3953,
                3923,
                2101,
                7427,
                7257,
                2161,
                1120,
                293,
                7349,
                3902,
                1534,
                3984,
                7588,
                1792,
                3967,
                1716,
                1496,
                7408,
                3982,
                852,
                3935,
                4040,
                3378,
                4034,
                7628,
                4064,
                3959,
                3916,
                7574,
                491,
                5647,
                3944,
                7519,
                3996,
                5844,
                4017,
                620,
                4922,
                1649,
                2221,
                3245,
                4033,
                7629,
                7465,
                6356,
                3423,
                4036,
                2910,
                2339,
                7822,
                9567,
                3987,
                2884,
                2528,
                4188,
                3887,
                1966,
                1966,
                3940,
                3666,
                2780,
                557,
                2219,
                570,
                3928,
                5074,
                3786,
                853,
                6998,
                5618,
                2454,
                2178,
                3069,
                4170,
                8888,
                1951,
                4032,
                5392,
                1307,
                4007,
                4142,
                4035,
                7417,
                5777,
                1894,
                585,
                7263,
                7474,
                3997,
                7447,
                567,
                813,
                679,
                4254,
                7765,
                7387,
                7455,
                1473,
                4030,
                7495,
                3962,
                5124,
                4080,
                5420,
                3990,
                2182,
                3977,
                608,
                7562,
                7608,
                3938,
                1521,
                4043,
                1731,
                1811,
                1646,
                5220,
                644,
                339,
                3960,
                1795,
                12328,
                3908,
                7614,
                1646,
                5477,
                3807,
                29,
                2025,
                3985,
                2371,
                1606,
                2273,
                3395,
                4776,
                2516,
                7316,
                2846,
                4060,
                513,
                3957,
                7418,
                2052,
                1314,
                2031,
                7388,
                1118,
                163,
                3984,
                3667,
                3956,
                2101,
                6142,
                3875,
                666,
                1390,
                7474,
                4076,
                4026,
                5551,
                949,
                2547,
                322,
                7507,
                4136,
                7468,
                2681
            ]
        },
        "detections": 500,
        "events": 57128
    }
}