{
    "job_args": {
        "metric_limit": 500,
        "seed": 1118255843
    },
    "job_id": "batch_141_do_500",
    "result": {
        "collections": {
            "crystal": [
                0.7085882681861229,
                1.0636549103809434,
                0.5696973581252411,
                0.5696973581252411,
                1.0636549103809434,
                0.07524987896284374,
                0.5696973581252411,
                0.27387518382504483,
                0.07525,
                1.0636549103809434,
                0.09910989312721546,
                0.569697358125241,
                0.3172773781899487,
                1.0636549103809432,
                0.5110584468213482,
                0.36507822502365495,
                0.2247476945638418,
                1.0636549103809434,
                0.21902060352772845,
                0.5696973581252411,
                0.293528002378974,
                0.44238045186647595,
                0.5696973581252411,
                0.5696973581252411,
                0.16097582991279952,
                0.5696973581252411,
                0.017527163177155747,
                0.3907251657356828,
                1.235829288378903,
                0.3870563025535063,
                0.3649301882876176,
                1.0636549103809434,
                0.06520181915336098,
                0.544749872630935,
                0.03784020096882024,
                0.5696973581252411,
                0.3188173961674954,
                0.8095983849925602,
                0.8859929363468434,
                0.21723609102810676,
                0.22699065878802605,
                0.30254980420225663,
                0.5457759233194148,
                1.0636549103809434,
                0.45806984617853463,
                0.5696973581252411,
                0.7484382812637844,
                0.5696973581252411,
                0.24290653458344694,
                1.0636549103809436,
                0.5696973581252411,
                1.0636549103809436,
                0.1489978692355835,
                0.8270628397228942,
                0.07524999999999998,
                0.8160142773682144,
                0.7990283960583068,
                0.09564912462023689,
                0.569697358125241,
                0.42288769628082795,
                0.4238469767574061,
                1.0636549103809434,
                0.30157287347222633,
                0.7857527230695991,
                0.2444808598990018,
                0.024918063741439345,
                1.0636549103809434,
                0.41147457040160795,
                0.5696973581252411,
                0.4323068796566727,
                0.07525,
                1.0636549103809434,
                0.05193064219584931,
                0.24506804570958587,
                0.5696973581252411,
                0.5696973581252411,
                0.43518449804740134,
                0.5696973581252412,
                0.27873834667209396,
                0.3938272895856009,
                0.023297331411776142,
                0.4854755069310116,
                0.08901146616533517,
                0.25926606800940843,
                0.31238558177130005,
                0.41580826238192914,
                0.6680686716933213,
                0.13252278979739848,
                0.5696973581252411,
                0.5696973581252412,
                1.2352953673184057,
                0.5696973581252411,
                0.2725914106158687,
                0.3369971041493236,
                1.0636549103809432,
                1.0636549103809434,
                0.04044725118865078,
                0.44870920475015386,
                0.5908491319036041,
                0.6080945750181639,
                0.5696973581252411,
                1.0636549103809434,
                0.06419211764941879,
                0.4282823688748031,
                0.5696973581252414,
                0.5696973581252411,
                0.2792908909199363,
                1.0636549103809434,
                0.6953367582956441,
                1.0636549103809432,
                0.49075346842478773,
                0.5696973581252412,
                0.569697358125241,
                1.7702147165148296,
                0.006481758613773092,
                0.08474045356231757,
                0.5696973581252411,
                0.32162876802155,
                0.5696973581252411,
                0.08474080337044841,
                0.5696973581252411,
                0.864113630413196,
                0.33099674283205616,
                0.15153838699655886,
                0.24304244469790565,
                0.5696973581252411,
                0.5696973581252411,
                0.3603407218265783,
                0.22067992428898064,
                0.5239182795340749,
                1.0636549103809436,
                0.5696973581252411,
                0.4070611964176769,
                0.7434664102501316,
                0.3253362343859658,
                0.3443535673859831,
                0.2120014153787123,
                0.5696973581252411,
                0.04841431626772025,
                0.7583553701760493,
                0.5696973581252411,
                0.3823665801271903,
                0.5878175299822955,
                0.073039,
                0.5696973581252411,
                0.39069767185758775,
                0.5696973581252411,
                0.07524985961203057,
                0.08474071657976755,
                0.5696973581252411,
                1.0636549103809434,
                0.37845001437380726,
                0.40839681702870506,
                1.0636549103809436,
                1.0636549103809436,
                0.5696973581252411,
                0.3877037311904762,
                0.5696973581252411,
                0.23232324175875485,
                0.5696973581252412,
                0.2917495742629989,
                0.5696973581252411,
                1.0636549103809436,
                0.2855762479581554,
                0.0847407,
                0.3714218655691981,
                0.3980511207135139,
                0.09714301810198676,
                1.0636549103809434,
                0.29282556490977585,
                0.2580355485369325,
                0.3380222898679137,
                1.0636549103809434,
                0.1770108824138601,
                0.5607063858738124,
                0.07303900000000002,
                0.505852798267101,
                0.5696973581252411,
                0.8630438201588557,
                1.1268229148182414,
                0.7583150879964813,
                0.45113655264628066,
                0.5696973581252411,
                0.5696973581252411,
                0.9759765851497636,
                1.0636549103809434,
                0.795711565131866,
                0.5696973581252411,
                0.1598464136292772,
                0.4099760075656969,
                0.8828391679019217,
                0.5696973581252412,
                0.5696973581252411,
                0.5696973581252411,
                1.0636549103809434,
                0.569697358125241,
                0.5696973581252411,
                0.7173486041636108,
                0.11933726080042545,
                1.0636549103809434,
                0.5696973581252411,
                0.7217648035157272,
                0.07525023430730003,
                0.3330369665639915,
                0.4624548696451862,
                0.41274193027834155,
                0.5696973581252411,
                1.0636549103809432,
                0.5696973581252411,
                1.0636549103809434,
                0.33868003887747106,
                0.5696973581252411,
                0.3308134790933471,
                0.11359776432934311,
                0.6773621598501838,
                0.07524996582476257,
                0.36376945543961015,
                0.5696973581252411,
                0.06854115501016655,
                0.6481239561980433,
                0.569697358125241,
                0.5696973581252411,
                0.07524999999999998,
                1.0353484103809434,
                0.5696973581252411,
                0.8238775290210123,
                1.0636549103809434,
                0.569697358125241,
                0.0876557,
                1.0636549103809432,
                0.013641488499261167,
                1.0636549103809434,
                0.0876557,
                0.13950607872212167,
                0.5649950110722557,
                0.4221313253155685,
                0.13415373412372195,
                0.6200617561783335,
                0.5696973581252411,
                0.8095308382600572,
                0.5696973581252411,
                0.5696973581252409,
                0.1321968781317927,
                0.0956386145781909,
                0.47045962601222674,
                0.043295653740062966,
                0.37801144593354497,
                0.5696973581252411,
                0.569697358125241,
                0.5696973581252412,
                1.0636549103809434,
                0.19922394253909684,
                0.04997962907473219,
                0.542736459183095,
                0.5607781819915906,
                0.046943430131561284,
                0.5696973581252411,
                0.4582129347002512,
                0.5696973581252411,
                0.1125658806583959,
                0.8134674356545709,
                1.0636549103809434,
                0.2962298479301218,
                0.15972115217404825,
                0.338400654634173,
                0.6762613089495363,
                1.0636549103809434,
                0.24724211968726512,
                0.704942955249213,
                1.0636549103809434,
                0.5696973581252411,
                1.0636549103809434,
                0.4580270145561698,
                0.5192194102700634,
                0.6232630091234728,
                0.17962375514723578,
                0.5696973581252412,
                0.6158804582497663,
                0.5571821713465415,
                0.5271881142872975,
                0.2896234188024546,
                0.050664968588831405,
                0.3877906567661076,
                0.06482229768234866,
                0.5696973581252412,
                0.19858395981910837,
                0.3377151016794759,
                0.007469454522129659,
                1.0636549103809434,
                0.3090375761361693,
                0.39778202931987283,
                0.0852354,
                0.17780325433507535,
                1.0636549103809434,
                0.24067130613013912,
                0.5696973581252411,
                0.5013003186457798,
                0.10912188692056451,
                0.8444607458989267,
                0.2815138534964108,
                0.5696973581252411,
                0.7081865310171296,
                0.044429500000000004,
                0.48431790940170116,
                0.7419625029349025,
                1.0636549103809436,
                0.5696973581252412,
                1.0636549103809434,
                0.0852349749431755,
                0.3853900851961761,
                0.3742430445454219,
                0.2447090987191121,
                1.0636549103809434,
                0.2350436656645022,
                0.073039,
                0.5696973581252411,
                1.0636549103809434,
                0.5696973581252411,
                0.19883250391191054,
                0.569697358125241,
                0.7170760365533875,
                0.08154479455587949,
                0.5696973581252411,
                0.44950486864299427,
                0.21779165162828995,
                0.5696973581252411,
                0.2536112422466993,
                0.569697358125241,
                0.3758925159108233,
                0.5696973581252411,
                0.12271800694470442,
                1.0636549103809434,
                0.5696973581252411,
                0.5696973581252411,
                0.23552610364013582,
                0.4375637089477174,
                0.3818900408473286,
                0.8639448547520939,
                0.5696973581252411,
                0.330776209346339,
                0.1495758194017786,
                1.0636549103809434,
                0.38615165072890667,
                1.0636549103809434,
                0.5696973581252412,
                0.5696973581252411,
                0.5696973581252411,
                0.038212963171043945,
                1.0636549103809434,
                0.06640973076235539,
                0.569697358125241,
                0.35327458198582534,
                0.07525005158621957,
                1.0636549103809434,
                0.45843835096707614,
                0.22191448173600226,
                0.5095930984245571,
                0.5696973581252411,
                0.7032044128050491,
                0.7903860056214305,
                0.11880357365383931,
                1.0636549103809434,
                0.5696973581252412,
                0.08523511322701521,
                0.16396745785133893,
                0.1663779343074996,
                0.5696973581252411,
                0.3549610713598797,
                0.14984681926909005,
                0.8625289656105964,
                0.23652633714235605,
                0.5696973581252411,
                1.0636549103809434,
                0.2211593361202513,
                0.4790341720050706,
                0.3847374859554771,
                0.24417973573430626,
                1.0636549103809434,
                1.0636549103809434,
                0.5696973581252411,
                0.5696973581252411,
                0.5131736326575518,
                1.0260777834887238,
                0.42381039641942175,
                0.6028229501333273,
                0.3360764781075067,
                0.5696973581252411,
                1.0636549103809434,
                0.5043927254264439,
                0.5335133245785207,
                0.5175173769610061,
                0.024020080013869904,
                0.5696973581252411,
                1.0636549103809432,
                1.0636549103809436,
                0.5038169584305294,
                0.3592643269869599,
                0.22127592710480426,
                0.6195779461475835,
                0.32612058745506317,
                0.5696973581252411,
                0.5077659721229849,
                0.2197360394148044,
                0.025156837586674197,
                0.5021745986513468,
                0.6848246188976181,
                0.5696973581252411,
                0.5696973581252412,
                0.3709283198024853,
                0.23374722551135405,
                0.07303900000000002,
                0.5696973581252411,
                0.07303878209205761,
                0.0847407,
                0.5696973581252411,
                1.0636549103809434,
                1.6055890160922186,
                0.27174442756001016,
                1.0636549103809434,
                0.8097701606630776,
                0.0847407,
                0.569697358125241,
                0.569697358125241,
                0.0876556346719437,
                0.5696973581252411,
                0.5696973581252411,
                0.08523545719603177,
                0.20396765916709292,
                0.6240004104472445,
                0.5735686016082697,
                0.42438392704609906,
                1.0636549103809434,
                0.3871660351791432,
                0.08635389998839696,
                0.5499543400670939,
                0.5696973581252411,
                1.1249848575509294,
                0.34649110529956006,
                0.46165791184384575,
                0.3237952785584508,
                0.5422906109595421,
                0.5696973581252411,
                1.0636549103809434,
                0.7987745333452357,
                0.8399537685847783,
                0.17903913824696524,
                0.2530839606631042,
                0.253950693871207,
                1.0636549103809434,
                0.175232608799758,
                0.34547007694422627,
                0.7650075875857109,
                0.1186900937122346,
                0.5696973581252411,
                0.5696973581252411,
                0.5696973581252411,
                1.0636549103809434,
                0.5696973581252411,
                0.05414367818440324,
                0.5696973581252411,
                1.0636549103809434,
                0.5696973581252411,
                0.31329516119431533,
                0.46212517494825844,
                0.41568604292832523,
                0.03110422268747759,
                0.12660739553832653,
                0.294937962833663,
                0.569697358125241,
                0.3208695444610668,
                0.5936090720172016,
                1.0636549103809432,
                0.7965934618039603,
                0.6728008786267646,
                0.0566259,
                0.5696973581252411,
                0.2499664086313125,
                0.07524995910441316,
                0.5696973581252411,
                0.5696973581252412,
                1.0636549103809434,
                0.3391087489086314,
                0.5696973581252411,
                0.07303911130067242,
                0.4958359496742786,
                0.5696973581252411,
                0.6329000862723104,
                1.0636549103809436,
                0.11055074096326266,
                0.29642265167168474,
                0.5696973581252411,
                0.5696973581252411,
                0.7731726196432165,
                0.22967410064235394,
                0.49353997241073205,
                0.5696973581252411,
                0.3107478048095669,
                0.5525220430290891,
                0.07525,
                0.8170963882024228
            ],
            "photocathode": [
                4828,
                7537,
                3907,
                4024,
                7666,
                526,
                3908,
                1912,
                568,
                7491,
                719,
                3936,
                2258,
                7421,
                3457,
                2562,
                1530,
                7325,
                1579,
                3999,
                2096,
                2995,
                4068,
                4016,
                1183,
                4033,
                134,
                2869,
                8630,
                2696,
                2493,
                7400,
                448,
                3864,
                211,
                4025,
                2185,
                5694,
                6185,
                1466,
                1553,
                2082,
                3831,
                7333,
                3308,
                3941,
                5277,
                3939,
                1771,
                7468,
                4016,
                7595,
                1045,
                5706,
                542,
                5893,
                5697,
                651,
                4101,
                3057,
                2980,
                7573,
                2220,
                5411,
                1792,
                164,
                7427,
                2890,
                4133,
                3020,
                540,
                7416,
                366,
                1773,
                4049,
                3987,
                2985,
                4052,
                1996,
                2764,
                157,
                3394,
                623,
                1823,
                2355,
                2965,
                4815,
                890,
                3933,
                4071,
                8623,
                3957,
                1872,
                2355,
                7377,
                7490,
                282,
                3155,
                4120,
                4237,
                4074,
                7506,
                435,
                3008,
                4054,
                4047,
                1945,
                7380,
                4943,
                7333,
                3467,
                3877,
                3991,
                12626,
                43,
                516,
                4051,
                2255,
                4044,
                652,
                3978,
                5980,
                2385,
                1079,
                1651,
                3824,
                4067,
                2590,
                1584,
                3833,
                7461,
                3999,
                2832,
                5367,
                2291,
                2382,
                1461,
                3948,
                342,
                5283,
                3983,
                2619,
                4228,
                503,
                3979,
                2740,
                3965,
                520,
                577,
                4055,
                7601,
                2721,
                2813,
                7402,
                7304,
                4091,
                2685,
                3917,
                1627,
                3987,
                2024,
                3935,
                7480,
                2008,
                586,
                2623,
                2789,
                696,
                7398,
                2156,
                1764,
                2379,
                7442,
                1301,
                3959,
                560,
                3607,
                3988,
                6074,
                7855,
                5598,
                3131,
                3975,
                3869,
                6999,
                7504,
                5721,
                3990,
                1092,
                2903,
                6271,
                3992,
                4017,
                4004,
                7465,
                4021,
                4039,
                5168,
                887,
                7254,
                3942,
                5086,
                497,
                2330,
                3321,
                2884,
                3892,
                7433,
                4023,
                7627,
                2425,
                4010,
                2386,
                845,
                4897,
                546,
                2543,
                4104,
                506,
                4521,
                3981,
                4056,
                540,
                7293,
                4121,
                5612,
                7481,
                3893,
                687,
                7455,
                106,
                7639,
                610,
                978,
                3955,
                2882,
                942,
                4378,
                4040,
                5620,
                3993,
                4010,
                961,
                699,
                3237,
                307,
                2720,
                3549,
                4004,
                3918,
                7464,
                1377,
                373,
                3870,
                3870,
                324,
                4019,
                3206,
                3922,
                790,
                5824,
                7348,
                2128,
                1092,
                2427,
                4893,
                7663,
                1679,
                4999,
                7475,
                3969,
                7526,
                3123,
                3539,
                4359,
                1265,
                3870,
                4279,
                3916,
                3843,
                2106,
                316,
                2779,
                477,
                3962,
                1397,
                2409,
                44,
                7575,
                2095,
                2649,
                600,
                1272,
                7345,
                1634,
                3953,
                3549,
                795,
                5973,
                1982,
                4041,
                5035,
                319,
                3532,
                5108,
                7593,
                3912,
                7513,
                600,
                2684,
                2698,
                1693,
                7505,
                1704,
                542,
                3955,
                7863,
                3974,
                1369,
                4096,
                5257,
                521,
                4007,
                3176,
                1540,
                3999,
                1757,
                3862,
                2666,
                4131,
                891,
                7397,
                4046,
                4069,
                1694,
                3107,
                2589,
                5981,
                3962,
                2218,
                1027,
                7415,
                2692,
                7569,
                4093,
                3982,
                4084,
                274,
                7447,
                493,
                4046,
                2374,
                560,
                7346,
                3127,
                1603,
                3505,
                3980,
                4987,
                5549,
                751,
                7452,
                4001,
                628,
                1126,
                1149,
                3949,
                2577,
                1065,
                6085,
                1761,
                4007,
                7667,
                1531,
                3315,
                2732,
                1717,
                7484,
                7487,
                4004,
                3913,
                3553,
                6968,
                2935,
                4189,
                2346,
                4071,
                7501,
                3468,
                3725,
                3608,
                158,
                4073,
                7486,
                7586,
                3498,
                2559,
                1639,
                4262,
                2267,
                4029,
                3457,
                1581,
                169,
                3512,
                4780,
                4024,
                3949,
                2561,
                1635,
                532,
                4045,
                549,
                514,
                3980,
                7479,
                11140,
                1914,
                7382,
                5759,
                614,
                4051,
                4031,
                596,
                3831,
                3873,
                600,
                1460,
                4402,
                4024,
                3006,
                7521,
                2719,
                594,
                3937,
                4050,
                7863,
                2410,
                3356,
                2391,
                3991,
                3841,
                7467,
                5591,
                5797,
                1242,
                1713,
                1718,
                7627,
                1250,
                2456,
                5601,
                889,
                4027,
                4027,
                4032,
                7489,
                3911,
                388,
                4011,
                7470,
                4106,
                2147,
                3292,
                2870,
                207,
                848,
                2008,
                4035,
                2266,
                4327,
                7449,
                5686,
                4659,
                402,
                3974,
                1626,
                548,
                3957,
                4030,
                7492,
                2520,
                4024,
                541,
                3434,
                3990,
                4347,
                7273,
                840,
                2126,
                3904,
                3953,
                5395,
                1656,
                3379,
                4123,
                2194,
                3880,
                517,
                5761
            ]
        },
        "detections": 500,
        "events": 66975
    }
}