{
    "job_args": {
        "metric_limit": 500,
        "seed": 620798750
    },
    "job_id": "batch_147_do_500",
    "result": {
        "collections": {
            "crystal": [
                0.5696973581252411,
                0.18354030081179262,
                0.25071029853416227,
                0.3854567993954771,
                0.3705895356492022,
                0.5147622696269214,
                0.23256747324619326,
                0.5696973581252411,
                0.5696973581252411,
                1.0636549103809434,
                0.5696973581252411,
                0.007732794422184053,
                0.5696973581252411,
                1.0636549103809436,
                0.06714343811404516,
                0.12811847210496485,
                0.08523523516033281,
                0.4127440086133544,
                0.18661927803141767,
                1.0636549103809434,
                0.7557829790320868,
                0.5696973581252412,
                0.2920362024119284,
                0.7407322112717604,
                0.7680940518612137,
                0.5696973581252411,
                0.6091175158309082,
                1.0636549103809434,
                0.5696973581252411,
                0.9410597604960088,
                1.0636549103809436,
                0.3744281292104721,
                0.1453654873720749,
                0.13724910168474297,
                1.0636549103809434,
                0.6853470063500255,
                0.13012070014882499,
                1.0636549103809434,
                0.05829406587592589,
                0.16042057561140266,
                0.07525000000000001,
                0.09803601554407293,
                0.07525,
                0.5605284480182079,
                0.3653876771160395,
                0.2940072668656299,
                0.7203526745840418,
                0.5696973581252411,
                0.7675191232206638,
                0.5696973581252411,
                0.2707475327896713,
                0.2906013830066311,
                0.9807479929445471,
                0.5696973581252411,
                1.0636549103809434,
                0.5696973581252411,
                1.0636549103809434,
                0.5696973581252411,
                0.2714392156752956,
                0.4834006022839388,
                0.8369370101568523,
                0.07524999999999998,
                0.46329525102450475,
                0.023728254085635836,
                0.5696973581252411,
                0.5696973581252411,
                0.4622977861970163,
                0.569697358125241,
                0.07303899999999999,
                0.5696973581252411,
                0.3725055067507852,
                0.4736654374910616,
                0.41006794227673876,
                0.5696973581252411,
                0.5696973581252411,
                1.0636549103809434,
                0.062212405165355866,
                0.21326193191402776,
                0.11449083630241577,
                0.5696973581252411,
                0.5696973581252411,
                0.24099089199458687,
                0.020443414512500535,
                1.0636549103809434,
                0.07303899999999999,
                0.059933574741931846,
                0.28578905355026907,
                1.0636549103809432,
                0.5363916182717218,
                0.0430132,
                0.5696973581252411,
                0.5733172613290738,
                0.7309187765229233,
                0.652355022599187,
                0.06888125347627527,
                0.5758624567492961,
                0.7494537862849084,
                0.08221932699644474,
                1.0636549103809432,
                0.19991388819758227,
                0.6948703379684164,
                1.0636549103809436,
                0.34082296895968317,
                1.77021471651483,
                0.7656806794618175,
                1.0636549103809434,
                0.7056261356300619,
                1.0636549103809434,
                0.2726361944279834,
                0.07525000000000001,
                0.18580837484656532,
                0.5696973581252411,
                1.0636549103809434,
                0.5696973581252412,
                1.0636549103809434,
                0.5696973581252411,
                0.5696973581252411,
                0.5696973581252412,
                0.5696973581252411,
                0.5639241701970779,
                1.0636549103809434,
                1.0636549103809434,
                0.5696973581252411,
                0.5696973581252411,
                0.12935123754343775,
                0.5617994775602735,
                0.3634984569316668,
                0.6238504005292138,
                0.07242891900756027,
                0.5146763403383063,
                1.0636549103809432,
                0.1254005615191277,
                0.31849295653058773,
                0.32168683115237573,
                0.20176466846149033,
                0.6336601330186068,
                0.07253440862213904,
                0.3566117636537106,
                1.0636549103809436,
                0.03295587498754465,
                0.22778265045554746,
                0.7166557682748848,
                0.20671190912756301,
                0.40595276055825114,
                0.2732581115291719,
                1.0636549103809434,
                0.36965572368912913,
                0.17726476068692176,
                0.1816012510074153,
                0.22110036942658154,
                0.5696973581252411,
                0.02794751672198903,
                0.5696973581252411,
                0.2394884158809216,
                1.0636549103809434,
                0.0386476090168093,
                0.08474090384473174,
                0.39887825655453835,
                1.0636549103809434,
                0.419681500747819,
                0.3605062575117024,
                0.5696973581252411,
                0.17196037766739092,
                0.1519425026800164,
                1.0636549103809432,
                0.4793092448941519,
                0.5696973581252412,
                0.46679283459794385,
                0.1667395897691034,
                0.30507887232867703,
                0.7576674096747551,
                0.5696973581252411,
                0.07524999570593963,
                0.8178485699826203,
                0.13649670440759762,
                0.42265070462099874,
                0.5429637623937857,
                0.5696973581252411,
                0.569697358125241,
                0.3924684083850136,
                0.12479935309479806,
                0.2371265818300663,
                0.3797400165704675,
                1.7702147165148296,
                0.45323636972807013,
                0.08248917430882713,
                1.0636549103809434,
                0.3919716684535739,
                0.5696973581252411,
                0.37718666057223343,
                0.3874603444740999,
                0.0642882092049013,
                0.07303887204813127,
                0.5696973581252411,
                0.031236037988412013,
                0.03395520137521202,
                0.5696973581252411,
                0.026858209433128888,
                0.4440475549892064,
                0.17117008196451655,
                0.5481416763513672,
                0.5696973581252411,
                0.2773205560359553,
                0.569697358125241,
                0.5696973581252411,
                0.5504500941709374,
                0.5696973581252411,
                0.5696973581252411,
                0.03664694275856761,
                0.7492314503937633,
                0.08523548619303994,
                1.0636549103809434,
                0.5482048143618505,
                0.22562137644562547,
                0.34893946871539155,
                0.07525004237126616,
                0.5696973581252411,
                0.07525000000000001,
                0.5696973581252411,
                0.3291150810173903,
                0.2173022906031452,
                0.42350127975273266,
                1.0636549103809434,
                0.4926886251155363,
                0.5696973581252411,
                0.13714879296355206,
                0.6219417602670505,
                1.0636549103809434,
                0.23791208288486926,
                0.569697358125241,
                0.38853511984273825,
                0.5696973581252411,
                0.8084978854912565,
                0.5696973581252412,
                1.0636549103809434,
                0.08523567912708382,
                0.07691546317273601,
                0.0839405738436737,
                0.5696973581252412,
                1.0636549103809432,
                0.7597660255655704,
                0.44558004379845234,
                0.3673282369539753,
                0.07303899999999999,
                0.42562634189154136,
                0.7441967194677616,
                1.0636549103809432,
                0.5696973581252412,
                1.0636549103809436,
                1.0636549103809434,
                0.7567459525786746,
                0.10390970188421762,
                0.009324172963769639,
                1.1692236813447914,
                0.38195545602934333,
                0.3446553738675658,
                0.05379015798290571,
                0.20092391781913257,
                0.27546596419353575,
                0.5696973581252411,
                0.20232227264955455,
                0.4470364809114198,
                0.28422917387560853,
                0.5696973581252412,
                0.1156485755602586,
                0.3029823503902298,
                1.0636549103809434,
                0.569697358125241,
                0.5696973581252411,
                0.30815148805293247,
                0.2897416498973315,
                0.5696973581252411,
                0.45381323662020634,
                0.45244107867070177,
                1.0636549103809434,
                0.2983979614198075,
                1.0636549103809436,
                0.5696973581252411,
                0.7056011766395612,
                0.5490305792456522,
                0.0768532644831253,
                0.5696973581252412,
                0.5696973581252411,
                0.5696973581252411,
                0.1339000242792029,
                0.3623840769801795,
                0.13294408570124483,
                0.29482599768262496,
                0.3883811354867803,
                0.7339552150190172,
                0.26741174478005497,
                0.5696973581252412,
                0.0876557,
                1.0636549103809434,
                0.08121854698696845,
                1.0636549103809434,
                1.0636549103809434,
                0.5696973581252411,
                0.569697358125241,
                0.5696973581252411,
                0.4821590509809737,
                0.27700866782014466,
                0.25231765406056084,
                0.5696973581252412,
                0.2078585434342916,
                0.08523574238867303,
                0.8446560317060283,
                0.5696973581252412,
                0.15802473257902966,
                0.7210949636394639,
                0.5696973581252411,
                0.18542465768730504,
                0.026108782425705246,
                1.0636549103809434,
                0.36020620783242413,
                0.2844577408423195,
                0.23761382070263398,
                0.07483243853675586,
                0.1785057592266262,
                1.0636549103809434,
                0.5696973581252411,
                0.1180459906294366,
                0.3518680478730963,
                1.0636549103809436,
                0.15340636900250576,
                0.07525,
                0.5696973581252411,
                0.17454499702800763,
                0.11546708987996857,
                0.3363719722649231,
                0.07525007193395647,
                0.5696973581252414,
                0.5696973581252412,
                0.569697358125241,
                0.5696973581252411,
                0.5696973581252411,
                0.10873753720645365,
                0.31913451264959447,
                0.5696973581252412,
                0.5696973581252411,
                0.569697358125241,
                0.5696973581252411,
                0.41123220636452257,
                1.0636549103809434,
                0.6575339639975275,
                0.027660350946349277,
                0.3820282383613832,
                0.48030795967669715,
                0.2451275660497274,
                0.11346588407525583,
                0.18369074662304924,
                1.0636549103809434,
                0.5696973581252414,
                0.7706239876400889,
                0.5696973581252411,
                0.30484595862275476,
                0.30210864533714843,
                0.7091065299024044,
                1.0636549103809436,
                0.2746964366298675,
                0.3496489907464336,
                1.0636549103809434,
                0.5696973581252411,
                1.0636549103809434,
                0.6227234633562073,
                0.5696973581252411,
                0.4625701416334038,
                0.44012247551045713,
                0.5696973581252412,
                0.3182471108431649,
                0.5696973581252411,
                0.1613283419791965,
                0.5696973581252411,
                0.07525,
                1.0636549103809434,
                0.5696973581252411,
                0.5696973581252411,
                0.5704400999551001,
                0.08349249129575265,
                0.3733889802296458,
                0.40705185742346206,
                0.2624287667402465,
                0.3605129150820195,
                0.5696973581252411,
                0.4783650187446284,
                1.0636549103809432,
                0.3127150088508768,
                0.5696973581252411,
                0.012371555673938106,
                0.2938118784525603,
                0.5696973581252411,
                0.5757898341512796,
                0.025678196950446763,
                0.5696973581252411,
                0.8192150062796946,
                0.07622836455114174,
                0.5696973581252411,
                0.569697358125241,
                1.0636549103809432,
                0.8150220438404001,
                0.3060506297884802,
                0.5696973581252411,
                0.40003811417370366,
                0.397091633408198,
                1.0636549103809434,
                0.2331236798988034,
                0.3797116475272994,
                1.7702147165148299,
                0.5696973581252412,
                0.12626519698538655,
                0.04239881063022766,
                1.0636549103809434,
                1.0636549103809432,
                0.803855309548086,
                0.3575491982997565,
                0.5696973581252411,
                0.45463975709763066,
                0.087534,
                1.0636549103809432,
                1.0636549103809432,
                0.33684337256918406,
                0.6307560334421525,
                1.0636549103809434,
                0.569697358125241,
                0.5696973581252411,
                1.0636549103809434,
                0.45646904061281623,
                1.4939120712927538,
                0.073039,
                1.0636549103809434,
                0.3452151159253679,
                0.073039,
                0.4812423898529349,
                0.256527488851668,
                0.5696973581252411,
                0.03571907448701883,
                0.5696973581252411,
                0.5611864688738427,
                0.4878276033370159,
                0.5696973581252411,
                0.4582937924831345,
                0.4838833514643366,
                0.4081998962215984,
                0.14080227833599543,
                0.5696973581252412,
                0.0705523305725273,
                0.05476166375831437,
                0.569697358125241,
                0.5448426066825197,
                1.0636549103809434,
                0.2560323201680685,
                0.08875031480690543,
                0.5696973581252412,
                0.5696973581252411,
                0.5696973581252411,
                0.569697358125241,
                0.8678054861098865,
                0.4750084964704664,
                0.27224509842212674,
                0.32557196219336176,
                1.6333522685061845,
                0.25986912821713287,
                0.5696973581252411,
                0.47583934179010556,
                0.2098959012318385,
                0.569697358125241,
                0.2674193030783456,
                0.44620929737226855,
                0.2216190563266841,
                0.622787611930147,
                0.3553812483570983,
                0.08764249783269962,
                0.20302119823600892,
                1.0636549103809436,
                0.5696973581252411,
                0.3756351144056728,
                1.0636549103809434,
                0.46658856548456895,
                0.40007333342164225,
                0.5696973581252411,
                0.5696973581252411,
                1.0636549103809434,
                0.08775130654664792,
                0.5072599094217736,
                0.0038620509720549423,
                0.5696973581252411,
                0.10421115951188899,
                0.5696973581252411,
                0.5696973581252411,
                1.0636549103809434,
                0.3775812736105642,
                0.35872864329451387,
                0.17451558308942527,
                0.0752495471816062,
                0.073039,
                1.0636549103809432,
                0.190988515281229,
                0.4151595346445539,
                0.07303887730528422,
                0.5337870690131312
            ],
            "photocathode": [
                3840,
                1253,
                1804,
                2759,
                2599,
                3581,
                1644,
                4195,
                3891,
                7393,
                4028,
                51,
                4025,
                7369,
                432,
                893,
                597,
                2775,
                1297,
                7550,
                5263,
                3912,
                2046,
                5168,
                5453,
                4003,
                4285,
                7359,
                4019,
                6662,
                7456,
                2567,
                1026,
                952,
                7377,
                4725,
                915,
                7422,
                398,
                1118,
                524,
                670,
                581,
                3900,
                2532,
                2091,
                5125,
                4066,
                5317,
                3903,
                1874,
                1990,
                6770,
                3966,
                7560,
                3934,
                7503,
                4128,
                1842,
                3335,
                5783,
                495,
                3228,
                145,
                3996,
                3984,
                3364,
                4002,
                480,
                3954,
                2580,
                3320,
                2882,
                4027,
                4011,
                7442,
                457,
                1472,
                854,
                3976,
                3916,
                1686,
                140,
                7693,
                501,
                404,
                2046,
                7580,
                3857,
                303,
                4099,
                4074,
                5381,
                4569,
                471,
                3982,
                5276,
                553,
                7370,
                1435,
                5018,
                7513,
                2374,
                12651,
                5410,
                7330,
                4909,
                7718,
                1887,
                512,
                1347,
                4028,
                7570,
                3948,
                7535,
                3976,
                3983,
                3985,
                3963,
                3940,
                7501,
                7432,
                3962,
                4080,
                909,
                4005,
                2530,
                4437,
                548,
                3737,
                7143,
                874,
                2154,
                2259,
                1385,
                4385,
                488,
                2521,
                7437,
                222,
                1581,
                4988,
                1473,
                2847,
                1932,
                7477,
                2558,
                1260,
                1296,
                1565,
                4142,
                198,
                3886,
                1647,
                7287,
                269,
                594,
                2758,
                7487,
                2821,
                2539,
                4061,
                1214,
                1110,
                7596,
                3371,
                3879,
                3457,
                1209,
                2149,
                5234,
                3990,
                566,
                5680,
                1006,
                2979,
                3699,
                4016,
                4029,
                2748,
                936,
                1706,
                2617,
                12266,
                3219,
                568,
                7516,
                2959,
                4050,
                2646,
                2801,
                443,
                513,
                4066,
                229,
                241,
                3999,
                172,
                3068,
                1162,
                3925,
                4062,
                1940,
                3950,
                4253,
                3885,
                3958,
                4101,
                248,
                5339,
                603,
                7494,
                3823,
                1598,
                2475,
                536,
                4072,
                557,
                4131,
                2305,
                1548,
                3016,
                7482,
                3445,
                4027,
                957,
                4314,
                7409,
                1678,
                4069,
                2786,
                3993,
                5763,
                4011,
                7330,
                608,
                536,
                628,
                4072,
                7551,
                5385,
                3060,
                2568,
                499,
                3135,
                5173,
                7323,
                4054,
                7479,
                7466,
                5274,
                691,
                65,
                8189,
                2584,
                2410,
                378,
                1493,
                1922,
                3888,
                1426,
                3187,
                2058,
                3949,
                807,
                2042,
                7383,
                3946,
                3901,
                2166,
                2109,
                4053,
                3130,
                3067,
                7590,
                2080,
                7506,
                4068,
                4932,
                3802,
                519,
                3817,
                3916,
                3960,
                908,
                2546,
                913,
                2149,
                2738,
                5082,
                1817,
                3940,
                605,
                7301,
                526,
                7511,
                7389,
                3923,
                3942,
                4112,
                3384,
                2031,
                1747,
                4082,
                1467,
                599,
                5824,
                4037,
                1144,
                5083,
                3931,
                1302,
                202,
                7489,
                2534,
                2060,
                1708,
                502,
                1334,
                7512,
                4012,
                829,
                2400,
                7450,
                1127,
                493,
                4083,
                1296,
                765,
                2306,
                545,
                4062,
                4067,
                4071,
                3945,
                4088,
                784,
                2286,
                4040,
                4046,
                4017,
                3965,
                2935,
                7486,
                4636,
                196,
                2791,
                3350,
                1615,
                792,
                1349,
                7421,
                3943,
                5582,
                3910,
                2052,
                2064,
                4990,
                7632,
                1913,
                2380,
                7430,
                3905,
                7565,
                4312,
                4057,
                3249,
                3193,
                4071,
                2193,
                4019,
                1085,
                3829,
                514,
                7374,
                3900,
                3875,
                3986,
                596,
                2658,
                2857,
                1822,
                2663,
                3961,
                3386,
                7497,
                2250,
                4201,
                99,
                2089,
                4029,
                4011,
                186,
                3978,
                5681,
                558,
                3927,
                3917,
                7307,
                5781,
                2154,
                3966,
                2832,
                2874,
                7454,
                1706,
                2683,
                12321,
                3924,
                933,
                269,
                7406,
                7402,
                5643,
                2556,
                4050,
                3143,
                629,
                7523,
                7443,
                2395,
                4505,
                7450,
                4022,
                3983,
                7435,
                3226,
                10640,
                512,
                7379,
                2474,
                517,
                3358,
                1799,
                3982,
                254,
                3981,
                4029,
                3422,
                3873,
                3302,
                3385,
                2838,
                977,
                4135,
                509,
                381,
                4093,
                3897,
                7395,
                1821,
                642,
                3942,
                3935,
                3996,
                4016,
                6134,
                3355,
                1914,
                2331,
                11566,
                1822,
                4002,
                3258,
                1529,
                3968,
                1903,
                3099,
                1617,
                4372,
                2479,
                646,
                1444,
                7409,
                3896,
                2685,
                7450,
                3266,
                2803,
                3888,
                3941,
                7736,
                627,
                3558,
                25,
                3995,
                684,
                3987,
                3975,
                7563,
                2645,
                2491,
                1355,
                516,
                495,
                7528,
                1317,
                2926,
                481,
                3782
            ]
        },
        "detections": 500,
        "events": 63952
    }
}