{
    "job_args": {
        "metric_limit": 500,
        "seed": 872466699
    },
    "job_id": "batch_25_do_500",
    "result": {
        "collections": {
            "crystal": [
                0.1808479952627557,
                0.1444323318100198,
                0.5109989099999999,
                1.274537340179464,
                1.2745373401794644,
                0.51099891,
                0.9332304355874652,
                0.51099891,
                0.47184455743711484,
                1.2745373401794642,
                0.51099891,
                0.51099891,
                0.51099891,
                0.32580510623601955,
                0.0466405,
                0.51099891,
                0.36341208914577106,
                0.2972588250280732,
                0.5926076562433611,
                0.51099891,
                1.274537340179464,
                0.51099891,
                0.5109989100000001,
                0.5109989100000001,
                0.3749081788882408,
                0.34807971891450523,
                1.3906472010138518,
                0.13034813276020496,
                0.5109989100000001,
                0.33415774250494146,
                0.51099891,
                0.27076155680488767,
                0.9559748032745199,
                0.6318293369452719,
                0.05900486683767417,
                0.5109989099999999,
                0.3474274313723842,
                0.025186857800570395,
                0.07525,
                0.3566113154441277,
                0.19608317544955978,
                0.16931054212319813,
                1.2745373401794642,
                0.24332222597932826,
                0.1704900717198068,
                0.5109989099999999,
                0.35764128829795516,
                0.5109989099999999,
                0.51099891,
                1.274537340179464,
                0.51099891,
                1.5316481024393216,
                0.12488152828770355,
                0.19360516631667846,
                0.29651612142797007,
                0.5109989100000001,
                0.054751269557860735,
                0.51099891,
                0.51099891,
                0.6285288289463757,
                0.1991834615803929,
                1.2745373401794642,
                1.2745373401794637,
                0.14511407567562062,
                0.5109989100000001,
                0.51099891,
                0.07525,
                0.11487637240980712,
                0.5109989099999999,
                0.51099891,
                0.5109989100000001,
                0.51099891,
                0.5109989100000001,
                0.19737704560542155,
                0.3624199265946121,
                0.24723216966114336,
                0.2926530612295999,
                0.5109989100000001,
                0.5450913289334665,
                0.3374150115186787,
                0.3024375726814098,
                0.5109989099999999,
                1.274537340179464,
                0.33824897035452445,
                1.274537340179464,
                0.51099891,
                1.274537340179464,
                0.11453139115847553,
                1.2745373401794637,
                0.8674499860702403,
                0.1476663160854084,
                0.08109515741611667,
                0.51099891,
                1.274537340179464,
                0.2507071596301097,
                0.6609321822541016,
                0.51099891,
                0.51099891,
                0.19291150922365707,
                0.6930046662582146,
                0.21391298971730877,
                0.27922868770402126,
                0.5109989099999999,
                1.2745373401794642,
                0.51099891,
                0.51099891,
                0.1388119158548336,
                0.005997970806644992,
                0.22521063814859524,
                1.2745373401794642,
                0.07525,
                0.6594499850742732,
                0.7960884036908505,
                1.274537340179464,
                1.2745373401794642,
                0.042955799999999995,
                0.8061918503813897,
                0.312276033354148,
                0.5075140884127307,
                0.5109989099999999,
                1.2745373401794637,
                0.3938664049993525,
                0.7336938230373914,
                0.3274149722036132,
                0.24261423185351422,
                1.274537340179464,
                0.08436656119045938,
                0.5109989100000001,
                0.2320680535680913,
                0.51099891,
                1.2745373401794642,
                0.5383388673884879,
                0.5692711734551812,
                0.51099891,
                0.4155922573488402,
                0.7023280372577085,
                1.0478238066056378,
                0.23644190182428937,
                0.23200846629329303,
                0.036914607453500003,
                0.47353096760715985,
                0.4125397974101255,
                1.274537340179464,
                0.2587878477633148,
                0.51099891,
                0.51099891,
                0.4194575038357011,
                0.3457182553372256,
                0.5109989100000001,
                0.51099891,
                0.06786912157858116,
                0.19537362962994642,
                0.3268170306914387,
                0.51099891,
                0.14611755819757177,
                0.934781296873047,
                0.19760260314922445,
                0.2430845410147284,
                0.5109989099999999,
                0.51099891,
                0.23945402441783342,
                0.060889412689414335,
                0.2789177680110157,
                0.38323477561652936,
                0.6397101318022314,
                1.274537340179464,
                0.51099891,
                0.2917623522741315,
                0.6645093771398219,
                0.51099891,
                0.0903739172180692,
                0.51099891,
                0.37050446434162737,
                0.589347633663298,
                0.51099891,
                0.51099891,
                0.18281661567794583,
                0.1026288326376892,
                0.51099891,
                0.51099891,
                0.2400688865444936,
                0.25210426949375075,
                0.40374227893869136,
                0.28424284709334025,
                0.51099891,
                0.51099891,
                0.51099891,
                0.087534,
                1.0950749602050176,
                0.360222742742515,
                0.16306099100004168,
                0.4340704249725275,
                0.24407381409523604,
                0.5109989099999999,
                0.51099891,
                0.10922005665342444,
                0.51099891,
                0.51099891,
                0.015789046089605685,
                0.7881494308645772,
                0.2650603881472145,
                0.32025589996534626,
                0.17159653553744247,
                0.51099891,
                0.16944174181129235,
                0.29344218195366467,
                0.07525,
                0.07525,
                0.51099891,
                0.38697055100094657,
                0.5109989099999999,
                0.07525000000000001,
                0.5109989099999999,
                0.14947316895130558,
                0.13355547857737254,
                0.18976642505860686,
                0.51099891,
                0.51099891,
                0.015463590494538382,
                0.3076677430681052,
                0.7968390425948091,
                0.3202001588782496,
                1.2745373401794642,
                0.16943278581464272,
                0.5109989100000001,
                0.09584919075808707,
                0.9538087968035045,
                1.2745373401794642,
                0.4881657682463566,
                1.2745373401794642,
                0.51099891,
                0.51099891,
                0.5109989100000001,
                0.51099891,
                0.9180422601219432,
                1.0312223666306828,
                1.0544335056267675,
                0.27013462348199074,
                0.51099891,
                0.5109989100000001,
                0.48152364680131254,
                0.7450911077205405,
                1.274537340179464,
                0.5109989100000001,
                0.9755503565028742,
                0.5109989099999999,
                0.51099891,
                0.12914732912773264,
                0.51099891,
                0.51099891,
                0.5109989099999999,
                0.9311701994370727,
                0.8241691322783118,
                0.9382048931424999,
                0.1708410064926037,
                0.35382467974817405,
                0.5109989100000001,
                0.5109989099999999,
                0.5529217832955645,
                0.51099891,
                0.7092900920931372,
                0.16410495430806854,
                0.003618143660630957,
                0.7174796388792988,
                0.06924222045364592,
                0.5074015518280879,
                0.40149072865697044,
                0.6286219672372182,
                0.8272437023529665,
                0.51099891,
                1.2745373401794642,
                0.51099891,
                0.5109989099999999,
                0.3364739554374808,
                0.47870471000000003,
                0.2892128152700459,
                0.5109989099999999,
                0.5109989100000001,
                0.5109989100000001,
                0.6076398336061164,
                0.3200532952091709,
                0.11585461174083324,
                1.274537340179464,
                0.4062422712618696,
                0.51099891,
                1.0063173839247277,
                0.3730765600207849,
                0.51099891,
                0.0747807699684378,
                1.0593318123208855,
                0.51099891,
                0.51099891,
                1.274537340179464,
                0.2299796744150219,
                0.5109989099999999,
                0.030248920425715586,
                0.2521783497002475,
                0.48198658729181293,
                0.15592623233324995,
                0.5109989100000001,
                0.3041608113017254,
                0.18989407103426822,
                1.274537340179464,
                0.7358073024417213,
                1.2745373401794637,
                1.274537340179464,
                0.06226367967188218,
                0.3385038036535446,
                0.28280143252000756,
                1.2745373401794642,
                0.51099891,
                0.9353624656013784,
                0.17280488557777934,
                0.51099891,
                0.19666227692992072,
                0.4699938728131708,
                0.073039,
                1.0087279204187551,
                0.2303066782944903,
                0.51099891,
                0.51099891,
                0.16420859049242242,
                0.5109989100000001,
                0.07525,
                0.51099891,
                0.51099891,
                0.1439771699009902,
                0.8719557573935632,
                1.2050500556419879,
                0.51099891,
                0.12881428942879716,
                0.48238941,
                0.08088181362632513,
                1.0199269754231752,
                0.9403085434859664,
                0.5109989100000001,
                0.2532717089805483,
                0.20145610787992396,
                0.51099891,
                0.26154437654891266,
                0.14708252159558555,
                0.15667516480001964,
                0.51099891,
                1.274537340179464,
                0.5080460148230432,
                0.51099891,
                0.07389003817022088,
                0.2528813408254706,
                0.32960940488562973,
                0.51099891,
                0.29025216628595263,
                0.51099891,
                0.51099891,
                0.5109989099999998,
                0.51099891,
                1.2745373401794637,
                0.2755429426531612,
                0.7026435861028406,
                0.17604858296701487,
                0.10278478774576388,
                0.51099891,
                0.51099891,
                0.5109989099999999,
                0.32733143758079336,
                0.51099891,
                0.1079707570949881,
                0.32272238172656925,
                0.2709008544434314,
                0.460854803579835,
                0.5109989100000001,
                0.51099891,
                0.34398212234486397,
                0.4584829060084511,
                1.274537340179464,
                0.51099891,
                0.09713768248258825,
                0.43953355452459253,
                0.050345778223631454,
                1.274537340179464,
                0.37819108776283683,
                0.19740138229095305,
                0.3036561516052436,
                1.274537340179464,
                0.10458375709577276,
                0.51099891,
                1.274537340179464,
                0.5109989100000001,
                0.51099891,
                0.51099891,
                0.5109989099999999,
                0.22420864114199535,
                0.2524513532993766,
                0.1409330705513673,
                0.51099891,
                0.44106625324385235,
                0.36472976322313483,
                0.40138421813990444,
                1.2745373401794637,
                1.2745373401794637,
                1.2745373401794642,
                0.51099891,
                0.51099891,
                0.9068839324716282,
                0.51099891,
                0.51099891,
                0.51099891,
                0.47502633139952066,
                0.15663329935379533,
                0.51099891,
                0.51099891,
                0.29703109183403476,
                0.18017120405692985,
                1.2745373401794637,
                0.17159756660697578,
                0.51099891,
                0.5753761311250922,
                0.51099891,
                1.274537340179464,
                0.7847228650296173,
                1.274537340179464,
                0.20225001424039402,
                0.9812159180941702,
                0.026332482059832407,
                0.17165089141941042,
                0.14138960381769483,
                0.5109989100000001,
                1.2745373401794637,
                0.484401567148064,
                0.4624107707699585,
                0.5109989100000001,
                0.12691750150932968,
                0.1215743581587555,
                0.20118336583238267,
                0.21938973804884465,
                0.07524999999999998,
                0.3634882518435463,
                0.51099891,
                0.51099891,
                0.51099891,
                0.26200265209396467,
                0.16195023478022774,
                0.004232310989695065,
                0.012671946593475925,
                0.51099891,
                0.1599751929718919,
                0.21198280124976362,
                0.51099891,
                0.013176753876155467,
                0.7805172976746395,
                0.24642054651773537,
                0.5109989100000001,
                0.5109989100000001,
                0.013789598225013189,
                0.6892834226147648,
                0.01972265042549942,
                0.09925181859139,
                0.018255655795625103,
                0.09933610141558086,
                0.06362657259233895,
                0.9646674269912617,
                0.3444074371198748,
                0.53101148060741,
                0.9500714179959829,
                0.07303899999999999,
                1.2745373401794637,
                0.51099891,
                0.5109989100000001,
                0.21641886475560665,
                0.2918323592640584,
                0.5226247167005835,
                1.059644717308661,
                0.3247526403303704,
                0.5109989099999999,
                1.274537340179464,
                1.274537340179464,
                0.5109989099999999,
                0.5927072540497151,
                0.51099891,
                0.51099891,
                0.5109989100000001,
                0.10574027222982108,
                0.51099891,
                0.7113413060857778,
                0.5109989099999999,
                0.51099891,
                0.51099891,
                0.51099891,
                1.274537340179464,
                0.043522964517459906,
                0.51099891,
                0.011346770114280202,
                0.5109989100000001,
                0.24194790964918542,
                0.2485539547376372,
                0.30858245258721617,
                0.5109989100000001,
                0.5109989100000001,
                1.274537340179464,
                1.2745373401794642,
                1.274537340179464
            ],
            "photocathode": [
                1281,
                1013,
                3498,
                8815,
                9033,
                3617,
                6541,
                3635,
                3401,
                9369,
                3628,
                3597,
                3649,
                2323,
                335,
                3658,
                2459,
                2074,
                4249,
                3572,
                9067,
                3538,
                3510,
                3697,
                2740,
                2403,
                9966,
                951,
                3656,
                2442,
                3536,
                1935,
                6709,
                4419,
                419,
                3566,
                2348,
                186,
                485,
                2524,
                1343,
                1232,
                8845,
                1679,
                1165,
                3617,
                2538,
                3439,
                3557,
                8930,
                3506,
                10942,
                910,
                1389,
                2114,
                3597,
                395,
                3631,
                3503,
                4303,
                1378,
                8954,
                8923,
                1075,
                3516,
                3557,
                500,
                774,
                3521,
                3661,
                3532,
                3564,
                3598,
                1388,
                2455,
                1701,
                2068,
                3698,
                3828,
                2403,
                2131,
                3538,
                9120,
                2371,
                8729,
                3737,
                8747,
                800,
                8837,
                6111,
                983,
                559,
                3539,
                8788,
                1792,
                4660,
                3671,
                3498,
                1282,
                4799,
                1572,
                1998,
                3579,
                9076,
                3620,
                3640,
                965,
                48,
                1513,
                8763,
                543,
                4693,
                5713,
                8951,
                9064,
                256,
                5662,
                2190,
                3553,
                3629,
                8837,
                2839,
                5360,
                2438,
                1625,
                8973,
                602,
                3585,
                1535,
                3557,
                9058,
                3792,
                3957,
                3571,
                2857,
                4899,
                7312,
                1676,
                1671,
                236,
                3334,
                2818,
                9131,
                1814,
                3610,
                3676,
                2892,
                2385,
                3453,
                3567,
                469,
                1288,
                2336,
                3582,
                1020,
                6613,
                1415,
                1744,
                3607,
                3626,
                1638,
                463,
                1923,
                2792,
                4557,
                8753,
                3487,
                2008,
                4683,
                3504,
                615,
                3514,
                2617,
                4092,
                3588,
                3513,
                1334,
                742,
                3528,
                3534,
                1634,
                1672,
                2811,
                2039,
                3487,
                3603,
                3602,
                641,
                7558,
                2555,
                1143,
                3108,
                1681,
                3462,
                3644,
                771,
                3597,
                3573,
                118,
                5557,
                1847,
                2199,
                1221,
                3426,
                1092,
                2072,
                547,
                517,
                3495,
                2786,
                3618,
                501,
                3502,
                1047,
                949,
                1349,
                3642,
                3584,
                102,
                2152,
                5510,
                2227,
                9061,
                1228,
                3628,
                668,
                6577,
                8949,
                3476,
                8926,
                3560,
                3659,
                3498,
                3494,
                6418,
                7147,
                7494,
                1844,
                3653,
                3663,
                3395,
                5206,
                9101,
                3581,
                6839,
                3604,
                3558,
                877,
                3609,
                3580,
                3536,
                6481,
                5804,
                6766,
                1184,
                2510,
                3623,
                3594,
                3947,
                3572,
                5002,
                1163,
                21,
                4961,
                498,
                3586,
                2832,
                4474,
                5754,
                3471,
                8916,
                3698,
                3463,
                2272,
                3372,
                2001,
                3582,
                3636,
                3633,
                4338,
                2216,
                836,
                9016,
                2806,
                3608,
                6965,
                2610,
                3570,
                490,
                7577,
                3473,
                3744,
                8966,
                1599,
                3521,
                223,
                1832,
                3411,
                1112,
                3622,
                2097,
                1273,
                8978,
                5134,
                9055,
                8960,
                470,
                2514,
                1973,
                8789,
                3418,
                6725,
                1189,
                3480,
                1362,
                3288,
                489,
                7082,
                1594,
                3551,
                3465,
                1199,
                3577,
                535,
                3599,
                3581,
                995,
                5985,
                8543,
                3609,
                890,
                3338,
                530,
                7142,
                6511,
                3660,
                1763,
                1450,
                3555,
                1940,
                976,
                1164,
                3522,
                9120,
                3483,
                3569,
                532,
                1819,
                2262,
                3579,
                2009,
                3629,
                3544,
                3651,
                3436,
                8779,
                1906,
                4894,
                1236,
                734,
                3568,
                3633,
                3550,
                2315,
                3434,
                763,
                2317,
                1886,
                3266,
                3525,
                3565,
                2332,
                3215,
                8997,
                3594,
                697,
                3064,
                360,
                8763,
                2722,
                1411,
                2079,
                8785,
                769,
                3663,
                8957,
                3683,
                3563,
                3632,
                3643,
                1548,
                1796,
                1038,
                3592,
                3241,
                2632,
                2761,
                9058,
                8988,
                9067,
                3718,
                3644,
                6395,
                3549,
                3560,
                3666,
                3422,
                1017,
                3603,
                3596,
                2022,
                1243,
                9035,
                1233,
                3683,
                4038,
                3649,
                9172,
                5514,
                8901,
                1402,
                6846,
                189,
                1187,
                1001,
                3740,
                8730,
                3324,
                3218,
                3535,
                925,
                929,
                1319,
                1391,
                522,
                2508,
                3711,
                3518,
                3497,
                1749,
                1115,
                32,
                116,
                3560,
                1138,
                1508,
                3736,
                89,
                5440,
                1719,
                3539,
                3573,
                76,
                4927,
                133,
                721,
                129,
                671,
                451,
                6813,
                2409,
                3703,
                6680,
                513,
                9092,
                3542,
                3524,
                1499,
                2004,
                3676,
                7337,
                2347,
                3560,
                8894,
                8734,
                3554,
                4135,
                3643,
                3483,
                3608,
                754,
                3551,
                5097,
                3600,
                3491,
                3656,
                3600,
                9061,
                299,
                3667,
                63,
                3586,
                1772,
                1870,
                2151,
                3668,
                3485,
                9278,
                8927,
                9079
            ]
        },
        "detections": 500,
        "events": 42389
    }
}