{
    "job_args": {
        "metric_limit": 500,
        "seed": 2742917314
    },
    "job_id": "batch_67_do_500",
    "result": {
        "collections": {
            "crystal": [
                1.274537340179464,
                0.10102403213656697,
                0.15877690486104473,
                0.51099891,
                0.7361152415344514,
                0.0847407,
                0.39795980521661944,
                1.274537340179464,
                0.51099891,
                0.51099891,
                0.51099891,
                0.51099891,
                1.104558911956198,
                0.29538722293561115,
                0.6403974250123898,
                0.9301608440689064,
                0.696226341609698,
                0.5816083386923747,
                0.51099891,
                0.3664754195663538,
                0.51099891,
                0.9906393715667761,
                0.51099891,
                0.07525,
                0.4408915302357502,
                0.51099891,
                0.51099891,
                0.33197670674254365,
                0.19387409661058308,
                0.3073098915866619,
                0.5109989099999999,
                0.27046250314869535,
                0.2971903609347895,
                0.5109989099999999,
                0.361561663717876,
                0.07497205234561938,
                0.51099891,
                1.0942264239291424,
                0.51099891,
                0.5109989099999999,
                1.274537340179464,
                0.51099891,
                0.51099891,
                1.274537340179464,
                0.5109989100000001,
                0.36306289654664675,
                0.18259856896381427,
                0.22012251247497094,
                0.51099891,
                0.1863944664323378,
                0.5535458778720452,
                0.08638411701618631,
                0.2997189892704656,
                0.5109989099999999,
                0.4085507579698487,
                0.1856133576867131,
                0.5109989100000001,
                0.0020764462173903375,
                0.4165270525937591,
                1.005686137192506,
                0.08523540000000002,
                0.51099891,
                0.3144597681821218,
                0.5109989099999999,
                0.51099891,
                0.7479473316110199,
                0.5103077859369092,
                0.51099891,
                0.3610984643101079,
                0.51099891,
                0.51099891,
                1.2745373401794637,
                0.51099891,
                0.17197854253483158,
                0.279660614415343,
                0.51099891,
                0.3285023036853013,
                1.274537340179464,
                0.2734436371177137,
                1.5448999830118282,
                0.07303900000000002,
                0.22677352064868533,
                0.51099891,
                0.5109989099999999,
                0.073039,
                0.3972103187567181,
                0.51099891,
                0.14901085288729338,
                0.1176277431692865,
                0.26639904619380617,
                0.8497081620589126,
                0.18000816769879613,
                0.5261877700744029,
                0.4926564560718355,
                0.51099891,
                0.07599448104190237,
                0.5603833265669109,
                0.51099891,
                0.29948653697262717,
                0.51099891,
                1.2745373401794642,
                0.51099891,
                0.51099891,
                0.15351138280946341,
                0.51099891,
                0.028024062335381683,
                0.44331870319348565,
                0.34870822512980926,
                0.9881477226705907,
                0.5109989099999999,
                0.5109989100000001,
                0.51099891,
                0.7699900788513188,
                0.5109989100000001,
                1.2745373401794637,
                0.51099891,
                0.51099891,
                0.30414919228149545,
                0.13660910313521019,
                0.4069836750204626,
                0.3963361397386195,
                0.802358613356191,
                0.51099891,
                1.274537340179464,
                0.4266060127980917,
                0.51099891,
                0.073039,
                0.4041164125829594,
                0.613736636662803,
                0.32030651098341445,
                0.51099891,
                0.5109989099999999,
                0.51099891,
                0.2605584987358841,
                0.260002867603483,
                0.51099891,
                0.623750218737425,
                0.278429091822098,
                0.19419531580878063,
                0.3118275619879903,
                0.51099891,
                0.14661216704502478,
                0.6584932593067077,
                0.12504149847967605,
                0.51099891,
                0.51099891,
                0.51099891,
                0.073039,
                0.51099891,
                0.595325548158215,
                0.5109989099999999,
                0.5109989100000001,
                0.003965007242845431,
                0.0469435,
                0.5109989100000001,
                0.1416923565029522,
                0.5109989099999999,
                0.51099891,
                0.27189547802078323,
                0.07525,
                0.7123380074822496,
                0.296001642896484,
                0.51099891,
                0.1033935024660563,
                0.5109989099999999,
                0.30505616661705864,
                0.21051164485228874,
                1.2745373401794637,
                0.9860545583746642,
                0.0019501374130769245,
                0.18841532467557962,
                0.51099891,
                0.5109989100000001,
                0.51099891,
                1.0574183046320837,
                0.5586202978207101,
                1.274537340179464,
                1.2745373401794642,
                0.5109989100000001,
                0.022789194396434842,
                0.51099891,
                0.4286456968790736,
                1.0834633268911995,
                0.23656909102040347,
                0.51099891,
                1.0961458846929097,
                0.18893554685178615,
                0.24276177221648845,
                1.274537340179464,
                0.44265623133132187,
                1.0101250027125177,
                0.51099891,
                0.2751358214846718,
                0.51099891,
                1.0892262604765857,
                0.51099891,
                0.4839142942615714,
                0.5109989099999999,
                1.274537340179464,
                0.26443752928614106,
                0.5109989100000001,
                0.51099891,
                0.07453751611750042,
                0.24293563151163822,
                0.7036392337863973,
                0.3147908483475711,
                0.8512883353569676,
                0.51099891,
                1.2745373401794637,
                0.7898924454317796,
                0.4559345470503403,
                0.37533732085134475,
                0.51099891,
                0.21254279462568088,
                0.4126901822167802,
                0.51099891,
                0.9800965166194645,
                0.15068379971550894,
                0.5109989100000001,
                1.2745373401794637,
                0.07525,
                0.22721213747186317,
                0.51099891,
                1.009299990498211,
                0.530887567398474,
                0.51099891,
                0.5109989100000001,
                0.053514463726136385,
                0.1624095420460478,
                0.51099891,
                0.2201336169618051,
                0.0314474265776134,
                0.27115894420197906,
                0.6877649670277326,
                0.2900306129704563,
                0.23515945766835386,
                0.6573829547998796,
                0.51099891,
                0.07242167073472805,
                0.5109989100000001,
                0.3437391827038009,
                0.6977169677471616,
                0.743646004362705,
                0.19411671862447127,
                1.274537340179464,
                0.5109989100000001,
                1.2745373401794642,
                0.51099891,
                0.6861492679463659,
                0.51099891,
                0.7625109232821424,
                0.0876557,
                0.032378421190908835,
                0.24220811702143813,
                0.51099891,
                0.34707375282144826,
                0.51099891,
                0.51099891,
                0.2014250017784849,
                0.51099891,
                0.323550200024322,
                0.51099891,
                0.51099891,
                1.2745373401794637,
                1.274537340179464,
                0.51099891,
                0.33885420801182364,
                0.9586088397000296,
                1.274537340179464,
                0.51099891,
                0.51099891,
                1.274537340179464,
                1.274537340179464,
                0.44781596167760973,
                0.5109989100000001,
                0.2716855976647875,
                0.4342409124270864,
                0.36889196183868056,
                0.31865920763818784,
                0.4936509876918441,
                1.2745373401794637,
                0.11075636583606353,
                0.3101731563968065,
                0.5960223065006959,
                0.28948379450996176,
                0.36215645005386143,
                0.2870669073066353,
                0.51099891,
                0.2768989782713558,
                0.51099891,
                0.51099891,
                0.51099891,
                0.27946933415666264,
                1.2745373401794637,
                0.30411074489531265,
                0.07525,
                0.51099891,
                0.51099891,
                0.51099891,
                1.2745373401794637,
                0.51099891,
                0.8468303055404411,
                0.27749876535661816,
                0.51099891,
                0.51099891,
                0.07974677874251435,
                0.05355180081550803,
                0.6186836603464894,
                0.8199668387328906,
                0.51099891,
                0.5109989100000001,
                0.22198793521335417,
                0.37239540009171274,
                0.5109989100000001,
                1.033271835110932,
                0.07524999999999998,
                0.28700279956172137,
                0.8033872783114637,
                0.3240730915650908,
                0.51099891,
                0.29643683320189396,
                0.51099891,
                0.07303899999999999,
                1.051761378077027,
                1.2745373401794642,
                0.51099891,
                0.8499175191462769,
                0.5109989100000001,
                0.51099891,
                0.51099891,
                0.14732051882746933,
                0.08057950939277425,
                0.39494574894801715,
                1.274537340179464,
                0.34820611392111817,
                0.5992978719350377,
                0.09949562498369896,
                0.16128065402864822,
                0.28838896576348594,
                0.07524999999999998,
                0.27436813430806894,
                0.04442950000000001,
                0.5109989100000001,
                0.27708236812169673,
                0.5109989099999999,
                0.5109989100000001,
                0.25332823506008495,
                0.51099891,
                0.8190988722381702,
                0.6536857494643628,
                0.3256417152452281,
                0.39158387402666617,
                0.51099891,
                0.599058314830431,
                0.10434520700171945,
                0.42066272493288887,
                0.5109989100000001,
                0.3908340449208307,
                0.51099891,
                1.7850863148731717,
                0.4186893785574063,
                0.1266723233348952,
                0.3018638304593276,
                0.51099891,
                0.51099891,
                0.9749174412069883,
                1.274537340179464,
                0.5109989100000001,
                0.48100468950403485,
                0.37925638327345024,
                0.51099891,
                0.38650225197958077,
                0.073039,
                0.51099891,
                0.5109989099999999,
                0.11749221536391322,
                0.5109989100000001,
                0.28499820866629955,
                0.27857407018682734,
                0.3846410884469503,
                0.5109989100000001,
                0.24609811024349848,
                0.51099891,
                0.2977433744689775,
                1.274537340179464,
                0.20188815539613286,
                0.17089663575323139,
                0.2614226989724019,
                0.2558265892397025,
                0.07303899999999999,
                0.14271591140370543,
                0.2535297890661675,
                1.2745373401794642,
                0.39181610944171974,
                0.24254431931588744,
                0.5109989100000001,
                0.51099891,
                0.20371551232352653,
                0.1778024533721854,
                0.9261390392153476,
                0.073039,
                0.51099891,
                0.730996356154762,
                0.51099891,
                0.51099891,
                0.47796911,
                0.5435891126591987,
                1.2745373401794637,
                0.5109989100000001,
                0.32597797969819686,
                0.5109989099999999,
                0.51099891,
                0.51099891,
                0.3187234676574721,
                0.7015257684740709,
                0.05080377365331709,
                0.5109989100000001,
                0.51099891,
                0.51099891,
                0.5109989100000001,
                0.3327284973678643,
                0.06199140960160876,
                0.51099891,
                1.2745373401794642,
                0.017912079639296252,
                0.51099891,
                0.25014935375504666,
                0.21582463732840537,
                0.51099891,
                0.2523927906085903,
                0.4855236591947957,
                0.23060928629556132,
                0.05842460034625385,
                1.2745373401794637,
                0.30081242654691387,
                0.5109989100000001,
                0.51099891,
                0.3349039685807454,
                1.2745373401794642,
                0.5599614865291181,
                0.51099891,
                0.1296013334856273,
                1.2745373401794637,
                0.32023660684082816,
                0.51099891,
                0.5109989100000001,
                0.3734027663083764,
                0.20972037372633112,
                0.51099891,
                0.18375135849857704,
                0.28248378529329504,
                1.274537340179464,
                0.2346850364342552,
                0.23443455075439867,
                0.51099891,
                0.28949984943076024,
                1.2745373401794637,
                0.04773614870622883,
                0.264719850862541,
                0.07310122846016504,
                1.3497873401794642,
                1.2745373401794642,
                0.534328685443451,
                0.19267434776545364,
                1.274537340179464,
                0.3191562929821301,
                0.5109989100000001,
                0.51099891,
                1.274537340179464,
                0.51099891,
                0.5784685407643138,
                0.5109989100000001,
                0.5514904674340946,
                0.44000011799417016,
                0.5109989100000001,
                0.51099891,
                1.0576247648179984,
                1.2745373401794642,
                0.51099891,
                1.274537340179464,
                0.5109989100000001,
                0.04464393683412676,
                0.5109989099999999,
                0.51099891,
                0.51099891,
                0.8679856018420695,
                0.51099891,
                0.51099891,
                0.6771502187024976,
                0.48052180320730814,
                0.51099891,
                0.51099891,
                0.21147186408248397,
                0.51099891,
                0.5109989100000001,
                0.08523539999999999,
                0.15449056397655708,
                1.274537340179464,
                0.18947221159824565,
                0.5109989099999999
            ],
            "photocathode": [
                9055,
                736,
                1108,
                3560,
                5062,
                599,
                2864,
                8858,
                3555,
                3589,
                3549,
                3664,
                7952,
                2050,
                4532,
                6623,
                4883,
                4141,
                3430,
                2514,
                3548,
                6939,
                3578,
                521,
                3061,
                3682,
                3581,
                2257,
                1303,
                2157,
                3583,
                1910,
                2016,
                3578,
                2599,
                507,
                3631,
                7568,
                3631,
                3630,
                8941,
                3628,
                3508,
                9116,
                3632,
                2533,
                1358,
                1547,
                3623,
                1351,
                4177,
                558,
                2136,
                3588,
                2906,
                1289,
                3507,
                17,
                2793,
                6891,
                612,
                3530,
                2159,
                3630,
                3759,
                5393,
                3693,
                3587,
                2559,
                3718,
                3471,
                9027,
                3613,
                1164,
                1966,
                3667,
                2344,
                8978,
                1947,
                10817,
                509,
                1559,
                3616,
                3663,
                514,
                2846,
                3517,
                1039,
                850,
                1817,
                6130,
                1276,
                3679,
                3314,
                3408,
                494,
                3826,
                3574,
                2203,
                3683,
                9060,
                3567,
                3531,
                1065,
                3767,
                222,
                3138,
                2430,
                6653,
                3556,
                3616,
                3588,
                5434,
                3570,
                8977,
                3645,
                3631,
                2133,
                951,
                2882,
                2919,
                5545,
                3494,
                9054,
                3041,
                3599,
                498,
                2844,
                4496,
                2187,
                3451,
                3619,
                3653,
                1818,
                1871,
                3627,
                4249,
                1976,
                1342,
                2159,
                3586,
                1002,
                4627,
                935,
                3588,
                3611,
                3522,
                495,
                3610,
                4317,
                3562,
                3753,
                24,
                318,
                3642,
                988,
                3521,
                3633,
                1968,
                460,
                4948,
                2107,
                3689,
                774,
                3580,
                2079,
                1481,
                9036,
                6917,
                11,
                1255,
                3614,
                3742,
                3634,
                7597,
                4137,
                8994,
                8921,
                3458,
                196,
                3600,
                2967,
                7496,
                1682,
                3761,
                7630,
                1332,
                1749,
                8844,
                3170,
                7048,
                3558,
                1972,
                3505,
                7587,
                3577,
                3384,
                3639,
                9023,
                1847,
                3554,
                3525,
                543,
                1712,
                4815,
                2219,
                5817,
                3663,
                9056,
                5574,
                3242,
                2760,
                3616,
                1503,
                3003,
                3611,
                6886,
                1026,
                3586,
                8893,
                523,
                1583,
                3578,
                7109,
                3683,
                3481,
                3587,
                370,
                1193,
                3539,
                1566,
                225,
                1846,
                4852,
                2008,
                1677,
                4817,
                3731,
                513,
                3583,
                2400,
                4930,
                5337,
                1323,
                8930,
                3462,
                8918,
                3535,
                4635,
                3380,
                5372,
                615,
                220,
                1752,
                3576,
                2342,
                3682,
                3573,
                1390,
                3512,
                2292,
                3616,
                3653,
                8997,
                8850,
                3680,
                2314,
                6836,
                8978,
                3442,
                3551,
                8954,
                9346,
                3089,
                3679,
                1916,
                2965,
                2519,
                2240,
                3446,
                9002,
                784,
                2154,
                4104,
                2083,
                2647,
                2117,
                3618,
                1958,
                3514,
                3665,
                3548,
                1973,
                9201,
                2162,
                515,
                3669,
                3511,
                3700,
                9171,
                3560,
                6041,
                1986,
                3488,
                3549,
                531,
                382,
                4350,
                5779,
                3625,
                3655,
                1537,
                2547,
                3584,
                7211,
                484,
                2017,
                5545,
                2306,
                3640,
                1978,
                3620,
                497,
                7307,
                8973,
                3530,
                5772,
                3639,
                3584,
                3715,
                1034,
                551,
                2796,
                8835,
                2352,
                4244,
                657,
                1123,
                1971,
                512,
                1939,
                294,
                3573,
                1975,
                3558,
                3534,
                1770,
                3473,
                5961,
                4571,
                2285,
                2773,
                3656,
                4233,
                745,
                2984,
                3527,
                2915,
                3873,
                12678,
                2825,
                967,
                2185,
                3471,
                3606,
                6704,
                8858,
                3632,
                3439,
                2738,
                3712,
                2733,
                523,
                3458,
                3543,
                857,
                3532,
                1998,
                1918,
                2712,
                3564,
                1727,
                3475,
                2073,
                8925,
                1360,
                1248,
                1769,
                1723,
                506,
                1022,
                1754,
                9080,
                2808,
                1662,
                3638,
                3622,
                1431,
                1271,
                6555,
                492,
                3484,
                5123,
                3734,
                3576,
                3262,
                3784,
                8892,
                3501,
                2350,
                3566,
                3463,
                3691,
                2283,
                4990,
                368,
                3385,
                3562,
                3493,
                3582,
                2300,
                429,
                3617,
                8947,
                123,
                3702,
                1752,
                1611,
                3599,
                1743,
                3493,
                1643,
                416,
                8851,
                2073,
                3487,
                3573,
                2319,
                8790,
                3886,
                3548,
                871,
                9079,
                2312,
                3582,
                3467,
                2653,
                1544,
                3673,
                1380,
                1944,
                9199,
                1664,
                1582,
                3501,
                2163,
                9138,
                316,
                1823,
                528,
                9387,
                8681,
                3875,
                1358,
                8955,
                2136,
                3591,
                3542,
                8822,
                3558,
                4032,
                3575,
                3785,
                3193,
                3468,
                3612,
                7783,
                8859,
                3534,
                8812,
                3717,
                279,
                3550,
                3538,
                3489,
                5949,
                3623,
                3627,
                4788,
                3418,
                3433,
                3515,
                1512,
                3564,
                3506,
                616,
                1106,
                8820,
                1346,
                3625
            ]
        },
        "detections": 500,
        "events": 38101
    }
}