{
    "job_args": {
        "metric_limit": 500,
        "seed": 3370922355
    },
    "job_id": "batch_137_do_500",
    "result": {
        "collections": {
            "crystal": [
                0.51099891,
                1.2745373401794635,
                0.3753387351827507,
                0.1731819102288924,
                0.51099891,
                1.274537340179464,
                0.39711428323220077,
                0.7080620451284048,
                0.45780929310184115,
                0.51099891,
                0.021990299458330365,
                0.2907857182773791,
                0.12500438619356694,
                0.36170167573645967,
                0.35547147379215194,
                1.274537340179464,
                0.11415761525015353,
                0.3669188863266789,
                1.2745373401794637,
                0.16882108604467425,
                0.4024700554145602,
                0.51099891,
                0.51099891,
                0.2885631219864224,
                0.51099891,
                0.51099891,
                0.3097339889091781,
                0.5109989099999999,
                0.2862883324666905,
                0.214037205136394,
                0.09054187805909453,
                0.01933129573604009,
                0.08523539999999999,
                0.30794670494376125,
                0.51099891,
                0.4279461831407537,
                1.4784054322246285,
                0.39283471627822864,
                0.51099891,
                0.03560420095733696,
                0.0737791886963391,
                0.51099891,
                0.3382330308339758,
                0.51099891,
                0.2213376586141452,
                0.011515508957709308,
                0.51099891,
                1.274537340179464,
                0.7094406982634436,
                0.3421797277925457,
                0.10539228208492601,
                0.15847094641895526,
                0.51099891,
                0.5109989100000001,
                0.08474069999999999,
                0.5109989099999999,
                0.48322932806647806,
                0.51099891,
                0.623985124496568,
                0.6153473775813997,
                1.2745373401794642,
                1.2745373401794637,
                0.7155372802641542,
                0.51099891,
                0.2148963135560906,
                0.16176099256709792,
                0.5109989100000001,
                0.3210681626205295,
                0.5712454054657989,
                0.51099891,
                0.51099891,
                1.274537340179464,
                0.5109989100000001,
                0.5109989099999999,
                0.51099891,
                0.5006897719100915,
                0.51099891,
                0.17036127852628002,
                0.9597442683949594,
                0.25993949922431275,
                0.6559480468989884,
                0.35479254032151264,
                0.51099891,
                0.4400872665049642,
                1.053975348689356,
                0.51099891,
                0.12391043285546044,
                0.9086330974823698,
                0.51099891,
                0.5109989099999999,
                0.30283831888060864,
                0.1316154790410129,
                0.20786176163727754,
                0.51099891,
                0.5109989099999999,
                0.3518063555644421,
                1.011554835196768,
                0.32218538876008856,
                0.8607302962258417,
                0.09789705501356477,
                0.28437545806973646,
                0.23383709105965464,
                0.4562296121765216,
                0.8318212958566419,
                0.33890964116909994,
                0.12477165825242681,
                0.231795590028061,
                0.7815516980041024,
                0.6512454446264454,
                0.51099891,
                0.51099891,
                0.4318501828080753,
                0.51099891,
                0.5109989099999999,
                1.2745373401794637,
                0.51099891,
                0.51099891,
                0.3176373121624134,
                0.29970775145488704,
                0.24135775855207514,
                0.2694104697575046,
                0.51099891,
                0.51099891,
                0.6251078053719119,
                0.5109989100000001,
                0.45559500105334616,
                0.51099891,
                0.14855620581317053,
                0.30362368071270485,
                0.51099891,
                0.364823215696794,
                0.1693509602091926,
                0.48725634209919677,
                0.44154123751648006,
                0.16061154376767073,
                0.5109989099999999,
                0.4549216068420532,
                0.5109989100000001,
                1.030415233554894,
                0.23367081414943636,
                0.8456823541404442,
                0.5109989099999999,
                0.51099891,
                0.51099891,
                0.2715799387345229,
                0.5280158514659756,
                0.5109989099999999,
                0.51099891,
                0.5109989099999999,
                0.51099891,
                0.5109989100000001,
                0.3359638634937593,
                0.5809485454263146,
                0.5109989100000001,
                1.069287618332282,
                0.5109989100000001,
                0.51099891,
                0.5109989099999999,
                0.51099891,
                0.51099891,
                0.4599637012972942,
                0.51099891,
                0.5109989099999999,
                0.2471461755329017,
                0.5109989100000001,
                0.51099891,
                0.51099891,
                0.2020075254210441,
                1.2745373401794637,
                1.2745373401794642,
                0.51099891,
                1.0792900520129727,
                0.3055918613798666,
                0.51099891,
                0.51099891,
                0.5416256565136132,
                0.51099891,
                0.41690350750907873,
                0.51099891,
                0.3845972899977975,
                0.5109989099999999,
                0.049456003962875694,
                0.45778083722533586,
                0.19121078199288785,
                0.26200133060662634,
                0.5109989099999999,
                0.43606312837036765,
                1.274537340179464,
                0.5109989099999999,
                0.26618980257362357,
                0.51099891,
                0.5053083703483798,
                0.07680140126340373,
                0.5109989100000001,
                0.15464601220152652,
                0.07303899999999999,
                0.5658036892203895,
                0.5109989099999999,
                0.5109989100000001,
                0.2472930491131196,
                1.2745373401794637,
                0.51099891,
                0.10749289974773168,
                0.15681148531491085,
                0.51099891,
                0.51099891,
                1.2745373401794642,
                0.32820930671621384,
                0.51099891,
                0.7891526411246469,
                0.08474069999999999,
                0.23563715142235758,
                0.073039,
                1.274537340179464,
                0.21387213767873015,
                0.26764689575824563,
                0.6122080223507658,
                0.029801919686227085,
                0.51099891,
                0.4701187437927644,
                0.37689813585354964,
                0.07525000000000001,
                0.0469435,
                0.3403553929885993,
                0.18712913938210884,
                0.2897026081206029,
                1.2745373401794637,
                0.5109989100000001,
                0.4505746302125896,
                0.4424372133338909,
                0.51099891,
                0.2929493473241357,
                0.5109989100000001,
                0.406983163493149,
                0.040581504105307475,
                0.017408681897550293,
                0.8681839462161471,
                0.51099891,
                0.5109989100000001,
                0.5109989100000001,
                1.2745373401794637,
                0.2373327425705674,
                0.51099891,
                1.2745373401794637,
                0.51099891,
                0.28400464235635764,
                0.6957554437077377,
                1.274537340179464,
                0.4112463266588231,
                0.51099891,
                0.432910638683546,
                0.1842555692706449,
                0.51099891,
                0.2966926040470306,
                0.07524999999999998,
                0.5109989100000001,
                0.5109989099999999,
                0.4705466931853987,
                0.2718099104008732,
                0.51099891,
                0.25171008275957996,
                0.01587265612849631,
                0.32914245654676577,
                0.7027684333194455,
                0.3578179667864093,
                1.2745373401794644,
                1.2745373401794642,
                0.07525,
                0.30066950770707634,
                0.44293363704464245,
                1.2745373401794642,
                1.0054055749619544,
                0.21892583370338814,
                0.51099891,
                0.5109989100000001,
                0.51099891,
                1.274537340179464,
                0.16619017875489223,
                0.30667821420301333,
                0.07525,
                0.33197573868128427,
                1.079036335595068,
                0.5109989099999999,
                0.12685286945798308,
                0.07303900000000002,
                0.38513585269322587,
                0.51099891,
                0.5109989100000001,
                0.25461402114948917,
                0.51099891,
                0.33665302100261274,
                0.5109989099999999,
                1.0395625019170518,
                1.274537340179464,
                0.18678813636898384,
                0.4206298589105992,
                0.3173655199398695,
                1.030441893686547,
                0.5862990380681935,
                0.02608028274361157,
                0.5109989100000001,
                0.4083704291952479,
                0.07524999999999998,
                0.3458173633844969,
                1.2745373401794637,
                0.5109989099999999,
                0.13391017629764773,
                0.48238941,
                0.03479461893526964,
                0.37256517968011493,
                0.9879920924944672,
                0.51099891,
                0.5720179750807178,
                0.51099891,
                0.5109989099999999,
                0.2657440474603255,
                0.1741375499960678,
                0.09520810255661494,
                0.44667019075220793,
                0.10720034043194933,
                1.2745373401794637,
                1.2745373401794642,
                0.45296366031765045,
                1.2745373401794642,
                0.07046184600538831,
                1.274537340179464,
                1.2745373401794642,
                1.274537340179464,
                0.51099891,
                1.274537340179464,
                0.3137105030631733,
                1.2745373401794642,
                1.2745373401794637,
                1.2745373401794637,
                1.2745373401794637,
                1.2745373401794642,
                0.8046618027036354,
                0.5109989100000001,
                0.6007958617199799,
                0.36125554545700644,
                0.51099891,
                0.51099891,
                0.2517660423403208,
                0.51099891,
                0.4592213214987406,
                0.5025183447151523,
                0.51099891,
                0.42857825346642997,
                0.5109989100000001,
                1.2745373401794637,
                0.51099891,
                0.24655902527061796,
                0.51099891,
                0.6972750000958874,
                0.02009023217699335,
                0.27962836242666245,
                0.47796911,
                0.2876603443914523,
                1.2745373401794637,
                0.51099891,
                0.51099891,
                0.18925971737435393,
                1.0423504471987173,
                1.2745373401794642,
                0.51099891,
                0.5019787068971323,
                0.2461134006546133,
                0.13359651183438137,
                0.09786588478420072,
                0.5305377497803524,
                0.073039,
                0.24930075920506375,
                0.5109989099999999,
                0.51099891,
                0.3442004212214699,
                0.9034647806098514,
                0.5109989100000001,
                0.5803063347695809,
                0.33095140133947293,
                0.33933125663823105,
                0.21760767807252884,
                0.726324121456365,
                0.5109989100000001,
                0.2811454963778438,
                0.51099891,
                0.5109989100000001,
                0.054122605005612216,
                0.29697492984970153,
                0.6375500152277246,
                0.21130221103591607,
                0.51099891,
                0.6240235961801203,
                0.5109989100000001,
                0.6589247103086578,
                0.47766556603385296,
                0.11502693481394351,
                0.2182428729802553,
                0.2881642447691839,
                0.5585939812044814,
                0.51099891,
                0.317937165819119,
                0.09073828134484457,
                0.3070411324366086,
                0.5775922603427717,
                0.3331808735391767,
                0.5109989100000001,
                0.35021040204465237,
                0.4261996492752571,
                0.6492121882949653,
                1.247310667339499,
                0.51099891,
                0.07303899999999999,
                0.10610417405218892,
                0.20074089181712002,
                0.12125822176951861,
                0.51099891,
                0.51099891,
                1.0758017557605273,
                0.3912899712213742,
                0.8240652179355737,
                0.073039,
                0.5109989099999999,
                0.51099891,
                0.007460744841214506,
                1.274537340179464,
                0.1682946468388809,
                0.0992996892076366,
                0.51099891,
                0.5109989100000001,
                0.7154412806290242,
                0.5109989100000001,
                0.07525000000000001,
                0.30018639860790153,
                0.8448487565966863,
                0.23087495640590244,
                0.18255600282563472,
                0.49152282478466003,
                0.51099891,
                0.9022319228560691,
                0.5339411406287817,
                0.5109989100000001,
                0.20625065086426408,
                0.51099891,
                0.5578391772640646,
                0.19621984292516126,
                1.2745373401794642,
                0.6186212005788969,
                0.07525,
                0.09369442539792838,
                0.0882847,
                0.33662524547899053,
                0.17836516388132045,
                0.0852354,
                0.6891462416034976,
                0.5109989100000001,
                0.5939187929085871,
                0.5109989100000001,
                1.2745373401794642,
                1.274537340179464,
                1.2745373401794642,
                0.51099891,
                0.0297652147391973,
                1.2745373401794642,
                0.31961274376725657,
                0.51099891,
                1.274537340179464,
                0.5109989099999999,
                0.5109989100000001,
                0.51099891,
                0.51099891,
                0.5109989099999999,
                0.5109989099999999,
                0.039318166117850106,
                0.51099891,
                0.08650467729738864,
                0.28549488634591974,
                1.0373640701135496,
                0.30559637578569265,
                0.51099891,
                1.274537340179464,
                0.51099891,
                0.9042638013505021,
                0.9731416609668724,
                0.5109989100000001,
                0.2596842453138082,
                0.07303900000000002,
                0.51099891,
                0.6475760833531874,
                0.34027398323277264,
                0.357865673868524,
                0.30007203964371976,
                0.9801469767722665,
                0.8911562974970864,
                0.37627623813956135,
                0.40599667439587295,
                0.4336162015512107,
                1.274537340179464,
                0.51099891,
                0.51099891,
                0.5033645261105268
            ],
            "photocathode": [
                3626,
                9298,
                2530,
                1201,
                3622,
                8978,
                2822,
                4978,
                3181,
                3571,
                138,
                2072,
                840,
                2548,
                2366,
                9300,
                789,
                2605,
                9005,
                1209,
                2739,
                3284,
                3634,
                2003,
                3502,
                3703,
                2241,
                3609,
                2016,
                1577,
                631,
                152,
                573,
                2124,
                3566,
                3123,
                10544,
                2725,
                3619,
                258,
                522,
                3600,
                2376,
                3609,
                1473,
                77,
                3548,
                8792,
                5017,
                2294,
                770,
                1151,
                3515,
                3616,
                593,
                3558,
                3329,
                3565,
                4427,
                4341,
                8817,
                8819,
                4974,
                3512,
                1526,
                1103,
                3663,
                2187,
                3893,
                3580,
                3593,
                8864,
                3653,
                3641,
                3667,
                3414,
                3679,
                1199,
                6821,
                1861,
                4462,
                2474,
                3635,
                3133,
                7530,
                3555,
                862,
                6336,
                3619,
                3427,
                2168,
                936,
                1463,
                3567,
                3628,
                2375,
                7288,
                2254,
                6198,
                682,
                2032,
                1714,
                3210,
                5952,
                2423,
                870,
                1710,
                5432,
                4554,
                3412,
                3549,
                3071,
                3668,
                3650,
                8933,
                3687,
                3649,
                2317,
                2066,
                1688,
                1913,
                3550,
                3574,
                4416,
                3625,
                3158,
                3606,
                1047,
                2116,
                3569,
                2509,
                1166,
                3516,
                3142,
                1093,
                3616,
                3301,
                3601,
                6962,
                1577,
                5888,
                3595,
                3683,
                3491,
                1905,
                3764,
                3543,
                3562,
                3693,
                3570,
                3441,
                2342,
                4112,
                3539,
                7403,
                3480,
                3597,
                3541,
                3517,
                3411,
                3190,
                3564,
                3603,
                1738,
                3647,
                3667,
                3609,
                1374,
                9066,
                8777,
                3623,
                7671,
                2083,
                3549,
                3561,
                3825,
                3551,
                2937,
                3630,
                2717,
                3565,
                349,
                3248,
                1290,
                1791,
                3574,
                3040,
                9101,
                3601,
                1935,
                3439,
                3613,
                569,
                3443,
                1116,
                498,
                4086,
                3529,
                3559,
                1721,
                8711,
                3552,
                738,
                1062,
                3636,
                3557,
                8954,
                2247,
                3619,
                5623,
                646,
                1660,
                509,
                8973,
                1518,
                1924,
                4291,
                218,
                3477,
                3293,
                2643,
                555,
                353,
                2465,
                1248,
                2079,
                9118,
                3567,
                3114,
                3110,
                3504,
                2075,
                3522,
                2838,
                280,
                128,
                6147,
                3659,
                3596,
                3589,
                9109,
                1735,
                3514,
                8833,
                3544,
                1961,
                4887,
                8967,
                2901,
                3565,
                2934,
                1316,
                3668,
                2074,
                537,
                3392,
                3564,
                3235,
                1826,
                3634,
                1778,
                98,
                2382,
                4812,
                2481,
                8861,
                8952,
                542,
                2206,
                3065,
                9001,
                7119,
                1582,
                3596,
                3659,
                3593,
                9058,
                1207,
                2298,
                550,
                2324,
                7444,
                3553,
                926,
                523,
                2606,
                3696,
                3429,
                1886,
                3580,
                2382,
                3590,
                7213,
                8902,
                1298,
                2886,
                2225,
                7420,
                4086,
                195,
                3520,
                2892,
                540,
                2405,
                8764,
                3661,
                903,
                3497,
                247,
                2682,
                6844,
                3662,
                3964,
                3643,
                3522,
                1830,
                1166,
                697,
                3095,
                708,
                8858,
                9036,
                3136,
                8839,
                466,
                8967,
                9318,
                8834,
                3486,
                8851,
                2206,
                9250,
                8801,
                8884,
                8916,
                8984,
                5774,
                3605,
                4263,
                2548,
                3536,
                3585,
                1762,
                3398,
                3213,
                3632,
                3536,
                3027,
                3541,
                9140,
                3568,
                1666,
                3459,
                4979,
                144,
                2024,
                3409,
                2119,
                8895,
                3605,
                3584,
                1295,
                7317,
                8998,
                3579,
                3542,
                1672,
                948,
                715,
                3653,
                500,
                1684,
                3612,
                3592,
                2381,
                6464,
                3464,
                4138,
                2255,
                2339,
                1401,
                5179,
                3579,
                1936,
                3539,
                3677,
                381,
                2060,
                4477,
                1454,
                3440,
                4391,
                3543,
                4616,
                3351,
                839,
                1521,
                2051,
                4023,
                3499,
                2200,
                632,
                2241,
                4170,
                2351,
                3676,
                2418,
                3008,
                4548,
                8788,
                3548,
                509,
                711,
                1394,
                830,
                3508,
                3516,
                7586,
                2638,
                5990,
                473,
                3512,
                3521,
                55,
                8954,
                1130,
                698,
                3507,
                3610,
                5049,
                3568,
                520,
                2132,
                6059,
                1559,
                1288,
                3491,
                3602,
                6270,
                3820,
                3654,
                1515,
                3653,
                3862,
                1313,
                8753,
                4382,
                549,
                676,
                592,
                2398,
                1227,
                616,
                4685,
                3533,
                3960,
                3522,
                9208,
                8958,
                8980,
                3548,
                223,
                8739,
                2159,
                3705,
                8895,
                3661,
                3538,
                3639,
                3616,
                3534,
                3643,
                305,
                3577,
                593,
                2029,
                7512,
                2150,
                3643,
                8950,
                3469,
                6485,
                6582,
                3617,
                1870,
                499,
                3597,
                4534,
                2346,
                2550,
                2176,
                7036,
                6270,
                2619,
                2941,
                3070,
                9011,
                3629,
                3596,
                3629
            ]
        },
        "detections": 500,
        "events": 45278
    }
}