{
    "job_args": {
        "metric_limit": 500,
        "seed": 140856506
    },
    "job_id": "batch_98_do_500",
    "result": {
        "collections": {
            "crystal": [
                0.5109989100000001,
                0.18243712313247804,
                0.51099891,
                0.5109989100000001,
                0.23497953441772657,
                0.33296003447641964,
                0.51099891,
                0.24067951307161434,
                0.51099891,
                0.028492479157955497,
                0.335829588349935,
                0.12417846602319715,
                0.07110671344699421,
                0.5181773748436873,
                0.51099891,
                0.5030909702841669,
                0.19050709901748675,
                0.6806872424820456,
                0.51099891,
                0.51099891,
                0.11188821304010264,
                0.51099891,
                0.5109989099999999,
                1.0651477138072598,
                0.4426546135204127,
                0.51099891,
                0.51099891,
                0.51099891,
                1.274537340179464,
                0.4086345771058125,
                0.51099891,
                0.19621800575632814,
                0.32015477598689956,
                0.28286847284472566,
                1.0924983535812507,
                0.06563685546027287,
                0.51099891,
                0.51099891,
                0.51099891,
                0.8408246609888301,
                0.51099891,
                0.51099891,
                1.2745373401794637,
                0.51099891,
                0.03154348005340579,
                0.51099891,
                1.2745373401794642,
                0.2238572744137688,
                0.51099891,
                0.18582719534086178,
                0.03538247192097488,
                0.5109989100000001,
                0.024302382163597036,
                0.1720730812663468,
                1.274537340179464,
                0.3755175513568233,
                0.20906879277351167,
                0.51099891,
                0.44283918066630207,
                0.11573776671866798,
                1.2745373401794637,
                0.5109989100000001,
                0.2504618630562201,
                0.18542694538135285,
                0.5109989100000001,
                0.51099891,
                0.07657778079265881,
                1.2745373401794642,
                0.51099891,
                0.51099891,
                0.5690348431889909,
                0.8371680863993548,
                0.2901754218560741,
                0.51099891,
                0.5109989100000001,
                0.1930239967084788,
                0.08561197582252356,
                0.5109989099999999,
                0.51099891,
                0.51099891,
                0.51099891,
                0.6987631826659746,
                0.4243409669477207,
                0.5562980062096065,
                0.51099891,
                0.51099891,
                0.5109989099999999,
                0.3418470119864083,
                0.3096270050300922,
                0.03281628933930325,
                0.51099891,
                0.5109989100000001,
                0.3328488931676629,
                0.41076810487792126,
                0.25419243565993915,
                0.0930101658135894,
                0.51099891,
                1.274537340179464,
                0.683799695536347,
                0.33624284108944075,
                0.51099891,
                1.274537340179464,
                0.4153849827054333,
                0.9469150441072322,
                0.51099891,
                1.2745373401794642,
                0.15301206146221605,
                0.51099891,
                0.8323324084646938,
                0.5109989099999999,
                0.38178942600772625,
                0.07525000000000001,
                0.5656284082523633,
                0.51099891,
                0.6941627973934714,
                1.2745373401794637,
                1.274537340179464,
                0.07702681678100054,
                0.7639770507938264,
                0.07787858152943172,
                0.51099891,
                0.702305109725894,
                0.5109989099999999,
                0.51099891,
                0.51099891,
                0.0649328050815157,
                0.07525,
                1.274537340179464,
                0.7466021908195608,
                0.51099891,
                0.51099891,
                0.5558816496105407,
                0.51099891,
                1.2745373401794642,
                0.5109989100000001,
                0.31353682370076796,
                0.51099891,
                0.1714544730559991,
                0.22873184500984137,
                0.30743475353632427,
                1.274537340179464,
                0.9547777138810883,
                0.51099891,
                0.51099891,
                0.5109989100000001,
                1.2745373401794642,
                0.046943500000000006,
                0.8421165390561932,
                1.274537340179464,
                0.42086934625423544,
                0.51099891,
                0.5109989099999999,
                0.51099891,
                0.5109989100000001,
                0.1315228131399524,
                0.5109989099999999,
                1.274537340179464,
                0.11542237630875007,
                0.5109989099999999,
                0.51099891,
                0.027127822921500733,
                0.3164464796496629,
                0.51099891,
                0.51099891,
                1.2745373401794637,
                0.51099891,
                0.51099891,
                0.349402991644836,
                0.51099891,
                0.5109989100000001,
                0.09748411722309291,
                0.51099891,
                0.024781382957354936,
                1.274537340179464,
                0.21017658088914368,
                0.51099891,
                0.11079002792837744,
                0.2557616398582743,
                1.274537340179464,
                0.2007371443370235,
                0.5109989099999999,
                1.2745373401794642,
                1.274537340179464,
                0.23447394432530788,
                0.042634736039994875,
                0.43824885864607993,
                0.04493040624291422,
                0.51099891,
                0.51099891,
                1.0715646877838232,
                0.51099891,
                0.35142070261775205,
                0.20103217688312885,
                1.274537340179464,
                0.1058824413979166,
                0.18426223809107561,
                0.2685879276926256,
                0.5109989099999999,
                0.8982483926581027,
                0.51099891,
                0.24623687529439212,
                0.51099891,
                0.062168688374935555,
                0.10155367511459087,
                0.51099891,
                0.40694238369477687,
                0.5109989099999999,
                0.5666625601380312,
                0.8270852393733332,
                1.054737897929599,
                0.51099891,
                0.5109989099999999,
                0.19794817423946923,
                0.51099891,
                1.274537340179464,
                0.29555404408902514,
                0.10784042274004757,
                0.28212195492713926,
                0.51099891,
                0.27818825280628845,
                1.274537340179464,
                0.4098398861780158,
                0.087534,
                0.12924028356550787,
                0.51099891,
                0.30669359973407123,
                1.274537340179464,
                0.32993314341396807,
                0.22016105356193433,
                1.274537340179464,
                0.51099891,
                1.274537340179464,
                0.8299152802925851,
                0.48804518892255966,
                0.7168401086982339,
                1.2745373401794642,
                0.20842758714715542,
                0.9023217102742496,
                1.274537340179464,
                0.51099891,
                0.51099891,
                0.5109989100000001,
                0.08753400000000001,
                0.11841340328314787,
                0.14728729687795455,
                0.51099891,
                0.51099891,
                0.061912480220364774,
                0.21854936977258788,
                0.8214839727524418,
                0.02438956854129093,
                0.334800963723936,
                0.18307533446560353,
                0.013756393356206598,
                0.3813354059318477,
                0.24504796037011167,
                1.2745373401794642,
                0.6883695215941663,
                0.5109989100000001,
                0.5109989100000001,
                1.2745373401794635,
                0.32989915914381873,
                0.4709245241958454,
                0.51099891,
                0.39189763361720004,
                0.51099891,
                0.9673594580263576,
                1.0265306466039166,
                1.2745373401794644,
                0.5109989100000001,
                0.4476235844083897,
                0.24850020766752665,
                0.009327528351366299,
                0.7217713846269854,
                0.5109989100000001,
                0.07524999999999998,
                0.29403997359515033,
                0.51099891,
                0.03512362491394749,
                0.1289491249932025,
                0.51099891,
                0.18054156053165704,
                0.51099891,
                0.27198534570858685,
                0.306924363975284,
                0.51099891,
                0.06260881326915288,
                0.2934178243375134,
                0.8595093264310942,
                0.5109989100000001,
                0.3901483605775906,
                0.5109989100000001,
                1.274537340179464,
                0.51099891,
                0.51099891,
                0.08909724135638009,
                0.23269056509502262,
                0.054178736765574165,
                0.09827659760534141,
                0.44513162630485525,
                0.9738947009170814,
                0.5109989100000001,
                0.39154524628948717,
                0.51099891,
                0.11507567956798548,
                0.51099891,
                0.51099891,
                0.18468404578910158,
                0.2588142203722468,
                0.5109989099999999,
                0.5109989099999999,
                1.274537340179464,
                0.31233793322764286,
                0.5109989100000001,
                0.4582952134595949,
                0.17372399116689774,
                0.5026223236480835,
                0.2612651526702974,
                0.51099891,
                1.08709686626715,
                0.5109989100000001,
                0.51099891,
                0.49638324984993426,
                0.8315186151134605,
                0.07525,
                0.08154134484748565,
                0.5109989099999999,
                0.36565358924984803,
                0.51099891,
                0.29282101974956254,
                0.51099891,
                0.51099891,
                0.39497332570829874,
                0.6230323341984664,
                1.0851915185439194,
                0.11509631378960439,
                0.8401126978895243,
                0.51099891,
                0.6434946316286065,
                0.51099891,
                0.5916955226555538,
                0.6181763077569595,
                0.2585776758888174,
                0.51099891,
                0.5109989099999999,
                0.2094299977454619,
                0.07254046270337194,
                0.5109989099999999,
                1.2745373401794637,
                0.13786975396232765,
                0.29771804857146017,
                0.51099891,
                0.5109989100000001,
                0.7201514477614064,
                0.51099891,
                0.07525,
                0.5665229608633618,
                0.46149020247572115,
                0.98592563855832,
                0.5026148755010993,
                0.5109989100000001,
                0.5109989099999999,
                0.51099891,
                0.51099891,
                0.51099891,
                0.51099891,
                0.7265662166240835,
                0.958487152187871,
                0.51099891,
                0.7704188709759902,
                0.5109989100000001,
                0.21919329930092785,
                0.5109989100000001,
                0.44852706947190935,
                0.07524999999999998,
                0.3444055294170102,
                0.23036979529019677,
                1.2745373401794637,
                1.274537340179464,
                0.02309363823712407,
                0.328585169123332,
                0.27610581705326653,
                0.3203150649353278,
                0.5187561013613738,
                1.274537340179464,
                0.597278450677783,
                0.51099891,
                0.7963662533915227,
                1.142030961782094,
                0.15247314130982614,
                1.274537340179464,
                0.322685101139488,
                0.51099891,
                0.9619114795841996,
                0.17492075285828107,
                1.2745373401794642,
                1.2745373401794642,
                1.0574480374710498,
                0.51099891,
                0.51099891,
                0.30920364179834775,
                0.4323590857098834,
                0.0456769513455988,
                0.48046873557992525,
                0.51099891,
                0.06076310489770742,
                0.6740314873018832,
                0.8687702419227291,
                0.5109989100000001,
                1.2745373401794637,
                0.9165289707009971,
                0.288918986738582,
                0.29802345317343754,
                0.51099891,
                0.12697975782529747,
                0.51099891,
                0.10994236967504978,
                0.05662590000000001,
                0.51099891,
                1.2745373401794642,
                0.51099891,
                0.6817781121287552,
                0.4362800143357357,
                0.2641141614039594,
                0.51099891,
                0.49243941842774924,
                0.1785161506050944,
                0.51099891,
                0.51099891,
                0.07524999999999998,
                0.3028829594903054,
                0.9845585691400718,
                0.3081827015432966,
                0.5109989100000001,
                0.51099891,
                0.3221741554893398,
                0.51099891,
                0.51099891,
                0.10661100015390493,
                0.07034163259886583,
                1.274537340179464,
                0.15678074813642073,
                1.0218307945035727,
                1.2745373401794637,
                0.07525,
                0.06496604359960435,
                0.37959542018144654,
                0.5109989100000001,
                1.2745373401794637,
                0.058725939946402905,
                0.51099891,
                0.51099891,
                0.2391371828990565,
                0.4186391279441597,
                0.51099891,
                0.3134941524073885,
                0.2639488695211474,
                0.51099891,
                0.5109989100000001,
                0.24203858370408265,
                0.5109989100000001,
                0.3531895783379233,
                0.30240605647673136,
                0.5109989100000001,
                1.0125266004903366,
                1.274537340179464,
                0.6176752749997351,
                0.38416985222604505,
                0.51099891,
                0.7497983234650658,
                0.805144307818573,
                0.51099891,
                0.5109989100000001,
                0.18005564034664195,
                0.019956607741490162,
                1.2745373401794637,
                0.7914754073740426,
                1.2745373401794637,
                0.07525,
                0.453649311794313,
                0.51099891,
                0.5109989100000001,
                0.6571600315100403,
                0.45380156893820933,
                0.7339911071408883,
                1.274537340179464,
                0.729707224056568,
                0.443741773356096,
                0.51099891,
                0.16947709050896786,
                0.3191962020575153,
                0.8512672062745833,
                1.274537340179464,
                0.843037669384919,
                0.0874599557423323,
                0.073039,
                0.51099891,
                1.274537340179464,
                0.51099891,
                0.06603578196836596
            ],
            "photocathode": [
                3711,
                1238,
                3493,
                3638,
                1570,
                2385,
                3581,
                1648,
                3473,
                218,
                2289,
                844,
                487,
                3719,
                3501,
                3534,
                1348,
                4787,
                3566,
                3619,
                739,
                3565,
                3807,
                7407,
                3088,
                3558,
                3623,
                3581,
                9095,
                2811,
                3587,
                1357,
                2287,
                1953,
                7442,
                464,
                3598,
                3673,
                3543,
                5926,
                3571,
                3580,
                8990,
                3575,
                214,
                3624,
                8770,
                1602,
                3513,
                1286,
                264,
                3774,
                175,
                1244,
                9004,
                2737,
                1466,
                3718,
                3105,
                763,
                8888,
                3655,
                1749,
                1304,
                3508,
                3607,
                515,
                8632,
                3583,
                3568,
                3943,
                5878,
                1996,
                3576,
                3560,
                1374,
                599,
                3676,
                3663,
                3613,
                3535,
                4917,
                3027,
                3824,
                3501,
                3551,
                3476,
                2348,
                2221,
                232,
                3526,
                3627,
                2304,
                2857,
                1785,
                637,
                3638,
                9378,
                4884,
                2352,
                3625,
                8832,
                2917,
                6637,
                3509,
                9037,
                1053,
                3492,
                5836,
                3678,
                2600,
                541,
                4016,
                3663,
                4993,
                8841,
                9046,
                564,
                5146,
                533,
                3563,
                5003,
                3666,
                3604,
                3570,
                478,
                544,
                8838,
                5395,
                3749,
                3623,
                3978,
                3580,
                8977,
                3587,
                2318,
                3521,
                1109,
                1622,
                2213,
                9065,
                6806,
                3545,
                3573,
                3563,
                9169,
                320,
                5813,
                8981,
                3028,
                3614,
                3527,
                3614,
                3628,
                881,
                3648,
                8772,
                862,
                3662,
                3539,
                186,
                2284,
                3646,
                3609,
                9131,
                3545,
                3502,
                2479,
                3619,
                3608,
                671,
                3543,
                180,
                9032,
                1463,
                3569,
                824,
                1833,
                9056,
                1391,
                3541,
                8905,
                8906,
                1680,
                304,
                3167,
                317,
                3618,
                3694,
                7699,
                3545,
                2486,
                1357,
                8928,
                705,
                1241,
                1795,
                3697,
                6365,
                3531,
                1797,
                3596,
                420,
                734,
                3513,
                2864,
                3608,
                3966,
                5792,
                7303,
                3649,
                3597,
                1328,
                3585,
                8948,
                2085,
                776,
                1941,
                3549,
                1979,
                8916,
                2856,
                640,
                893,
                3544,
                2145,
                9138,
                2327,
                1510,
                8614,
                3665,
                9120,
                5833,
                3531,
                5181,
                8965,
                1410,
                6377,
                8624,
                3500,
                3642,
                3546,
                617,
                841,
                1042,
                3523,
                3633,
                461,
                1545,
                5676,
                136,
                2330,
                1306,
                87,
                2711,
                1685,
                8861,
                4768,
                3545,
                3607,
                9132,
                2284,
                3220,
                3583,
                2717,
                3622,
                6677,
                7156,
                8727,
                3485,
                3156,
                1791,
                71,
                5034,
                3564,
                552,
                2024,
                3645,
                236,
                949,
                3581,
                1270,
                3584,
                1852,
                2102,
                3608,
                454,
                2167,
                5965,
                3533,
                2655,
                3738,
                8913,
                3492,
                3515,
                609,
                1603,
                321,
                695,
                3120,
                6761,
                3666,
                2690,
                3430,
                834,
                3623,
                3522,
                1284,
                1851,
                3612,
                3448,
                9173,
                2153,
                3490,
                3246,
                1197,
                3470,
                1753,
                3487,
                7506,
                3612,
                3521,
                3427,
                5976,
                483,
                593,
                3690,
                2630,
                3484,
                2036,
                3621,
                3680,
                2630,
                4368,
                7663,
                794,
                5826,
                3513,
                4644,
                3617,
                4118,
                4346,
                1833,
                3703,
                3655,
                1552,
                457,
                3689,
                8664,
                1002,
                2085,
                3451,
                3524,
                5129,
                3541,
                521,
                4002,
                3227,
                6985,
                3514,
                3678,
                3536,
                3656,
                3466,
                3635,
                3529,
                5079,
                6669,
                3482,
                5394,
                3782,
                1523,
                3584,
                3147,
                558,
                2492,
                1630,
                9425,
                9148,
                171,
                2279,
                1946,
                2198,
                3615,
                8967,
                4163,
                3587,
                5568,
                8192,
                1038,
                8902,
                2245,
                3523,
                6787,
                1216,
                9005,
                8993,
                7473,
                3548,
                3602,
                2154,
                3045,
                303,
                3362,
                3521,
                418,
                4742,
                6254,
                3632,
                9129,
                6342,
                1965,
                2087,
                3622,
                898,
                3570,
                771,
                411,
                3577,
                8813,
                3564,
                4686,
                3136,
                1913,
                3624,
                3450,
                1299,
                3474,
                3564,
                522,
                2060,
                6953,
                2213,
                3523,
                3633,
                2278,
                3590,
                3609,
                778,
                500,
                8963,
                1158,
                7148,
                8892,
                503,
                436,
                2641,
                3559,
                8909,
                453,
                3608,
                3563,
                1613,
                2973,
                3587,
                2169,
                1813,
                3543,
                3570,
                1692,
                3544,
                2436,
                2174,
                3485,
                6985,
                8942,
                4355,
                2623,
                3426,
                5290,
                5848,
                3701,
                3529,
                1271,
                154,
                8864,
                5653,
                8793,
                542,
                3101,
                3562,
                3491,
                4750,
                3226,
                5180,
                8913,
                4998,
                3110,
                3609,
                1252,
                2221,
                5739,
                8793,
                5744,
                622,
                471,
                3581,
                8919,
                3636,
                455
            ]
        },
        "detections": 500,
        "events": 44070
    }
}