{
    "job_args": {
        "metric_limit": 300,
        "seed": 724361900
    },
    "job_id": "batch_211_do_300",
    "result": {
        "collections": {
            "crystal": [
                0.03726061056243146,
                0.6616572831606164,
                0.02455179817021746,
                0.6616572831606166,
                0.6616572831606164,
                0.6616572831606167,
                0.19965050864283157,
                0.6616572831606166,
                0.6616572831606166,
                0.6616572831606166,
                0.6616572831606166,
                0.0318187921703276,
                0.5777888929419983,
                0.03181882576456906,
                0.6616572831606164,
                0.43840308344716217,
                0.6616572831606166,
                0.07383691334334175,
                0.03181874303475399,
                0.6616572831606166,
                0.31299758603276107,
                0.35728503078228413,
                0.6616572831606166,
                0.6616572831606167,
                0.2756542731188502,
                0.45483854222683123,
                0.6616572831606167,
                0.32616010280469476,
                0.31403810912313224,
                0.6616572831606164,
                0.2570622439657678,
                0.6616572831606166,
                0.038909165055762474,
                0.19312609768469213,
                0.6616572831606166,
                0.03639201868848847,
                0.03181894345113978,
                0.03353265563182639,
                0.33388841251559376,
                0.6616572831606164,
                0.6616572831606166,
                0.6616572831606167,
                0.02177453225657684,
                0.4966423163870215,
                0.6616572831606167,
                0.10166243718842449,
                0.6616572831606164,
                0.5734721800140479,
                0.4395930062634585,
                0.6616572831606166,
                0.6616572831606166,
                0.13191295297762667,
                0.43822667625990375,
                0.43006487915806435,
                0.6616572831606166,
                0.6616572831606167,
                0.03181865468965305,
                0.03220543474981191,
                0.6616572831606166,
                0.03220579994056183,
                0.6616572831606166,
                0.09917893653224685,
                0.6616572831606166,
                0.6616572831606167,
                0.6616572831606166,
                0.06861120718175606,
                0.6616572831606166,
                0.6616572831606167,
                0.6616572831606166,
                0.6616572831606167,
                0.6616572831606166,
                0.03220535324597065,
                0.12182672719590282,
                0.6616572831606166,
                0.26037022421244405,
                0.3814703794513673,
                0.24447146928377156,
                0.43216152839065697,
                0.6616572831606166,
                0.6616572831606167,
                0.45431568646567544,
                0.005511255511647214,
                0.1737125032303669,
                0.025261845575836106,
                0.6616572831606167,
                0.6616572831606166,
                0.3138461483889289,
                0.6616572831606166,
                0.6616572831606166,
                0.03220580128604953,
                0.031818675763094995,
                0.6616572831606168,
                0.35311074056991654,
                0.15033807504494023,
                0.2671268761892858,
                0.036391909352448265,
                0.35634590351891726,
                0.17272646978759149,
                0.031818611816695555,
                0.6616572831606166,
                0.6616572831606167,
                0.6616572831606167,
                0.4074309388151903,
                0.18505282699914008,
                0.6616572831606166,
                0.6616572831606167,
                0.6616572831606164,
                0.6616572831606164,
                0.4457381258920773,
                0.6616572831606164,
                0.3757440646512724,
                0.6616572831606166,
                0.6616572831606166,
                0.03639195012325919,
                0.3178011899759259,
                0.46038045118696347,
                0.40780085602730026,
                0.2907215210035392,
                0.03220552352560651,
                0.6616572831606167,
                0.6616572831606166,
                0.6616572831606164,
                0.6616572831606167,
                0.12465912376871735,
                0.031818737542266,
                0.6616572831606166,
                0.6616572831606167,
                0.6616572831606166,
                0.031818575104899875,
                0.6616572831606166,
                0.6616572831606164,
                0.6616572831606166,
                0.054925850833185796,
                0.6616572831606166,
                0.6616572831606164,
                0.6616572831606164,
                0.46053387865838,
                0.6616572831606167,
                0.004725281915921253,
                0.6616572831606166,
                0.03639221485724066,
                0.0569356095414304,
                0.4498112348252815,
                0.6616572831606164,
                0.6616572831606164,
                0.6616572831606166,
                0.6616572831606163,
                0.44057880374055153,
                0.6616572831606166,
                0.00689197875749703,
                0.04609951643751519,
                0.4662111865855742,
                0.6616572831606167,
                0.2829137712796378,
                0.37735715507073375,
                0.6616572831606167,
                0.6616572831606166,
                0.6616572831606166,
                0.2835217080904958,
                0.15108609485151347,
                0.6616572831606166,
                0.6616572831606166,
                0.6616572831606164,
                0.11427171585703111,
                0.3685130526422732,
                0.6616572831606166,
                0.6616572831606164,
                0.2220603151463113,
                0.03973530483958936,
                0.6616572831606166,
                0.6616572831606166,
                0.6616572831606162,
                0.22266441795262892,
                0.6616572831606166,
                0.6616572831606167,
                0.6616572831606167,
                0.13426446639547418,
                0.6616572831606166,
                0.32241413321874973,
                0.293113921257686,
                0.6616572831606166,
                0.2743523107095375,
                0.6616572831606166,
                0.4956845011280948,
                0.6616572831606166,
                0.6616572831606164,
                0.6616572831606167,
                0.6616572831606166,
                0.6616572831606164,
                0.6616572831606166,
                0.6616572831606167,
                0.3133622168077026,
                0.3525167628394694,
                0.6616572831606166,
                0.03220574497730114,
                0.5196579968533539,
                0.6616572831606164,
                0.36713576358266065,
                0.032205666731666735,
                0.6616572831606166,
                0.19979234129484483,
                0.6616572831606164,
                0.4564655043511333,
                0.6616572831606166,
                0.6616572831606167,
                0.6616572831606164,
                0.6616572831606167,
                0.3484195405217054,
                0.6616572831606166,
                0.3800293537073962,
                0.4558049587012231,
                0.6616572831606164,
                0.6616572831606166,
                0.6616572831606166,
                0.18948057080089237,
                0.6616572831606167,
                0.6616572831606166,
                0.21182930279961382,
                0.6616572831606167,
                0.6616572831606166,
                0.4624543457252915,
                0.6616572831606166,
                0.6616572831606166,
                0.6616572831606166,
                0.6616572831606166,
                0.6616572831606167,
                0.03335009305548553,
                0.11005096286621271,
                0.6616572831606166,
                0.03220550218280273,
                0.38956895831879856,
                0.6616572831606164,
                0.6616572831606166,
                0.35821849031427194,
                0.42945839040922706,
                0.6616572831606164,
                0.6616572831606164,
                0.6616572831606164,
                0.3435428302655211,
                0.6616572831606164,
                0.6616572831606166,
                0.41499940817633985,
                0.6616572831606167,
                0.6616572831606166,
                0.6616572831606164,
                0.6616572831606164,
                0.6616572831606167,
                0.08804356189180551,
                0.46994748685386434,
                0.6616572831606167,
                0.01808911231299027,
                0.040180516453638404,
                0.2184634182585531,
                0.4410162960242794,
                0.12303025775918054,
                0.12288970605573035,
                0.6616572831606166,
                0.6616572831606167,
                0.6616572831606164,
                0.4258700051676318,
                0.6616572831606167,
                0.24520259209009676,
                0.6616572831606166,
                0.3006049771720054,
                0.2733872360112044,
                0.6616572831606166,
                0.34687680364071505,
                0.16962987583165598,
                0.6616572831606166,
                0.01625100756300568,
                0.4248480752468099,
                0.6616572831606164,
                0.1328966126620402,
                0.056006780126257705,
                0.6616572831606167,
                0.3400221192956352,
                0.6616572831606167,
                0.6616572831606167,
                0.032205402311743486,
                0.47252798874692264,
                0.34226243673828693,
                0.6616572831606167,
                0.17654654633399053,
                0.03631670826606961,
                0.6616572831606163,
                0.6616572831606164,
                0.5032383717825253,
                0.6616572831606164,
                0.1892477537115258,
                0.6616572831606164,
                0.03220552597668882,
                0.3665238796239104,
                0.6616572831606164,
                0.6616572831606167,
                0.6616572831606166,
                0.3974452315304171,
                0.14181512662581694,
                0.6616572831606166,
                0.03181860881018925,
                0.3231013086278557
            ]
        },
        "detections": 300,
        "events": 87216
    }
}