{
    "job_args": {
        "metric_limit": 300,
        "seed": 18292847
    },
    "job_id": "batch_28_do_300",
    "result": {
        "collections": {
            "crystal": [
                0.6616572831606164,
                0.16465307685209712,
                0.6616572831606166,
                0.6616572831606166,
                0.6616572831606167,
                0.032205803609615995,
                0.6616572831606167,
                0.6616572831606167,
                0.03220581971791965,
                0.6616572831606166,
                0.17268235358691486,
                0.34199194198718896,
                0.6616572831606164,
                0.6616572831606166,
                0.6575482878840351,
                0.6616572831606164,
                0.2548470546800835,
                0.08620077377552182,
                0.6616572831606167,
                0.6616572831606167,
                0.6616572831606167,
                0.41692588493133664,
                0.6616572831606164,
                0.6616572831606166,
                0.6616572831606166,
                0.29913470886804105,
                0.4604669354949617,
                0.6616572831606164,
                0.38896735211802513,
                0.6616572831606164,
                0.1293023040786736,
                0.6616572831606166,
                0.6616572831606166,
                0.43486674930539326,
                0.4603501494786434,
                0.6616572831606166,
                0.13506833018671138,
                0.6616572831606164,
                0.25752835802546103,
                0.6616572831606166,
                0.6616572831606167,
                0.10198577323725877,
                0.08278812237508015,
                0.09038211258039075,
                0.6616572831606166,
                0.4401905311402731,
                0.6616572831606164,
                0.6616572831606164,
                0.3340099665710665,
                0.036316681483276526,
                0.6616572831606164,
                0.6616572831606164,
                0.26906698316913674,
                0.03220570503831046,
                0.11289959889312251,
                0.6616572831606166,
                0.6616572831606164,
                0.6616572831606166,
                0.6616572831606166,
                0.6616572831606166,
                0.03181877388375473,
                0.6616572831606166,
                0.46591076131966463,
                0.6616572831606166,
                0.6616572831606166,
                0.11359628848599776,
                0.6616572831606166,
                0.16369038524055107,
                0.03181849745135243,
                0.0322055214956546,
                0.6616572831606166,
                0.3296100111490602,
                0.6616572831606167,
                0.6616572831606167,
                0.03220567798435372,
                0.6616572831606167,
                0.3850468441037139,
                0.041245896058755394,
                0.03747679486224542,
                0.6616572831606166,
                0.6616572831606166,
                0.6616572831606166,
                0.6616572831606167,
                0.4013936039656588,
                0.6616572831606166,
                0.10715634603654967,
                0.6616572831606166,
                0.09913220127414946,
                0.6616572831606166,
                0.01322439569577721,
                0.6616572831606166,
                0.15777840420060607,
                0.6616572831606166,
                0.6616572831606164,
                0.5100208330602867,
                0.6616572831606166,
                0.23606684255576427,
                0.26701637204518297,
                0.27378647998955075,
                0.6616572831606167,
                0.6616572831606167,
                0.23538908423522004,
                0.4350636554553305,
                0.25471758589252447,
                0.6616572831606166,
                0.6616572831606166,
                0.6616572831606164,
                0.6616572831606166,
                0.0855933349217809,
                0.6616572831606167,
                0.4577202820931694,
                0.6616572831606163,
                0.10853056306127229,
                0.6616572831606167,
                0.12127293169850994,
                0.6616572831606166,
                0.6616572831606164,
                0.291561627527849,
                0.6616572831606164,
                0.6616572831606167,
                0.5332749983325806,
                0.38185162802258943,
                0.6616572831606166,
                0.6616572831606166,
                0.03639220039242072,
                0.6616572831606164,
                0.6616572831606166,
                0.14409217684506603,
                0.3157749896061128,
                0.6616572831606167,
                0.6616572831606167,
                0.04894020044304037,
                0.6616572831606166,
                0.4793332569016509,
                0.1635898411495923,
                0.4600403307185833,
                0.6616572831606167,
                0.6616572831606167,
                0.6616572831606166,
                0.45049564459529867,
                0.1914294243737123,
                0.6616572831606167,
                0.03181873733176806,
                0.32157484155651495,
                0.25476524245943655,
                0.6616572831606166,
                0.6616572831606164,
                0.6616572831606167,
                0.43290021212837926,
                0.6616572831606167,
                0.6616572831606164,
                0.032205540943949874,
                0.6616572831606166,
                0.6616572831606166,
                0.09796393722162966,
                0.2483238141807592,
                0.6616572831606167,
                0.32220481080599417,
                0.6616572831606166,
                0.32836049056934274,
                0.6616572831606166,
                0.6616572831606167,
                0.6616572831606163,
                0.6616572831606167,
                0.15833004435406206,
                0.003722352386739014,
                0.6616572831606166,
                0.42803998081967,
                0.6616572831606167,
                0.6616572831606166,
                0.1994428298198942,
                0.03181854581349854,
                0.6616572831606167,
                0.6616572831606166,
                0.0016382596468383914,
                0.6616572831606167,
                0.1584642529404955,
                0.03181881880288686,
                0.11683733962200682,
                0.24496170837604397,
                0.6616572831606166,
                0.6616572831606164,
                0.3350283331189316,
                0.6616572831606166,
                0.3882069999500456,
                0.6616572831606164,
                0.6616572831606166,
                0.2313705911170066,
                0.6616572831606166,
                0.6616572831606166,
                0.20975332666449123,
                0.38148632550541606,
                0.47070979504250293,
                0.6616572831606167,
                0.6616572831606167,
                0.6616572831606166,
                0.6616572831606167,
                0.6616572831606166,
                0.4902126755873351,
                0.317076427926615,
                0.6616572831606164,
                0.536432518931781,
                0.6616572831606166,
                0.03631668931063571,
                0.3209904068234315,
                0.6616572831606166,
                0.6616572831606166,
                0.6386508380240403,
                0.45478369974941507,
                0.6616572831606166,
                0.6616572831606166,
                0.6616572831606167,
                0.6616572831606166,
                0.6616572831606164,
                0.6616572831606166,
                0.6616572831606166,
                0.6616572831606167,
                0.10374400676550777,
                0.6616572831606167,
                0.6616572831606164,
                0.1575099266117518,
                0.6616572831606167,
                0.3277194371498439,
                0.6616572831606164,
                0.48832352405333845,
                0.20096692919155096,
                0.38711028781667756,
                0.4681079954208899,
                0.2776210398605734,
                0.34749850815450695,
                0.16509280550213146,
                0.031818871940115824,
                0.03181891563805416,
                0.6616572831606166,
                0.6616572831606167,
                0.6616572831606166,
                0.22033734292406765,
                0.6616572831606166,
                0.6616572831606167,
                0.6616572831606167,
                0.11829414806548577,
                0.6616572831606167,
                0.18598145105040514,
                0.6616572831606166,
                0.6616572831606164,
                0.6616572831606166,
                0.03631670669472287,
                0.1339020397466948,
                0.6616572831606166,
                0.4508019491531633,
                0.06720897909995696,
                0.27437354721987206,
                0.6616572831606166,
                0.6243782423510307,
                0.03181893967270596,
                0.6616572831606167,
                0.6616572831606164,
                0.036391974897572184,
                0.6616572831606166,
                0.03639200419446467,
                0.6616572831606166,
                0.6616572831606164,
                0.6616572831606166,
                0.03181872156550886,
                0.6616572831606164,
                0.6616572831606166,
                0.031818893421669964,
                0.028338578990733554,
                0.1397977310317493,
                0.6616572831606166,
                0.336733038516679,
                0.42772502542078106,
                0.18236002420003466,
                0.6616572831606166,
                0.6616572831606166,
                0.16654560248140893,
                0.03181850449870372,
                0.6616572831606166,
                0.032205646480210626,
                0.6616572831606164,
                0.6616572831606167,
                0.41771251769349566,
                0.2131247309831795,
                0.4538806208655243,
                0.20149469805697368,
                0.6616572831606164,
                0.3739670248001188,
                0.6616572831606166,
                0.20018279733313243,
                0.030578786280284133,
                0.3452508186041663,
                0.6616572831606167,
                0.6616572831606166,
                0.45030192760200866,
                0.6616572831606164,
                0.14329169029456124,
                0.25050453286509305,
                0.031818507595269635,
                0.39218125708483964,
                0.03181893096799866
            ]
        },
        "detections": 300,
        "events": 76348
    }
}