{
    "job_args": {
        "metric_limit": 300,
        "seed": 767971420
    },
    "job_id": "batch_81_do_300",
    "result": {
        "collections": {
            "crystal": [
                0.04044628702628028,
                0.036391733879841986,
                0.6616572831606166,
                0.6616572831606166,
                0.6616572831606167,
                0.6616572831606167,
                0.6616572831606167,
                0.43958509371427423,
                0.07161342490265743,
                0.10289473371872981,
                0.6616572831606167,
                0.6616572831606166,
                0.00912071160533135,
                0.6616572831606167,
                0.28883326544149734,
                0.6616572831606164,
                0.032205515908823576,
                0.6616572831606167,
                0.03220556252896409,
                0.1084640256922158,
                0.6616572831606166,
                0.6616572831606166,
                0.44200341351871764,
                0.031818525886410855,
                0.11566036133503133,
                0.6616572831606166,
                0.6616572831606167,
                0.6616572831606167,
                0.6616572831606166,
                0.28577607847162934,
                0.39935661089519503,
                0.6616572831606164,
                0.6616572831606167,
                0.07584676784343014,
                0.6616572831606166,
                0.33591903605377815,
                0.6616572831606164,
                0.3377984455815821,
                0.6616572831606166,
                0.42142234385287825,
                0.03639198122817514,
                0.03220551101270585,
                0.6616572831606167,
                0.40898737545824176,
                0.14931534502787114,
                0.19635338426453292,
                0.6616572831606166,
                0.03220561523493569,
                0.03639196632497499,
                0.032205754592603913,
                0.26955612689429653,
                0.6616572831606166,
                0.3733545830311007,
                0.6616572831606166,
                0.007707360572707444,
                0.45540648571071474,
                0.46734991315420565,
                0.17298787334496116,
                0.6616572831606166,
                0.22713778774125837,
                0.20230363323771428,
                0.261426962626804,
                0.03220556076383092,
                0.6616572831606166,
                0.2482626629441404,
                0.6616572831606164,
                0.0556852358635762,
                0.44429560053021444,
                0.44975312487448493,
                0.34144386323601295,
                0.6616572831606166,
                0.03181894136064,
                0.6616572831606166,
                0.6616572831606167,
                0.0867795118088085,
                0.6616572831606167,
                0.03220547834702841,
                0.03220575124479829,
                0.4345076772678691,
                0.6616572831606166,
                0.6616572831606167,
                0.01845972408408732,
                0.6616572831606164,
                0.6616572831606164,
                0.05668837974580199,
                0.6616572831606164,
                0.036391762409024385,
                0.2908487472128508,
                0.06572962470396027,
                0.6616572831606164,
                0.03220547694907848,
                0.6616572831606166,
                0.6616572831606166,
                0.38832128645899155,
                0.1351676400728472,
                0.6616572831606166,
                0.1254128100115357,
                0.036391954765017574,
                0.6616572831606164,
                0.4838379045476652,
                0.6616572831606166,
                0.032205788712950933,
                0.6616572831606166,
                0.6616572831606166,
                0.03181870505706266,
                0.6616572831606166,
                0.031818671041956334,
                0.6616572831606166,
                0.6616572831606164,
                0.5156462867297749,
                0.43732668671744424,
                0.0263485,
                0.6616572831606164,
                0.6616572831606166,
                0.2729159476458224,
                0.1961431370613243,
                0.6616572831606164,
                0.6616572831606166,
                0.33676476491884744,
                0.4952150356619718,
                0.6616572831606167,
                0.6616572831606166,
                0.6616572831606166,
                0.6616572831606166,
                0.6616572831606166,
                0.11749405774432153,
                0.33236929738240845,
                0.6616572831606168,
                0.4651846547073447,
                0.6616572831606166,
                0.6616572831606166,
                0.18122716303816472,
                0.6616572831606166,
                0.032205494622621234,
                0.03862376514958521,
                0.2754573940523337,
                0.6616572831606164,
                0.6616572831606164,
                0.6616572831606167,
                0.6616572831606166,
                0.6616572831606166,
                0.42132235897876186,
                0.6616572831606166,
                0.6616572831606166,
                0.6616572831606166,
                0.43906739001355327,
                0.6616572831606166,
                0.6616572831606167,
                0.6616572831606166,
                0.6616572831606166,
                0.06049407728544798,
                0.2573850514455349,
                0.22721417350570222,
                0.6616572831606164,
                0.2057223076064129,
                0.6616572831606164,
                0.03220540618655725,
                0.17676920633263704,
                0.6616572831606167,
                0.6616572831606167,
                0.2690955505152723,
                0.6616572831606167,
                0.6616572831606166,
                0.03181882397635643,
                0.6616572831606166,
                0.6616572831606167,
                0.48497225877556444,
                0.6616572831606167,
                0.1262498612277554,
                0.03220534774082599,
                0.6616572831606167,
                0.40824331593250396,
                0.07685482765547047,
                0.6616572831606164,
                0.06079102043112905,
                0.6616572831606164,
                0.6616572831606166,
                0.25281912599394357,
                0.6616572831606166,
                0.02310741452608689,
                0.6616572831606164,
                0.6616572831606167,
                0.048150105399691334,
                0.032205804687850274,
                0.6616572831606164,
                0.6616572831606164,
                0.032205496257409774,
                0.6616572831606167,
                0.6616572831606166,
                0.09892226885291526,
                0.6616572831606166,
                0.28585347876735456,
                0.6616572831606166,
                0.6616572831606166,
                0.6616572831606166,
                0.6616572831606166,
                0.6616572831606164,
                0.6616572831606166,
                0.6616572831606167,
                0.2291639398046505,
                0.27898224274511585,
                0.2852801820832181,
                0.6616572831606166,
                0.6616572831606166,
                0.6616572831606167,
                0.12073089543607896,
                0.6616572831606163,
                0.6616572831606166,
                0.6616572831606164,
                0.6616572831606167,
                0.2881343772511952,
                0.6616572831606166,
                0.6616572831606167,
                0.6616572831606166,
                0.303662092762378,
                0.6616572831606167,
                0.6616572831606164,
                0.34422933175805137,
                0.45312137641110684,
                0.016706883175432785,
                0.45635872179887726,
                0.6616572831606167,
                0.6616572831606167,
                0.6616572831606166,
                0.34385317056092135,
                0.6616572831606167,
                0.013419341356387782,
                0.6616572831606164,
                0.6616572831606166,
                0.3030065327556959,
                0.6616572831606164,
                0.5834965578766691,
                0.030006950324401482,
                0.6616572831606166,
                0.013732653008408981,
                0.47214860701211914,
                0.6616572831606167,
                0.036392120377507275,
                0.1661055187740137,
                0.6616572831606166,
                0.6616572831606167,
                0.6616572831606166,
                0.4592661080082854,
                0.031818559960168295,
                0.6616572831606167,
                0.6616572831606167,
                0.03220550465911594,
                0.0249156503910537,
                0.03220574089672886,
                0.6616572831606166,
                0.42553146058366154,
                0.10408390667285781,
                0.3887065265166211,
                0.6616572831606166,
                0.07625723488404401,
                0.6616572831606166,
                0.6616572831606167,
                0.032205486138786786,
                0.036642129179921455,
                0.6616572831606166,
                0.6616572831606166,
                0.3775181228812301,
                0.12432651784469785,
                0.6616572831606166,
                0.35738904163289487,
                0.6616572831606166,
                0.4413271216586173,
                0.4462498863145505,
                0.03639190455227308,
                0.3540469306790638,
                0.6616572831606166,
                0.6616572831606166,
                0.6616572831606167,
                0.6616572831606167,
                0.11406442125360783,
                0.6616572831606166,
                0.14492614554130334,
                0.6616572831606166,
                0.06371077410025994,
                0.6616572831606166,
                0.3070452307612915,
                0.3005231632885481,
                0.3766915044280451,
                0.004155179474432755,
                0.430561319073444,
                0.6616572831606166,
                0.4643645655314266,
                0.6616572831606166,
                0.6616572831606166,
                0.46466028934479336,
                0.6616572831606166,
                0.6616572831606166,
                0.03220539905706781,
                0.6616572831606166,
                0.018100842890195788,
                0.6616572831606167,
                0.6616572831606166,
                0.6616572831606166,
                0.6616572831606166,
                0.03220573912544299
            ]
        },
        "detections": 300,
        "events": 86670
    }
}