{
    "job_args": {
        "metric_limit": 500,
        "seed": 702708
    },
    "job_id": "batch_128_do_500",
    "result": {
        "collections": {
            "crystal": [
                0.5058377097539453,
                1.163047476939926,
                0.567175511451514,
                0.16194390652880683,
                0.5109989100000001,
                1.0463880641592547,
                0.2406440822199245,
                1.0963399804881209,
                0.3062861628400203,
                0.21892271444003938,
                0.7142354691522325,
                0.12189110054965681,
                0.07303900000000002,
                1.460822329157775,
                0.8120101271583074,
                1.0221485855062618,
                0.21417822429915215,
                1.073817512902693,
                1.460822329157775,
                0.026983009994695828,
                0.36732576621628227,
                1.460822329157775,
                1.460822329157775,
                0.5731585215156476,
                0.9011200850534158,
                0.2098183025161545,
                0.08161133549166227,
                1.460822329157775,
                0.8868357928068243,
                0.16782096667334945,
                0.6077882047653234,
                0.07524999999999998,
                1.1819743137219816,
                1.4608223291577749,
                0.41349863678248805,
                0.8407523488145627,
                0.3952678828394895,
                1.460822329157775,
                0.14140566679666505,
                0.22302061462582412,
                0.16026201080034727,
                1.4608223291577753,
                0.988290380387084,
                0.6693587616544073,
                1.4608223291577753,
                1.460822329157775,
                0.40155831531688224,
                0.18900712250439702,
                0.07525000000000001,
                1.1595203986946876,
                0.28811568306855406,
                0.31932417278974223,
                0.8968197968481109,
                0.9492782155976073,
                0.040640777527901184,
                0.4787172959382298,
                0.04187696996392076,
                0.06446672853883006,
                0.1313569867558913,
                0.3933621793443831,
                1.4608223291577749,
                0.10669992862359867,
                0.931449000699025,
                0.40475655755259354,
                0.8559266508057635,
                1.1156108517733512,
                1.4608223291577749,
                1.460822329157775,
                0.20148006321251255,
                0.7115040579169873,
                0.11343163797492997,
                0.21971195743079797,
                1.0173320053020924,
                1.460822329157775,
                1.460822329157775,
                0.2973736840479838,
                0.6459366777920368,
                0.4222129182400022,
                1.460822329157775,
                0.08387952707070824,
                1.0834174817203854,
                0.32405287679120853,
                0.2241035448266529,
                0.9664321163393641,
                0.1679631175654248,
                0.07525,
                1.0533856199072227,
                1.4608223291577753,
                0.10343301281302941,
                0.5128495416855618,
                0.22139717566710118,
                0.978052444482181,
                1.4608223291577753,
                0.22015430225831756,
                1.460822329157775,
                1.4608223291577753,
                0.5339278279617938,
                0.47175581007466466,
                1.4608223291577753,
                0.9722116484538483,
                1.06989598306963,
                0.38778192844561193,
                1.4608223291577753,
                0.2476684418116169,
                0.8918561353751107,
                0.3062472867728251,
                0.8514297496886457,
                0.6502198783437506,
                0.8143646636962554,
                0.24207889949187228,
                0.5706771738443698,
                0.07525,
                0.7705275962665894,
                0.17190453843894155,
                0.6078283699543037,
                0.16847093718052536,
                0.20927392236724973,
                1.460822329157775,
                1.4608223291577749,
                0.07525,
                1.460822329157775,
                1.0783029062267944,
                0.4888371311838936,
                0.07524999999999998,
                1.0044432614062542,
                0.3298721535705776,
                0.9217491019917374,
                0.4858489110682441,
                1.0135184925643423,
                1.460822329157775,
                1.2127106345720933,
                0.8936887566557837,
                0.5493288135583545,
                1.4608223291577755,
                1.2123499304330287,
                0.6607678552512921,
                0.9887168405494072,
                0.26738806647565827,
                0.21935031175969755,
                0.31075018703229945,
                1.1251457983266724,
                0.0745044837854516,
                0.7782222594426932,
                1.4608223291577753,
                1.460822329157775,
                0.07303900000000002,
                1.2141438015694228,
                0.9986295052576384,
                0.18058006636137514,
                1.2236915799182861,
                0.24331034239171534,
                1.0656298945097367,
                1.0885755687680385,
                0.21687034479035022,
                1.1961157253816632,
                1.460822329157775,
                1.460822329157775,
                0.800213426254781,
                1.1701168455309336,
                0.05402227747190752,
                0.9318509398931621,
                0.7660935212397617,
                0.6226123699313116,
                0.5063364194138593,
                0.41416855311640516,
                0.2592753835074568,
                0.8568278214441589,
                0.05554425383774697,
                1.460822329157775,
                0.012461397760658965,
                0.2163619849143337,
                0.9552456012115891,
                0.2468673846217213,
                1.4608223291577753,
                1.2324223815168884,
                1.4608223291577749,
                0.537252891450627,
                1.1083046191831312,
                0.5311257707343436,
                0.7580931137225387,
                0.4973095013793815,
                1.460822329157775,
                0.9504166486191418,
                0.4904210034741975,
                1.2448533859931432,
                0.18478331237955284,
                0.07525000000000001,
                0.09036314771246613,
                0.30092777309086416,
                0.5109989100000001,
                0.9902119344310737,
                0.07588631922600553,
                0.2548212895484845,
                0.30274945530885966,
                0.16274970446330037,
                0.24859334382342738,
                0.2404698127203174,
                1.4608223291577753,
                1.460822329157775,
                0.2610260452104806,
                0.3598563350556283,
                0.8781460856988453,
                0.48791176197097463,
                0.3363946967792834,
                0.2935161472679797,
                0.04010542596413513,
                0.2960875168817071,
                0.0560751353893838,
                0.9560386464386825,
                0.19471635771203627,
                0.21251606878439938,
                0.8510745185536781,
                0.19083162466877834,
                0.4762494080546714,
                0.006177849132906532,
                0.21941850369878754,
                1.460822329157775,
                1.4608223291577749,
                1.460822329157775,
                1.460822329157775,
                0.35538691261846067,
                1.206869195524652,
                0.5112769932710712,
                0.3664620384177902,
                0.2635080813551443,
                0.599869609530308,
                0.7955526161095168,
                0.9881238798983479,
                0.28320320144240385,
                0.3285274698068399,
                1.158328867255108,
                0.6764674664916259,
                1.0438501623286391,
                0.23748380390217871,
                0.2103673427424236,
                0.029987085536353764,
                0.30634113450451245,
                0.47140910197948727,
                0.7120269343244353,
                1.1988786514732426,
                1.1888386779219333,
                0.39527789153013193,
                0.51099891,
                1.460822329157775,
                0.2655514689470248,
                0.1279336868849027,
                0.3669606462752916,
                1.460822329157775,
                0.45024237541063983,
                1.460822329157775,
                0.5109989099999999,
                0.5454380043935085,
                0.11755221857995533,
                1.4608223291577753,
                0.34049197926291885,
                0.844530315076558,
                0.7840482591012218,
                1.4608223291577753,
                0.510836840429469,
                0.5094735131505237,
                0.26585921386395533,
                0.30262816232139406,
                0.5345279196633217,
                0.2243301721248012,
                0.3689004746597729,
                1.460822329157775,
                1.272738539517897,
                0.09502801222338671,
                1.460822329157775,
                0.6103157169797873,
                0.01730702621772373,
                0.2810307214175973,
                1.203314537962206,
                0.07524999999999998,
                0.4307646608791794,
                0.6801299051074757,
                0.3583738822793668,
                0.34212580935285947,
                0.9405812622977637,
                1.1129951775824583,
                0.5791415652873062,
                0.4263247250166692,
                0.2579482165097825,
                0.3288762451188749,
                1.460822329157775,
                0.8345954692143267,
                0.23840244204617944,
                0.0466405,
                0.030945436909407983,
                0.3348652930889675,
                0.3329607893048564,
                0.16464162685686887,
                0.29356981271699095,
                1.1938555383845182,
                1.460822329157775,
                0.3374991897396928,
                0.36605853860084747,
                1.4608223291577753,
                0.09494651783054242,
                1.460822329157775,
                1.4608223291577753,
                0.6101971684137704,
                0.15918303282823443,
                0.47205252212652804,
                0.16970856301469595,
                0.3183126713382479,
                0.21198721460780487,
                0.43741629100256724,
                0.2383315318714096,
                0.5109989100000001,
                0.2951810890706431,
                0.7621879315302849,
                1.2042319065529927,
                1.460822329157775,
                1.460822329157775,
                1.1398943234035028,
                0.21652389228558833,
                0.3902605668044672,
                0.601926619973702,
                1.4608223291577749,
                0.20266576748770126,
                0.24490776493019262,
                0.37883029296481063,
                0.779127584756949,
                0.2865643990152439,
                0.07525000000000001,
                1.4608223291577753,
                1.0815128335253497,
                0.14348067693235222,
                1.1669280005666263,
                0.09493911022981238,
                0.7154448225039458,
                1.2246467650545887,
                0.5690527805570864,
                0.3282804644883866,
                0.5294898844381354,
                0.9134890668988839,
                1.4608223291577753,
                0.5322882283158772,
                0.9543508408782645,
                0.030304571156194393,
                0.367018976041691,
                0.8082973647821483,
                0.027203825020658105,
                0.27022693648046525,
                1.460822329157775,
                0.580172586323281,
                0.7198008089345771,
                0.16961116633567397,
                0.9838640309612889,
                1.1368646609946458,
                1.4608223291577749,
                0.40228596995887056,
                1.460822329157775,
                0.21239405165058714,
                1.4608223291577749,
                0.9261832054294173,
                0.3145973236915538,
                1.460822329157775,
                0.061366566244685894,
                0.7542911100130942,
                1.0347025361369064,
                1.460822329157775,
                1.460822329157775,
                0.6721653668090781,
                1.460822329157775,
                0.2165651328523945,
                1.460822329157775,
                1.460822329157775,
                0.8597808572727452,
                0.7878996190985619,
                0.23550491874659857,
                0.997392021594177,
                0.06935212512147582,
                0.6368102473161406,
                0.18666524605367502,
                1.4608223291577753,
                1.2232841575867468,
                1.0100299067861496,
                0.15897382805127175,
                0.07638011623127378,
                0.9639480507814819,
                0.3933630821478746,
                1.1613543548035232,
                0.4212598551196175,
                1.460822329157775,
                0.27131223367821944,
                0.8307485262036967,
                0.07524999999999998,
                0.6315543885796997,
                1.0547659915470964,
                0.14603267219391786,
                0.43728364921816354,
                0.7838887899532236,
                0.3427777075224696,
                0.0023196523831044698,
                0.51099891,
                0.8740685682440649,
                0.4462333158371988,
                0.3367158354821148,
                0.7088828313483122,
                0.3087786737912833,
                1.460822329157775,
                0.9916534075589295,
                1.0968611666586419,
                0.23174411387880095,
                0.0677955893948123,
                1.1568988362215313,
                0.36850610203315437,
                1.200703410012828,
                0.28196673115678256,
                1.2333307156119038,
                0.28097527644556824,
                0.9868418078745784,
                0.41872508218828663,
                1.460822329157775,
                0.0763033319121138,
                1.4608223291577749,
                0.12840517772360638,
                0.30025275682936925,
                0.3229094349625484,
                0.30595061755270575,
                0.49891230091530014,
                0.6166733528295409,
                0.4031575365628505,
                0.19894547521664177,
                0.5405822996095191,
                0.3409717951492659,
                1.460822329157775,
                0.3161133489343449,
                0.3174211411486925,
                1.1224053972492896,
                1.1224719845721431,
                0.2913393761601565,
                1.460822329157775,
                0.6873529723269967,
                1.0293258858637273,
                0.1797286860991427,
                0.5172675465191882,
                0.5707099497576906,
                0.08055330958162799,
                0.2812687645168379,
                0.42374154126809493,
                0.07524999999999998,
                1.4608223291577753,
                0.5415464676835486,
                0.4136170804321444,
                0.12261097705461052,
                0.3886167993523969,
                1.1801019911693191,
                0.5405949562927961,
                0.073039,
                0.13739067334018637,
                0.7330102097989122,
                0.22800586356281716,
                0.7140790302143174,
                0.22663689000522913,
                0.5202074865318584,
                1.2933035729287148,
                0.7327541498203242,
                0.614553650331223,
                1.4608223291577749,
                0.788240694559293,
                1.460822329157775,
                1.0919691683210138,
                1.460822329157775,
                0.7570779110522795,
                1.460822329157775,
                0.3107918409122848,
                1.4608223291577749,
                1.4608223291577753,
                0.30371331126064316,
                1.1266554793729922,
                1.460822329157775,
                0.2977911943333441,
                0.3692814618015728,
                0.3422267302551545,
                1.1642784660878662,
                0.18340429847693307,
                0.22774316460294114,
                0.6993012587085472,
                1.460822329157775,
                1.460822329157775,
                0.44775650182638116,
                0.1884169978751242,
                0.0876557,
                0.30064785306920555,
                1.373919805981438,
                1.460822329157775,
                0.12757396511470764,
                1.460822329157775,
                0.191683904885323,
                1.460822329157775,
                0.604381366960067,
                0.51099891,
                0.390250682532364,
                1.3021353001435312,
                1.460822329157775,
                0.3820251988345941,
                1.1745160249716426
            ],
            "photocathode": [
                3625,
                8220,
                3958,
                1120,
                3576,
                7428,
                1603,
                7695,
                2167,
                1530,
                5063,
                831,
                531,
                10013,
                5640,
                7084,
                1435,
                7535,
                10231,
                190,
                2559,
                10091,
                10236,
                3943,
                6332,
                1442,
                593,
                10182,
                6160,
                1169,
                4225,
                501,
                8582,
                10249,
                2860,
                5840,
                2758,
                10118,
                1019,
                1589,
                1096,
                10498,
                7005,
                4839,
                10719,
                10175,
                2693,
                1375,
                499,
                8428,
                2144,
                2225,
                6478,
                6787,
                271,
                3351,
                302,
                437,
                953,
                2627,
                10217,
                759,
                6564,
                2812,
                5952,
                8202,
                10028,
                9991,
                1363,
                5112,
                829,
                1599,
                7079,
                10192,
                10229,
                2046,
                4553,
                2914,
                10527,
                596,
                7418,
                2243,
                1582,
                6716,
                1135,
                534,
                7339,
                10406,
                743,
                3537,
                1485,
                6961,
                10316,
                1478,
                10255,
                10277,
                3794,
                3481,
                10345,
                6740,
                7457,
                2753,
                10084,
                1775,
                6503,
                2206,
                6063,
                4549,
                5865,
                1698,
                3913,
                476,
                5559,
                1175,
                4273,
                1212,
                1514,
                10178,
                10700,
                482,
                10363,
                7570,
                3348,
                558,
                6972,
                2399,
                6491,
                3466,
                7012,
                10272,
                8665,
                6257,
                3816,
                10648,
                8439,
                4716,
                7016,
                1862,
                1517,
                2211,
                7786,
                536,
                5457,
                10447,
                10349,
                538,
                8626,
                7016,
                1281,
                8639,
                1644,
                7725,
                7723,
                1576,
                8284,
                10200,
                10185,
                5634,
                8359,
                353,
                6526,
                5301,
                4323,
                3465,
                2891,
                1822,
                6030,
                351,
                10295,
                76,
                1558,
                6730,
                1748,
                10239,
                8711,
                10367,
                3684,
                7962,
                3566,
                5341,
                3401,
                10309,
                6708,
                3422,
                8754,
                1338,
                526,
                636,
                2092,
                3605,
                6823,
                573,
                1779,
                2148,
                1137,
                1780,
                1667,
                10274,
                10396,
                1795,
                2550,
                6043,
                3397,
                2360,
                2114,
                294,
                2189,
                398,
                6538,
                1355,
                1409,
                6103,
                1326,
                3321,
                39,
                1447,
                10390,
                10408,
                10173,
                10216,
                2472,
                8493,
                3735,
                2607,
                1851,
                4283,
                5553,
                6962,
                1978,
                2306,
                8268,
                4779,
                7122,
                1677,
                1498,
                217,
                2136,
                3398,
                4950,
                8343,
                8355,
                2745,
                3666,
                10039,
                1873,
                862,
                2504,
                10481,
                3149,
                10461,
                3592,
                3801,
                873,
                10248,
                2300,
                5880,
                5434,
                10217,
                3848,
                3627,
                1864,
                2163,
                3815,
                1504,
                2506,
                10030,
                8972,
                650,
                10297,
                4166,
                134,
                1985,
                8711,
                506,
                3039,
                4853,
                2550,
                2394,
                6605,
                7842,
                4044,
                3017,
                1779,
                2274,
                10229,
                5927,
                1631,
                319,
                212,
                2263,
                2294,
                1138,
                2038,
                8608,
                10312,
                2450,
                2530,
                10281,
                700,
                10133,
                10188,
                4379,
                1228,
                3403,
                1214,
                2265,
                1456,
                2981,
                1679,
                3613,
                2109,
                5288,
                8250,
                10348,
                10219,
                7842,
                1572,
                2773,
                4229,
                10198,
                1422,
                1702,
                2709,
                5410,
                1992,
                526,
                10396,
                7576,
                993,
                8250,
                678,
                5074,
                8671,
                3853,
                2385,
                3705,
                6379,
                10105,
                3708,
                6566,
                227,
                2614,
                5634,
                197,
                1961,
                10277,
                4189,
                5043,
                1164,
                7048,
                8099,
                10129,
                2754,
                10158,
                1506,
                10179,
                6514,
                2157,
                10471,
                432,
                5477,
                7163,
                10481,
                10206,
                4626,
                9991,
                1496,
                9979,
                10350,
                6112,
                5530,
                1631,
                7085,
                476,
                4500,
                1330,
                10517,
                8413,
                7272,
                1136,
                535,
                6757,
                2735,
                8051,
                3041,
                10265,
                1899,
                5917,
                506,
                4432,
                7382,
                1008,
                3049,
                5558,
                2372,
                19,
                3543,
                6275,
                3124,
                2312,
                4963,
                2108,
                10346,
                6989,
                7956,
                1581,
                483,
                8383,
                2755,
                8588,
                1943,
                8714,
                1959,
                6933,
                2899,
                10100,
                552,
                10132,
                916,
                2070,
                2277,
                2184,
                3455,
                4317,
                2793,
                1418,
                3870,
                2396,
                10354,
                2259,
                2225,
                7865,
                8174,
                1984,
                10598,
                4835,
                7166,
                1299,
                3615,
                3949,
                564,
                1944,
                3037,
                491,
                10407,
                3769,
                2872,
                918,
                2702,
                8188,
                3693,
                522,
                987,
                5181,
                1584,
                4863,
                1573,
                3643,
                9105,
                4996,
                4409,
                10281,
                5580,
                10431,
                7549,
                10379,
                5395,
                10255,
                2244,
                10569,
                10282,
                2117,
                7950,
                10386,
                2098,
                2522,
                2345,
                8196,
                1242,
                1649,
                4830,
                10260,
                10185,
                3064,
                1331,
                609,
                2183,
                9827,
                10193,
                879,
                10413,
                1358,
                10251,
                4217,
                3521,
                2703,
                9119,
                10354,
                2711,
                8167
            ]
        },
        "detections": 500,
        "events": 866484
    }
}