{
    "job_args": {
        "metric_limit": 500,
        "seed": 886340704
    },
    "job_id": "batch_117_do_500",
    "result": {
        "collections": {
            "crystal": [
                0.09048560838695713,
                0.3560128888220983,
                0.35601288882209825,
                0.008606508582702623,
                0.3838485048036091,
                0.3560128888220983,
                0.35601288882209825,
                0.3086768785425799,
                0.35601288882209825,
                0.3838485048036091,
                0.30596326292287057,
                0.2847485713693906,
                0.2932216512561704,
                0.35601288882209825,
                0.073039,
                0.31984762519135634,
                0.20063565344569403,
                0.3838485048036091,
                0.35601288882209836,
                0.3838485048036091,
                0.35601288882209825,
                0.3471538961346937,
                0.34966105848944373,
                0.3028508303193821,
                0.35601288882209825,
                0.13461113781733636,
                0.30285083031938215,
                0.35601288882209825,
                0.35601288882209825,
                0.3560128888220982,
                0.35601288882209825,
                0.08523539999999999,
                0.04664049999999999,
                0.18943997560576242,
                0.3560128888220983,
                0.38384850480360905,
                0.09568205465095964,
                0.35601288882209836,
                0.35601288882209825,
                0.32829769476213144,
                0.35601288882209836,
                0.35601288882209825,
                0.35601288882209836,
                0.3037035716845157,
                0.35601288882209836,
                0.35601288882209836,
                0.3838485048036091,
                0.3465816249516289,
                0.3560128888220983,
                0.3560128888220983,
                0.105419480185028,
                0.38384850480360905,
                0.3560128888220983,
                0.35601288882209825,
                0.12750662897336046,
                0.374752867983059,
                0.3838485048036091,
                0.35601288882209825,
                0.07691856046043782,
                0.3560128888220983,
                0.3838485048036091,
                0.12219763133362137,
                0.3022530082572129,
                0.35601288882209825,
                0.38384850480360916,
                0.3560128888220983,
                0.3560128888220983,
                0.3113871281365381,
                0.34949702233299274,
                0.30285083031938204,
                0.09426955320800717,
                0.35601288882209825,
                0.35601288882209836,
                0.3838485048036091,
                0.073039,
                0.011746430571800859,
                0.3560128888220983,
                0.38384850480360905,
                0.35601288882209825,
                0.383848504803609,
                0.3838485048036091,
                0.3560128888220983,
                0.3258221033341857,
                0.3560128888220983,
                0.08753400000000001,
                0.35601288882209825,
                0.19515924617232144,
                0.16235540264258969,
                0.3560128888220983,
                0.35601288882209825,
                0.18933212868318433,
                0.35601288882209825,
                0.073039,
                0.3028508303193821,
                0.3838485048036091,
                0.35601288882209836,
                0.35601288882209825,
                0.2119903351725722,
                0.24064437177825201,
                0.0995888666972375,
                0.35601288882209825,
                0.3560128888220983,
                0.35601288882209825,
                0.35601288882209836,
                0.1871998068619555,
                0.28027688182591187,
                0.35601288882209836,
                0.35601288882209825,
                0.38384850480360916,
                0.3838485048036091,
                0.3035495049235776,
                0.3560128888220983,
                0.35601288882209825,
                0.2689576726803087,
                0.2953737905351194,
                0.3560128888220983,
                0.35601288882209825,
                0.33671921250084696,
                0.35601288882209825,
                0.044429500000000004,
                0.07525,
                0.3838485048036091,
                0.30414718579132777,
                0.32757593124319473,
                0.08523635830200216,
                0.2757175410851343,
                0.3404921829616796,
                0.20252512587298455,
                0.3412592827280747,
                0.35601288882209825,
                0.18409738875898246,
                0.27639888506586413,
                0.3560128888220983,
                0.3560128888220983,
                0.3560128888220983,
                0.35601288882209825,
                0.07525,
                0.3028508303193821,
                0.3498399559385359,
                0.30285083031938204,
                0.16187660893685485,
                0.3077149494733313,
                0.35601288882209825,
                0.3560128888220983,
                0.35601288882209836,
                0.38384850480360916,
                0.07524999999999998,
                0.043219928740889986,
                0.35601288882209825,
                0.3560128888220983,
                0.35601288882209836,
                0.35601288882209825,
                0.35601288882209836,
                0.3560128888220983,
                0.35601288882209825,
                0.07525,
                0.3238143552151385,
                0.3560128888220983,
                0.0847407,
                0.2897268266286292,
                0.35601288882209836,
                0.073039,
                0.3560128888220982,
                0.17794112652572644,
                0.3560128888220983,
                0.35601288882209836,
                0.040817959501112666,
                0.3838485048036091,
                0.35601288882209825,
                0.3838485048036091,
                0.29055444275115894,
                0.35601288882209836,
                0.3560128888220983,
                0.18110911846789607,
                0.20173125963442412,
                0.3468985737568942,
                0.35601288882209825,
                0.38384850480360916,
                0.3028508303193821,
                0.013156785658385184,
                0.35601288882209825,
                0.35601288882209836,
                0.35601288882209825,
                0.07524999999999998,
                0.35601288882209825,
                0.35601288882209836,
                0.16535341503346915,
                0.35601288882209825,
                0.3560128888220983,
                0.35601288882209836,
                0.040801391354890526,
                0.21004083665605547,
                0.00672085612702894,
                0.3560128888220983,
                0.3028508303193821,
                0.35601288882209825,
                0.03747804407423139,
                0.35601288882209836,
                0.3838485048036091,
                0.17511600518994885,
                0.35601288882209825,
                0.35601288882209825,
                0.3028508303193821,
                0.3560128888220983,
                0.35601288882209825,
                0.3560128888220983,
                0.31943111685551456,
                0.2544268963314971,
                0.3560128888220983,
                0.35601288882209825,
                0.35601288882209825,
                0.35601288882209825,
                0.2870796747805211,
                0.35601288882209836,
                0.20119755541098483,
                0.05879703817077775,
                0.31772508585158254,
                0.172057229784147,
                0.07524999999999998,
                0.24262445755104903,
                0.3560128888220983,
                0.3560128888220982,
                0.3530069072328909,
                0.3560128888220983,
                0.3318283013156622,
                0.35601288882209836,
                0.38384850480360916,
                0.3494593060879386,
                0.35601288882209825,
                0.35601288882209825,
                0.3560128888220983,
                0.35601288882209825,
                0.1424743590219463,
                0.35601288882209825,
                0.053052655594901084,
                0.03373562912553563,
                0.24325015305602302,
                0.07525,
                0.3560128888220983,
                0.3238937349002429,
                0.3560128888220983,
                0.22203193861111498,
                0.3838485048036091,
                0.35601288882209836,
                0.34872008278120636,
                0.3560128888220983,
                0.3028508303193821,
                0.0429558,
                0.3560128888220983,
                0.3560128888220983,
                0.07303899999999999,
                0.38384850480360916,
                0.38384850480360916,
                0.35601288882209836,
                0.3187484201794753,
                0.07525000000000001,
                0.35601288882209836,
                0.2912201830809749,
                0.3256886455804213,
                0.35601288882209825,
                0.3028508303193821,
                0.35601288882209825,
                0.3560128888220983,
                0.35601288882209825,
                0.30285083031938215,
                0.03380313118154782,
                0.3560128888220983,
                0.35601288882209825,
                0.22530573597523634,
                0.3838485048036091,
                0.07525,
                0.3259560523630007,
                0.073039,
                0.3560128888220983,
                0.35601288882209836,
                0.3560128888220983,
                0.35601288882209825,
                0.35601288882209825,
                0.07525,
                0.1461572882685742,
                0.08820240000000001,
                0.35601288882209836,
                0.35601288882209825,
                0.3499075757569811,
                0.3309983130706708,
                0.13428891815657326,
                0.3838485048036091,
                0.35601288882209825,
                0.3560128888220983,
                0.07525,
                0.0847407,
                0.28847816674811705,
                0.2375927955135811,
                0.3560128888220983,
                0.35601288882209836,
                0.3560128888220983,
                0.35601288882209836,
                0.3560128888220983,
                0.18778256279691766,
                0.3560128888220983,
                0.316317674706712,
                0.3028508303193821,
                0.35601288882209825,
                0.3560128888220983,
                0.3560128888220983,
                0.35601288882209825,
                0.35601288882209825,
                0.3424834749619345,
                0.35601288882209825,
                0.3560128888220983,
                0.29805766393005095,
                0.3560128888220983,
                0.3605454998044502,
                0.35601288882209825,
                0.3838485048036091,
                0.16548245498105119,
                0.35601288882209836,
                0.30285083031938215,
                0.3560128888220983,
                0.3028508303193821,
                0.35601288882209825,
                0.35601288882209836,
                0.1994606188626619,
                0.35601288882209825,
                0.35601288882209836,
                0.35601288882209825,
                0.3838485048036091,
                0.25378928036712145,
                0.3507449089265392,
                0.3028508303193821,
                0.3838485048036091,
                0.35601288882209825,
                0.3560128888220983,
                0.3838485048036091,
                0.38384850480360916,
                0.3560128888220983,
                0.3838485048036091,
                0.3560128888220983,
                0.073039,
                0.35601288882209836,
                0.3560128888220983,
                0.3560128888220983,
                0.21557995793445123,
                0.09476697232103753,
                0.30285083031938204,
                0.3560128888220983,
                0.3560128888220982,
                0.3560128888220983,
                0.31813086975788385,
                0.2338212984366288,
                0.3028508303193821,
                0.15599816670630484,
                0.35601288882209825,
                0.35601288882209836,
                0.08985556790339794,
                0.3560128888220983,
                0.1050787431887364,
                0.35601288882209836,
                0.057722734409345666,
                0.3560128888220983,
                0.17238211746652282,
                0.08523539999999999,
                0.3155251633234682,
                0.03676854910125393,
                0.27252036945168534,
                0.35601288882209836,
                0.07524999999999998,
                0.08523539999999999,
                0.1278019614973751,
                0.35601288882209836,
                0.38384850480360916,
                0.35601288882209825,
                0.3560128888220983,
                0.05297217826749769,
                0.3560128888220983,
                0.3560128888220983,
                0.25305906566279257,
                0.3314434097682316,
                0.35601288882209825,
                0.3838485048036091,
                0.35601288882209825,
                0.20138827466723488,
                0.3560128888220983,
                0.3838485048036091,
                0.14187686227302265,
                0.3557545972851309,
                0.3560128888220983,
                0.24671937157811602,
                0.35601288882209825,
                0.3560128888220983,
                0.19652954666512504,
                0.24942160295701354,
                0.30285083031938215,
                0.3552390048036092,
                0.0876557,
                0.07524999999999998,
                0.35601288882209825,
                0.0852354,
                0.16203929495668515,
                0.35601288882209825,
                0.19701098320986343,
                0.0035601952757252087,
                0.07525,
                0.3838485048036091,
                0.3560128888220983,
                0.35601288882209825,
                0.3838485048036091,
                0.354040069122043,
                0.2179819601043095,
                0.05662589999999999,
                0.3838485048036091,
                0.3560128888220983,
                0.3028508303193821,
                0.35601288882209825,
                0.0852354,
                0.018311343233505056,
                0.3838485048036091,
                0.2832354225048945,
                0.2534283413048157,
                0.3560128888220983,
                0.35601288882209836,
                0.2933596805155929,
                0.271931119791488,
                0.3560128888220983,
                0.35601288882209825,
                0.3560128888220983,
                0.35601288882209825,
                0.0847407,
                0.2908035868964548,
                0.3560128888220983,
                0.35601288882209825,
                0.3560128888220983,
                0.21333197627875722,
                0.35601288882209825,
                0.0673960171989571,
                0.20904504609270985,
                0.33148094801287925,
                0.302850830319382,
                0.3560128888220983,
                0.3560128888220983,
                0.3560128888220983,
                0.3560128888220983,
                0.3560128888220983,
                0.3560128888220983,
                0.32581269927337775,
                0.35601288882209825,
                0.07385796312094695,
                0.35601288882209836,
                0.3313508769854593,
                0.35601288882209825,
                0.3560128888220983,
                0.3373258330301819,
                0.3560128888220983,
                0.3028508303193821,
                0.347037147207665,
                0.35601288882209825,
                0.03478858466347318,
                0.3431678100418315,
                0.3489159458103333,
                0.32973721379759663,
                0.0855994683836373,
                0.08714531584346605,
                0.27016460829162553,
                0.007738309680444533,
                0.35601288882209836,
                0.35601288882209825,
                0.1642820960450717,
                0.35601288882209836,
                0.3560128888220983,
                0.3319616047487806,
                0.3838485048036091,
                0.35601288882209836,
                0.35601288882209825,
                0.0847407,
                0.38384850480360916,
                0.08523539999999999,
                0.3092297750319026,
                0.17169331954005157,
                0.35601288882209825,
                0.35601288882209836,
                0.0852354,
                0.27963428974351645,
                0.3560128888220983,
                0.3560128888220983,
                0.033818193511822525,
                0.35601288882209825,
                0.33228732859359894,
                0.07525,
                0.06041327164740756,
                0.35601288882209825,
                0.3838485048036091,
                0.35601288882209825,
                0.1567749400926236,
                0.3560128888220983,
                0.09167908184656592,
                0.0852354,
                0.35601288882209825,
                0.3838485048036091,
                0.3560128888220983,
                0.35601288882209836
            ],
            "photocathode": [
                652,
                2500,
                2510,
                59,
                2737,
                2514,
                2495,
                2123,
                2446,
                2649,
                2027,
                2001,
                2065,
                2470,
                534,
                2233,
                1465,
                2654,
                2452,
                2681,
                2476,
                2403,
                2455,
                2097,
                2494,
                969,
                2092,
                2511,
                2464,
                2443,
                2491,
                625,
                310,
                1285,
                2458,
                2608,
                655,
                2542,
                2552,
                2251,
                2523,
                2498,
                2454,
                2097,
                2461,
                2448,
                2584,
                2407,
                2475,
                2414,
                729,
                2701,
                2472,
                2492,
                866,
                2621,
                2662,
                2370,
                583,
                2373,
                2647,
                877,
                2077,
                2502,
                2665,
                2440,
                2497,
                2221,
                2392,
                2111,
                627,
                2472,
                2452,
                2657,
                521,
                74,
                2393,
                2651,
                2557,
                2725,
                2695,
                2469,
                2207,
                2490,
                628,
                2520,
                1408,
                1124,
                2544,
                2468,
                1313,
                2463,
                540,
                2144,
                2723,
                2468,
                2566,
                1423,
                1664,
                704,
                2480,
                2449,
                2370,
                2430,
                1315,
                1978,
                2450,
                2443,
                2621,
                2740,
                2083,
                2533,
                2474,
                1856,
                2120,
                2398,
                2487,
                2386,
                2471,
                323,
                530,
                2690,
                2117,
                2396,
                628,
                1876,
                2441,
                1391,
                2393,
                2415,
                1289,
                1917,
                2533,
                2638,
                2451,
                2484,
                514,
                2068,
                2438,
                2119,
                1128,
                2176,
                2502,
                2496,
                2453,
                2633,
                553,
                270,
                2433,
                2526,
                2548,
                2454,
                2492,
                2513,
                2380,
                527,
                2314,
                2561,
                594,
                2029,
                2493,
                506,
                2548,
                1246,
                2459,
                2480,
                302,
                2766,
                2545,
                2645,
                2010,
                2517,
                2545,
                1274,
                1418,
                2461,
                2453,
                2740,
                2128,
                106,
                2481,
                2492,
                2498,
                503,
                2561,
                2482,
                1133,
                2458,
                2487,
                2498,
                294,
                1564,
                41,
                2453,
                2093,
                2484,
                258,
                2405,
                2662,
                1237,
                2483,
                2428,
                2096,
                2403,
                2482,
                2416,
                2247,
                1765,
                2493,
                2504,
                2415,
                2471,
                2006,
                2469,
                1466,
                394,
                2252,
                1184,
                547,
                1715,
                2524,
                2518,
                2519,
                2381,
                2309,
                2573,
                2741,
                2509,
                2505,
                2537,
                2495,
                2454,
                1019,
                2562,
                397,
                223,
                1753,
                495,
                2601,
                2239,
                2405,
                1640,
                2607,
                2466,
                2520,
                2485,
                2099,
                288,
                2386,
                2564,
                529,
                2739,
                2713,
                2554,
                2187,
                501,
                2489,
                1978,
                2213,
                2497,
                2098,
                2480,
                2560,
                2487,
                2072,
                207,
                2433,
                2407,
                1603,
                2619,
                522,
                2296,
                477,
                2539,
                2575,
                2509,
                2545,
                2599,
                516,
                1091,
                637,
                2416,
                2497,
                2453,
                2298,
                955,
                2807,
                2448,
                2408,
                502,
                600,
                1966,
                1694,
                2532,
                2458,
                2497,
                2519,
                2502,
                1353,
                2522,
                2178,
                2095,
                2460,
                2504,
                2535,
                2470,
                2361,
                2412,
                2467,
                2415,
                2102,
                2701,
                2581,
                2434,
                2585,
                1168,
                2512,
                2038,
                2501,
                2133,
                2408,
                2457,
                1364,
                2526,
                2420,
                2456,
                2609,
                1724,
                2560,
                2102,
                2715,
                2496,
                2473,
                2670,
                2728,
                2468,
                2588,
                2582,
                516,
                2447,
                2498,
                2409,
                1516,
                708,
                2118,
                2453,
                2360,
                2432,
                2120,
                1673,
                2097,
                1132,
                2556,
                2532,
                651,
                2438,
                734,
                2464,
                438,
                2516,
                1214,
                603,
                2331,
                297,
                1921,
                2517,
                498,
                588,
                872,
                2535,
                2588,
                2505,
                2480,
                389,
                2484,
                2547,
                1804,
                2316,
                2477,
                2655,
                2503,
                1454,
                2465,
                2672,
                956,
                2545,
                2531,
                1719,
                2532,
                2508,
                1371,
                1787,
                2090,
                2450,
                588,
                508,
                2500,
                572,
                1119,
                2480,
                1339,
                16,
                524,
                2643,
                2494,
                2473,
                2688,
                2486,
                1528,
                379,
                2596,
                2548,
                2076,
                2507,
                568,
                135,
                2671,
                2012,
                1838,
                2512,
                2429,
                2036,
                1865,
                2435,
                2473,
                2451,
                2523,
                609,
                1998,
                2504,
                2525,
                2423,
                1526,
                2464,
                486,
                1452,
                2377,
                2143,
                2399,
                2401,
                2494,
                2475,
                2517,
                2453,
                2374,
                2519,
                530,
                2474,
                2280,
                2493,
                2536,
                2390,
                2508,
                2148,
                2466,
                2563,
                253,
                2429,
                2415,
                2293,
                598,
                625,
                1879,
                56,
                2485,
                2501,
                1125,
                2531,
                2629,
                2321,
                2717,
                2495,
                2497,
                589,
                2617,
                587,
                2147,
                1225,
                2490,
                2535,
                568,
                1877,
                2509,
                2487,
                215,
                2468,
                2255,
                536,
                412,
                2524,
                2670,
                2412,
                1108,
                2515,
                630,
                612,
                2458,
                2905,
                2467,
                2551
            ]
        },
        "detections": 500,
        "events": 1954037
    }
}