{
    "job_args": {
        "metric_limit": 500,
        "seed": 1118912775
    },
    "job_id": "batch_32_do_500",
    "result": {
        "collections": {
            "crystal": [
                0.7424553924763081,
                0.2850111469976176,
                0.07524999999999998,
                0.21369828522516365,
                0.3758606278787005,
                0.10911480721428989,
                0.9498234191577752,
                0.8802347116674152,
                0.09545510209384817,
                1.0173034845856466,
                0.6894306641944393,
                0.3503030911566381,
                1.460822329157775,
                0.7754185601583866,
                1.460822329157775,
                1.15529590333897,
                1.460822329157775,
                0.5449191194621877,
                0.7805215545271671,
                0.43257491215115507,
                1.460822329157775,
                0.5119649493433129,
                0.8537401153981966,
                0.924994185747313,
                0.26552081641246,
                0.9271381740284663,
                0.5273662540735348,
                0.07604191232614292,
                0.2273144608559195,
                1.0477601712369602,
                0.5115523155454741,
                0.4827904375544012,
                0.6492059013852549,
                0.02301284291358019,
                0.6258698533834911,
                0.32950886668762813,
                1.2459664680842035,
                1.460822329157775,
                0.18094237610091535,
                1.0557249403084916,
                0.16782260106976432,
                1.3109738505536492,
                0.11078411098616803,
                0.4301416099391374,
                1.373629113986182,
                0.9590692907679749,
                1.460822329157775,
                1.329878683094497,
                0.46541663041392456,
                1.4608223291577749,
                0.1965710446041936,
                1.460822329157775,
                1.4608223291577755,
                0.3479692738314089,
                0.3835435337973082,
                1.272390425426189,
                0.1402579160974463,
                0.8200421866988934,
                0.8240340754877009,
                1.460822329157775,
                1.4608223291577749,
                0.3640087779855845,
                0.2554508964528873,
                1.4608223291577753,
                1.4608223291577749,
                0.7137888383173749,
                0.5886610128828962,
                0.2100720672144333,
                0.10886980099659072,
                0.39246374544978135,
                1.460822329157775,
                0.15465802645743953,
                1.0592929937414541,
                0.0941046806743111,
                0.05072514437490816,
                1.460822329157775,
                0.10521871139676306,
                1.460822329157775,
                1.4608223291577753,
                0.555238657656162,
                0.918318987230163,
                1.4608223291577749,
                0.7214454609016717,
                0.38808238295277353,
                0.0241649576481614,
                0.34764201017425006,
                0.4660814353459979,
                1.460822329157775,
                0.1720236360131524,
                1.4608223291577753,
                0.7121076278551426,
                0.6889776904060333,
                1.0871861483601315,
                1.460822329157775,
                1.4608223291577753,
                1.460822329157775,
                1.2228589468168707,
                0.6281370609148923,
                0.404018983149608,
                0.7964589574256994,
                1.1961393450615025,
                1.0994948189215685,
                1.460822329157775,
                0.37513608253024117,
                1.2569381256145047,
                0.01629837042707516,
                0.4394561330898532,
                1.0852963484413192,
                1.4608223291577749,
                1.460822329157775,
                1.123681516121596,
                1.0301504701823667,
                1.1862270877048622,
                0.22565523961437958,
                0.5065452048174757,
                1.460822329157775,
                1.4608223291577753,
                0.015842298960400125,
                0.410321238312108,
                1.4608223291577753,
                0.5886962520279064,
                1.2623972648149275,
                1.2232220753394285,
                0.24455062418352552,
                0.21697128898758633,
                0.6813748630559793,
                0.40244265663145784,
                1.1089581268647712,
                0.09327732441863168,
                1.1864362465971243,
                0.2104591320167175,
                0.07525,
                1.4608223291577755,
                1.16017590260667,
                0.8655412997552357,
                0.11543803804694351,
                0.2379234854926362,
                0.4786014602314674,
                0.4702295655999549,
                0.05012715798680445,
                0.7047846018703634,
                0.03271670925712278,
                0.7419731778791544,
                0.26161067218882195,
                0.07525,
                0.5066082571609423,
                0.7202275227294467,
                1.4608223291577749,
                0.8628615306646004,
                0.073039,
                0.8465447703733366,
                0.07186603162113492,
                0.3522866584753194,
                1.4608223291577753,
                1.460822329157775,
                1.0328534415954862,
                0.6375370808858566,
                0.4565908300118792,
                1.4608223291577753,
                0.20581059343671737,
                0.004754414359053216,
                0.40664560132976074,
                1.225412604430393,
                0.6540206458798232,
                1.4608223291577753,
                1.4559584373094085,
                0.7573515127073,
                0.921125198064634,
                0.073039,
                1.460822329157775,
                1.2345502829895734,
                0.9566247195492781,
                0.8089305684979426,
                1.4608223291577755,
                0.7274491164964234,
                1.1447277188463796,
                0.2676546912004085,
                0.5343395584761694,
                0.5355791163680498,
                0.6705036630740895,
                0.39613588118556714,
                0.11286050935351367,
                0.9578936685905249,
                1.1478421889853794,
                1.4608223291577753,
                0.3968960839203425,
                0.22879458671731498,
                1.1084941093705714,
                0.48757536882478214,
                1.0620198621862862,
                0.5400769554522531,
                0.08998510257956793,
                0.4438498693326338,
                0.2432040241205676,
                0.7485476965048948,
                0.27122725634555805,
                1.460822329157775,
                1.460822329157775,
                1.108899030508189,
                0.7628052642346467,
                0.07525,
                0.4775737628957237,
                0.6709618309825841,
                0.03137203462333282,
                0.8182370990755629,
                0.7033255058467057,
                1.3851486405569906,
                1.0726840604625554,
                1.0259721816027165,
                0.8156735633743761,
                0.1269558273620117,
                1.4608223291577753,
                0.23671610052482245,
                0.5774656086890432,
                0.22119361850160765,
                0.8051942449348248,
                0.7883600183883048,
                0.3782132687258018,
                1.4608223291577749,
                0.8310345348378445,
                0.6225043211613644,
                1.460822329157775,
                0.24286559752745268,
                1.1975215949897295,
                0.8541596686262338,
                0.49903666879768893,
                1.4608223291577753,
                0.16098036992076026,
                1.460822329157775,
                1.460822329157775,
                1.1500309119054148,
                0.6404953694576241,
                1.460822329157775,
                0.287787031865411,
                0.14955478720548843,
                0.05137807137509143,
                0.7564358697569737,
                0.6395364666017778,
                1.460822329157775,
                0.39972097676911356,
                0.10047653953845638,
                0.30592107411481484,
                0.07525,
                0.3114306157513613,
                0.5271438599826789,
                0.5324295539973599,
                0.2338700556176889,
                0.07549056334231685,
                1.4608223291577749,
                0.4893775378222589,
                0.9124514014237142,
                0.3257634254908133,
                0.0466405,
                0.9445874791110019,
                0.5098335215206953,
                1.4608223291577755,
                0.2958767111229603,
                1.1467507692743895,
                1.460822329157775,
                1.1098635035054787,
                0.9273992476288764,
                0.11956802058752058,
                0.5233999546141834,
                0.7860406608017865,
                0.03270954055924857,
                1.181512671135175,
                1.460822329157775,
                0.1394939642542338,
                0.7077302771768893,
                1.159985212606554,
                0.1886206599847278,
                0.7079415856327699,
                1.4608223291577749,
                0.26621735617610476,
                0.49770139512038397,
                0.4388245091577752,
                1.040756925649577,
                0.5567345950967717,
                1.0096772650101922,
                0.759908499784624,
                1.4608223291577749,
                0.6077706510214044,
                0.14935135778908648,
                1.4608223291577749,
                1.4608223291577749,
                1.4190028590363388,
                0.2249496308358462,
                0.028499829184890135,
                1.460822329157775,
                0.8609413001987601,
                0.1576335483733129,
                1.460822329157775,
                1.0373089874768129,
                0.073039,
                0.7576907877712983,
                0.33936377303929866,
                1.1245434121780653,
                0.7246799261452125,
                1.1874133455505143,
                1.4608223291577749,
                0.19368811799906704,
                1.4608223291577749,
                0.6883989847343353,
                0.49948584784164995,
                0.1300087750132587,
                1.0051608545492414,
                0.39768822557442896,
                0.15036767766529913,
                0.6737710136037053,
                1.4608223291577749,
                0.09524845338667853,
                0.8744761846129702,
                0.6623689001707342,
                0.6640107236301298,
                0.24362361624676,
                0.5531498238168339,
                0.791442921458656,
                0.5952067708239736,
                0.6496937499999461,
                0.3442650000072003,
                0.19450717212818092,
                1.4608223291577753,
                0.27735313581902493,
                0.073039,
                1.4608223291577747,
                0.5286209844150394,
                0.44556998162564687,
                1.460822329157775,
                0.40083295913154604,
                1.460822329157775,
                0.059407136356898316,
                1.4608223291577753,
                1.1942650307558762,
                0.8468536215725597,
                0.9194731734369292,
                1.2046811156120354,
                0.9353565864173786,
                1.130051777253387,
                0.3796136818229363,
                0.3144938454802193,
                1.432212829157775,
                0.6234745598219177,
                0.3994627237471579,
                1.460822329157775,
                0.5805845735998362,
                0.30967796228686867,
                1.133239447654221,
                1.4608223291577749,
                0.5895584930143299,
                0.29251307783240077,
                0.9600286430716337,
                0.5229621903993374,
                0.3540854579476807,
                0.8121671764648316,
                1.1634110495681473,
                0.07525,
                0.312955959328129,
                0.6915090105867931,
                0.06228612552284875,
                0.327939542102805,
                0.478583786629798,
                1.1333131033123343,
                1.1635015290099955,
                0.8628510387531159,
                0.6935143646615771,
                1.1312738654207912,
                0.3955636818697389,
                0.1853054121772705,
                0.7364312911123383,
                0.6709849425806595,
                0.4586006041626778,
                1.0130682178947878,
                0.6724388077731649,
                0.289212486680404,
                1.021578414142292,
                1.460822329157775,
                0.2484283017485145,
                0.51099891,
                0.9293196684189095,
                1.4608223291577753,
                1.460822329157775,
                0.027604576108465118,
                0.2902697102723315,
                1.0263229585361915,
                0.18641854870337754,
                0.3202100772976275,
                0.20236340446591802,
                0.6343118143164291,
                1.460822329157775,
                1.4608223291577749,
                1.0052240833219175,
                0.4169956319033289,
                1.4608223291577749,
                0.2615181370362658,
                1.1335885502252185,
                1.2846957467211249,
                0.5572139681504276,
                0.6514621210481435,
                0.2970605329074643,
                0.712370362827561,
                1.4608223291577749,
                0.8321721640963312,
                1.0707561024473744,
                0.043156772157624035,
                0.7753787260419853,
                1.1054945349389245,
                1.3700844329014785,
                1.1864563073932046,
                1.460822329157775,
                0.08098265896274492,
                0.5296365157252996,
                0.5951081011908277,
                0.929538494549431,
                0.41893495928013325,
                1.0030240553425993,
                0.290444223605474,
                0.37612787948396964,
                0.7933098354088404,
                1.460822329157775,
                0.5831621916868764,
                0.26837510587200425,
                0.9309023051674737,
                1.460822329157775,
                0.5819596028156502,
                0.6888418559246575,
                0.8651775392239907,
                0.8388149661798278,
                0.9886878758789787,
                0.518975251404883,
                0.9909562009618189,
                1.0727269337596308,
                0.5359480704277958,
                0.4005456376495675,
                0.0589157164000651,
                0.4375288983898918,
                1.460822329157775,
                0.7830277992089618,
                0.18190862344288472,
                1.1565221345109808,
                0.4576730517512704,
                0.4881743937244159,
                0.29006720086163246,
                0.4950602896864912,
                0.8599469009301176,
                0.7648080237693724,
                1.460822329157775,
                0.28424178116855825,
                0.511962395362887,
                0.18237818202280656,
                0.4283621024469888,
                0.14087978217831548,
                0.4367351334031617,
                0.6766538740603423,
                0.06661124811219399,
                0.05896299730012622,
                0.8077525945646669,
                0.339033400469191,
                0.3248175369343096,
                0.8854872140700093,
                1.4608223291577753,
                1.460822329157775,
                0.22244031391344687,
                1.1694513296910567,
                0.5231307103531702,
                0.51099891,
                0.6395174802905469,
                1.0594049324997168,
                1.4608223291577749,
                0.3958389196783053,
                1.1246084892673904,
                0.9036010557757141,
                0.05545643656034492,
                0.7734523726187453,
                0.35595876648924957,
                0.6539885651862376,
                1.460822329157775,
                1.460822329157775,
                1.4608223291577753,
                1.460822329157775,
                0.7733466974973326,
                0.08395259577482084,
                1.2613529170486841,
                0.909640894594308,
                0.4216857682906485,
                0.13594768478738628,
                1.4608223291577753,
                0.27884276969115634,
                0.6859822558233203,
                0.6455806842789625,
                1.0352577946945565,
                0.9498234191577752,
                0.6798296423636857,
                1.2289122674488144,
                0.5976577686128673,
                0.6207311047474517,
                0.9739505853646412,
                1.2682218601680149,
                0.4253326921953542,
                0.486512391529519,
                0.19968219558086578
            ],
            "photocathode": [
                5073,
                2051,
                554,
                1509,
                2565,
                763,
                6540,
                6366,
                636,
                7093,
                4922,
                2469,
                10084,
                5469,
                10560,
                8227,
                10284,
                3875,
                5527,
                3084,
                10320,
                3560,
                5947,
                6444,
                1852,
                6407,
                3789,
                523,
                1554,
                7543,
                3637,
                3481,
                4383,
                143,
                4355,
                2354,
                8765,
                10032,
                1269,
                7446,
                1179,
                9372,
                753,
                2924,
                9954,
                6649,
                10265,
                9259,
                3287,
                10355,
                1378,
                10113,
                10145,
                2375,
                2670,
                9047,
                988,
                5792,
                5782,
                10594,
                10205,
                2576,
                1780,
                10392,
                10105,
                5169,
                4198,
                1430,
                789,
                2619,
                10140,
                1101,
                7681,
                640,
                344,
                10161,
                698,
                10754,
                10072,
                3844,
                6400,
                10108,
                5137,
                2691,
                156,
                2423,
                3307,
                10241,
                1192,
                10300,
                4806,
                4874,
                7724,
                10265,
                10664,
                10420,
                8766,
                4458,
                2938,
                5615,
                8296,
                7863,
                10253,
                2652,
                8843,
                106,
                3036,
                7569,
                10428,
                10314,
                8000,
                7403,
                8428,
                1580,
                3496,
                10287,
                10344,
                105,
                2894,
                10238,
                4141,
                8990,
                8505,
                1745,
                1558,
                4850,
                2888,
                7763,
                678,
                8360,
                1505,
                525,
                10149,
                8134,
                6081,
                820,
                1682,
                3405,
                3265,
                336,
                4825,
                235,
                5211,
                1887,
                497,
                3585,
                5098,
                10292,
                6088,
                532,
                5811,
                514,
                2455,
                10227,
                10217,
                7252,
                4476,
                3168,
                10207,
                1484,
                43,
                2929,
                8665,
                4509,
                10241,
                10249,
                5350,
                6505,
                470,
                10407,
                8738,
                6884,
                5685,
                10365,
                5131,
                8061,
                1921,
                3933,
                3873,
                4753,
                2837,
                755,
                6676,
                8068,
                10202,
                2761,
                1575,
                7780,
                3546,
                7621,
                3803,
                656,
                3128,
                1745,
                5188,
                1879,
                10183,
                10213,
                7558,
                5343,
                510,
                3338,
                4796,
                213,
                5877,
                5098,
                9959,
                7511,
                7253,
                5739,
                931,
                10184,
                1621,
                4041,
                1549,
                5568,
                5570,
                2637,
                10146,
                5938,
                4462,
                10106,
                1658,
                8464,
                5903,
                3535,
                10594,
                1142,
                10311,
                10189,
                7968,
                4627,
                10205,
                2032,
                1031,
                357,
                5207,
                4495,
                10174,
                2852,
                726,
                2064,
                507,
                2141,
                3734,
                3672,
                1724,
                581,
                10288,
                3449,
                6421,
                2333,
                366,
                6532,
                3490,
                10177,
                1989,
                7964,
                10412,
                7846,
                6446,
                831,
                3595,
                5630,
                226,
                8208,
                10187,
                1017,
                4923,
                8177,
                1399,
                5038,
                10306,
                1903,
                3532,
                2984,
                7232,
                3924,
                7023,
                5198,
                10415,
                4355,
                1145,
                10321,
                10168,
                10068,
                1639,
                181,
                10405,
                6024,
                1075,
                10037,
                7392,
                508,
                5237,
                2357,
                7944,
                4907,
                8273,
                10072,
                1420,
                10437,
                4924,
                3509,
                943,
                6968,
                2688,
                1098,
                4957,
                10355,
                695,
                5995,
                4680,
                4716,
                1701,
                4013,
                5618,
                4090,
                4624,
                2493,
                1346,
                10292,
                1958,
                485,
                10197,
                3620,
                3217,
                10326,
                2932,
                10372,
                418,
                10133,
                8102,
                5913,
                6418,
                8310,
                6641,
                7824,
                2753,
                2352,
                10168,
                4398,
                2910,
                10237,
                3996,
                2157,
                8149,
                10533,
                4201,
                2008,
                6682,
                3651,
                2496,
                5682,
                8211,
                503,
                2128,
                4904,
                465,
                2326,
                3230,
                8056,
                8247,
                5886,
                4873,
                8058,
                2757,
                1313,
                5130,
                4619,
                3225,
                7050,
                4808,
                2067,
                6979,
                10512,
                1642,
                3476,
                6604,
                10352,
                10095,
                216,
                2026,
                7167,
                1292,
                2165,
                1393,
                4360,
                10204,
                10337,
                7178,
                2966,
                10310,
                1899,
                7919,
                9053,
                3934,
                4477,
                2072,
                5112,
                10308,
                5934,
                7327,
                306,
                5656,
                7692,
                9609,
                8312,
                10081,
                566,
                3516,
                4166,
                6607,
                2990,
                7021,
                2039,
                2581,
                5723,
                10110,
                4285,
                1840,
                6743,
                10511,
                3937,
                4847,
                6193,
                5822,
                6972,
                3848,
                7184,
                7747,
                3743,
                2891,
                428,
                3044,
                10322,
                5420,
                1271,
                8296,
                3268,
                3489,
                2036,
                3458,
                6045,
                5339,
                10235,
                2041,
                3673,
                1214,
                3105,
                1039,
                2966,
                4737,
                484,
                393,
                5522,
                2502,
                2349,
                6086,
                10199,
                10243,
                1503,
                8345,
                3760,
                3603,
                4702,
                7478,
                10178,
                2816,
                7855,
                6343,
                368,
                5442,
                2519,
                4695,
                10148,
                10128,
                10361,
                10195,
                5431,
                599,
                8778,
                6529,
                2824,
                995,
                10460,
                2007,
                4773,
                4482,
                7420,
                6704,
                4787,
                8626,
                4238,
                4324,
                6984,
                8729,
                2924,
                3535,
                1369
            ]
        },
        "detections": 500,
        "events": 1464006
    }
}