{
    "job_args": {
        "metric_limit": 300,
        "seed": 3698334386
    },
    "job_id": "batch_26_do_300",
    "result": {
        "collections": {
            "crystal": [
                0.06920380907784895,
                0.6616572831606166,
                0.03220543020337447,
                0.5621438026207402,
                0.6616572831606167,
                0.6616572831606163,
                0.6616572831606164,
                0.6616572831606166,
                0.1890735792487793,
                0.10222583198579971,
                0.3722127551730112,
                0.6616572831606166,
                0.4033711196575665,
                0.16290432098539298,
                0.3135461855383314,
                0.0322057893882687,
                0.49126981056601515,
                0.07695869320529314,
                0.6616572831606167,
                0.031818924513390405,
                0.6616572831606166,
                0.6616572831606167,
                0.027684397917132838,
                0.03220535231369353,
                0.1575055970542003,
                0.17517816064885633,
                0.17488998440952352,
                0.03220541239645522,
                0.6616572831606166,
                0.6616572831606166,
                0.3038512735407547,
                0.6616572831606167,
                0.17373951100223714,
                0.31712250642414624,
                0.03220538690181904,
                0.48462802951850037,
                0.012702206846108899,
                0.03276526028483903,
                0.0428580515899567,
                0.21180093158977897,
                0.6616572831606164,
                0.07786560095081352,
                0.031178490988998823,
                0.2544825229541726,
                0.6616572831606166,
                0.6616572831606166,
                0.6616572831606164,
                0.6616572831606167,
                0.221524794137487,
                0.08820239999999999,
                0.6616572831606164,
                0.27356646955249747,
                0.6616572831606166,
                0.2970739985844896,
                0.2891820474445539,
                0.18265442418072156,
                0.6616572831606166,
                0.41870185221191336,
                0.6616572831606166,
                0.19527188583459806,
                0.6616572831606167,
                0.04295579999999999,
                0.522214659741081,
                0.43422657435466955,
                0.6616572831606167,
                0.3342765502629237,
                0.3791612415167506,
                0.6616572831606166,
                0.2172829381433145,
                0.2938522189148138,
                0.6616572831606167,
                0.33666073993115075,
                0.032205373196573316,
                0.4595351886953308,
                0.6616572831606166,
                0.08503742245958068,
                0.03181883307389359,
                0.07524999999999998,
                0.6616572831606167,
                0.073039,
                0.6616572831606166,
                0.6616572831606164,
                0.04285486089332269,
                0.6616572831606166,
                0.6616572831606167,
                0.0322054414594498,
                0.6616572831606166,
                0.21520006956608886,
                0.36058905005903896,
                0.6616572831606164,
                0.20484568348654106,
                0.6616572831606167,
                0.4721576390181392,
                0.6616572831606166,
                0.6616572831606166,
                0.6616572831606166,
                0.07525000000000001,
                0.44538550114478315,
                0.03181853652521925,
                0.44668790669024155,
                0.031818778521034985,
                0.6616572831606167,
                0.073039,
                0.21025910003534898,
                0.03220575019355404,
                0.073039,
                0.03181881260479056,
                0.2530972464765396,
                0.031818806712211316,
                0.6616572831606166,
                0.03631707754735896,
                0.03631664614550809,
                0.4645398273649713,
                0.07525,
                0.6616572831606166,
                0.6616572831606166,
                0.13512698667480405,
                0.08061678422980167,
                0.6616572831606164,
                0.3161983516589188,
                0.6616572831606166,
                0.6616572831606164,
                0.2607714886404154,
                0.013552765306173109,
                0.6616572831606166,
                0.6616572831606167,
                0.6616572831606164,
                0.6616572831606167,
                0.31417541208832067,
                0.04472090040268263,
                0.6616572831606166,
                0.08915833363785086,
                0.6616572831606166,
                0.6616572831606167,
                0.18298850758747787,
                0.004075998501780254,
                0.6616572831606166,
                0.2236102907794142,
                0.13002625955856756,
                0.031818590065615125,
                0.04068708010221467,
                0.1990219184041374,
                0.19731130160299337,
                0.6616572831606164,
                0.6616572831606167,
                0.6616572831606166,
                0.25259844796665754,
                0.15679614093279648,
                0.6616572831606166,
                0.4268282320405178,
                0.20303426795556895,
                0.37418646023828017,
                0.5116569460851457,
                0.45715683998990286,
                0.6616572831606164,
                0.6616572831606166,
                0.1347099973032267,
                0.5380739270039293,
                0.6616572831606166,
                0.4943165108570844,
                0.40631420638789584,
                0.10925156071792874,
                0.019395938959342662,
                0.36243503568163726,
                0.6616572831606167,
                0.6616572831606164,
                0.06336042549308207,
                0.4282353473644679,
                0.13685107440378486,
                0.6616572831606166,
                0.6616572831606166,
                0.6616572831606166,
                0.6616572831606166,
                0.2541488250268155,
                0.6616572831606167,
                0.6616572831606167,
                0.6616572831606166,
                0.6616572831606166,
                0.6616572831606167,
                0.2856103420343144,
                0.0525857677470607,
                0.4346939211627242,
                0.6616572831606166,
                0.3431146872090519,
                0.10592547494913385,
                0.6616572831606166,
                0.6616572831606166,
                0.0322058152499906,
                0.6616572831606167,
                0.2968447967321346,
                0.6616572831606164,
                0.6616572831606166,
                0.09516869102677672,
                0.37239926703144866,
                0.31309918316849683,
                0.3909129881948184,
                0.6616572831606166,
                0.07524999999999998,
                0.34863508804634524,
                0.21625717956332052,
                0.032205667585241,
                0.13853753305967031,
                0.18155506185299025,
                0.4733472878476658,
                0.6616572831606166,
                0.028874308011975443,
                0.07861335255934015,
                0.2726089353223241,
                0.6616572831606164,
                0.05363404841141084,
                0.6616572831606166,
                0.6616572831606166,
                0.6616572831606166,
                0.6616572831606164,
                0.6616572831606166,
                0.34296673742928047,
                0.6616572831606166,
                0.18096402191859798,
                0.0852354,
                0.6616572831606167,
                0.32221317919528186,
                0.36368854523830496,
                0.18127771776980006,
                0.6616572831606166,
                0.06443374864789186,
                0.44529609952943255,
                0.020346870369971848,
                0.32585852133285054,
                0.5369779202869917,
                0.03220560419999133,
                0.6616572831606167,
                0.2893650153089396,
                0.34925031563975206,
                0.008954034049969747,
                0.4807332150761715,
                0.6616572831606166,
                0.6616572831606166,
                0.2000351346933669,
                0.3015538839561405,
                0.6616572831606166,
                0.032205591862693804,
                0.6616572831606167,
                0.6616572831606166,
                0.6616572831606166,
                0.04077433061605351,
                0.26228856341851636,
                0.6616572831606164,
                0.08257751152711909,
                0.4603279835513266,
                0.19388501005360148,
                0.031818538784200295,
                0.07498742520266229,
                0.33346511885202085,
                0.6616572831606167,
                0.45438774243342084,
                0.2629102784298646,
                0.6616572831606166,
                0.19651240960830407,
                0.6616572831606164,
                0.6616572831606166,
                0.45478193323150684,
                0.3915102586707332,
                0.06048655532051678,
                0.08028983557540936,
                0.36063546412994857,
                0.6616572831606166,
                0.46835555534629697,
                0.024542834882354096,
                0.6616572831606166,
                0.36810078792221,
                0.6616572831606166,
                0.6616572831606166,
                0.03220552587760226,
                0.037203760814992104,
                0.14782547750302022,
                0.48120936940016795,
                0.29753379688882964,
                0.292379668139489,
                0.6616572831606166,
                0.41525299773962543,
                0.11006590574356427,
                0.3136526146019517,
                0.6616572831606166,
                0.6616572831606166,
                0.04230759298699638,
                0.6616572831606166,
                0.6616572831606164,
                0.29987443560062055,
                0.49318729448811266,
                0.3775728292916937,
                0.12344568201164674,
                0.6616572831606166,
                0.43059423127581964,
                0.073039,
                0.0847407,
                0.6616572831606167,
                0.032205810287747445,
                0.6616572831606166,
                0.4298598789224969,
                0.6616572831606166
            ]
        },
        "detections": 300,
        "events": 66729
    }
}