{
    "job_args": {
        "metric_limit": 300,
        "seed": 1192278642
    },
    "job_id": "batch_53_do_300",
    "result": {
        "collections": {
            "crystal": [
                0.6616572831606167,
                0.6616572831606167,
                0.3622240237441885,
                0.3587984175084915,
                0.50628934041616,
                0.6616572831606166,
                0.6616572831606166,
                0.6616572831606164,
                0.6616572831606164,
                0.6616572831606164,
                0.6616572831606167,
                0.3467090737978692,
                0.5162534496351496,
                0.462330262789395,
                0.1912260255345421,
                0.6616572831606166,
                0.41202769254933624,
                0.07525,
                0.07524999999999998,
                0.029908166666341423,
                0.3636622453584892,
                0.6616572831606167,
                0.03220583009254052,
                0.6616572831606166,
                0.6616572831606167,
                0.03220541936475732,
                0.24735585679046218,
                0.6616572831606167,
                0.07858954200192303,
                0.6616572831606166,
                0.3141615024848302,
                0.6616572831606164,
                0.6616572831606166,
                0.44497197522496457,
                0.4578136221883508,
                0.6616572831606166,
                0.03220559567598647,
                0.4718901512498567,
                0.6616572831606166,
                0.020197897527045816,
                0.26519320720799994,
                0.6616572831606164,
                0.6616572831606164,
                0.03639206804765721,
                0.07488728094062513,
                0.40004205323912917,
                0.46185412163663625,
                0.6616572831606164,
                0.07525,
                0.5007984934734785,
                0.03220539283724215,
                0.3005842456339698,
                0.2913224078278144,
                0.6616572831606167,
                0.6616572831606166,
                0.40073079529791933,
                0.03181874794393684,
                0.6616572831606167,
                0.6616572831606166,
                0.0012949045724230945,
                0.12902508160538828,
                0.03220571553860042,
                0.032205415337214806,
                0.6616572831606167,
                0.008085691624436906,
                0.11019448387744192,
                0.6616572831606167,
                0.6616572831606166,
                0.3331864476710435,
                0.4404398001582924,
                0.1779951772060624,
                0.6616572831606166,
                0.3311577894880284,
                0.6616572831606166,
                0.17226960844395078,
                0.6616572831606164,
                0.6616572831606166,
                0.6616572831606167,
                0.6616572831606164,
                0.12678047311484986,
                0.6616572831606166,
                0.2103121781625102,
                0.6616572831606166,
                0.6616572831606164,
                0.34786813708932834,
                0.4648517192079605,
                0.35293088651852444,
                0.28626626285120327,
                0.06908152173244742,
                0.037169136659241465,
                0.36518679787579905,
                0.3947315308764509,
                0.1399042364889067,
                0.3881381112824126,
                0.6616572831606166,
                0.21655650935101922,
                0.031818514975353596,
                0.6616572831606166,
                0.6616572831606164,
                0.03220564168705933,
                0.03639212132216379,
                0.032205741503408845,
                0.00993750123369149,
                0.2646202983672199,
                0.6616572831606166,
                0.18222110551976012,
                0.6616572831606166,
                0.10663953828937044,
                0.267439456660268,
                0.6616572831606166,
                0.6616572831606166,
                0.4421457529377055,
                0.04442950000000001,
                0.13465923960467419,
                0.14633863523664736,
                0.20720249531590945,
                0.11542649813492789,
                0.21718762425306837,
                0.6616572831606164,
                0.4055317716675149,
                0.6616572831606167,
                0.12186409326644243,
                0.032205423017719614,
                0.2812156070994674,
                0.3054038753747147,
                0.4853597629690063,
                0.07387668099945621,
                0.16419766153294968,
                0.5867299125534788,
                0.6616572831606167,
                0.035414455755801294,
                0.3487123948553394,
                0.2630814165615458,
                0.6616572831606166,
                0.05183728331967674,
                0.39047160027634803,
                0.6616572831606164,
                0.561284586484236,
                0.6616572831606166,
                0.6616572831606164,
                0.22216263057477736,
                0.444567903609408,
                0.21608721054347052,
                0.03220577112155254,
                0.22942734861203062,
                0.1857843042785741,
                0.12472155424521045,
                0.6616572831606166,
                0.6616572831606167,
                0.3630016904923634,
                0.15303450465891089,
                0.45685516614623206,
                0.6616572831606166,
                0.28584158890786954,
                0.2395099686611014,
                0.39523113326121145,
                0.402459455771125,
                0.03220555142251004,
                0.6616572831606166,
                0.4585858023224993,
                0.6616572831606166,
                0.6616572831606166,
                0.6616572831606166,
                0.6616572831606166,
                0.44611742293352924,
                0.4159203878821581,
                0.4079183190259147,
                0.15642517839306863,
                0.6616572831606164,
                0.6616572831606164,
                0.18528229519025324,
                0.3037826221673597,
                0.6616572831606164,
                0.48232554922721566,
                0.6616572831606166,
                0.4455179794437032,
                0.6616572831606167,
                0.6616572831606166,
                0.5013633791950958,
                0.5352766557341253,
                0.6616572831606166,
                0.6616572831606167,
                0.073039,
                0.07524999999999998,
                0.05467477286632283,
                0.6616572831606166,
                0.4754180038346577,
                0.04614394438187963,
                0.6616572831606167,
                0.098891309855485,
                0.12705927294348762,
                0.6616572831606166,
                0.6616572831606166,
                0.2157811485483323,
                0.08194651189168539,
                0.6616572831606166,
                0.347848654622953,
                0.3535355182092711,
                0.6616572831606167,
                0.6616572831606166,
                0.4572481253683845,
                0.3004598946043493,
                0.43622273527508515,
                0.6616572831606164,
                0.6616572831606167,
                0.21376091864913815,
                0.6616572831606166,
                0.6616572831606166,
                0.03639173521421737,
                0.6616572831606166,
                0.10111782001419435,
                0.3190988566137678,
                0.03639216052461231,
                0.6616572831606166,
                0.6616572831606167,
                0.03220579906147739,
                0.2881370048688524,
                0.1045604849831207,
                0.24313624948257395,
                0.4166646511036645,
                0.4123113319337571,
                0.23622861839206896,
                0.6616572831606167,
                0.15205362263261213,
                0.32618111900783675,
                0.4725958713927102,
                0.6616572831606167,
                0.6616572831606166,
                0.4565299762044593,
                0.6616572831606164,
                0.6616572831606167,
                0.6616572831606166,
                0.3974229392378511,
                0.07322815999152119,
                0.08258650060193257,
                0.32952247857635814,
                0.35403317114154986,
                0.07118962078820362,
                0.6616572831606166,
                0.45216972535463834,
                0.21377170919296518,
                0.6616572831606167,
                0.27183588414847426,
                0.6616572831606167,
                0.6616572831606166,
                0.6616572831606164,
                0.3145448854619714,
                0.03220541422956685,
                0.41120037407055754,
                0.07524999999999998,
                0.6616572831606168,
                0.6616572831606166,
                0.29559974267344274,
                0.15721783361738506,
                0.3435928449405189,
                0.2863114313223128,
                0.6616572831606166,
                0.6616572831606168,
                0.6616572831606167,
                0.21064046016667742,
                0.5303079422371262,
                0.4828036163263195,
                0.6616572831606166,
                0.6616572831606166,
                0.6616572831606164,
                0.28311678465603995,
                0.6616572831606167,
                0.33936874735794054,
                0.02917318888646714,
                0.29614930884701135,
                0.6616572831606164,
                0.18871044526532868,
                0.43156984139849813,
                0.031818829765749984,
                0.14855185218433212,
                0.6616572831606166,
                0.350250178783691,
                0.03220543919744137,
                0.18543139045195564,
                0.3311874826898745,
                0.3484053251963404,
                0.3819051694909348,
                0.6616572831606166,
                0.6616572831606164,
                0.6616572831606166,
                0.08374925933198818,
                0.6616572831606166,
                0.4458377366587218,
                0.2335539899472018,
                0.3071917090634238,
                0.4155130821154458,
                0.4076476109150378,
                0.11070078051589571,
                0.09628296595539089,
                0.16794674966204423,
                0.07524999999999998,
                0.6616572831606166,
                0.6616572831606166,
                0.6616572831606166,
                0.4464163843261946
            ]
        },
        "detections": 300,
        "events": 59902
    }
}