{
    "job_args": {
        "metric_limit": 300,
        "seed": 518620971
    },
    "job_id": "batch_234_do_300",
    "result": {
        "collections": {
            "crystal": [
                0.6616572831606166,
                0.24067057546088064,
                0.6616572831606168,
                0.18437051181939074,
                0.07030789341566412,
                0.6616572831606164,
                0.6616572831606167,
                0.6616572831606164,
                0.6616572831606166,
                0.031818500327859225,
                0.6616572831606166,
                0.6616572831606167,
                0.3010220423684013,
                0.4713096646345755,
                0.49204720130317875,
                0.03181870293707893,
                0.11639231646039028,
                0.08608301776684002,
                0.6616572831606167,
                0.18629100556181696,
                0.524411439949107,
                0.366440151497464,
                0.04255703774091546,
                0.6616572831606167,
                0.6616572831606164,
                0.6616572831606166,
                0.03639202790113637,
                0.2841534373054793,
                0.015038008824019733,
                0.6616572831606164,
                0.16630410929386302,
                0.12473799557880806,
                0.6616572831606164,
                0.0322054478380241,
                0.17733571271989962,
                0.6616572831606166,
                0.6616572831606166,
                0.6616572831606166,
                0.08824375527501777,
                0.6616572831606167,
                0.3208021083187196,
                0.44626083218065615,
                0.07667296178041849,
                0.4104048573137088,
                0.08878384010840723,
                0.6616572831606167,
                0.29459502835835816,
                0.6616572831606164,
                0.340521020638627,
                0.6616572831606166,
                0.6616572831606166,
                0.6616572831606166,
                0.6616572831606167,
                0.07856993188720163,
                0.6616572831606167,
                0.16118976840748733,
                0.41238659531022887,
                0.30969095477491493,
                0.5277703534665499,
                0.03220556693555178,
                0.41226605073583156,
                0.07303899999999999,
                0.6616572831606164,
                0.6616572831606166,
                0.046278972569437915,
                0.19847048278866913,
                0.12396205377899028,
                0.03128751188792029,
                0.07303900000000002,
                0.6616572831606166,
                0.37337280219089264,
                0.4249159402242324,
                0.6616572831606164,
                0.2205485254859697,
                0.12823226797388987,
                0.1651995279367327,
                0.43366045526966224,
                0.37739245941957295,
                0.6616572831606164,
                0.12338063767031425,
                0.10333224569963628,
                0.4821507952399589,
                0.006835882385561987,
                0.011212864928870525,
                0.5912408412174309,
                0.03220538446407311,
                0.1959721243967223,
                0.3724992987869749,
                0.0322058149751778,
                0.6616572831606166,
                0.6616572831606166,
                0.45293297588506154,
                0.6616572831606167,
                0.6616572831606164,
                0.40502181369349016,
                0.19045559570611434,
                0.6616572831606164,
                0.6616572831606167,
                0.2884243527842402,
                0.6616572831606166,
                0.6616572831606166,
                0.1107018628283053,
                0.3070782156405483,
                0.29007596801664837,
                0.12321501834275272,
                0.6616572831606166,
                0.6616572831606164,
                0.03220550005667347,
                0.49297929082124575,
                0.3960706087523469,
                0.6616572831606166,
                0.6616572831606167,
                0.6616572831606166,
                0.6616572831606164,
                0.6616572831606166,
                0.6616572831606166,
                0.007952685378854518,
                0.2649033561648877,
                0.37298969023606177,
                0.6616572831606167,
                0.6616572831606166,
                0.6616572831606163,
                0.5229571777680999,
                0.4449096220978431,
                0.6616572831606166,
                0.35320055401522066,
                0.3385960890051547,
                0.6616572831606167,
                0.308618713802289,
                0.14868503957440204,
                0.48009518162846054,
                0.19749289417358734,
                0.032205578804230015,
                0.04104427497019336,
                0.6616572831606166,
                0.031818713006428155,
                0.16025356899533497,
                0.6616572831606167,
                0.49793294517875475,
                0.3201905407029051,
                0.46508370143905464,
                0.04783423806930906,
                0.6616572831606166,
                0.28935304312236937,
                0.6616572831606167,
                0.6616572831606166,
                0.6616572831606167,
                0.3407976866600041,
                0.07379763415368668,
                0.6616572831606166,
                0.03181879994252609,
                0.03220567791864259,
                0.6616572831606166,
                0.6616572831606167,
                0.2605506429927421,
                0.24097762325864253,
                0.6616572831606166,
                0.6585300869592968,
                0.330938910552935,
                0.0458252471233187,
                0.6616572831606163,
                0.5472722619587772,
                0.1689534944265143,
                0.4933158471087855,
                0.3869675575924255,
                0.6616572831606166,
                0.6616572831606163,
                0.3441433389328449,
                0.10576794585582694,
                0.6616572831606167,
                0.6616572831606166,
                0.09269684046844806,
                0.6616572831606164,
                0.6616572831606164,
                0.6616572831606166,
                0.6616572831606166,
                0.12056055495016293,
                0.015188108082999696,
                0.6616572831606167,
                0.6616572831606166,
                0.6616572831606167,
                0.36035121267757475,
                0.3495648166973722,
                0.43594507671065913,
                0.6616572831606166,
                0.15947223993957604,
                0.03220562947862505,
                0.6616572831606166,
                0.3630335981698326,
                0.6616572831606166,
                0.11691115049029555,
                0.23043933548472717,
                0.19943875673960526,
                0.6616572831606166,
                0.18918679157879434,
                0.6616572831606167,
                0.05546965585939484,
                0.2460354720269878,
                0.09953017187675268,
                0.00770733057277152,
                0.3721222928501714,
                0.04921276583039424,
                0.6616572831606167,
                0.6616572831606167,
                0.10785259720474671,
                0.21494566097395074,
                0.6616572831606167,
                0.6616572831606167,
                0.16230733425528743,
                0.16701706115348625,
                0.0322057244040765,
                0.6616572831606166,
                0.5317871223605233,
                0.30016055826560106,
                0.4387991140187868,
                0.0852354,
                0.03220539959843095,
                0.47045672196551896,
                0.3432881932065713,
                0.6616572831606167,
                0.5004671624661515,
                0.6616572831606166,
                0.19952655000892852,
                0.4439084536321431,
                0.3985284700108556,
                0.6616572831606167,
                0.6616572831606166,
                0.6616572831606166,
                0.04076671877261062,
                0.37682524722906746,
                0.6616572831606164,
                0.24426241579861943,
                0.6616572831606166,
                0.4052341270795113,
                0.018909953597478775,
                0.2712198912827928,
                0.6616572831606166,
                0.2005510913386791,
                0.3809670343759084,
                0.6616572831606166,
                0.4177243766805082,
                0.6616572831606166,
                0.6616572831606166,
                0.03181845641666271,
                0.6616572831606166,
                0.6616572831606166,
                0.6616572831606167,
                0.6616572831606166,
                0.6616572831606166,
                0.20792416190178695,
                0.6616572831606168,
                0.03220569929628029,
                0.3039182254985332,
                0.03181853988599808,
                0.18788922946238046,
                0.031818749594394874,
                0.04442950000000001,
                0.2847872107289542,
                0.19115559125392145,
                0.6616572831606167,
                0.008651248321904911,
                0.6616572831606166,
                0.6616572831606167,
                0.5451165437228355,
                0.6616572831606166,
                0.36820853697784595,
                0.18761835285781503,
                0.2992326588673291,
                0.19194169141126416,
                0.44893354937104346,
                0.6616572831606166,
                0.6616572831606164,
                0.6616572831606166,
                0.05904268410156699,
                0.27189709920543625,
                0.4613908740399226,
                0.032205734002400524,
                0.37799878688791505,
                0.026078768428738464,
                0.36001950198487825,
                0.6616572831606167,
                0.030171191528065022,
                0.03220582943001938,
                0.4389552739226641,
                0.004080235042793864,
                0.19432179269263067,
                0.6616572831606164,
                0.6616572831606166,
                0.28376432534201534,
                0.20991520331892533,
                0.6163471701143995,
                0.03181844731043902,
                0.42959071137264315,
                0.3430176762794421,
                0.6616572831606167,
                0.4528760019864393,
                0.1575672290662794,
                0.38789292530213926,
                0.048046439064634405,
                0.6616572831606166
            ]
        },
        "detections": 300,
        "events": 62979
    }
}