{
    "job_args": {
        "metric_limit": 300,
        "seed": 3855785207
    },
    "job_id": "batch_106_do_300",
    "result": {
        "collections": {
            "crystal": [
                0.6616572831606164,
                0.07525,
                0.6616572831606164,
                0.031818562903522626,
                0.16851098427393335,
                0.03220540207662835,
                0.4966827883131972,
                0.6616572831606164,
                0.45603119536578823,
                0.6616572831606166,
                0.40886028800627755,
                0.03639171111190902,
                0.6616572831606167,
                0.316696891412537,
                0.6616572831606167,
                0.03181873056593969,
                0.45869545737629175,
                0.35367156772843655,
                0.3503014994067328,
                0.07220493975849968,
                0.6616572831606166,
                0.6616572831606167,
                0.4513295718843169,
                0.5072768676334882,
                0.6616572831606167,
                0.6616572831606164,
                0.6616572831606164,
                0.6616572831606166,
                0.6616572831606167,
                0.35501669096496985,
                0.3241260573679523,
                0.6616572831606166,
                0.6616572831606166,
                0.23074842960635528,
                0.031818690324840485,
                0.30477142085656694,
                0.6616572831606166,
                0.6616572831606167,
                0.03181877052337676,
                0.49032883840657115,
                0.6616572831606166,
                0.030339493551911956,
                0.6616572831606164,
                0.02793686133200346,
                0.038947874075174596,
                0.47887024797907185,
                0.571761363112308,
                0.22486194914618945,
                0.6616572831606166,
                0.1637512130239247,
                0.34211485380079476,
                0.19068781849671504,
                0.0013154281099967968,
                0.2712969256716561,
                0.25396887695488674,
                0.6616572831606166,
                0.03323849676217516,
                0.41267010610911337,
                0.4141279437520713,
                0.6616572831606167,
                0.07117696693024067,
                0.6616572831606164,
                0.6616572831606167,
                0.6616572831606166,
                0.6616572831606164,
                0.6616572831606166,
                0.4141001613504221,
                0.19061614154082074,
                0.325667995090712,
                0.36437353197382305,
                0.07525000000000001,
                0.032205533733945246,
                0.36028133832918485,
                0.23326465362914284,
                0.6616572831606167,
                0.508647024817543,
                0.6616572831606166,
                0.6616572831606166,
                0.13893689113824537,
                0.6616572831606166,
                0.4356227015578731,
                0.6616572831606164,
                0.06219991927729118,
                0.6616572831606166,
                0.35439747852790915,
                0.16574196388269352,
                0.44672717923235455,
                0.051731499602226005,
                0.07029151477386303,
                0.216181337326667,
                0.6616572831606164,
                0.04664049999999999,
                0.6616572831606167,
                0.6616572831606167,
                0.6616572831606164,
                0.07525,
                0.07525,
                0.23106386112046892,
                0.38582563894595595,
                0.6616572831606168,
                0.6616572831606166,
                0.6616572831606163,
                0.1936576652176022,
                0.19481971938194337,
                0.1944728588868514,
                0.6616572831606166,
                0.6616572831606167,
                0.6616572831606166,
                0.10642221547909995,
                0.25050238707778694,
                0.24809817929173295,
                0.3939164262905869,
                0.21656681598887786,
                0.6616572831606166,
                0.6616572831606164,
                0.11682887201402914,
                0.4192836615710591,
                0.6616572831606164,
                0.6616572831606166,
                0.2614327552148769,
                0.2679854233507802,
                0.6616572831606167,
                0.45651507713137573,
                0.035024777244204275,
                0.12612265553148383,
                0.43546949849385724,
                0.1921658890017996,
                0.28179820492204694,
                0.34892991343159135,
                0.10263508337369964,
                0.6616572831606164,
                0.04601697430216034,
                0.6616572831606164,
                0.6616572831606163,
                0.18002782778639612,
                0.255858683109651,
                0.14376306604895475,
                0.6616572831606164,
                0.6616572831606164,
                0.6616572831606166,
                0.6616572831606164,
                0.6616572831606164,
                0.6616572831606167,
                0.41490510160450444,
                0.6616572831606167,
                0.6616572831606166,
                0.6616572831606164,
                0.5273318906567288,
                0.6616572831606166,
                0.11254286984281371,
                0.2044911943650933,
                0.6616572831606167,
                0.03362447153108916,
                0.1577716778901919,
                0.16660545692019746,
                0.6616572831606166,
                0.27068106092751076,
                0.3020726810417465,
                0.6616572831606166,
                0.6616572831606167,
                0.6616572831606166,
                0.027188495362526877,
                0.06764428550476598,
                0.21451355603444627,
                0.03220563373968984,
                0.6616572831606166,
                0.42091285125726713,
                0.6616572831606164,
                0.6616572831606166,
                0.031818832278165655,
                0.5220485541733526,
                0.45958838683409864,
                0.6616572831606164,
                0.09043847774779235,
                0.11825406570572052,
                0.6616572831606166,
                0.3532397560080096,
                0.5022405952945476,
                0.0322057125761846,
                0.6616572831606164,
                0.6616572831606166,
                0.6616572831606166,
                0.6616572831606166,
                0.6616572831606166,
                0.6616572831606164,
                0.43074214758591733,
                0.4448455731319434,
                0.6616572831606164,
                0.6616572831606166,
                0.43588844416961736,
                0.24377212161218226,
                0.6616572831606166,
                0.07525,
                0.2685761274172672,
                0.4870742169167328,
                0.6616572831606166,
                0.6616572831606166,
                0.21143467348406828,
                0.23234225163405545,
                0.2135172152040685,
                0.032205484227963876,
                0.6616572831606166,
                0.2919460288790344,
                0.4789493095104975,
                0.6616572831606166,
                0.21045021879532752,
                0.4921995708050163,
                0.6616572831606166,
                0.3427442757715505,
                0.6616572831606167,
                0.6616572831606167,
                0.3905424222614088,
                0.3620047698143606,
                0.23621836950747188,
                0.0847407,
                0.031818913940538325,
                0.6616572831606167,
                0.259457597844068,
                0.3779814910183331,
                0.6616572831606167,
                0.3521772573230316,
                0.6616572831606166,
                0.08122047874699057,
                0.6616572831606164,
                0.6616572831606166,
                0.6616572831606166,
                0.4114906909383808,
                0.060844612122710084,
                0.22146677262840836,
                0.6616572831606166,
                0.6616572831606166,
                0.47617462127593024,
                0.054288317311451006,
                0.2152441399242783,
                0.31886573915453276,
                0.3427729138177104,
                0.6616572831606166,
                0.6616572831606166,
                0.15173828530976663,
                0.6616572831606164,
                0.6616572831606167,
                0.2568024253788719,
                0.07303899999999999,
                0.08523539999999999,
                0.2513576564374772,
                0.3089130298401731,
                0.28138901642499153,
                0.08523540000000002,
                0.4166385222204525,
                0.6616572831606167,
                0.36055215839995225,
                0.20506061576559598,
                0.6616572831606164,
                0.6616572831606164,
                0.6616572831606167,
                0.03639208690363548,
                0.26547053528260467,
                0.4386716181066208,
                0.6616572831606166,
                0.6616572831606166,
                0.6616572831606166,
                0.6616572831606166,
                0.5416217780684244,
                0.16717303027430525,
                0.4170060434616967,
                0.6616572831606163,
                0.237173980180138,
                0.07303900000000002,
                0.6616572831606166,
                0.2125073797936653,
                0.2365663405271705,
                0.6616572831606164,
                0.6616572831606167,
                0.08474069999999999,
                0.4614378541771259,
                0.4380392529383607,
                0.4959425857086775,
                0.5174351585733592,
                0.1646375796178169,
                0.6616572831606167,
                0.19223436260127658,
                0.35917506448109815,
                0.4034922508380257,
                0.6616572831606166,
                0.6616572831606166,
                0.6616572831606166,
                0.6616572831606166,
                0.10300768383556491,
                0.6616572831606166,
                0.6616572831606166,
                0.6616572831606167,
                0.6616572831606166,
                0.31236131373717857,
                0.26635109392022427,
                0.06375329313397005,
                0.4043071787662227,
                0.6616572831606166,
                0.4605618680110096,
                0.40695525671549987,
                0.6616572831606167
            ]
        },
        "detections": 300,
        "events": 59047
    }
}