{
    "job_args": {
        "metric_limit": 300,
        "seed": 2754183665
    },
    "job_id": "batch_35_do_300",
    "result": {
        "collections": {
            "crystal": [
                0.6616572831606164,
                0.6616572831606167,
                0.032205633928359914,
                0.2007096925895106,
                0.6616572831606167,
                0.4111969108841891,
                0.07303900000000002,
                0.5727598188418772,
                0.0613545545975539,
                0.20399044139671266,
                0.08160624269613379,
                0.6616572831606166,
                0.03181892315112352,
                0.44202580539208164,
                0.36918296562515146,
                0.0715209404055287,
                0.3162099436034798,
                0.10984121059764997,
                0.38431521425933834,
                0.2537228335630526,
                0.6616572831606166,
                0.4367345266185621,
                0.6616572831606164,
                0.4406937965120701,
                0.04437960604052449,
                0.13098653008403227,
                0.0421604677908764,
                0.47014781129495875,
                0.23664622835831484,
                0.017499951227080833,
                0.44515252340367767,
                0.6616572831606164,
                0.002045865816135195,
                0.6616572831606164,
                0.20378920060205272,
                0.6616572831606166,
                0.6616572831606166,
                0.14789742513674597,
                0.21506815321886524,
                0.050998258837620464,
                0.49624748864405893,
                0.20638802792892225,
                0.416654467998822,
                0.6616572831606164,
                0.031818859035757714,
                0.6616572831606164,
                0.6616572831606167,
                0.3398451273882306,
                0.11320704116361806,
                0.10751325488463451,
                0.6616572831606167,
                0.6616572831606166,
                0.22398401828257586,
                0.21102308660368574,
                0.1657069549604286,
                0.031818688429183284,
                0.6616572831606166,
                0.4728578148190531,
                0.26778792157849,
                0.6616572831606164,
                0.073039,
                0.6616572831606166,
                0.6616572831606166,
                0.36927997848627836,
                0.43452536602935166,
                0.6616572831606164,
                0.03181860537343904,
                0.6616572831606166,
                0.6616572831606164,
                0.6616572831606164,
                0.1370070571170272,
                0.6616572831606166,
                0.6616572831606166,
                0.45121760969079383,
                0.6616572831606166,
                0.45032269545149856,
                0.073039,
                0.409502234230253,
                0.6616572831606166,
                0.03956966374167031,
                0.6616572831606167,
                0.6616572831606167,
                0.6616572831606166,
                0.06431027395649158,
                0.03566293172267715,
                0.47621896300183103,
                0.4360602954330069,
                0.6616572831606166,
                0.6616572831606167,
                0.6616572831606166,
                0.5366850641132594,
                0.03220537729663939,
                0.6616572831606166,
                0.6616572831606164,
                0.6616572831606167,
                0.032205833191845445,
                0.6616572831606167,
                0.33702717047102904,
                0.4566517880591707,
                0.6616572831606166,
                0.6616572831606167,
                0.2201868055204381,
                0.6616572831606167,
                0.018137906931278258,
                0.6616572831606166,
                0.6616572831606164,
                0.6616572831606167,
                0.004945608320288564,
                0.6616572831606166,
                0.6616572831606166,
                0.24468693179721948,
                0.6616572831606166,
                0.032205380570209385,
                0.6616572831606164,
                0.39863392147148186,
                0.27749464374693933,
                0.092889399501494,
                0.20276681310464145,
                0.03220568825881573,
                0.6616572831606166,
                0.6616572831606167,
                0.006441118460402184,
                0.4468989947906745,
                0.1169390192096571,
                0.6616572831606167,
                0.3479287693210441,
                0.6616572831606166,
                0.04078263134785254,
                0.46257550988586377,
                0.2732983939050526,
                0.032205459532623146,
                0.19557761671555932,
                0.32839153785485664,
                0.05997926972341161,
                0.24207319197535793,
                0.3318685529702688,
                0.6616572831606167,
                0.6616572831606167,
                0.03181892873642673,
                0.3718218665409153,
                0.2737464527937878,
                0.5440391253873704,
                0.369264659155247,
                0.11670086375131683,
                0.22534365073157603,
                0.6616572831606164,
                0.41257996921347445,
                0.5010170693535456,
                0.6616572831606167,
                0.2074537002776221,
                0.6616572831606166,
                0.03220545839635747,
                0.6616572831606167,
                0.5765336704021088,
                0.011355935192232658,
                0.6616572831606166,
                0.15118917398627318,
                0.13747036012601588,
                0.03017536224338563,
                0.6616572831606164,
                0.3089992817089642,
                0.4161429478042264,
                0.6616572831606166,
                0.6616572831606166,
                0.03639184920241105,
                0.6616572831606166,
                0.260317637135457,
                0.6616572831606167,
                0.6616572831606167,
                0.6616572831606167,
                0.6616572831606166,
                0.03631657647634076,
                0.6616572831606167,
                0.4151632666957721,
                0.3185564322262733,
                0.2852687744412138,
                0.6616572831606166,
                0.6616572831606167,
                0.6616572831606164,
                0.6616572831606166,
                0.6616572831606167,
                0.03220574946652181,
                0.4642614220383044,
                0.07962655473245095,
                0.02437802815111295,
                0.6616572831606167,
                0.1934627750622191,
                0.6616572831606166,
                0.6616572831606166,
                0.22730274844467818,
                0.6616572831606167,
                0.4656427518962267,
                0.03220567342623378,
                0.0322053583380491,
                0.04552594886061741,
                0.4636167128916087,
                0.6616572831606167,
                0.6616572831606167,
                0.6616572831606168,
                0.6616572831606166,
                0.6616572831606164,
                0.03220540876519597,
                0.6616572831606166,
                0.6616572831606166,
                0.6616572831606166,
                0.18435869448307282,
                0.03181876856925581,
                0.6616572831606166,
                0.20406423165147874,
                0.6616572831606164,
                0.5849367063247349,
                0.6616572831606164,
                0.2370932121324215,
                0.132771693445498,
                0.032205358135473545,
                0.6616572831606166,
                0.6616572831606166,
                0.1603826567507503,
                0.45654044794729387,
                0.6616572831606166,
                0.07524999999999998,
                0.6616572831606164,
                0.4096559579991631,
                0.6616572831606166,
                0.3491337055738902,
                0.030521454301780326,
                0.21562928321222977,
                0.6616572831606166,
                0.03220559783201505,
                0.5540023539792797,
                0.2683171453737383,
                0.3239678160476954,
                0.6616572831606164,
                0.29181519112075277,
                0.07823080775814106,
                0.4174057723022712,
                0.03220537787155259,
                0.6616572831606163,
                0.08704049926752616,
                0.07876645072269173,
                0.09095944313732585,
                0.570594672090197,
                0.6616572831606166,
                0.6616572831606164,
                0.6616572831606166,
                0.6616572831606167,
                0.5377858933874589,
                0.5322078422957173,
                0.6616572831606166,
                0.10840045292570827,
                0.6616572831606166,
                0.6616572831606166,
                0.03181894680308946,
                0.32555524504445355,
                0.0015511108960560849,
                0.6616572831606164,
                0.6616572831606164,
                0.6616572831606166,
                0.6616572831606167,
                0.6616572831606166,
                0.032205574337923766,
                0.4155163881662881,
                0.6616572831606166,
                0.07525,
                0.4792396944286419,
                0.4204244951469857,
                0.0865951070218713,
                0.06949131891114757,
                0.6616572831606164,
                0.6616572831606166,
                0.03181858806333598,
                0.03220576097444445,
                0.6616572831606166,
                0.19179713220530065,
                0.45617854965887716,
                0.4477808769264194,
                0.031129721151343825,
                0.6616572831606166,
                0.4763429097515256,
                0.6616572831606166,
                0.031818612076718315,
                0.260780058558575,
                0.6616572831606166,
                0.6616572831606167,
                0.08523540000000002,
                0.10445089445211661,
                0.6616572831606166,
                0.39327659083383354,
                0.19224066559430503,
                0.6616572831606167,
                0.5252754165267685,
                0.6616572831606167,
                0.03215413248985048,
                0.03639204525301592,
                0.3463024989087735,
                0.013113673714003071,
                0.6616572831606166,
                0.6616572831606166,
                0.6616572831606166,
                0.6616572831606166
            ]
        },
        "detections": 300,
        "events": 65108
    }
}