{
    "job_args": {
        "metric_limit": 500,
        "seed": 3812939144
    },
    "job_id": "batch_94_do_500",
    "result": {
        "collections": {
            "crystal": [
                0.12870563825326958,
                0.5109989100000001,
                0.51099891,
                0.4321444122131344,
                0.2412790212476396,
                1.157002648640952,
                0.51099891,
                0.35050753443435584,
                0.51099891,
                0.073039,
                1.0480134328784523,
                0.3122014543658571,
                0.023292881230994267,
                0.3653849117913943,
                0.14476680037987166,
                0.18480164998424264,
                0.9498556962474693,
                0.013467826799017146,
                0.5586367582977246,
                0.51099891,
                0.07728753525426794,
                1.1570026486409521,
                0.3830603253986704,
                0.4832529378465471,
                0.7205973542043371,
                0.3457749747048679,
                1.1570026486409521,
                0.5109989099999999,
                0.01725777129518824,
                0.51099891,
                0.5109989100000001,
                0.30211894478958834,
                1.1570026486409521,
                0.07524999999999998,
                0.51099891,
                0.51099891,
                0.51099891,
                1.157002648640952,
                1.157002648640952,
                0.073039,
                1.1570026486409521,
                0.07832342762561914,
                0.31846827760797625,
                0.07515082378044013,
                0.43264209845895774,
                0.5109989100000001,
                0.630340631573427,
                0.5109989100000001,
                0.51099891,
                0.476008694701895,
                0.51099891,
                0.39891322825922954,
                0.4436169838503939,
                0.4916494962963429,
                0.5109989100000001,
                0.51099891,
                1.157002648640952,
                0.25046081404509396,
                0.51099891,
                0.51099891,
                0.51099891,
                0.51099891,
                0.14993255627759594,
                1.1570026486409521,
                0.3583469718563419,
                0.17629329136992283,
                0.51099891,
                0.24567204335644785,
                0.51099891,
                1.1570026486409521,
                0.51099891,
                0.26060190451689247,
                0.5109989099999999,
                0.1076208107167716,
                0.1392541190884825,
                0.9351230248864949,
                0.5109989099999999,
                0.15641036299908048,
                0.1920661089694872,
                0.3859917747092663,
                0.1780083039611123,
                0.7351908889508605,
                0.30522195544672936,
                0.37110899121503577,
                0.4968417187211782,
                0.51099891,
                0.21165971721371193,
                0.5109989099999999,
                0.21425895390700012,
                0.06467937333752355,
                0.5983806728818879,
                0.13522815616064313,
                0.07303900000000002,
                0.5109989100000001,
                0.51099891,
                1.026654826725135,
                1.1570026486409521,
                0.1606248226670964,
                0.51099891,
                0.5363913124445199,
                0.51099891,
                0.5109989100000001,
                0.0915788687730637,
                1.0011377481859172,
                0.19387582702374667,
                0.6434204208337077,
                0.51099891,
                0.2205948197058521,
                0.2994419736042464,
                0.20455139640768427,
                0.07524999999999998,
                0.4459883814638157,
                0.22894380864117903,
                0.5618695020302623,
                0.7588610399267712,
                0.51099891,
                0.07303900000000002,
                0.51099891,
                0.51099891,
                0.3017934995871463,
                0.51099891,
                0.3076372326358008,
                0.31076125746467076,
                0.1875194966509967,
                0.51099891,
                0.51099891,
                0.3026190535789718,
                0.7716040647023893,
                0.026822830784208274,
                0.51099891,
                1.1570026486409524,
                0.51099891,
                0.26360907412195844,
                0.1453224274361774,
                0.0834116353553438,
                0.51099891,
                0.8617920861526505,
                0.7245220265157157,
                0.51099891,
                0.51099891,
                0.51099891,
                0.4437086727665867,
                0.10822986850213656,
                0.4174783515609134,
                0.5109989100000001,
                0.5448236875411341,
                1.1570026486409521,
                0.51099891,
                0.51099891,
                0.6162186149949092,
                0.51099891,
                0.07832342762561913,
                1.1570026486409524,
                0.5109989099999999,
                0.5109989099999999,
                0.27734801882952353,
                0.6902007805349131,
                0.51099891,
                0.2861234238696299,
                0.14643029715614267,
                0.15322712783244585,
                0.07832342762561914,
                0.3182203689878199,
                0.5109989100000001,
                0.5109989099999999,
                0.43725602041760814,
                0.51099891,
                0.30531301653464044,
                1.1570026486409521,
                0.5680138424523522,
                0.51099891,
                0.02833961148898695,
                0.029292462882736237,
                0.5089252756673975,
                0.3722741587246608,
                0.5109989099999999,
                0.0678678437400836,
                0.44323368623770815,
                0.07832342762561914,
                0.42395122630230003,
                0.5109989100000001,
                0.51099891,
                0.51099891,
                0.09392766510818656,
                0.51099891,
                0.5109989099999999,
                0.15772382043031408,
                0.5109989099999999,
                0.51099891,
                0.07832342762561914,
                0.4742703215836176,
                0.5109989099999999,
                1.157002648640952,
                0.06269333667427429,
                0.19875846960612858,
                0.3456114667301401,
                0.6113247027732684,
                0.40881211437980397,
                0.29250073876475347,
                0.5109989099999999,
                0.51099891,
                0.5109989100000001,
                0.07464363295579934,
                0.5109989099999999,
                0.25240681076373733,
                0.5109989099999999,
                1.1570026486409521,
                0.9607213173161686,
                0.5109989100000001,
                0.7046715888511242,
                0.22300951364933352,
                0.51099891,
                0.5109989100000001,
                0.16732199861529798,
                0.13985082994557474,
                0.23139035334143046,
                0.5109989099999999,
                0.07832342762561914,
                0.51099891,
                0.21887130161630586,
                0.51099891,
                0.05932533602071299,
                0.1834516123582614,
                0.51099891,
                1.1570026486409524,
                0.51099891,
                1.1570026486409521,
                1.1570026486409521,
                1.1570026486409521,
                0.30454361932448304,
                0.073039,
                0.07525,
                0.3605881153133631,
                0.51099891,
                0.3738033758813455,
                0.4216588266604049,
                1.157002648640952,
                0.51099891,
                1.1570026486409521,
                0.6037740567059422,
                0.0246389366165094,
                0.51099891,
                1.1570026486409524,
                0.51099891,
                0.6236847341619288,
                0.5109989100000001,
                0.20803935657119904,
                0.07525,
                0.51099891,
                0.51099891,
                1.1570026486409521,
                0.39117068925069837,
                0.51099891,
                0.0753095577872202,
                0.2346173960256979,
                0.51099891,
                0.51099891,
                0.07524999999999998,
                0.51099891,
                0.3241430743121649,
                0.68744314628007,
                0.5109989099999999,
                0.6590313696445111,
                0.3020323753494426,
                0.0995701342844616,
                1.157002648640952,
                0.20356198640997833,
                0.51099891,
                0.9122786871944126,
                0.51099891,
                0.03816882924473508,
                0.51099891,
                0.5109989100000001,
                0.5109989099999999,
                0.51099891,
                0.5938393346386663,
                0.4291562409469437,
                0.5775222738457956,
                0.8290852130820268,
                0.51099891,
                0.240930896357417,
                0.7591559819039281,
                0.31037825392292423,
                0.18105371131545486,
                0.2562220201477571,
                0.30362778549047004,
                0.03449662735902026,
                1.1570026486409521,
                0.29974742482892525,
                0.042122866121962976,
                1.157002648640952,
                0.06451084074280833,
                0.05288042037019336,
                1.1570026486409524,
                0.51099891,
                0.5014384549520274,
                0.3480314218981365,
                0.34628919889536547,
                0.44177700167757844,
                0.08142767946791124,
                0.5109989100000001,
                0.07832342762561914,
                0.5874124490483583,
                0.5109989099999999,
                0.07736569593765488,
                0.12570399954976663,
                0.51099891,
                1.157002648640952,
                0.1561481041637811,
                0.07832342762561913,
                0.05001692762561915,
                0.07303900000000002,
                0.0847407,
                1.157002648640952,
                0.26835202260017177,
                0.5344501499227474,
                0.9477530321138125,
                0.9732499951474126,
                0.51099891,
                0.51099891,
                0.5109989099999999,
                0.17657718141907705,
                0.5109989100000001,
                0.51099891,
                0.7546538712955588,
                0.8648145010517683,
                1.157002648640952,
                0.51099891,
                0.08523539999999999,
                1.1570026486409521,
                0.5109989100000001,
                0.51099891,
                0.7284507890957084,
                0.379846812950822,
                0.51099891,
                0.51099891,
                0.073039,
                0.07525000000000001,
                0.15280580405197716,
                0.06786784374008359,
                0.19375907447421406,
                0.5109989099999999,
                0.51099891,
                0.2095109674436883,
                0.15682758772507216,
                1.1570026486409521,
                0.323108822497361,
                1.1570026486409521,
                0.02878038863806495,
                0.8028279651921677,
                0.40507221598476895,
                0.51099891,
                0.4198630446344327,
                0.5109989100000001,
                0.19706263617307207,
                0.4273338755628277,
                0.07832342762561914,
                0.07832342762561913,
                0.51099891,
                0.07832342762561914,
                0.51099891,
                0.51099891,
                0.51099891,
                0.03354054504669296,
                0.51099891,
                0.08621382941682271,
                0.06284002723308209,
                0.6488701305772442,
                0.5109989100000001,
                0.51099891,
                0.5109989099999999,
                0.20015031899463667,
                0.51099891,
                0.26569194744125846,
                0.3823247255379202,
                0.51099891,
                0.6351782914805727,
                0.12852085620973547,
                0.51099891,
                0.51099891,
                0.4265708646757165,
                0.09869988919736028,
                0.5109989099999999,
                0.51099891,
                1.157002648640952,
                0.07525000000000001,
                0.51099891,
                1.157002648640952,
                0.5109989099999999,
                0.07832342762561913,
                0.4769506694404251,
                0.07525,
                0.8326605372882462,
                0.5109989100000001,
                0.4432915659377418,
                0.21541911132684832,
                0.010779716464524802,
                0.10154017940902993,
                0.15092047892840682,
                0.13968029503316187,
                0.373044731679957,
                0.42874883928982144,
                0.3373641915050213,
                0.5109989100000001,
                0.18499790459046556,
                0.51099891,
                0.18298719180923234,
                0.5289669069660492,
                0.02597792682022715,
                0.5109989100000001,
                0.15059206320096455,
                0.51099891,
                1.1570026486409521,
                0.7331192269655242,
                0.51099891,
                0.51099891,
                0.5109989100000001,
                0.10376972003993268,
                0.51099891,
                0.5109989100000001,
                0.38427360713204695,
                0.51099891,
                0.5109989099999999,
                0.51099891,
                0.31975707842053225,
                0.9282751107301468,
                0.51099891,
                1.1570026486409524,
                0.8758424533177436,
                0.14371595951973254,
                0.9323454797588602,
                1.1570026486409521,
                0.51099891,
                0.51099891,
                0.9176190025605133,
                1.1570026486409524,
                0.5711856722069094,
                0.328169681155084,
                0.16291348532088934,
                0.15511850343097944,
                0.4907223503215704,
                0.07034269477930512,
                0.51099891,
                1.1570026486409521,
                0.51099891,
                0.16324677567924722,
                0.06786784374008359,
                0.51099891,
                0.51099891,
                0.51099891,
                0.0820333753153824,
                0.51099891,
                0.51099891,
                0.808645790330231,
                0.51099891,
                1.1570026486409521,
                1.1570026486409524,
                0.040212315419030864,
                0.3957553141963829,
                0.51099891,
                0.5109989099999999,
                0.7186360058623096,
                0.7976016123888234,
                1.0128782950506603,
                0.2663876256603463,
                0.08523539999999999,
                0.2325828229806052,
                0.7726729956190368,
                0.0737196996641385,
                0.51099891,
                0.186212736569415,
                0.20855414634670372,
                0.3142389526782472,
                0.852122819266474,
                0.20650262708514922,
                0.6488240842009296,
                0.7203340311788462,
                0.32765380787615817,
                0.51099891,
                0.51099891,
                0.4553687298702261,
                0.08523539999999999,
                0.05385353500837581,
                0.06973851061565572,
                0.121062726242962,
                1.0434014796711633,
                0.51099891,
                0.22725824794975158,
                0.51099891,
                0.08202227625482778,
                0.5109989099999999,
                0.51099891,
                0.07832342762561914,
                0.5109989100000001,
                0.950390952440783,
                0.476349842692979,
                0.06372651784939998,
                1.1570026486409521,
                0.9806880812265193,
                0.11131921348498447
            ],
            "photocathode": [
                822,
                3607,
                3624,
                2990,
                1699,
                8158,
                3548,
                2479,
                3531,
                464,
                7202,
                2191,
                175,
                2545,
                982,
                1267,
                6685,
                75,
                3997,
                3645,
                469,
                8253,
                2765,
                3420,
                5086,
                2433,
                8243,
                3615,
                104,
                3546,
                3589,
                2101,
                8190,
                526,
                3561,
                3548,
                3677,
                7989,
                8141,
                523,
                8141,
                511,
                2277,
                531,
                3196,
                3546,
                4470,
                3622,
                3636,
                3449,
                3522,
                2676,
                3063,
                3481,
                3578,
                3564,
                8303,
                1728,
                3664,
                3621,
                3456,
                3659,
                1030,
                8197,
                2584,
                1225,
                3513,
                1745,
                3495,
                8128,
                3499,
                1844,
                3574,
                767,
                1010,
                6682,
                3485,
                1062,
                1295,
                2786,
                1270,
                5098,
                2199,
                2614,
                3587,
                3654,
                1447,
                3534,
                1523,
                429,
                4083,
                883,
                514,
                3738,
                3661,
                7176,
                8434,
                1146,
                3565,
                3681,
                3689,
                3593,
                634,
                7274,
                1338,
                4607,
                3588,
                1544,
                2137,
                1417,
                543,
                3169,
                1608,
                3976,
                5338,
                3614,
                510,
                3596,
                3513,
                2086,
                3558,
                2116,
                2186,
                1333,
                3505,
                3584,
                2122,
                5326,
                186,
                3556,
                8104,
                3570,
                1895,
                1049,
                573,
                3633,
                6106,
                4967,
                3572,
                3540,
                3532,
                3053,
                722,
                2866,
                3466,
                3895,
                8139,
                3555,
                3669,
                4314,
                3511,
                534,
                8099,
                3551,
                3554,
                2058,
                4809,
                3681,
                2014,
                1031,
                1083,
                517,
                2254,
                3506,
                3617,
                3048,
                3611,
                2175,
                8159,
                4062,
                3656,
                192,
                209,
                3533,
                2625,
                3574,
                451,
                3303,
                532,
                2916,
                3640,
                3480,
                3620,
                637,
                3615,
                3482,
                1117,
                3556,
                3705,
                557,
                3362,
                3562,
                7954,
                437,
                1366,
                2361,
                4340,
                2844,
                2091,
                3508,
                3562,
                3634,
                505,
                3626,
                1721,
                3688,
                8012,
                6846,
                3561,
                4986,
                1519,
                3613,
                3545,
                1180,
                1046,
                1607,
                3634,
                527,
                3474,
                1541,
                3459,
                427,
                1353,
                3641,
                8042,
                3606,
                7882,
                7959,
                8211,
                2070,
                528,
                536,
                2527,
                3605,
                2649,
                3030,
                8091,
                3509,
                8116,
                4231,
                185,
                3510,
                8171,
                3695,
                4326,
                3532,
                1462,
                529,
                3580,
                3603,
                8197,
                2783,
                3516,
                504,
                1704,
                3579,
                3577,
                502,
                3809,
                2342,
                4832,
                3553,
                4684,
                2109,
                709,
                8100,
                1412,
                3585,
                6318,
                3516,
                256,
                3615,
                3623,
                3553,
                3474,
                4092,
                3203,
                4135,
                5804,
                3568,
                1734,
                5294,
                2148,
                1306,
                1769,
                2061,
                249,
                8199,
                2149,
                296,
                8195,
                459,
                382,
                8019,
                3448,
                3509,
                2410,
                2529,
                3058,
                590,
                3550,
                509,
                4218,
                3597,
                518,
                844,
                3602,
                8089,
                1095,
                555,
                340,
                500,
                636,
                7932,
                1829,
                3795,
                6492,
                6798,
                3515,
                3587,
                3573,
                1283,
                3599,
                3535,
                5330,
                6043,
                8032,
                3504,
                615,
                8100,
                3685,
                3605,
                5326,
                2753,
                3630,
                3481,
                498,
                545,
                1098,
                491,
                1353,
                3605,
                3660,
                1509,
                1186,
                8051,
                2265,
                8046,
                201,
                5585,
                2913,
                3692,
                2880,
                3671,
                1363,
                3028,
                539,
                490,
                3502,
                583,
                3535,
                3600,
                3560,
                228,
                3649,
                600,
                426,
                4584,
                3548,
                3639,
                3515,
                1367,
                3586,
                1846,
                2712,
                3594,
                4557,
                909,
                3538,
                3605,
                2859,
                712,
                3702,
                3707,
                8051,
                554,
                3471,
                8058,
                3612,
                529,
                3281,
                493,
                5955,
                3562,
                3144,
                1531,
                78,
                728,
                1065,
                1019,
                2550,
                3139,
                2371,
                3590,
                1323,
                3734,
                1300,
                3614,
                177,
                3569,
                1047,
                3562,
                8095,
                5115,
                3615,
                3501,
                3609,
                699,
                3615,
                3514,
                2621,
                3510,
                3484,
                3551,
                2220,
                6520,
                3650,
                8101,
                6098,
                982,
                6597,
                8403,
                3585,
                3636,
                6309,
                7979,
                3992,
                2227,
                1132,
                1084,
                3551,
                501,
                3501,
                7922,
                3587,
                1163,
                473,
                3623,
                3618,
                3661,
                579,
                3618,
                3740,
                5962,
                3554,
                8219,
                8198,
                311,
                2691,
                3681,
                3635,
                5025,
                5683,
                7166,
                1896,
                585,
                1696,
                5372,
                495,
                3610,
                1321,
                1491,
                2210,
                6060,
                1385,
                4665,
                5164,
                2303,
                3531,
                3476,
                3194,
                610,
                379,
                441,
                810,
                7345,
                3478,
                1598,
                3557,
                565,
                3591,
                3509,
                553,
                3675,
                6787,
                3471,
                460,
                8018,
                7021,
                793
            ]
        },
        "detections": 500,
        "events": 36270
    }
}