{
    "job_args": {
        "metric_limit": 500,
        "seed": 1708117216
    },
    "job_id": "batch_120_do_500",
    "result": {
        "collections": {
            "crystal": [
                0.2879090425089769,
                0.51099891,
                0.07525000000000001,
                0.2939328769558538,
                0.004672479455336297,
                0.48269241,
                0.51099891,
                0.5509661247939761,
                0.51099891,
                0.8890368253454011,
                0.17056573724039442,
                0.51099891,
                0.5109989100000001,
                0.46920824117944826,
                1.1570026486409524,
                0.46810085213191177,
                0.00892291815647861,
                0.5109989100000001,
                0.48707216332243397,
                0.19775698301854644,
                0.07832342762561915,
                0.05796204199349569,
                0.51099891,
                0.07525,
                0.63718810156094,
                1.090136401581435,
                0.51099891,
                0.51099891,
                1.1570026486409521,
                1.1570026486409524,
                0.17835754637121914,
                1.157002648640952,
                0.5109989100000001,
                0.1764298393723287,
                0.5353010548991147,
                0.8895456835171525,
                0.4252114503762687,
                0.04691348280101193,
                1.157002648640952,
                0.15642168965973427,
                0.31505549581985537,
                0.009226708457079291,
                1.1570026486409521,
                0.51099891,
                0.057180573141006,
                0.23378741424814017,
                0.2922840159886096,
                0.51099891,
                0.1998700710937,
                0.5109989100000001,
                0.1786271489873983,
                0.0678678437400836,
                0.51099891,
                0.07524999999999998,
                0.9041271684334102,
                0.8565516228530514,
                0.5109989099999999,
                0.0876557,
                0.5457167512223129,
                0.23049454366263972,
                0.51099891,
                0.9236163558929846,
                0.51099891,
                0.29541326829502523,
                0.51099891,
                0.7147014970510372,
                0.51099891,
                0.5109989100000001,
                0.32469382411744674,
                0.3399821315184158,
                0.51099891,
                0.51099891,
                0.285558381147504,
                0.24326650882401168,
                0.11370022735838742,
                0.20366290567428685,
                0.15618701186341524,
                0.51099891,
                0.5109989100000001,
                1.1570026486409524,
                0.20940920355827858,
                0.6824310803653066,
                0.07832342762561914,
                0.51099891,
                0.7505290685718926,
                0.08474069999999997,
                0.1858216582625576,
                1.1570026486409521,
                0.12766567733059592,
                0.03594829744143613,
                1.1570026486409521,
                0.3985348364603741,
                0.51099891,
                0.8808009747620038,
                1.1570026486409524,
                0.07524999999999998,
                0.19805208370123856,
                0.3738692314305656,
                0.6332287534371901,
                1.157002648640952,
                0.9256458511486684,
                0.5109989099999999,
                0.51099891,
                0.5109989100000001,
                0.6107295824215109,
                0.0605064710333404,
                0.51099891,
                0.38352590939327835,
                0.5109989100000001,
                0.4193186591645858,
                0.30190850610663034,
                0.51099891,
                0.5257117779681622,
                0.6356258069013124,
                1.157002648640952,
                0.0009117597773735664,
                0.5109989100000001,
                0.07832342762561913,
                0.51099891,
                0.5109989099999999,
                0.9646349397424289,
                0.3186022496435479,
                0.07525,
                1.157002648640952,
                0.23355846196504215,
                0.0678678437400836,
                0.5109989100000001,
                0.25691519086514514,
                0.51099891,
                0.5109989100000001,
                1.1570026486409521,
                0.4580513309835229,
                0.7410597391757404,
                0.6017628174657133,
                0.23405450463227867,
                0.08523539999999999,
                0.04971392762561914,
                0.8467321231921638,
                0.0847407,
                0.51099891,
                1.157002648640952,
                0.5109989100000001,
                0.15428774851326604,
                0.6148933185511838,
                1.1570026486409524,
                0.5727585545840034,
                0.24769330764553796,
                0.43695019380791245,
                0.7590674793294745,
                0.51099891,
                0.7855982288961719,
                0.51099891,
                0.5109989099999999,
                0.51099891,
                0.51099891,
                0.51099891,
                0.5109989100000001,
                0.5109989099999999,
                0.51099891,
                0.9347866553596258,
                0.51099891,
                0.9238293748167329,
                0.22877627846714885,
                0.5109989100000001,
                0.9346525143812916,
                0.15657854306905056,
                0.578117085410603,
                1.1570026486409524,
                1.1570026486409521,
                0.51099891,
                0.06786784374008362,
                0.4080151066218959,
                0.2956739425336331,
                0.06786784374008359,
                0.07832342762561913,
                0.07303899999999998,
                0.8489788597871265,
                0.5109989099999999,
                1.1570026486409521,
                0.5109989100000001,
                0.20138283362869272,
                1.1570026486409521,
                0.51099891,
                0.23052498376363745,
                0.4522116053474771,
                0.18244019830016572,
                0.073039,
                0.452035371122505,
                1.1570026486409521,
                0.2613525283225452,
                0.9385323349458493,
                0.6476186631830995,
                0.7203200946119745,
                0.51099891,
                0.07047284529434938,
                0.13516705699534096,
                1.157002648640952,
                0.2918985761310839,
                0.51099891,
                0.1438861935301709,
                0.07832342762561914,
                0.51099891,
                0.20067886904260412,
                0.36075000319169853,
                0.51099891,
                0.51099891,
                0.51099891,
                0.5484002957784949,
                0.31955403646822456,
                0.2636604286705248,
                0.42137923928116483,
                0.10130737494477789,
                0.51099891,
                0.3749203498603066,
                0.5109989100000001,
                0.5109989099999999,
                0.51099891,
                0.5109989100000001,
                1.0169928466428038,
                0.3082759314005372,
                1.157002648640952,
                0.4263770049918492,
                0.17651485644718443,
                1.1570026486409521,
                0.5548051660396253,
                0.08523540000000002,
                0.0807055116837308,
                0.31411096700138774,
                1.1570026486409521,
                0.43079766591218605,
                0.1472933438333977,
                0.51099891,
                0.21310892403265105,
                0.30911011317638737,
                0.0847407,
                0.44182619169517845,
                1.1570026486409521,
                0.03768986491916776,
                0.51099891,
                0.2974270546399789,
                0.5109989100000001,
                0.33075115938045707,
                0.13801502102591473,
                0.51099891,
                0.023566780926315922,
                0.40865043236028364,
                0.1325228766670141,
                0.5109989100000001,
                1.1570026486409524,
                0.51099891,
                0.07832342762561914,
                0.7871228932313863,
                0.51099891,
                1.1570026486409521,
                0.3085932519125377,
                0.51099891,
                0.51099891,
                0.5109989100000001,
                0.4164408989744162,
                0.6503004939417497,
                0.51099891,
                0.06748203737563929,
                0.51099891,
                0.19304227498417365,
                0.51099891,
                0.2817848034191303,
                0.51099891,
                0.27907895365499286,
                0.51099891,
                0.26156302514390767,
                0.51099891,
                0.51099891,
                0.51099891,
                0.43243074805877735,
                0.51099891,
                0.5109989100000001,
                0.2745160566776551,
                1.1570026486409524,
                0.51099891,
                0.5109989100000001,
                0.010916653640882845,
                0.6017351893637896,
                0.42714545886507915,
                0.43713803518674715,
                0.07832342762561914,
                0.5109989100000001,
                0.16602732835468698,
                0.1909226691155593,
                0.3041824276125366,
                0.2673280962742888,
                0.8844425439634196,
                0.9271934933008019,
                0.5109989100000001,
                0.5109989099999999,
                1.1570026486409521,
                0.41142996013780625,
                0.26923538485939447,
                0.17938140343469172,
                0.03309182975680268,
                0.5109989099999999,
                0.03771428879201322,
                0.51099891,
                0.51099891,
                0.7315315480961994,
                0.24751719998584681,
                0.51099891,
                0.51099891,
                0.2468285518372555,
                0.51099891,
                0.6463768204138554,
                1.157002648640952,
                0.15273885606114918,
                1.1570026486409524,
                0.21502372614601106,
                0.51099891,
                0.33148860532459234,
                0.6540773867073263,
                0.5109989100000001,
                1.1570026486409521,
                0.51099891,
                0.0831972089090594,
                0.5109989099999999,
                0.39557838825364183,
                0.30300672774745874,
                0.51099891,
                0.5109989099999999,
                0.51099891,
                0.7049871138113811,
                0.2709989908088056,
                0.4971696821905297,
                0.51099891,
                0.51099891,
                0.007631262980817732,
                1.157002648640952,
                0.2791561829493043,
                0.51099891,
                0.07832342762561914,
                0.5109989099999999,
                0.13366636507574947,
                1.157002648640952,
                1.4994595182300838,
                0.51099891,
                0.51099891,
                0.28388626370688913,
                0.5109989100000001,
                0.343380487324737,
                0.6347172578867188,
                0.2632933688431033,
                0.023336639681491023,
                0.3824076248066838,
                0.5109989100000001,
                0.7423661283849422,
                0.5109989100000001,
                0.8599919619113665,
                0.51099891,
                0.51099891,
                0.03790329179073537,
                0.51099891,
                0.7302449405785272,
                0.08528017381391595,
                0.4497283831541446,
                0.30651319797196097,
                0.9162023645436856,
                0.51099891,
                0.16674480768091482,
                0.51099891,
                1.157002648640952,
                0.51099891,
                0.5626198365407802,
                0.27294693428560896,
                0.2126685082122139,
                1.1570026486409521,
                0.51099891,
                0.08234684197875536,
                0.0002103551626745359,
                0.51099891,
                0.14114641186000376,
                0.22948904829789052,
                0.10071959242580736,
                0.51099891,
                0.06786784374008359,
                0.191496515884841,
                0.51099891,
                1.1570026486409521,
                0.31760706383839515,
                0.57557737558612,
                0.51099891,
                0.045398037094124204,
                0.07832342762561914,
                0.4784764526314274,
                0.29961372767716904,
                0.5416948827758572,
                0.51099891,
                0.5602298623124524,
                0.4519731416019414,
                0.51099891,
                0.51099891,
                1.1570026486409521,
                0.07526653282773478,
                0.51099891,
                0.22488912301939423,
                0.3259191022634818,
                0.5109989099999999,
                0.3897566087119305,
                0.06518450727827152,
                0.07236195899811503,
                1.1570026486409521,
                0.3349357780999426,
                0.2122781433428801,
                0.51099891,
                0.047757358137413,
                0.5109989100000001,
                1.1570026486409521,
                0.900639540366443,
                0.05904620000000001,
                0.51099891,
                0.51099891,
                0.19957684747542553,
                0.5109989100000001,
                0.51099891,
                0.07832342762561914,
                0.19352425536741075,
                1.1570026486409521,
                0.3320466098563845,
                0.231903363486331,
                0.2177023547943047,
                0.20462975856007393,
                0.7498928834802313,
                0.1680649795065901,
                0.51099891,
                0.7593358519951622,
                0.51099891,
                0.3032123731081722,
                0.19636885002337545,
                0.51099891,
                1.1570026486409521,
                0.0852354,
                0.09981659385109448,
                0.4022592416225885,
                0.40649102200071346,
                0.5886958302497254,
                0.51099891,
                0.51099891,
                0.5109989100000001,
                0.5109989100000001,
                1.1570026486409524,
                0.51099891,
                0.51099891,
                0.51099891,
                0.4396125862550059,
                0.23849149219368537,
                0.3803589107300492,
                0.35643273074418735,
                0.16154840172329432,
                0.37385964658318327,
                0.17879197920508658,
                0.2752745421004502,
                0.8638573546895674,
                1.1570026486409524,
                0.51099891,
                0.16278657741353858,
                0.51099891,
                0.51099891,
                0.5109989099999999,
                0.4644320849805966,
                0.15099529944426116,
                0.5109989100000001,
                1.1570026486409524,
                0.9956129703826545,
                1.1570026486409521,
                0.30198407702459434,
                1.1570026486409521,
                0.51099891,
                0.22924461093495585,
                0.05490999800645047,
                0.5109989099999999,
                0.07524999999999998,
                0.026039532142245136,
                0.026543458436166158,
                0.025112621638693933,
                0.3062795694144012,
                0.1945047042768659,
                0.07525,
                0.07832342762561911,
                0.7341378871453199,
                0.51099891,
                0.4129534193797655,
                1.157002648640952,
                0.2093565949284673,
                0.49827007147880664,
                1.1570026486409521,
                0.6667347877091461,
                0.48086409350334103,
                0.5109989100000001,
                0.3509389029556862,
                0.5109989099999999,
                0.09659944950187066,
                0.7422128668877883,
                0.2112150850288992,
                0.3408249328572027
            ],
            "photocathode": [
                2009,
                3548,
                527,
                2185,
                35,
                3478,
                3611,
                3795,
                3487,
                6229,
                1218,
                3602,
                3546,
                3312,
                8212,
                3246,
                53,
                3526,
                3359,
                1378,
                565,
                395,
                3586,
                479,
                4308,
                7705,
                3582,
                3616,
                8123,
                7936,
                1220,
                8100,
                3734,
                1252,
                3753,
                6132,
                3169,
                318,
                7992,
                1184,
                2244,
                61,
                8232,
                3582,
                394,
                1593,
                2002,
                3487,
                1394,
                3473,
                1308,
                469,
                3604,
                501,
                6472,
                5884,
                3600,
                576,
                3749,
                1555,
                3591,
                6726,
                3660,
                2178,
                3642,
                4883,
                3629,
                3634,
                2185,
                2400,
                3487,
                3567,
                2024,
                1711,
                775,
                1414,
                1163,
                3627,
                3411,
                7971,
                1448,
                4784,
                516,
                3690,
                5218,
                572,
                1337,
                8200,
                885,
                240,
                8236,
                2796,
                3558,
                6207,
                7831,
                490,
                1362,
                2689,
                4475,
                8219,
                6683,
                3516,
                3544,
                3525,
                4394,
                422,
                3523,
                2682,
                3513,
                2840,
                2121,
                3544,
                3825,
                4399,
                8033,
                6,
                3548,
                526,
                3479,
                3526,
                6800,
                2229,
                567,
                7940,
                1668,
                465,
                3510,
                1832,
                3572,
                3703,
                8019,
                3170,
                5119,
                4293,
                1614,
                664,
                337,
                6089,
                593,
                3562,
                8034,
                3575,
                1038,
                4329,
                8327,
                3978,
                1712,
                2988,
                5615,
                3515,
                5413,
                3526,
                3647,
                3524,
                3436,
                3526,
                3647,
                3525,
                3594,
                6432,
                3590,
                6575,
                1626,
                3519,
                6564,
                1131,
                4191,
                8151,
                8137,
                3640,
                449,
                2821,
                2069,
                459,
                569,
                556,
                5864,
                3617,
                8106,
                3547,
                1368,
                8201,
                3589,
                1538,
                3081,
                1297,
                527,
                3234,
                7995,
                1829,
                6582,
                4524,
                5001,
                3550,
                497,
                984,
                8190,
                2166,
                3608,
                1014,
                541,
                3721,
                1516,
                2527,
                3592,
                3662,
                3629,
                3917,
                2234,
                1948,
                2992,
                708,
                3628,
                2592,
                3565,
                3663,
                3559,
                3598,
                7259,
                2212,
                8185,
                3000,
                1298,
                8277,
                3853,
                583,
                542,
                2272,
                8153,
                2959,
                1040,
                3606,
                1464,
                2141,
                605,
                3135,
                7875,
                258,
                3691,
                2124,
                3631,
                2349,
                978,
                3615,
                163,
                2887,
                932,
                3553,
                8167,
                3528,
                515,
                5586,
                3520,
                8162,
                2130,
                3716,
                3484,
                3592,
                3049,
                4618,
                3516,
                459,
                3563,
                1309,
                3600,
                2024,
                3735,
                1934,
                3503,
                1879,
                3589,
                3422,
                3519,
                2964,
                3646,
                3737,
                2009,
                7983,
                3656,
                3631,
                92,
                4323,
                3028,
                2985,
                541,
                3516,
                1124,
                1354,
                2159,
                1980,
                6264,
                6545,
                3647,
                3531,
                8117,
                3031,
                1873,
                1183,
                236,
                3594,
                264,
                3546,
                3559,
                5165,
                1693,
                3569,
                3604,
                1691,
                3442,
                4451,
                8137,
                1028,
                8130,
                1566,
                3611,
                2299,
                4578,
                3578,
                8047,
                3575,
                525,
                3547,
                2862,
                2165,
                3626,
                3587,
                3504,
                4955,
                1862,
                3509,
                3633,
                3512,
                45,
                8177,
                1986,
                3505,
                518,
                3454,
                1008,
                8147,
                10446,
                3608,
                3516,
                1988,
                3605,
                2453,
                4510,
                1910,
                192,
                2623,
                3533,
                5173,
                3641,
                6095,
                3670,
                3607,
                266,
                3596,
                5033,
                566,
                3066,
                2117,
                6496,
                3499,
                1101,
                3672,
                8142,
                3512,
                3932,
                1921,
                1429,
                8203,
                3493,
                556,
                4,
                3492,
                956,
                1570,
                696,
                3572,
                444,
                1351,
                3579,
                8044,
                2266,
                4033,
                3578,
                270,
                545,
                3390,
                2083,
                3798,
                3643,
                3875,
                3174,
                3603,
                3631,
                8210,
                518,
                3568,
                1650,
                2252,
                3536,
                2756,
                465,
                513,
                8257,
                2342,
                1544,
                3445,
                342,
                3667,
                8159,
                6317,
                392,
                3608,
                3510,
                1418,
                3451,
                3516,
                550,
                1322,
                8079,
                2317,
                1646,
                1526,
                1486,
                5318,
                1172,
                3671,
                5249,
                3522,
                2113,
                1478,
                3495,
                8091,
                577,
                677,
                2851,
                2833,
                4301,
                3581,
                3503,
                3572,
                3637,
                7963,
                3711,
                3629,
                3551,
                3122,
                1595,
                2602,
                2557,
                1113,
                2651,
                1292,
                1902,
                5962,
                8141,
                3505,
                1161,
                3511,
                3517,
                3648,
                3266,
                1038,
                3523,
                8161,
                6998,
                8239,
                2100,
                8137,
                3592,
                1545,
                394,
                3730,
                533,
                180,
                183,
                175,
                2190,
                1379,
                524,
                539,
                5167,
                3544,
                2861,
                7973,
                1517,
                3509,
                8070,
                4693,
                3387,
                3542,
                2500,
                3523,
                647,
                5285,
                1474,
                2351
            ]
        },
        "detections": 500,
        "events": 39379
    }
}