{
    "job_args": {
        "metric_limit": 500,
        "seed": 2583784565
    },
    "job_id": "batch_146_do_500",
    "result": {
        "collections": {
            "crystal": [
                0.6250160431075129,
                0.33844643898446103,
                0.8382531710346407,
                0.51099891,
                0.05360284822926781,
                0.51099891,
                0.51099891,
                0.13282804906601509,
                0.1814120596118814,
                0.35790225505203876,
                0.08142686023217,
                0.2302399411178176,
                0.5109989100000001,
                0.20346678974565413,
                0.08523539999999999,
                0.51099891,
                0.7891021907133947,
                0.4942270053745052,
                0.8102194446836543,
                0.34359168029901743,
                1.157002648640952,
                0.5109989100000001,
                0.07070702734062811,
                0.27758651603192824,
                0.27851974319309414,
                0.5109989100000001,
                0.51099891,
                1.1570026486409521,
                0.51099891,
                0.11361182164389437,
                0.309265025526334,
                0.51099891,
                0.07303900000000002,
                0.51099891,
                0.3073530603917906,
                0.5109989100000001,
                0.5640332079470158,
                0.12327959237703114,
                0.5109989099999999,
                0.51099891,
                0.5026567664020763,
                0.51099891,
                0.5109989099999999,
                0.51099891,
                0.9319326632172127,
                0.005132971095686223,
                0.07832342762561913,
                0.51099891,
                0.38884371746485386,
                0.04665215529736039,
                0.51099891,
                0.5109989100000001,
                0.0848894906448433,
                0.31009424037349476,
                0.14971968142335834,
                0.34074034573552603,
                0.09063466834118633,
                0.09913556240236182,
                0.5109989099999999,
                0.404253635147859,
                0.4580071109222906,
                0.5109989099999999,
                0.10620801043872624,
                0.38724709473491736,
                0.07524999999999998,
                0.35436496619914715,
                0.22307264856776257,
                0.51099891,
                0.51099891,
                0.51099891,
                0.07613957371002221,
                0.8680362750991265,
                0.0852354,
                0.5109989099999999,
                0.0852354,
                0.07832342762561914,
                0.347579184701554,
                1.1570026486409521,
                0.13236470414182172,
                0.51099891,
                1.1570026486409521,
                0.51099891,
                0.15461790185551721,
                0.28829836160290434,
                0.5109989099999999,
                0.07303899999999999,
                0.51099891,
                0.07102734738358625,
                0.2558699472778675,
                0.36197460844554075,
                0.2953784145938104,
                0.07832342762561913,
                0.07832342762561914,
                1.1570026486409524,
                0.51099891,
                0.49621684924087694,
                0.819680189904045,
                0.5109989100000001,
                0.3080798246477616,
                0.28082352223265206,
                0.07832342762561913,
                0.51099891,
                0.51099891,
                0.51099891,
                0.3775828673374141,
                0.5056428296338249,
                0.17576572298044596,
                0.51099891,
                0.08523540000000002,
                0.03147547585484478,
                0.09696381440312385,
                0.51099891,
                0.51099891,
                0.28508477625393436,
                0.18349432590217718,
                0.2907947642241189,
                0.51099891,
                0.5109989100000001,
                0.51099891,
                0.51099891,
                0.6904133595474164,
                0.29387675094551347,
                1.1570026486409524,
                1.1570026486409521,
                1.1570026486409521,
                1.1570026486409521,
                0.18888215339277786,
                0.46462355328988736,
                0.3214303664879862,
                0.6201928015067475,
                0.5109989100000001,
                0.08957988781933994,
                0.5109989099999999,
                1.1570026486409524,
                0.5109989099999999,
                0.5109989100000001,
                0.1628106877333378,
                0.51099891,
                0.10179564870470659,
                1.1570026486409521,
                0.7851306367486347,
                0.14194114870940552,
                1.1570026486409521,
                0.7922022280385312,
                0.51099891,
                0.0678678437400836,
                0.3794586777887071,
                0.51099891,
                0.07303900000000002,
                0.10886850146306991,
                0.6936485195398532,
                0.41748464968460597,
                0.40945476180738816,
                0.51099891,
                0.2922648368060524,
                0.19570248813080132,
                0.08011009210212056,
                0.51099891,
                0.18222549245395492,
                0.07990853979220647,
                0.0847407,
                0.51099891,
                0.51099891,
                0.20476427921209905,
                0.2679106844166386,
                0.43849963107274,
                0.51099891,
                0.5806851440737447,
                0.5109989100000001,
                0.0025291160797384915,
                0.2000330998450699,
                0.06557178434983524,
                0.5109989100000001,
                1.1570026486409521,
                0.8023431835935473,
                0.5109989100000001,
                0.9148934531089554,
                0.51099891,
                0.43806024769104474,
                0.2733618022899891,
                0.287791839541197,
                0.17854070310030834,
                0.03203227142049486,
                0.09816976681982424,
                0.35209760485686925,
                0.51099891,
                1.1570026486409524,
                0.51099891,
                0.51099891,
                0.2816548098238838,
                0.3073758514070603,
                0.18499415633948554,
                0.51099891,
                0.07805073152317893,
                0.3928500080329737,
                0.51099891,
                0.07715000742703698,
                1.1570026486409521,
                0.2588326070488941,
                0.7607003198796223,
                0.5109989099999999,
                0.5109989099999999,
                1.157002648640952,
                0.2446965244662485,
                0.3545757780315987,
                1.157002648640952,
                0.51099891,
                0.16879249100971264,
                0.8151089177750138,
                0.3910008898220354,
                1.1570026486409524,
                0.2710560399512212,
                0.49657539406015283,
                0.51099891,
                0.5109989099999999,
                0.2821352423866829,
                0.51099891,
                0.51099891,
                0.021895995326062012,
                0.07832342762561914,
                0.0847407,
                0.3606557593899572,
                0.059903455198327404,
                0.07525,
                0.36711254997403403,
                0.5109989099999999,
                0.1994374756394372,
                0.7286254470030821,
                1.1570026486409521,
                0.30124741553490275,
                1.1570026486409521,
                0.24836378586864888,
                0.4876997213410382,
                1.1570026486409521,
                0.07832342762561913,
                1.1570026486409521,
                0.2747815210847014,
                0.019144336506685122,
                0.51099891,
                0.5109989100000001,
                0.09631546424901483,
                0.5109989100000001,
                0.0712683834802163,
                0.36938657500615935,
                0.51099891,
                0.51099891,
                0.00286212715891232,
                0.51099891,
                0.09128486874317873,
                0.51099891,
                0.32051160950997004,
                1.1108135048976837,
                0.4058776861588439,
                0.51099891,
                0.7884159741660134,
                0.51099891,
                0.51099891,
                0.51099891,
                0.51099891,
                0.51099891,
                0.9379293903700234,
                0.37550240595709494,
                0.02588423380497437,
                0.5109989100000001,
                0.41080981542176637,
                0.05244982702763845,
                0.28998263916142564,
                0.34554012913331233,
                0.07832342762561914,
                0.07832342762561914,
                0.28196001893978634,
                0.4444521045066734,
                0.6003214239899246,
                0.51099891,
                0.51099891,
                0.08300718146865305,
                0.08554420569662254,
                0.14243003259169806,
                0.11263397978463668,
                0.3119835276171611,
                0.39968626799070817,
                0.07525,
                0.5109989100000001,
                0.3429467160972316,
                1.1570026486409521,
                0.07373644453591632,
                0.19540005753633144,
                1.157002648640952,
                0.2547255702698872,
                0.2791689675467431,
                0.37465158472703,
                0.08523540000000002,
                0.12088387569640785,
                0.33148355780415806,
                0.5109989100000001,
                0.2063768502702078,
                0.51099891,
                0.27521991139274615,
                0.07832342762561914,
                0.24718168184172823,
                1.1570026486409521,
                0.46956338895395155,
                0.5109989099999999,
                0.07525,
                0.3371149803722966,
                0.26409426653442925,
                0.219573137034869,
                0.20134068679826517,
                1.128393148640952,
                0.3439881802560578,
                1.1570026486409521,
                0.5247524241934487,
                0.37257350127356575,
                0.5398801766820807,
                0.32301542700210495,
                0.09721244441141604,
                0.3842276876497647,
                0.51099891,
                0.5109989099999999,
                0.653936913946001,
                1.1570026486409521,
                0.2828640161004294,
                0.51099891,
                0.22770886182512134,
                0.08103492610244334,
                0.8044697712930051,
                0.51099891,
                0.31355600894784214,
                0.51099891,
                0.5109989100000001,
                0.5109989099999999,
                0.5507001528597404,
                0.073039,
                0.4173172134305115,
                0.51099891,
                0.5195508613472749,
                0.8701575410531717,
                0.51099891,
                0.51099891,
                0.45509142670376834,
                0.8349752881627529,
                0.5005828293791643,
                0.7811696032623683,
                0.40509094705327553,
                0.7275491030326107,
                0.3761724855893388,
                0.33044347111505373,
                0.5109989100000001,
                0.51099891,
                0.51099891,
                0.51099891,
                0.9969682461852605,
                0.51099891,
                0.07807133838497649,
                0.48704811375606494,
                0.49290333319557744,
                0.5109989099999999,
                0.15870289541511107,
                0.6861226203698578,
                0.51099891,
                0.51099891,
                0.5109989100000001,
                0.1358295428854308,
                0.9599700470675792,
                0.16898692363335963,
                0.38736033791552665,
                0.4968996358983428,
                0.51099891,
                0.08006103969208889,
                0.4628033129297773,
                0.5109989099999999,
                0.5209813568186945,
                0.29939556560998304,
                0.5109989100000001,
                0.01929116895201516,
                1.1570026486409521,
                0.07832342762561914,
                0.5893223376256191,
                0.51099891,
                0.4631430625153035,
                0.9015527957231559,
                0.51099891,
                1.157002648640952,
                0.51099891,
                0.51099891,
                0.29735359080296153,
                0.51099891,
                0.03193810219875126,
                0.51099891,
                0.11355603725081201,
                0.25907339598511736,
                1.0098812590074242,
                1.157002648640952,
                0.6801459260161492,
                0.5109989100000001,
                0.07016450107018371,
                0.4322739319378362,
                0.8760256929859346,
                0.5109989100000001,
                0.3550266170618342,
                0.0678678437400836,
                0.3800794188523106,
                0.14512702183589085,
                0.6186644163132431,
                0.51099891,
                0.23488102741830952,
                0.5109989100000001,
                1.1570026486409521,
                0.06604637884347953,
                0.9127265450612276,
                0.2025366470282991,
                0.5364141145637065,
                0.3846961428407346,
                0.29946195041593504,
                0.5109989100000001,
                0.33767660525737225,
                0.5109989100000001,
                0.01767777408828697,
                0.2926083763528724,
                0.5693311631284568,
                0.6960872488650977,
                0.07375988087081058,
                1.0283416568821837,
                0.5109989100000001,
                0.03688964516699422,
                0.02807828235011356,
                0.8395214699643566,
                0.031165545766306146,
                0.51099891,
                0.07303899999999999,
                0.51099891,
                0.51099891,
                1.1570026486409521,
                1.1570026486409521,
                0.2668860575163588,
                0.5840580909711423,
                0.521211827860751,
                0.51099891,
                0.51099891,
                0.4889096524095313,
                0.51099891,
                0.11163079943510712,
                0.05001692762561914,
                1.1570026486409521,
                0.3991466770067339,
                0.23130879299644308,
                1.157002648640952,
                0.19700257359735085,
                0.51099891,
                1.1570026486409524,
                0.51099891,
                0.9359418606016809,
                0.30479879140552735,
                1.1570026486409521,
                0.18988102613039137,
                0.5791562352549819,
                0.5109989100000001,
                0.51099891,
                0.22782155321866848,
                0.46328524734291154,
                0.51099891,
                1.1570026486409524,
                0.28415973237779396,
                0.20103049200939763,
                0.10173557022425207,
                1.1570026486409521,
                1.1570026486409521,
                0.51099891,
                0.51099891,
                0.51099891,
                0.4310169900572769,
                1.1570026486409521,
                0.2785096354686852,
                1.1570026486409524,
                0.51099891,
                0.51099891,
                1.157002648640952,
                0.51099891,
                0.51099891,
                0.06437285329515025,
                1.1570026486409524,
                0.51099891,
                0.867771462477436,
                0.44724919905659477,
                0.07525,
                0.24009535013315148,
                0.7288753405004305,
                1.1570026486409521,
                0.0392583437400836,
                0.3653703780479255,
                0.51099891,
                0.02845495063369813,
                0.19905275397365085,
                0.07832342762561914,
                1.1570026486409521,
                1.1570026486409521,
                0.2763157787217639,
                0.51099891,
                0.5109989100000001,
                0.07525
            ],
            "photocathode": [
                4477,
                2351,
                5864,
                3606,
                389,
                3572,
                3558,
                949,
                1293,
                2600,
                540,
                1626,
                3635,
                1383,
                589,
                3415,
                5515,
                3376,
                5878,
                2349,
                8077,
                3538,
                502,
                1954,
                1949,
                3466,
                3587,
                7934,
                3502,
                828,
                2161,
                3635,
                469,
                3522,
                2159,
                3635,
                3919,
                904,
                3574,
                3635,
                3642,
                3570,
                3525,
                3542,
                6530,
                24,
                607,
                3542,
                2762,
                327,
                3522,
                3574,
                594,
                2254,
                1021,
                2411,
                674,
                717,
                3717,
                2795,
                3265,
                3474,
                768,
                2679,
                511,
                2452,
                1598,
                3569,
                3520,
                3422,
                538,
                6078,
                657,
                3456,
                648,
                538,
                2422,
                7893,
                885,
                3537,
                8135,
                3587,
                1082,
                1955,
                3517,
                493,
                3532,
                488,
                1830,
                2505,
                1980,
                546,
                564,
                8075,
                3437,
                3464,
                5834,
                3745,
                2124,
                1955,
                546,
                3461,
                3484,
                3566,
                2617,
                3609,
                1248,
                3508,
                591,
                240,
                714,
                3607,
                3652,
                1994,
                1217,
                2034,
                3534,
                3587,
                3659,
                3593,
                4994,
                2022,
                7903,
                8069,
                8216,
                8058,
                1333,
                3349,
                2247,
                4345,
                3542,
                661,
                3742,
                8345,
                3592,
                3580,
                1135,
                3549,
                732,
                8128,
                5625,
                950,
                8063,
                5581,
                3629,
                472,
                2578,
                3529,
                539,
                796,
                4789,
                2964,
                2919,
                3466,
                2051,
                1359,
                546,
                3769,
                1287,
                545,
                589,
                3564,
                3698,
                1408,
                1794,
                3042,
                3611,
                4071,
                3628,
                19,
                1404,
                409,
                3572,
                7998,
                5460,
                3541,
                6529,
                3555,
                3131,
                1857,
                2041,
                1236,
                248,
                694,
                2427,
                3537,
                8229,
                3638,
                3502,
                1955,
                2222,
                1195,
                3471,
                565,
                2766,
                3623,
                506,
                8175,
                1731,
                5628,
                3702,
                3547,
                8132,
                1697,
                2526,
                8162,
                3592,
                1166,
                5642,
                2688,
                8436,
                1953,
                3503,
                3525,
                3618,
                1933,
                3641,
                3614,
                153,
                550,
                573,
                2600,
                396,
                545,
                2455,
                3580,
                1439,
                5236,
                8019,
                2029,
                8104,
                1800,
                3485,
                7979,
                561,
                8335,
                1832,
                141,
                3466,
                3525,
                668,
                3634,
                518,
                2632,
                3607,
                3647,
                20,
                3605,
                646,
                3536,
                2251,
                7603,
                2895,
                3559,
                5673,
                3448,
                3526,
                3535,
                3537,
                3523,
                6454,
                2591,
                175,
                3585,
                2831,
                343,
                2060,
                2379,
                568,
                521,
                1995,
                3110,
                4195,
                3689,
                3507,
                571,
                601,
                1037,
                763,
                2137,
                2843,
                535,
                3485,
                2528,
                8010,
                517,
                1394,
                8043,
                1816,
                1999,
                2639,
                598,
                904,
                2350,
                3639,
                1451,
                3584,
                1954,
                588,
                1669,
                8097,
                3327,
                3622,
                542,
                2328,
                1831,
                1481,
                1416,
                7859,
                2478,
                8094,
                3832,
                2653,
                3760,
                2274,
                663,
                2672,
                3532,
                3553,
                4495,
                8110,
                2018,
                3551,
                1568,
                610,
                5764,
                3504,
                2149,
                3505,
                3628,
                3609,
                3737,
                539,
                2915,
                3612,
                3655,
                6034,
                3719,
                3504,
                3314,
                5869,
                3459,
                5509,
                2826,
                5235,
                2569,
                2205,
                3504,
                3546,
                3594,
                3592,
                7319,
                3533,
                527,
                3293,
                3477,
                3555,
                1092,
                4819,
                3466,
                3430,
                3558,
                992,
                6684,
                1196,
                2653,
                3561,
                3585,
                536,
                3300,
                3492,
                3636,
                2063,
                3592,
                134,
                8317,
                576,
                4109,
                3662,
                3236,
                6385,
                3602,
                8336,
                3567,
                3624,
                2076,
                3626,
                223,
                3644,
                727,
                1876,
                7137,
                8026,
                4826,
                3525,
                492,
                3059,
                6020,
                3543,
                2507,
                505,
                2633,
                1003,
                4351,
                3779,
                1580,
                3635,
                8189,
                483,
                6536,
                1490,
                3751,
                2638,
                2207,
                3459,
                2410,
                3560,
                130,
                2123,
                3940,
                5018,
                558,
                7346,
                3590,
                254,
                193,
                5859,
                202,
                3587,
                500,
                3609,
                3601,
                8121,
                8178,
                1922,
                4032,
                3733,
                3492,
                3485,
                3426,
                3612,
                787,
                352,
                8217,
                2791,
                1608,
                8088,
                1403,
                3674,
                8077,
                3508,
                6596,
                2112,
                8503,
                1338,
                4055,
                3549,
                3647,
                1536,
                3299,
                3524,
                8052,
                1998,
                1381,
                664,
                8092,
                8019,
                3622,
                3510,
                3573,
                2982,
                8252,
                1904,
                8059,
                3536,
                3540,
                8144,
                3565,
                3556,
                462,
                8146,
                3563,
                6226,
                3170,
                524,
                1733,
                5070,
                8422,
                272,
                2436,
                3646,
                214,
                1391,
                511,
                8329,
                8049,
                1937,
                3563,
                3605,
                541
            ]
        },
        "detections": 500,
        "events": 34628
    }
}