{
    "job_args": {
        "metric_limit": 500,
        "seed": 1953496924
    },
    "job_id": "batch_147_do_500",
    "result": {
        "collections": {
            "crystal": [
                0.4531080949393708,
                0.7323396143670378,
                1.1732266212015408,
                0.0598576300917637,
                0.6412107169461866,
                0.7414740334424524,
                0.8430728806149275,
                1.1732266212015405,
                0.2595099574068629,
                0.24089480406765817,
                0.17206183108021944,
                0.6943004165094632,
                0.693988342352523,
                0.35819208147728737,
                0.5247651664940457,
                1.0599496438545342,
                0.51099891,
                0.6013713304561709,
                1.3324980931528796,
                0.5316150851797571,
                0.6851130348695266,
                1.3324980931528798,
                1.3324980931528798,
                1.3324980931528796,
                0.7789912708890205,
                0.21135174842416363,
                1.3324980931528798,
                0.9790121738406605,
                1.33249809315288,
                0.8707105693494093,
                1.0116985032374628,
                0.11515745591874937,
                0.7907160592209888,
                1.0070656777470823,
                0.019933419703723754,
                0.0847407,
                0.8233801397747524,
                0.07303900000000002,
                0.8356813702086271,
                0.9148936073125081,
                0.674915092578324,
                0.9578054246307226,
                0.22035366391937616,
                1.3324980931528796,
                0.6627603237172516,
                0.4655660960562211,
                0.5882577846920163,
                0.7342823614749595,
                0.8450554412193608,
                0.7631990607020895,
                0.9353673733067746,
                0.087534,
                0.15960058804543276,
                0.09274166518310306,
                1.33249809315288,
                0.2869722644877999,
                1.1732266212015405,
                0.1021645207662909,
                0.3273976641062159,
                0.7650857220124027,
                0.7169592696177065,
                0.6303596293180096,
                0.47443577383617974,
                0.0847407,
                0.35072680267380774,
                1.1732266212015403,
                0.8527692843099122,
                0.08338087758279461,
                0.8842416092421641,
                0.02421359149079083,
                0.8108592473443844,
                0.9710333908867622,
                1.1232168620858718,
                0.1318113422990127,
                0.27493255309182546,
                0.5100461769420318,
                0.23205484882709085,
                0.3778535995327273,
                0.4251862571854078,
                0.02607889384630585,
                1.1732266212015405,
                0.041399853646311165,
                0.4367052965832339,
                0.827978524196999,
                0.23311145558873633,
                1.3324980931528798,
                0.4177938209651575,
                0.241796104884334,
                0.03707571573850643,
                0.162045303733916,
                1.0253705498817713,
                0.713993006011099,
                0.2160570357869221,
                1.3324980931528798,
                0.17476462485030758,
                0.8450016223671892,
                1.3324980931528798,
                1.1732266212015403,
                0.0493261779797638,
                1.3324980931528796,
                0.5290684936765688,
                0.05877511291303261,
                0.6279726165639544,
                0.7251882040709827,
                0.563917123683506,
                1.0759609478099699,
                1.3324980931528803,
                0.3346552917720277,
                0.4216612771607176,
                0.14695592261472878,
                0.9146340538351974,
                0.21255161171930717,
                0.6694474157481934,
                1.3324980931528798,
                0.058059128986090114,
                1.1732266212015405,
                0.5233421405555152,
                1.1732266212015405,
                1.1732266212015408,
                0.7410482488649507,
                0.7035033819572846,
                1.3324980931528798,
                1.1732266212015408,
                1.1732266212015405,
                1.1732266212015405,
                1.0075018936527336,
                0.26178440155766924,
                0.3377812001597543,
                0.6257816028257682,
                0.668949433048774,
                0.9407295389884063,
                0.2791105367855893,
                0.07246610985759795,
                0.4822031222771251,
                1.08303844582368,
                1.019810551459679,
                0.3328380109304613,
                1.1732266212015405,
                0.7978342691556968,
                0.9774605702529232,
                1.0519420581035832,
                0.669274404925376,
                1.3324980931528796,
                0.911956022522801,
                0.7439574485337017,
                0.47217970932376,
                0.15410376090615818,
                0.6922163922601039,
                0.8181308714583271,
                0.8986887978252993,
                1.0874161919030247,
                0.1973105854193539,
                0.3535928983817286,
                1.008873028788104,
                0.5003215439625041,
                0.41693486818553627,
                0.9555048366290432,
                0.12406965192643926,
                0.5734236074636045,
                1.1732266212015403,
                0.42888285089011574,
                0.4363193341489059,
                1.1732266212015405,
                1.0840758376291868,
                1.3324980931528798,
                1.115729581843164,
                0.7961729488594586,
                0.1864169549128615,
                1.33249809315288,
                0.4325432307797489,
                0.07303899999999999,
                0.25340365399352666,
                0.9380487726736675,
                0.2665669556355924,
                0.20406253452520556,
                1.0009817488905666,
                0.9000349206388141,
                1.176033293624852,
                0.011107942272305715,
                1.3324980931528798,
                1.3324980931528798,
                0.3500854149271873,
                1.1732266212015405,
                0.4798927190805515,
                1.33249809315288,
                0.45455157033299853,
                0.79754014949776,
                1.1732266212015405,
                0.4363661886256592,
                0.6811049062636011,
                0.4028829840111673,
                1.3324980931528798,
                0.6446487368357496,
                0.6518247585550156,
                0.5562331685077263,
                0.6641329793928836,
                0.04918923722047952,
                0.07525,
                1.1732266212015405,
                0.5220547945844468,
                1.3324980931528798,
                0.1514434346284128,
                1.1732266212015405,
                0.09837111301462698,
                1.1732266212015405,
                0.2804494184471492,
                0.32297883497962304,
                1.0050253784904888,
                0.3595489637994158,
                0.3167070617091885,
                0.7445231208222018,
                1.33249809315288,
                0.3287589482715727,
                0.6305961214637218,
                1.1732266212015405,
                1.1732266212015408,
                0.41480482568059907,
                1.1732266212015405,
                0.7981086121353071,
                1.1732266212015408,
                1.2755104019225005,
                0.9546936219388796,
                1.3324980931528796,
                0.621847531230102,
                0.8849002516807754,
                0.7569831126428767,
                0.21615094093235887,
                0.4705006660244446,
                1.1732266212015408,
                0.1779587291400183,
                0.31050027315287987,
                0.9350027313029707,
                0.8699916770874162,
                0.2569979268329069,
                0.087534,
                1.3324980931528798,
                1.3324980931528798,
                0.5014574053005835,
                1.3324980931528798,
                0.22905764253341093,
                0.4069374762918151,
                0.6231909295579487,
                0.46931056770023355,
                0.6562463762019348,
                0.5497087957132385,
                0.7245584922947341,
                0.5538739076230867,
                0.17788541187943832,
                0.4143106704357179,
                0.032454115232754654,
                1.1732266212015408,
                0.07525,
                1.0412667892949794,
                0.5012250925279942,
                0.3674292183167451,
                0.8011810434152506,
                0.08820239999999999,
                1.1732266212015405,
                0.2606929924475999,
                1.3324980931528798,
                0.2414848866862458,
                0.6323706840981387,
                0.9197912724289797,
                0.9705444397795746,
                0.4367294765615857,
                0.26713823426405914,
                0.12478931585852983,
                1.3324980931528798,
                0.7979871885315046,
                1.1732266212015408,
                1.1732266212015405,
                0.8191149928288229,
                0.08595374219667384,
                1.0356019163461259,
                1.1732266212015405,
                0.5405794419293094,
                0.5768497453194679,
                0.25913399319215813,
                0.46668716343909983,
                0.3401463316623087,
                0.00210035861520641,
                0.7025733859387547,
                1.1261626757240923,
                1.33249809315288,
                0.5179122962175694,
                0.4301666297132325,
                0.03279209553846146,
                0.40871898630491,
                1.0100460662135284,
                0.38094544771064687,
                1.3324980931528798,
                0.8624227632489987,
                1.3324980931528798,
                0.0316499868484611,
                0.42639698510108087,
                1.1732266212015408,
                0.5157945747261874,
                1.1732266212015405,
                1.1732266212015408,
                1.3324980931528798,
                0.3935415475437843,
                0.7461397954526283,
                0.6157092440241745,
                0.8632202577767292,
                0.6280627243110111,
                0.6331503526597634,
                1.1732266212015403,
                0.8297389927292871,
                0.3281361678679333,
                0.3465908755191818,
                0.6805039159796051,
                0.18595277736192034,
                0.10224635850071295,
                0.8000162963076891,
                1.081190046430036,
                0.30424268064573234,
                0.2480578343624973,
                1.3324980931528803,
                0.7068134820643341,
                0.8007985691748977,
                0.3516872435076599,
                0.3487998856263925,
                0.5664397477273398,
                0.7591667587274668,
                1.3324980931528798,
                0.07525000000000001,
                0.9715463618685012,
                0.7661328581828035,
                1.083660491531072,
                0.4240081921199119,
                0.25028362109159585,
                1.2035869132331214,
                0.25622475662381844,
                0.764165099237287,
                0.5458741306801842,
                1.33249809315288,
                1.1732266212015405,
                0.6562552129144166,
                0.2354976545630919,
                0.065139658032036,
                1.1732266212015405,
                0.7601385646024275,
                0.6011129135817569,
                1.1732266212015408,
                1.3324980931528796,
                0.3596467916107289,
                0.9493612013281248,
                0.297680033077665,
                0.7229251838767096,
                0.7105879825288549,
                0.6678066440600537,
                0.840871949921351,
                0.22166520822071623,
                0.23938972526211838,
                1.1732266212015408,
                0.31687281835942177,
                0.16486808369238862,
                0.8487585862612431,
                0.5030778361439869,
                0.8162073118147988,
                0.21510881020984107,
                0.22053869234891452,
                1.3324980931528798,
                0.3529998839779239,
                0.3126253249205617,
                0.07303899999999999,
                1.1732266212015403,
                0.03788367664466108,
                0.8240113343277979,
                0.5326948306720927,
                0.5818881897344708,
                1.1732266212015405,
                0.9156922828445679,
                0.15018213668191693,
                0.6691043626748283,
                1.3324980931528798,
                0.45577075055173916,
                1.1732266212015405,
                0.8042305819047084,
                1.0903550067945342,
                0.07524999999999998,
                1.1732266212015403,
                1.1732266212015408,
                1.034295986483955,
                0.6110083793926877,
                1.3324980931528798,
                0.6330154902368059,
                1.1732266212015405,
                0.1265437549556323,
                0.08820239999999999,
                1.1732266212015405,
                0.40402583075319154,
                1.1732266212015405,
                1.3324980931528798,
                1.1732266212015408,
                0.933881691512473,
                0.1723562372509906,
                0.7313266754964883,
                0.7049615803373305,
                1.3324980931528796,
                0.3809908552129955,
                0.2693010759273569,
                0.05904619999999999,
                1.3324980931528798,
                1.3324980931528798,
                0.626153031509824,
                0.4622971350004592,
                0.6119866709948544,
                1.1732266212015405,
                0.26139556117597884,
                0.5936527219785683,
                1.2767768046968346,
                0.7455246918401478,
                1.3324980931528798,
                1.1732266212015405,
                0.4888361435355064,
                1.0480999163848694,
                0.0876557,
                0.37830843259470803,
                1.3324980931528798,
                0.39958186768565956,
                0.7888785598850478,
                1.3324980931528798,
                0.9661087756561819,
                0.03083250882674704,
                0.6969624291779448,
                1.1732266212015405,
                0.42658098617600804,
                0.8653107509623746,
                0.8099286040650999,
                0.09176069699257773,
                0.8574351102515427,
                1.3324980931528798,
                0.3496627742946016,
                0.3300316727185112,
                0.6231505427961037,
                0.9288756365824448,
                0.24048353415169707,
                1.3324980931528798,
                0.27923754889165314,
                0.8104783848440247,
                1.1732266212015405,
                0.014887599996942223,
                0.2515872069543198,
                0.6182960420372422,
                0.028717223562110705,
                0.2150380733647495,
                0.5742698598734884,
                0.6466738897321976,
                1.1732266212015405,
                0.8631950954566439,
                1.33249809315288,
                0.417237266744719,
                1.3324980931528798,
                0.1477902381889431,
                1.1732266212015408,
                0.83226960934245,
                0.8911367549760811,
                1.33249809315288,
                1.1732266212015405,
                0.013452774015915825,
                0.11637708705361793,
                0.07162473717170224,
                1.1732266212015405,
                0.3221458403136202,
                1.124598337025663,
                0.8914699101863082,
                0.5553640022933675,
                0.964964370805095,
                0.6404390570887157,
                0.5931611402701334,
                0.6483745903525164,
                0.07525000000000001,
                0.3880147731412073,
                0.6501843447996385,
                1.1732266212015405,
                0.2344715826979412,
                0.1563815028185999,
                0.9085604339590225,
                0.33117520589927196,
                1.1856527921352862,
                0.8760900013853866,
                0.70553368689913,
                0.6597626204224313,
                0.04919507059457873,
                0.2973436862886416,
                1.1732266212015405,
                0.099357501370563,
                0.23068178628382544,
                0.9646580407636935,
                0.5047721805700124,
                1.1732266212015405,
                0.5735125673933328,
                1.1732266212015403,
                0.7771684204261566,
                1.3324980931528803,
                0.6710224095142997,
                0.5241858167788113,
                1.0953488240996379,
                1.1732266212015405
            ],
            "photocathode": [
                3245,
                5064,
                8128,
                453,
                4547,
                5311,
                5828,
                8232,
                1809,
                1722,
                1159,
                4924,
                4890,
                2543,
                3720,
                7566,
                3517,
                4260,
                9196,
                3703,
                4933,
                9276,
                9214,
                9321,
                5525,
                1456,
                9581,
                6739,
                9389,
                5970,
                7088,
                793,
                5572,
                7122,
                148,
                597,
                5857,
                545,
                5891,
                6717,
                4745,
                6521,
                1590,
                9483,
                4690,
                3375,
                4077,
                5322,
                5996,
                5339,
                6712,
                603,
                1144,
                634,
                9167,
                1989,
                8037,
                712,
                2281,
                5564,
                4977,
                4416,
                3243,
                673,
                2288,
                8437,
                5953,
                615,
                6120,
                186,
                5668,
                6900,
                8078,
                950,
                1897,
                3647,
                1661,
                2657,
                2907,
                186,
                8369,
                309,
                3189,
                5720,
                1727,
                9231,
                2943,
                1645,
                271,
                1140,
                7263,
                5064,
                1507,
                9549,
                1199,
                5980,
                9069,
                8185,
                377,
                9250,
                3704,
                380,
                4398,
                5194,
                3999,
                7579,
                9259,
                2342,
                3002,
                1018,
                6395,
                1530,
                4676,
                9245,
                398,
                8320,
                3672,
                8202,
                8382,
                5204,
                5006,
                9685,
                8223,
                8286,
                8265,
                7004,
                1812,
                2435,
                4559,
                4638,
                6561,
                1923,
                493,
                3414,
                7391,
                7327,
                2326,
                8243,
                5747,
                6819,
                7272,
                4531,
                9540,
                6626,
                5127,
                3197,
                1073,
                4787,
                5742,
                6408,
                7560,
                1393,
                2531,
                7199,
                3486,
                2911,
                6650,
                822,
                3995,
                8001,
                2944,
                3121,
                8073,
                7688,
                9347,
                7817,
                5562,
                1339,
                9610,
                2996,
                507,
                1727,
                6606,
                1880,
                1401,
                7132,
                6196,
                8467,
                68,
                9326,
                9373,
                2401,
                8285,
                3311,
                9269,
                3281,
                5666,
                8153,
                3044,
                4756,
                2817,
                9297,
                4496,
                4529,
                3822,
                4743,
                331,
                512,
                8064,
                3714,
                9553,
                1115,
                8175,
                771,
                8367,
                1917,
                2320,
                7205,
                2460,
                2223,
                5354,
                9243,
                2308,
                4336,
                8323,
                7989,
                2894,
                8261,
                5542,
                8411,
                9081,
                6800,
                9318,
                4297,
                6238,
                5238,
                1538,
                3143,
                8386,
                1319,
                2126,
                6495,
                6210,
                1756,
                610,
                9339,
                9465,
                3567,
                9257,
                1581,
                2847,
                4477,
                3306,
                4553,
                3768,
                5250,
                3991,
                1234,
                2836,
                228,
                8249,
                541,
                7435,
                3456,
                2533,
                5761,
                607,
                8357,
                1862,
                9382,
                1718,
                4446,
                6629,
                6877,
                3163,
                1875,
                863,
                9744,
                5725,
                8320,
                8271,
                5791,
                639,
                7192,
                8116,
                3887,
                4061,
                1818,
                3293,
                2375,
                14,
                5004,
                7849,
                9094,
                3657,
                3155,
                237,
                2745,
                7043,
                2759,
                9453,
                6177,
                9211,
                199,
                3033,
                8353,
                3606,
                8118,
                8290,
                9231,
                2789,
                5276,
                4232,
                6091,
                4351,
                4445,
                8553,
                5821,
                2289,
                2456,
                4824,
                1307,
                736,
                5497,
                7658,
                2146,
                1754,
                9414,
                5037,
                5650,
                2441,
                2425,
                4123,
                5336,
                9302,
                503,
                6821,
                5421,
                7687,
                2899,
                1830,
                8534,
                1803,
                5379,
                3787,
                9366,
                8111,
                4547,
                1707,
                434,
                8289,
                5273,
                4257,
                8192,
                9336,
                2626,
                6596,
                2110,
                5208,
                5024,
                4701,
                5712,
                1674,
                1692,
                8316,
                2170,
                1205,
                6035,
                3518,
                5803,
                1569,
                1460,
                9238,
                2398,
                2193,
                508,
                8386,
                268,
                5813,
                3870,
                3994,
                8382,
                6345,
                1123,
                4663,
                9431,
                3202,
                8291,
                5661,
                7832,
                537,
                7984,
                8266,
                7155,
                4297,
                9380,
                4476,
                8217,
                908,
                602,
                8324,
                2984,
                8202,
                9318,
                8424,
                6569,
                1172,
                5092,
                5006,
                9384,
                2720,
                1849,
                405,
                9448,
                9281,
                4312,
                3263,
                4312,
                8285,
                1838,
                4176,
                8830,
                5181,
                9328,
                8202,
                3392,
                7377,
                608,
                2646,
                9218,
                2719,
                5506,
                9376,
                6815,
                217,
                4902,
                8159,
                3046,
                6276,
                5743,
                645,
                5813,
                9158,
                2426,
                2249,
                4331,
                6560,
                1665,
                9222,
                1935,
                5679,
                8286,
                106,
                1723,
                4306,
                207,
                1630,
                4010,
                4611,
                8231,
                6198,
                9137,
                2848,
                9555,
                1029,
                8206,
                5885,
                6280,
                9381,
                8314,
                92,
                802,
                512,
                8396,
                2407,
                7754,
                6259,
                3974,
                6818,
                4442,
                4185,
                4503,
                514,
                2772,
                4452,
                8137,
                1661,
                1125,
                6377,
                2251,
                8284,
                6209,
                4963,
                4695,
                356,
                2124,
                8590,
                684,
                1648,
                6910,
                3498,
                8424,
                4100,
                8228,
                5462,
                9309,
                4741,
                3664,
                7562,
                8507
            ]
        },
        "detections": 500,
        "events": 67263
    }
}