{
    "job_args": {
        "metric_limit": 500,
        "seed": 1839297740
    },
    "job_id": "batch_25_do_500",
    "result": {
        "collections": {
            "crystal": [
                1.0606942951835485,
                1.1732266212015405,
                1.1732266212015405,
                0.046640499999999994,
                0.972442581661932,
                0.05750146876913745,
                0.7393411841315223,
                1.3324980931528798,
                0.34953498246564374,
                1.3324980931528798,
                1.3324980931528798,
                1.3324980931528798,
                0.2471269309523237,
                0.4652773916910809,
                1.33249809315288,
                0.07525,
                0.9860971607929352,
                0.5985702843207039,
                0.9976947308991797,
                0.6903570603924425,
                1.1732266212015405,
                0.830924488947729,
                0.4841030897366382,
                1.1732266212015403,
                1.3324980931528798,
                0.5621311862991012,
                0.16339773120297177,
                1.094468126766751,
                0.46550745965894225,
                0.0425485239094312,
                0.4781259418281094,
                0.17288375209939,
                1.1732266212015405,
                0.021057082617217057,
                0.01756858447785331,
                0.793756459907673,
                1.1732266212015405,
                1.1732266212015403,
                1.1732266212015405,
                0.06878450788361035,
                0.32066852918513367,
                0.9433027390454414,
                0.5590717557033142,
                0.20828649124674334,
                0.48404243358983884,
                1.33249809315288,
                0.2946951242220458,
                0.9285577390963449,
                0.3118342935470469,
                0.9501651100108603,
                0.9909921344245056,
                0.8080587070994243,
                0.10404327126090429,
                1.1732266212015408,
                0.07190557579372947,
                0.9280581591470608,
                0.5665130493637209,
                1.1732266212015403,
                0.4569843139007479,
                0.15089729413015363,
                1.1732266212015405,
                0.07524999999999998,
                0.48205744166102804,
                0.17865610052682854,
                0.3001365068724138,
                0.47393959753901793,
                1.1732266212015405,
                0.08086353990855222,
                0.7017819617913676,
                0.5201313330727648,
                0.09200136163141392,
                1.3324980931528796,
                1.1732266212015405,
                0.9738303598721129,
                0.5337266964010912,
                0.4811520324629693,
                1.3324980931528794,
                1.0804763487670188,
                0.9154883843557826,
                1.3324980931528796,
                0.07962144828617412,
                0.48332652857551384,
                0.9653013780456358,
                0.5924039322264036,
                0.6847711362821631,
                0.14662064458555313,
                0.4679381362563218,
                0.6272085737346148,
                0.6843441024677759,
                1.1732266212015405,
                1.1732266212015405,
                0.6344290482140661,
                0.2679165585534829,
                0.1720154989006888,
                1.3324980931528798,
                1.1732266212015405,
                0.5206416863456363,
                0.09571066539004347,
                0.6229160162311068,
                0.6282969062217332,
                0.42958089999063387,
                0.7670632142301509,
                1.1732266212015405,
                0.39588928092922404,
                1.3324980931528798,
                1.103301182781864,
                0.42284970879474193,
                0.9447577443149443,
                1.1732266212015405,
                0.6839949388465357,
                1.33249809315288,
                1.1732266212015408,
                1.1732266212015405,
                1.3324980931528798,
                0.4078569897089577,
                0.6530478969592517,
                0.7886517003087742,
                0.4509594379499927,
                0.6560791473616301,
                0.23215081527210701,
                0.7838618008256033,
                0.43645153547723237,
                1.3324980931528798,
                1.2156877235918524,
                0.8437371517792284,
                0.9730474935269045,
                1.1732266212015405,
                0.5890547351226041,
                1.0094834040138219,
                0.43917858626015727,
                0.22894812702823886,
                1.1732266212015408,
                0.11703122690404412,
                0.08835114397582955,
                1.1732266212015405,
                0.8854026580794709,
                0.5378502266890219,
                0.38102890502727416,
                1.061301325069924,
                1.3324980931528798,
                0.4533675200281816,
                0.3603550770903215,
                0.9737530184940688,
                0.2920540358178926,
                0.9300124625204346,
                1.33249809315288,
                1.1732266212015408,
                0.6358180312486582,
                0.8740123746069226,
                1.1732266212015408,
                0.3062779360274366,
                1.1467147963480437,
                0.4080378257894407,
                0.07984979644259749,
                0.38107317058656925,
                0.07525,
                1.1732266212015408,
                0.5158601172596606,
                1.3324980931528798,
                0.316708060321121,
                0.8116931531377181,
                0.3940256011713077,
                0.07524999999999998,
                0.4334439488597493,
                0.33848677518654363,
                0.3036560709568789,
                0.8589518384190999,
                0.912318484504218,
                0.48608387093945915,
                0.822575487283675,
                0.4313944012796034,
                1.0559113206191262,
                1.1732266212015405,
                0.8277690561201139,
                0.07524999999999998,
                1.3324980931528798,
                1.3324980931528798,
                1.3324980931528798,
                0.7336399174653352,
                0.8679926757965962,
                0.8654712661427548,
                0.5086807190017213,
                0.4970607646599804,
                1.1732266212015405,
                0.16252649114989393,
                1.3324980931528798,
                0.8775104907193256,
                0.8324589617147649,
                0.3480888285751223,
                0.0847407,
                1.1732266212015405,
                0.671731111983471,
                0.3495584577023239,
                0.07525,
                0.421200604239889,
                1.1732266212015405,
                0.09313973685590837,
                0.3913384608261978,
                1.0451687405040666,
                0.8910809960727142,
                0.8742492868387745,
                0.9844052772497502,
                0.5278485375190162,
                0.4978879721132291,
                0.08573989882664601,
                0.13310199702839076,
                0.059046708559502725,
                0.6220855910846338,
                0.9165446570322995,
                0.5703692565706429,
                1.1732266212015408,
                1.33249809315288,
                0.1647844424813789,
                0.8992249556767192,
                0.35688357272922977,
                0.6478362804938234,
                0.7766019579434317,
                0.7764308758339951,
                0.7442397500564484,
                1.3324980931528798,
                1.3324980931528798,
                1.3324980931528798,
                0.5094700414374305,
                0.1738456079804992,
                0.24579976665874181,
                0.5605402240870366,
                0.8129641379973468,
                0.8951997663523736,
                1.1732266212015405,
                0.5272342884090986,
                0.08524655363872768,
                1.3324980931528796,
                0.26513781170381795,
                0.013256066619503404,
                0.9496151038556662,
                0.6396405859213496,
                0.12660176090950215,
                0.2422087678016418,
                0.5417812872183907,
                1.0738958609008462,
                0.30505400315871284,
                1.3324980931528798,
                1.1732266212015405,
                0.8394952722483487,
                1.3324980931528796,
                0.6947780912876598,
                0.739323490789718,
                0.8972903102682788,
                0.7605167339135418,
                1.3324980931528798,
                0.913027846100132,
                1.0393178987291338,
                0.029192707312109878,
                0.7568523217859785,
                0.5863445915398626,
                1.1400871747147914,
                1.3324980931528796,
                0.6362328177667772,
                0.8292129362850642,
                0.8967071855959639,
                1.0312124895153327,
                1.3324980931528798,
                0.5109989100000001,
                0.6698547944188856,
                0.5168036639377793,
                0.20898852438820878,
                0.43071493907976705,
                0.7018344601143957,
                1.33249809315288,
                1.1916517747441675,
                0.22337493364956193,
                0.6521120480985199,
                1.3324980931528798,
                0.35463185606451164,
                1.33249809315288,
                1.3324980931528798,
                0.6799261067660911,
                0.9016892045111826,
                0.460781930218933,
                1.3324980931528796,
                1.3324980931528798,
                0.13144009076793917,
                0.042547406772719065,
                0.6400522829534877,
                1.3324980931528798,
                1.3324980931528796,
                0.2840937936254382,
                0.22340423694333356,
                0.8939662355006535,
                1.33249809315288,
                1.3324980931528798,
                0.9494878951269075,
                0.05255930117686969,
                1.0392604826286802,
                0.2113480352595966,
                1.3324980931528798,
                0.007172205016099275,
                0.9254802698391745,
                0.9966799799673028,
                0.9778003752616946,
                0.5915727402626159,
                0.34708807653158674,
                0.5119995698696518,
                0.18931707180047241,
                0.3820658771817766,
                0.8764178260897082,
                0.41474498748752964,
                0.6597371894886148,
                0.26598040746500295,
                0.05070447638483511,
                0.7757219694054651,
                0.11325738860683823,
                0.5109989100000001,
                1.1732266212015405,
                0.7695824653958426,
                1.1732266212015405,
                1.1102457737330826,
                0.05567268309612827,
                0.15122880120154059,
                0.073039,
                0.6270189234831434,
                0.20759485963824442,
                1.1316505599661526,
                0.17811080510755906,
                1.1732266212015405,
                1.3324980931528798,
                0.303818376823227,
                0.8581251143967914,
                0.17984312521573254,
                0.43202701714327163,
                0.5905246725089153,
                0.21543910325663693,
                0.677327198496054,
                0.32881394354008686,
                0.3614198404085732,
                1.1732266212015405,
                0.2009488248695101,
                0.38204661636270243,
                0.5689545022010352,
                1.3324980931528796,
                1.3324980931528798,
                1.0252181159839353,
                0.07525,
                1.3324980931528798,
                0.0780392310523726,
                1.1732266212015405,
                0.5740913468431196,
                1.1732266212015403,
                0.9007275106452163,
                0.2596313672565035,
                1.1938470125796592,
                0.602153443241553,
                0.38232951761095657,
                1.3324980931528796,
                1.1732266212015403,
                0.3314650734942455,
                0.28573793142149473,
                0.5524122055701339,
                0.9469651909497827,
                0.7283304980108999,
                1.3324980931528798,
                1.3324980931528798,
                0.39229290592559785,
                0.6361219591587913,
                0.13379783472824988,
                0.39950388015777794,
                0.33219748600754484,
                1.0929146659608944,
                0.23689980645108677,
                0.8681410102988174,
                0.16586837484110684,
                0.6829635142452399,
                0.4292558332113822,
                1.3324980931528796,
                0.9440205283096956,
                0.12223047403438271,
                0.2099668079863607,
                0.45682909569596153,
                0.4201452747327472,
                0.8017855220561338,
                0.011883483722733401,
                1.1732266212015405,
                0.1436547364149643,
                1.1732266212015403,
                0.4632313278312855,
                1.3324980931528803,
                1.3324980931528794,
                0.4128799679035099,
                0.5705536158244526,
                0.8300936014198657,
                1.0929315052945248,
                0.23963899858611515,
                0.5242667264016188,
                0.3223867814314958,
                1.3324980931528798,
                0.8206847475668226,
                0.9609352288238198,
                0.37241512012279204,
                0.03920975291354167,
                1.0470546505938128,
                0.12389024866000997,
                0.20563873744685246,
                1.1732266212015405,
                0.7887361401304458,
                0.2507529355472467,
                1.1732266212015405,
                0.010344587645825229,
                0.8390905522785972,
                1.3324980931528798,
                1.1732266212015408,
                0.31325817066250544,
                1.1732266212015408,
                0.4325354693475506,
                0.8747030406094198,
                0.043457539480774576,
                1.3324980931528798,
                1.3324980931528798,
                1.2337795609820787,
                1.1571065085639016,
                1.1732266212015405,
                1.3324980931528798,
                1.1732266212015405,
                1.3324980931528798,
                0.33028783658270844,
                0.1598764641919047,
                0.9974398312556358,
                1.1732266212015405,
                1.33249809315288,
                0.4232977123908546,
                1.3324980931528796,
                0.4774927416235858,
                0.1624140398588878,
                0.1551340865092976,
                0.3308176527798645,
                0.5161768077012898,
                0.4560090042623734,
                1.1545336700353577,
                0.9495337220607549,
                1.0983890190567995,
                0.7808158534834172,
                0.6629845795958395,
                1.173226621201541,
                0.6474974457127399,
                0.5953857451714806,
                1.3324980931528798,
                0.5763965525930228,
                0.6780838785098822,
                0.4320242817752701,
                0.5359802200140014,
                1.0189749569612345,
                0.7170664718603122,
                0.059447556192368245,
                0.5319876723711688,
                1.3324980931528798,
                1.1732266212015408,
                1.3324980931528798,
                0.6113420114383621,
                0.8847948842739018,
                0.7735192867584333,
                1.3324980931528798,
                1.1732266212015405,
                0.2835759846535697,
                1.062473170743184,
                0.31140542877620003,
                0.6948370325429878,
                1.1529425064715464,
                0.016598154023558465,
                0.11060399986971742,
                0.22655829208912426,
                0.4879915340931168,
                0.4280731869080222,
                1.027187696520015,
                1.1732266212015405,
                0.3577687691170165,
                0.09570828961317668,
                1.1732266212015403,
                0.622627849693332,
                1.1732266212015405,
                0.5746376911839391,
                0.19084725050213214,
                0.47717342324500306,
                0.3200081918947163,
                0.4103539118555989,
                1.058876386513092,
                1.1732266212015405,
                0.01575288332096081,
                1.0300730095519404,
                0.010009402034148573,
                0.012412392099736214,
                1.3324980931528798,
                0.3936229867807604,
                0.1277454636754628,
                0.39071683071132246,
                1.1732266212015405,
                0.49346764645298025,
                1.1007705070196123,
                0.5635820841011286,
                1.3324980931528796,
                0.07254339445767333,
                0.6657222935685017
            ],
            "photocathode": [
                7451,
                8274,
                8246,
                327,
                6617,
                415,
                5179,
                9587,
                2457,
                9359,
                9230,
                9317,
                1805,
                3150,
                9532,
                535,
                6844,
                4407,
                6943,
                4915,
                8276,
                5728,
                3420,
                8163,
                9326,
                3935,
                1181,
                7824,
                3269,
                278,
                3423,
                1123,
                8050,
                163,
                112,
                5601,
                8177,
                8273,
                8071,
                500,
                2307,
                6664,
                4014,
                1457,
                3422,
                9676,
                2064,
                6516,
                2071,
                6799,
                6954,
                5607,
                764,
                8202,
                523,
                6442,
                3901,
                8132,
                3182,
                1083,
                8149,
                577,
                3347,
                1201,
                2134,
                3300,
                8052,
                569,
                5019,
                3780,
                612,
                9279,
                8281,
                6883,
                3531,
                3364,
                9326,
                7632,
                6394,
                9446,
                586,
                3267,
                6748,
                4081,
                4907,
                1038,
                3223,
                4378,
                4786,
                8487,
                8280,
                4355,
                1843,
                1118,
                9711,
                8256,
                3686,
                669,
                4354,
                4455,
                3038,
                5373,
                8233,
                2808,
                9274,
                7737,
                2959,
                6781,
                8309,
                4947,
                9676,
                8472,
                8333,
                9327,
                2869,
                4518,
                5620,
                3215,
                4637,
                1545,
                5591,
                3166,
                9416,
                8527,
                6057,
                6758,
                8205,
                4097,
                7152,
                3040,
                1553,
                8124,
                810,
                629,
                8127,
                6219,
                3882,
                2728,
                7408,
                9422,
                3261,
                2559,
                6820,
                2031,
                6770,
                9532,
                8270,
                4586,
                6379,
                7996,
                2063,
                7997,
                2715,
                556,
                2764,
                515,
                8549,
                3616,
                9136,
                2223,
                5928,
                2654,
                492,
                3165,
                2355,
                2031,
                5928,
                6428,
                3360,
                5795,
                3075,
                7453,
                8228,
                5667,
                519,
                9417,
                9289,
                9187,
                5074,
                6173,
                5999,
                3514,
                3530,
                8365,
                1169,
                9390,
                6165,
                5804,
                2446,
                639,
                8333,
                4741,
                2626,
                499,
                2848,
                8227,
                625,
                2795,
                7250,
                6269,
                6257,
                6812,
                3687,
                3432,
                577,
                892,
                423,
                4400,
                6361,
                3967,
                8172,
                9642,
                1192,
                6243,
                2550,
                4503,
                5507,
                5353,
                5246,
                9063,
                9595,
                9438,
                3629,
                1281,
                1721,
                4065,
                5668,
                6162,
                8335,
                3685,
                564,
                9322,
                1932,
                107,
                6844,
                4525,
                905,
                1723,
                3738,
                7547,
                2157,
                9436,
                8297,
                5936,
                9351,
                5043,
                5188,
                6276,
                5306,
                9403,
                6456,
                7242,
                210,
                5434,
                4009,
                8153,
                9283,
                4416,
                5940,
                6354,
                7146,
                9392,
                3575,
                4701,
                3643,
                1444,
                2919,
                5215,
                9354,
                8512,
                1537,
                4475,
                9131,
                2506,
                9604,
                9453,
                4908,
                6536,
                3198,
                9494,
                9000,
                909,
                285,
                4467,
                9198,
                9288,
                1932,
                1634,
                6115,
                9521,
                9369,
                6558,
                379,
                7236,
                1458,
                9453,
                52,
                6496,
                6934,
                6827,
                4134,
                2464,
                3627,
                1283,
                2664,
                6176,
                2965,
                4574,
                1829,
                366,
                5512,
                786,
                3604,
                8243,
                5459,
                8249,
                7807,
                437,
                1031,
                515,
                4416,
                1486,
                8088,
                1245,
                8076,
                9335,
                2062,
                6193,
                1304,
                3108,
                4099,
                1509,
                4839,
                2337,
                2622,
                8170,
                1338,
                2709,
                3949,
                9201,
                9426,
                7169,
                508,
                9227,
                561,
                8319,
                4043,
                8086,
                6385,
                1834,
                8414,
                4229,
                2725,
                9390,
                8182,
                2384,
                2063,
                4150,
                6600,
                5079,
                9389,
                9595,
                2773,
                4372,
                932,
                2805,
                2329,
                7617,
                1666,
                6125,
                1125,
                4725,
                3067,
                9324,
                6697,
                861,
                1519,
                3167,
                2813,
                5666,
                93,
                8235,
                982,
                8312,
                3307,
                9466,
                9536,
                2854,
                4047,
                5919,
                7455,
                1597,
                3695,
                2206,
                9247,
                5805,
                6896,
                2579,
                263,
                7428,
                926,
                1454,
                8177,
                5393,
                1742,
                8157,
                75,
                5771,
                9442,
                8268,
                2243,
                8447,
                3080,
                6013,
                313,
                9267,
                9144,
                8697,
                8393,
                8144,
                9493,
                8178,
                9577,
                2321,
                1143,
                6854,
                8183,
                9479,
                2964,
                9384,
                3581,
                1143,
                1149,
                2349,
                3690,
                3139,
                8013,
                6554,
                7670,
                5383,
                4501,
                8433,
                4705,
                4175,
                9292,
                4181,
                4683,
                3125,
                3843,
                7400,
                5142,
                412,
                3780,
                9291,
                8352,
                9382,
                4314,
                6141,
                5512,
                9346,
                8248,
                1988,
                7279,
                2197,
                4739,
                8091,
                117,
                742,
                1553,
                3415,
                3036,
                7181,
                8437,
                2527,
                679,
                8203,
                4256,
                8384,
                4002,
                1373,
                3397,
                2266,
                2927,
                7212,
                8143,
                108,
                7250,
                74,
                84,
                9385,
                2780,
                941,
                2747,
                8300,
                3417,
                7808,
                3842,
                9469,
                518,
                4741
            ]
        },
        "detections": 500,
        "events": 66229
    }
}