{
    "job_args": {
        "metric_limit": 500,
        "seed": 1956149611
    },
    "job_id": "batch_32_do_500",
    "result": {
        "collections": {
            "crystal": [
                0.9788241473562308,
                0.11121220316122082,
                0.6473723389707486,
                1.3324980931528798,
                1.1251310086366342,
                0.0852354,
                0.32907781021178123,
                0.03773403539237252,
                0.287472414456572,
                1.3324980931528798,
                0.1512587376269015,
                0.13864108546195342,
                0.8073337880711683,
                0.17761746833124573,
                0.45276958522241884,
                1.0666187092387436,
                1.1732266212015405,
                0.5400693963969718,
                0.5470670496570351,
                0.7828393459154074,
                0.37660442209456235,
                0.12798821331989108,
                0.9292328594868703,
                1.3324980931528798,
                0.3056975635026269,
                1.33249809315288,
                0.8559445069151601,
                0.9063129001644713,
                0.6080344987624964,
                0.014446236762476639,
                0.7542699387968264,
                0.7399200549587266,
                0.9683638208163765,
                0.5427478020419111,
                0.0453490673990925,
                1.1732266212015408,
                1.3324980931528798,
                1.33249809315288,
                0.8254686719997137,
                1.1732266212015403,
                1.33249809315288,
                1.3324980931528798,
                0.5184801792291179,
                1.3324980931528796,
                1.3324980931528796,
                0.8122832170006697,
                1.3324980931528798,
                1.1118342138818764,
                0.40757435948194953,
                0.610331125326536,
                0.9381551655215983,
                0.3408968318604025,
                0.07525,
                0.3954115153321282,
                0.6615980389861893,
                0.5931269734367152,
                0.7957885107075894,
                0.6860550588191255,
                0.5372148791066756,
                0.34535600630417096,
                0.48223217659990414,
                0.45365238701609134,
                0.555090674058908,
                0.23884318836850382,
                0.5890743911706632,
                0.33982147525634143,
                1.1732266212015408,
                0.8270225512947675,
                0.4902120042253189,
                0.283367809660317,
                1.0492419269927145,
                0.760174735473672,
                1.3324980931528798,
                0.30494578339660783,
                0.3445538440708747,
                0.449254900275856,
                0.2731664515610561,
                0.2058623439476744,
                0.6939681801921195,
                0.5895573787264412,
                0.9079656670312147,
                1.1732266212015405,
                0.7446108638226994,
                0.6336457242203396,
                0.22092132637746842,
                0.3699083073891858,
                0.2565961992042608,
                0.18080934252713232,
                0.8246987671938011,
                0.7042584117368147,
                1.3324980931528798,
                0.8209794760453801,
                1.1732266212015403,
                0.07365741215326471,
                0.47537250268237563,
                1.3324980931528798,
                1.3324980931528798,
                0.3471185561612332,
                0.6446775084463071,
                0.13435464596773738,
                0.5687313136513714,
                0.9352198443997457,
                0.4793643245460776,
                0.7813212593272314,
                1.1732266212015405,
                1.0983540901829083,
                0.9360142175375732,
                0.2593347119033939,
                0.07377992295978197,
                1.0028501041137097,
                1.0156792430884116,
                0.9365079380045045,
                0.662689359316202,
                0.43692796670031053,
                0.7235038897238228,
                0.011378886695049717,
                0.2798282673313174,
                0.5878371605665647,
                0.9288018518175406,
                0.016997711202144217,
                0.7868804957252082,
                0.0728844863052773,
                0.834900712235703,
                1.0068120901500137,
                1.33249809315288,
                1.1732266212015403,
                0.9121670676029818,
                1.1732266212015405,
                1.0073432697572298,
                0.5119911504538952,
                0.30289143472598734,
                0.02061132296700907,
                0.93394953700562,
                1.3324980931528798,
                0.5903696963986265,
                0.7355760990523749,
                1.1732266212015403,
                0.05978578769427702,
                0.6877245004970196,
                0.45255142104285423,
                0.3446067359849778,
                0.2504898573304848,
                0.2893217519013792,
                1.0269336073391382,
                1.059026021156155,
                0.9330349950865605,
                0.6364010162815803,
                0.437866337045936,
                0.17013409537750246,
                1.1732266212015408,
                1.0018419213923448,
                0.07303900000000002,
                0.3407028840525411,
                1.059437643264384,
                0.19770037043110905,
                1.3324980931528796,
                0.7343076544547421,
                0.3828077370476328,
                0.7715554441965461,
                0.6137276241712164,
                0.14564162750468174,
                1.1732266212015408,
                0.994578999172417,
                1.33249809315288,
                1.3324980931528798,
                0.433553861505549,
                0.3952172022908984,
                0.9735933430700845,
                0.8982490533491221,
                0.28454201040008764,
                1.3324980931528798,
                1.0939449523630298,
                0.5322110830468249,
                0.03713136279034368,
                0.2332461156308796,
                0.43661517626598223,
                1.3324980931528798,
                0.20292279977290373,
                1.0969164018537927,
                1.1732266212015405,
                1.090989836438767,
                0.24465206370674364,
                0.8406083019095105,
                0.7743081207136093,
                0.8298870643323919,
                0.8898200238270286,
                0.46375871470687485,
                0.6142548726903123,
                0.9222587771782289,
                1.3324980931528796,
                1.3324980931528798,
                0.5344175090963925,
                0.8381712521314151,
                1.1732266212015405,
                0.4802905584402556,
                0.9185301487802104,
                0.8981903127169276,
                1.1732266212015403,
                0.10800775827058295,
                1.1732266212015405,
                0.12344071117486233,
                0.21964739098069383,
                0.8843299075060302,
                0.07525,
                0.47595278301565697,
                1.048210777011804,
                0.030790252710585164,
                0.22898605696482371,
                0.09368300448383715,
                1.1732266212015405,
                0.5888222870235783,
                1.3324980931528796,
                0.4756750302542898,
                1.1732266212015408,
                0.4823327179845892,
                1.3324980931528796,
                0.5923747813828601,
                1.3324980931528798,
                1.3324980931528803,
                0.46335691492439474,
                1.0326203893200026,
                1.0055374907611356,
                0.5621188930171342,
                0.44710676492405527,
                0.087534,
                0.28606729605686787,
                0.3068450109704002,
                0.7932214008589447,
                0.030872135294779057,
                1.3324980931528798,
                0.6477135095472628,
                0.42632957800004745,
                0.3856019862621073,
                0.24788527884289802,
                1.1732266212015405,
                0.6563714064481239,
                1.3324980931528796,
                0.15457207911616977,
                1.1732266212015405,
                1.1732266212015408,
                0.7808397283468687,
                0.8829286007009283,
                0.6547527481382474,
                1.3324980931528798,
                0.5605547761491736,
                1.0883350325060195,
                0.3425475875014155,
                0.5776790930377131,
                0.3960364437674402,
                0.14172268174099778,
                0.14157650641977138,
                0.7253512400287789,
                0.614076445135307,
                0.21976892580678364,
                0.6100069000929922,
                1.1732266212015405,
                0.7778220298764588,
                0.42147270725148045,
                0.8797917752547895,
                0.6953428387263553,
                0.2935009008261967,
                0.20102766136657993,
                0.4129251284472747,
                1.1732266212015405,
                0.9443700257791451,
                1.3324980931528798,
                0.8518153199689702,
                0.3595452411681921,
                0.3064802974193502,
                1.3324980931528798,
                1.3324980931528798,
                0.8843934627332282,
                1.33249809315288,
                1.0803605701737802,
                0.9175558293050909,
                1.33249809315288,
                1.33249809315288,
                0.5804197606791677,
                1.1732266212015408,
                1.3324980931528796,
                0.7032594045916567,
                0.2833709080049135,
                1.3324980931528798,
                0.7037437270308502,
                1.1732266212015405,
                1.1732266212015405,
                0.5394558747601867,
                0.09936605302486906,
                0.6804145898972687,
                0.0847407,
                1.3324980931528798,
                0.41953823568029935,
                0.6382088427214252,
                0.9613475238817538,
                1.145424932721411,
                0.8694524414783711,
                0.057754122682079245,
                1.1732266212015405,
                1.3324980931528796,
                1.3324980931528798,
                1.3324980931528798,
                0.6245614328856968,
                1.3324980931528796,
                0.08094604822217066,
                0.7849780646068969,
                0.5668458800301099,
                0.20898298145771715,
                1.1732266212015405,
                0.08910359091839681,
                0.9033061430482306,
                0.904146014743002,
                0.1727763925629797,
                0.8745461609362868,
                0.9331193634044852,
                1.1732266212015405,
                0.6542618460581698,
                0.4782049571619312,
                0.24153811369339662,
                0.38299775163776095,
                1.3324980931528798,
                0.26859331351114224,
                0.5186228849862365,
                0.6295194130397621,
                1.0474977804593055,
                1.0877568379040128,
                0.4115031661730214,
                0.9411652835203332,
                1.1732266212015408,
                0.38450519570061714,
                1.3324980931528796,
                1.1732266212015405,
                0.28178422520191637,
                0.6579424247451834,
                0.35752010669201456,
                1.1732266212015405,
                1.1732266212015405,
                0.7197861163132934,
                0.37009629972971936,
                0.30451143000637004,
                1.1732266212015408,
                0.514332030962969,
                0.780781449934962,
                0.41322976398273714,
                1.1732266212015405,
                1.33249809315288,
                0.054472840346612816,
                0.008140342281448776,
                0.5942901932866189,
                0.11387488325896467,
                1.1732266212015405,
                0.5258732833242945,
                1.1732266212015405,
                1.1732266212015405,
                1.1732266212015405,
                0.46876510677550765,
                0.565263398807942,
                1.1732266212015405,
                0.893536539023113,
                0.5376161883312284,
                0.8800766801656441,
                0.809571350957683,
                1.3324980931528798,
                0.011944116939785143,
                0.4383740083379067,
                0.6672789148009453,
                0.375525091508636,
                0.2402601335370247,
                0.0847407,
                0.6179705581526778,
                0.806710951701174,
                1.1732266212015405,
                1.1732266212015405,
                1.33249809315288,
                0.30719517701053806,
                0.050367666745520956,
                0.7008415996379795,
                1.1732266212015403,
                0.8049800387851265,
                0.3474262084929456,
                1.1732266212015405,
                0.6207635557073646,
                1.173226621201541,
                0.1449196866120327,
                0.19912195741966948,
                0.7603938706142813,
                0.30590308910428227,
                0.7772801877130793,
                0.626622203054876,
                0.863090424402873,
                1.1732266212015408,
                0.8159090655505769,
                1.33249809315288,
                0.3221276910555325,
                0.2732311618836431,
                0.14064983649118204,
                0.15022337211797465,
                0.51099891,
                0.8181699330953041,
                0.5920161430306834,
                1.1732266212015405,
                0.4067423155776363,
                1.3324980931528798,
                0.6572595913459357,
                0.4362718997545228,
                0.5526352147479865,
                0.56321886803368,
                0.7529870820120945,
                0.4389637598147297,
                0.24452111706101434,
                1.1732266212015405,
                0.8666588152864492,
                1.3324980931528798,
                0.957948721777893,
                0.32553588198959316,
                0.9400106871094454,
                0.04818934924457152,
                0.6221298956498491,
                0.1439636052330944,
                0.815534969636313,
                0.05662590000000001,
                1.1732266212015405,
                0.7590586871395985,
                0.700757801539995,
                1.3324980931528798,
                1.1732266212015405,
                1.1732266212015405,
                0.6241745911854649,
                0.7814265121232814,
                1.045058597108989,
                0.0852354,
                1.3324980931528794,
                1.3324980931528798,
                1.1732266212015405,
                1.33249809315288,
                0.21756544252817464,
                1.3324980931528798,
                0.8767887006727579,
                0.3099290232363637,
                1.1732266212015403,
                0.3564397580009987,
                0.2147265530710664,
                0.8110208274864602,
                0.8097358375930911,
                0.5813906555118522,
                0.8048525277043438,
                0.6970561778628814,
                0.6510201411824829,
                0.906630641780106,
                1.1732266212015408,
                0.5263669942482327,
                1.1732266212015405,
                1.1732266212015405,
                0.998235520658766,
                0.8880349179785888,
                0.7909151560966334,
                0.4569088452464028,
                0.7648341413284365,
                0.9265921805449208,
                0.6413459527003892,
                0.252288537042341,
                1.1732266212015405,
                1.3324980931528798,
                1.3324980931528798,
                0.7388204518685363,
                0.24357631944661629,
                0.7637334914732266,
                0.5116851628554951,
                1.3324980931528798,
                1.1732266212015405,
                0.9522625944882385,
                0.6754494690630589,
                0.17713627359830791,
                1.3324980931528798,
                1.1732266212015403,
                0.9306310179556654,
                0.6277963437579358,
                0.5424885095895725,
                0.07525,
                1.0307484043670891,
                0.34979699815685017,
                0.4881681166472714,
                0.6251584297313743,
                0.31050027315287987,
                0.1997108266112117,
                1.3324980931528796,
                0.03766071639123525,
                0.5438542923695482,
                1.3324980931528798,
                0.6157320817630838,
                0.6676823675226318,
                1.1732266212015405,
                1.1732266212015405,
                0.6865097319391674,
                1.3324980931528796,
                0.073039,
                0.5255884171198232,
                0.29312951395665066,
                1.026984907720782,
                0.9724542984491765,
                0.8124812878644493
            ],
            "photocathode": [
                6912,
                748,
                4522,
                9171,
                7894,
                611,
                2281,
                255,
                2011,
                9296,
                1127,
                1020,
                5666,
                1275,
                3169,
                7669,
                8023,
                3757,
                3853,
                5540,
                2629,
                877,
                6605,
                9455,
                2189,
                9591,
                6075,
                6344,
                4319,
                100,
                5334,
                5235,
                6742,
                3826,
                327,
                8168,
                9174,
                9247,
                5615,
                8171,
                9241,
                9403,
                3632,
                9385,
                9296,
                5728,
                9238,
                7680,
                2843,
                4185,
                6478,
                2370,
                546,
                2931,
                4666,
                3981,
                5515,
                4825,
                3795,
                2462,
                3356,
                3271,
                3938,
                1627,
                4202,
                2307,
                8314,
                5823,
                3345,
                1999,
                7284,
                5282,
                9429,
                2126,
                2525,
                3106,
                1944,
                1435,
                4673,
                4221,
                6328,
                8305,
                5125,
                4460,
                1607,
                2611,
                1882,
                1311,
                5738,
                4817,
                9448,
                6004,
                8109,
                513,
                3407,
                9181,
                9420,
                2488,
                4536,
                888,
                3925,
                6873,
                3313,
                5473,
                8253,
                7729,
                6713,
                1841,
                555,
                7131,
                6968,
                6603,
                4704,
                3092,
                5252,
                82,
                1936,
                4141,
                6532,
                120,
                5542,
                518,
                5889,
                7131,
                9508,
                8531,
                6421,
                8195,
                7127,
                3518,
                2138,
                135,
                6609,
                9231,
                4146,
                5336,
                8183,
                443,
                4827,
                3175,
                2448,
                1725,
                2067,
                7160,
                7592,
                6570,
                4535,
                3153,
                1194,
                8423,
                6938,
                534,
                2491,
                7452,
                1437,
                9278,
                4977,
                2596,
                5477,
                4316,
                1027,
                8109,
                6891,
                9212,
                9217,
                3050,
                2740,
                6728,
                6100,
                2013,
                9394,
                7724,
                3757,
                256,
                1691,
                3041,
                9205,
                1439,
                7661,
                8185,
                7658,
                1726,
                5829,
                5459,
                5678,
                6407,
                3207,
                4342,
                6393,
                9368,
                9162,
                3786,
                5847,
                8416,
                3519,
                6387,
                6415,
                8427,
                757,
                7996,
                929,
                1543,
                6220,
                493,
                3311,
                7372,
                242,
                1617,
                655,
                8354,
                3995,
                9363,
                3295,
                8473,
                3485,
                9311,
                4040,
                9432,
                9513,
                3330,
                7269,
                7053,
                4018,
                3164,
                576,
                2032,
                2138,
                5716,
                197,
                9729,
                4592,
                2959,
                2648,
                1713,
                8497,
                4557,
                9369,
                1117,
                8242,
                8117,
                5408,
                6262,
                4661,
                9303,
                3893,
                7706,
                2377,
                3961,
                2847,
                1010,
                954,
                5060,
                4326,
                1546,
                4326,
                8464,
                5438,
                2910,
                6193,
                4796,
                1992,
                1424,
                2893,
                8278,
                6468,
                9331,
                6275,
                2404,
                2169,
                9456,
                9287,
                6234,
                9487,
                7531,
                6472,
                9527,
                9246,
                4127,
                8286,
                9146,
                5068,
                1935,
                9139,
                5006,
                8682,
                8420,
                3904,
                702,
                4656,
                558,
                9592,
                2947,
                4542,
                6759,
                8134,
                5948,
                353,
                8336,
                9505,
                9242,
                9466,
                4362,
                9428,
                582,
                5355,
                3874,
                1499,
                8536,
                686,
                6370,
                6359,
                1236,
                6141,
                6606,
                8207,
                4597,
                3316,
                1729,
                2610,
                9457,
                1830,
                3823,
                4549,
                7251,
                7654,
                2797,
                6592,
                8184,
                2700,
                9475,
                8428,
                1980,
                4793,
                2521,
                8366,
                8234,
                5130,
                2505,
                2162,
                8277,
                3628,
                5517,
                3018,
                8223,
                9655,
                389,
                55,
                4179,
                759,
                8401,
                3705,
                8076,
                8205,
                8203,
                3323,
                4102,
                8364,
                6294,
                3733,
                6177,
                5642,
                9332,
                80,
                3212,
                4863,
                2648,
                1676,
                555,
                4449,
                5815,
                8244,
                8325,
                9298,
                2172,
                326,
                4735,
                8275,
                5751,
                2492,
                8324,
                4252,
                8247,
                1028,
                1385,
                5296,
                2134,
                5441,
                4328,
                6045,
                8181,
                5814,
                9477,
                2255,
                2014,
                1019,
                999,
                3482,
                5779,
                4172,
                8154,
                2846,
                9438,
                4641,
                3082,
                3898,
                3910,
                5288,
                3074,
                1749,
                8366,
                6062,
                9412,
                6762,
                2309,
                6777,
                330,
                4276,
                1021,
                5717,
                389,
                8286,
                5297,
                4987,
                9325,
                8299,
                8205,
                4384,
                5532,
                7320,
                608,
                9405,
                9617,
                8425,
                9310,
                1607,
                9046,
                6050,
                2224,
                8281,
                2624,
                1411,
                5610,
                5712,
                4143,
                5760,
                5007,
                4578,
                6302,
                8325,
                3552,
                8115,
                8415,
                7146,
                6089,
                5482,
                3236,
                5297,
                6399,
                4559,
                1723,
                8208,
                9360,
                9479,
                5278,
                1673,
                5397,
                3734,
                9350,
                8098,
                6666,
                4826,
                1211,
                9374,
                8279,
                6698,
                4436,
                3674,
                502,
                7352,
                2410,
                3505,
                4419,
                2179,
                1439,
                9333,
                274,
                3829,
                9431,
                4299,
                4775,
                8244,
                8279,
                4781,
                9086,
                488,
                3681,
                2027,
                7285,
                6796,
                5545
            ]
        },
        "detections": 500,
        "events": 64134
    }
}