{
    "job_args": {
        "metric_limit": 500,
        "seed": 691540077
    },
    "job_id": "batch_94_do_500",
    "result": {
        "collections": {
            "crystal": [
                0.3560128888220983,
                0.07636953418186646,
                0.26204032987447856,
                0.3028508303193821,
                0.35601288882209825,
                0.3028508303193821,
                0.3560128888220983,
                0.35601288882209825,
                0.3560128888220983,
                0.0014172137413111519,
                0.3560128888220983,
                0.26941845384431445,
                0.0447325,
                0.35601288882209825,
                0.3196621206554538,
                0.3560128888220983,
                0.056350578546723346,
                0.3560128888220983,
                0.3560128888220983,
                0.3560128888220984,
                0.35601288882209825,
                0.35601288882209825,
                0.164152547212209,
                0.27639888506586413,
                0.3560128888220983,
                0.15739995020724545,
                0.35601288882209836,
                0.3560128888220983,
                0.35601288882209825,
                0.38384850480360916,
                0.35601288882209825,
                0.3838485048036091,
                0.07303899999999999,
                0.0016934612702942942,
                0.35601288882209825,
                0.35601288882209825,
                0.35601288882209836,
                0.24475109798322195,
                0.22028545634220542,
                0.08758536449411358,
                0.15624791639613128,
                0.018469380832917014,
                0.35601288882209825,
                0.3838485048036091,
                0.3838485048036091,
                0.3560128888220983,
                0.30744080032333465,
                0.053913036387018054,
                0.35601288882209825,
                0.35601288882209825,
                0.35601288882209825,
                0.046640499999999994,
                0.30285083031938204,
                0.38384850480360916,
                0.35601288882209825,
                0.3560128888220983,
                0.3560128888220983,
                0.3028508303193821,
                0.23190208786092675,
                0.3560128888220983,
                0.35601288882209836,
                0.3560128888220983,
                0.19205086167634583,
                0.35432177151377303,
                0.33185635918970297,
                0.19106691904462564,
                0.3536641583418384,
                0.3254693794310438,
                0.35601288882209825,
                0.26746770454521507,
                0.3560128888220983,
                0.34552543510343886,
                0.06673495346671574,
                0.3838485048036091,
                0.3560128888220983,
                0.3560128888220983,
                0.35601288882209836,
                0.2712103677211475,
                0.2678920259408011,
                0.04694349999999999,
                0.10535361657528099,
                0.35601288882209825,
                0.30285083031938215,
                0.21973173803677162,
                0.3028508303193821,
                0.30538537655890813,
                0.07791069066846296,
                0.35601288882209836,
                0.3560128888220983,
                0.3560128888220983,
                0.35601288882209825,
                0.3111974754427877,
                0.3560128888220983,
                0.005863691411885252,
                0.0597973384101933,
                0.35601288882209825,
                0.3560128888220983,
                0.3560128888220983,
                0.13582469954355011,
                0.3560128888220983,
                0.35601288882209836,
                0.25080594624336944,
                0.35601288882209825,
                0.2779710009862728,
                0.35601288882209825,
                0.31757457121875876,
                0.3838485048036091,
                0.30570758555386723,
                0.35601288882209836,
                0.3780373418195466,
                0.07525,
                0.010720012511524712,
                0.3838485048036091,
                0.3350069160222291,
                0.35601288882209825,
                0.35601288882209836,
                0.04728094159462626,
                0.06616952902877166,
                0.017392059895948275,
                0.3495353791918696,
                0.19107663374678782,
                0.2763988850658641,
                0.2512518993792832,
                0.35601288882209825,
                0.12950920779237607,
                0.3028508303193821,
                0.073039,
                0.19383613195351004,
                0.3028508303193821,
                0.35601288882209825,
                0.3838485048036091,
                0.073039,
                0.3560128888220983,
                0.3028508303193821,
                0.35601288882209825,
                0.35601288882209836,
                0.35601288882209825,
                0.07366302856446333,
                0.09527969852156037,
                0.35601288882209825,
                0.13156977600506636,
                0.24811541704019582,
                0.23700453431214505,
                0.3838485048036091,
                0.3560128888220983,
                0.35601288882209825,
                0.07303900000000002,
                0.24216667806216957,
                0.3028508303193821,
                0.3560128888220983,
                0.07525,
                0.35601288882209825,
                0.35601288882209836,
                0.21441841272136997,
                0.24988262830764418,
                0.35601288882209836,
                0.20641518971483086,
                0.3028508303193821,
                0.2763988850658641,
                0.3560128888220983,
                0.35601288882209825,
                0.3560128888220983,
                0.35601288882209825,
                0.3560128888220983,
                0.30285083031938204,
                0.3237477777190953,
                0.1463555076736521,
                0.3560128888220983,
                0.20416693606502875,
                0.3560128888220983,
                0.3028508303193821,
                0.2992576785757719,
                0.09721720958886343,
                0.07896498326845014,
                0.38384850480360916,
                0.35601288882209836,
                0.13408713053985238,
                0.15894801900677194,
                0.27639888506586413,
                0.3560128888220983,
                0.27424133031938214,
                0.2955196223903558,
                0.35601288882209825,
                0.3560128888220983,
                0.35601288882209836,
                0.38384850480360916,
                0.35601288882209825,
                0.30578226584019846,
                0.3560128888220983,
                0.3838485048036091,
                0.3838485048036092,
                0.35601288882209836,
                0.3560128888220983,
                0.3560128888220983,
                0.07525,
                0.35601288882209836,
                0.35601288882209836,
                0.3320297016803736,
                0.3560128888220983,
                0.35601288882209825,
                0.3560128888220983,
                0.07303899999999999,
                0.3838485048036091,
                0.3560128888220983,
                0.35601288882209825,
                0.3560128888220983,
                0.09810488755633506,
                0.0856953,
                0.3028508303193821,
                0.3560128888220983,
                0.27639888506586413,
                0.2863893006997921,
                0.35601288882209825,
                0.14194739605518392,
                0.16806540203391768,
                0.3028508303193821,
                0.3028508303193821,
                0.3560128888220983,
                0.18035498393841826,
                0.3560128888220983,
                0.0847407,
                0.35601288882209825,
                0.3560128888220983,
                0.04001838661078383,
                0.3560128888220983,
                0.3028508303193821,
                0.35601288882209825,
                0.30285083031938215,
                0.2509462196882871,
                0.07303899999999999,
                0.3838485048036091,
                0.35601288882209836,
                0.3560128888220983,
                0.3560128888220983,
                0.3838485048036091,
                0.3652551645646595,
                0.3028508303193821,
                0.05993322555680414,
                0.35601288882209825,
                0.3838485048036091,
                0.2794986865869398,
                0.14121746666398696,
                0.23398558851195397,
                0.26081659661428913,
                0.3560128888220983,
                0.35601288882209825,
                0.3560128888220982,
                0.3560128888220983,
                0.3560128888220983,
                0.3560128888220983,
                0.07525,
                0.05415988403988897,
                0.35601288882209825,
                0.35601288882209825,
                0.35601288882209836,
                0.04442949999999999,
                0.3560128888220983,
                0.35601288882209825,
                0.35601288882209825,
                0.30285083031938215,
                0.3264355342719488,
                0.3838485048036091,
                0.35601288882209825,
                0.3028508303193821,
                0.18437997363691838,
                0.3028508303193821,
                0.3560128888220983,
                0.07524999999999998,
                0.3838485048036091,
                0.35601288882209836,
                0.013153730869065794,
                0.2738734132907004,
                0.3560128888220983,
                0.055125469654639936,
                0.3560128888220983,
                0.3560128888220983,
                0.03381528951255791,
                0.311701494828809,
                0.35601288882209836,
                0.35601288882209836,
                0.35601288882209825,
                0.35601288882209825,
                0.20437340357522746,
                0.35601288882209825,
                0.3560128888220983,
                0.055880673495259214,
                0.06444664658303312,
                0.35601288882209825,
                0.3838485048036091,
                0.16941649213560556,
                0.0876557,
                0.3560128888220983,
                0.14244327033597148,
                0.3084344817163853,
                0.012169762485095048,
                0.3560128888220983,
                0.35601288882209836,
                0.30285083031938215,
                0.35601288882209825,
                0.0764973721571039,
                0.024213706860789885,
                0.3560128888220983,
                0.262645328805591,
                0.3214363121106332,
                0.3560128888220983,
                0.3560128888220983,
                0.22638035704027198,
                0.35601288882209825,
                0.3560128888220983,
                0.35601288882209825,
                0.29086407751439736,
                0.35601288882209825,
                0.3838485048036091,
                0.29735286368065295,
                0.3028508303193821,
                0.38384850480360916,
                0.35601288882209825,
                0.35601288882209825,
                0.35601288882209825,
                0.35601288882209836,
                0.3560128888220983,
                0.3028508303193821,
                0.20999114022081117,
                0.10652713484282667,
                0.38384850480360916,
                0.3028508303193821,
                0.15891713960570672,
                0.35601288882209825,
                0.35601288882209836,
                0.35601288882209825,
                0.3549245317035705,
                0.13342877213223067,
                0.08523539999999999,
                0.3560128888220983,
                0.3560128888220983,
                0.35601288882209825,
                0.38384850480360916,
                0.3560128888220983,
                0.22547980660594064,
                0.38384850480360916,
                0.08902623144677185,
                0.1183613821592138,
                0.3560128888220983,
                0.07303899999999999,
                0.38384850480360916,
                0.19844574784387115,
                0.3560128888220983,
                0.17218121865473623,
                0.3046011829210992,
                0.3237186888220983,
                0.35601288882209825,
                0.38384850480360905,
                0.27639888506586413,
                0.35601288882209825,
                0.35601288882209836,
                0.35601288882209836,
                0.3560128888220983,
                0.35601288882209836,
                0.3560128888220983,
                0.35601288882209836,
                0.35601288882209825,
                0.11318017404151966,
                0.35601288882209836,
                0.35601288882209825,
                0.38384850480360905,
                0.35601288882209825,
                0.19338094998905514,
                0.3028508303193821,
                0.38384850480360916,
                0.04442950000000001,
                0.38384850480360916,
                0.3560128888220983,
                0.35601288882209825,
                0.01242407138537499,
                0.27639888506586413,
                0.35601288882209825,
                0.35601288882209836,
                0.30285083031938215,
                0.35601288882209825,
                0.3560128888220983,
                0.3560128888220983,
                0.2521850925856915,
                0.3838485048036091,
                0.3838485048036091,
                0.35601288882209836,
                0.3395017294809465,
                0.35601288882209825,
                0.2555857537294298,
                0.1761690753824296,
                0.3560128888220983,
                0.3560128888220983,
                0.3838485048036091,
                0.3523522478945994,
                0.1419270223443068,
                0.30285083031938215,
                0.3560128888220983,
                0.3560128888220983,
                0.35601288882209825,
                0.010243949045864453,
                0.2893990837205758,
                0.34429370832859374,
                0.38384850480360916,
                0.286424686357748,
                0.35601288882209836,
                0.19249574407802722,
                0.35601288882209825,
                0.3028508303193821,
                0.31612856832202496,
                0.1391611497344932,
                0.3324110517472713,
                0.3838485048036091,
                0.3560128888220983,
                0.38384850480360916,
                0.35601288882209825,
                0.002872184660254462,
                0.35601288882209825,
                0.3740432869533976,
                0.35601288882209836,
                0.12099858258924215,
                0.35601288882209836,
                0.3560128888220983,
                0.35601288882209825,
                0.2549109612450333,
                0.3560128888220983,
                0.35601288882209836,
                0.3838485048036091,
                0.35601288882209825,
                0.3136948135659122,
                0.1422645801804703,
                0.2744515340546735,
                0.019569574159125525,
                0.03498434670675221,
                0.1931444612955444,
                0.3560128888220983,
                0.27639888506586413,
                0.19455425248269115,
                0.35601288882209825,
                0.3560128888220983,
                0.3560128888220983,
                0.3560128888220983,
                0.3279023035347778,
                0.22800408014520254,
                0.3560128888220983,
                0.3560128888220983,
                0.3560128888220983,
                0.3838485048036091,
                0.2523729471633309,
                0.35601288882209825,
                0.1685244268455948,
                0.3838485048036091,
                0.3838485048036091,
                0.35601288882209836,
                0.08820239999999999,
                0.15178229176334673,
                0.35601288882209825,
                0.3560128888220983,
                0.3560128888220983,
                0.3560128888220983,
                0.10939942869977791,
                0.05186804082462548,
                0.35601288882209836,
                0.0469435,
                0.25779700122339544,
                0.2629629619145567,
                0.06270637348981331,
                0.32003983393175006,
                0.18260220777383868,
                0.03375962139327232,
                0.2763988850658641,
                0.2166940085178408,
                0.3838485048036091,
                0.3560128888220983,
                0.22097467772721896,
                0.3560128888220983,
                0.3560128888220983,
                0.35601288882209825,
                0.3560128888220983,
                0.08523539999999999,
                0.3838485048036091,
                0.35601288882209825,
                0.35601288882209825,
                0.3028508303193821,
                0.07493015593118488,
                0.3560128888220983,
                0.35601288882209825,
                0.32875732162851334,
                0.0561312,
                0.35601288882209825,
                0.3147575749903108,
                0.318056018275086,
                0.3560128888220983,
                0.07303899999999999,
                0.3028508303193821,
                0.09230559513599346,
                0.3560128888220983,
                0.3838485048036091,
                0.35601288882209825,
                0.044429500000000004,
                0.35601288882209825,
                0.35601288882209825
            ],
            "photocathode": [
                2519,
                529,
                1795,
                2174,
                2528,
                2217,
                2525,
                2615,
                2482,
                7,
                2474,
                1885,
                300,
                2530,
                2180,
                2410,
                425,
                2489,
                2575,
                2471,
                2475,
                2503,
                1146,
                1921,
                2475,
                1114,
                2461,
                2463,
                2493,
                2581,
                2629,
                2655,
                486,
                10,
                2407,
                2527,
                2496,
                1719,
                1544,
                590,
                1138,
                126,
                2397,
                2746,
                2588,
                2526,
                2134,
                398,
                2536,
                2447,
                2436,
                294,
                2097,
                2649,
                2460,
                2412,
                2458,
                2031,
                1657,
                2481,
                2497,
                2509,
                1362,
                2584,
                2289,
                1329,
                2506,
                2321,
                2476,
                1946,
                2553,
                2370,
                470,
                2663,
                2464,
                2441,
                2489,
                1906,
                1871,
                351,
                711,
                2505,
                2100,
                1525,
                2160,
                2181,
                596,
                2554,
                2421,
                2411,
                2455,
                2142,
                2420,
                34,
                441,
                2531,
                2455,
                2548,
                922,
                2547,
                2406,
                1756,
                2445,
                2007,
                2513,
                2306,
                2641,
                2175,
                2562,
                2681,
                538,
                64,
                2689,
                2306,
                2489,
                2415,
                323,
                413,
                126,
                2321,
                1385,
                1953,
                1805,
                2495,
                899,
                2086,
                541,
                1354,
                2137,
                2565,
                2599,
                523,
                2469,
                2146,
                2510,
                2490,
                2544,
                487,
                705,
                2556,
                891,
                1808,
                1739,
                2710,
                2468,
                2627,
                511,
                1716,
                2167,
                2508,
                491,
                2542,
                2484,
                1454,
                1774,
                2524,
                1441,
                2054,
                1946,
                2489,
                2465,
                2512,
                2529,
                2507,
                2121,
                2252,
                1062,
                2529,
                1433,
                2447,
                2084,
                2148,
                696,
                578,
                2695,
                2520,
                940,
                1112,
                1906,
                2529,
                1916,
                2119,
                2433,
                2461,
                2488,
                2741,
                2457,
                2159,
                2477,
                2616,
                2776,
                2528,
                2481,
                2612,
                509,
                2428,
                2593,
                2238,
                2571,
                2542,
                2609,
                512,
                2703,
                2537,
                2542,
                2475,
                667,
                593,
                1996,
                2504,
                1993,
                1989,
                2498,
                1061,
                1186,
                2158,
                2074,
                2648,
                1299,
                2499,
                596,
                2514,
                2420,
                283,
                2447,
                2122,
                2506,
                2099,
                1807,
                468,
                2663,
                2472,
                2551,
                2499,
                2617,
                2497,
                2072,
                425,
                2524,
                2756,
                1919,
                992,
                1629,
                1813,
                2557,
                2458,
                2587,
                2546,
                2410,
                2454,
                470,
                359,
                2449,
                2488,
                2518,
                306,
                2451,
                2386,
                2482,
                2082,
                2274,
                2728,
                2503,
                2111,
                1310,
                2119,
                2503,
                502,
                2610,
                2459,
                88,
                1966,
                2514,
                416,
                2559,
                2489,
                236,
                2135,
                2531,
                2573,
                2444,
                2602,
                1423,
                2528,
                2536,
                404,
                443,
                2424,
                2678,
                1179,
                650,
                2532,
                974,
                2233,
                78,
                2420,
                2507,
                2088,
                2465,
                529,
                159,
                2441,
                1811,
                2201,
                2503,
                2474,
                1546,
                2553,
                2558,
                2501,
                2046,
                2464,
                2754,
                2086,
                2092,
                2749,
                2494,
                2477,
                2550,
                2517,
                2474,
                2102,
                1476,
                749,
                2670,
                2116,
                1086,
                2510,
                2581,
                2447,
                2484,
                899,
                556,
                2489,
                2550,
                2486,
                2745,
                2439,
                1558,
                2819,
                598,
                816,
                2491,
                517,
                2704,
                1398,
                2531,
                1242,
                2120,
                2306,
                2436,
                2656,
                1897,
                2473,
                2540,
                2584,
                2426,
                2467,
                2543,
                2590,
                2564,
                858,
                2385,
                2554,
                2674,
                2472,
                1385,
                1958,
                2671,
                312,
                2648,
                2481,
                2473,
                76,
                1945,
                2427,
                2535,
                2141,
                2618,
                2605,
                2463,
                1728,
                2693,
                2698,
                2568,
                2375,
                2495,
                1736,
                1236,
                2564,
                2529,
                2685,
                2381,
                1021,
                2134,
                2455,
                2475,
                2419,
                72,
                2031,
                2419,
                2793,
                1959,
                2496,
                1370,
                2483,
                2052,
                2103,
                923,
                2318,
                2657,
                2517,
                2671,
                2483,
                19,
                2509,
                2580,
                2463,
                885,
                2498,
                2524,
                2473,
                1771,
                2491,
                2461,
                2727,
                2509,
                2131,
                957,
                2022,
                135,
                235,
                1314,
                2488,
                1980,
                1353,
                2525,
                2466,
                2500,
                2493,
                2419,
                1586,
                2545,
                2565,
                2488,
                2570,
                1758,
                2452,
                1190,
                2780,
                2839,
                2478,
                610,
                1085,
                2458,
                2561,
                2502,
                2538,
                784,
                329,
                2416,
                330,
                1784,
                1879,
                433,
                2312,
                1203,
                226,
                1887,
                1560,
                2594,
                2446,
                1533,
                2519,
                2482,
                2534,
                2511,
                578,
                2707,
                2494,
                2521,
                2222,
                531,
                2482,
                2445,
                2253,
                404,
                2573,
                2236,
                2212,
                2439,
                519,
                2063,
                654,
                2438,
                2650,
                2473,
                277,
                2484,
                2508
            ]
        },
        "detections": 500,
        "events": 448023
    }
}