{
    "job_args": {
        "metric_limit": 500,
        "seed": 2995167007
    },
    "job_id": "batch_95_do_500",
    "result": {
        "collections": {
            "crystal": [
                1.1732266212015403,
                0.9901049707021042,
                0.5462774242994783,
                0.0876557,
                1.1732266212015403,
                1.1732266212015408,
                1.1732266212015405,
                0.7462552245766014,
                0.5153109371158189,
                0.8998031755082209,
                0.8382200887981414,
                1.1732266212015405,
                0.17844719375753615,
                1.1732266212015405,
                1.33249809315288,
                0.6119069107764366,
                1.0594234965931015,
                0.21208583092845634,
                0.49647926183660124,
                1.3324980931528798,
                1.3324980931528798,
                0.9864095714997775,
                0.7946443479704874,
                1.3324980931528796,
                0.7214656520172447,
                0.26925070443828625,
                1.1732266212015405,
                0.6677194303310605,
                0.21899418033827178,
                0.9076287679453984,
                0.8794709788072584,
                1.1732266212015405,
                0.10027991649901957,
                1.1732266212015403,
                0.30959764091451203,
                1.3324980931528796,
                0.6181963162748039,
                0.3024457517451377,
                0.16635611155250207,
                0.07303900000000002,
                0.9360941014301136,
                0.07525,
                0.5608602496524812,
                0.838781218160841,
                0.7031097661704289,
                1.1732266212015405,
                0.66099743828941,
                1.3324980931528798,
                1.1795873494022477,
                0.8870390507585912,
                1.1732266212015405,
                0.16161476311494782,
                0.5421288483763843,
                0.08621284827465792,
                0.22755437920900778,
                0.5166210290561857,
                1.1732266212015408,
                0.32459182316818547,
                0.4280829429618087,
                0.04500177428167307,
                1.3324980931528798,
                0.554809807072236,
                1.1732266212015408,
                1.0996875093721783,
                0.7307982723127278,
                0.6527254037671776,
                0.1812081751676491,
                0.31050027315287987,
                0.17604954647377136,
                1.1732266212015405,
                0.11132477166363053,
                0.8163191833099874,
                0.22773227432422088,
                0.9932715382431659,
                0.8909854960900875,
                1.1732266212015405,
                0.9900137068270545,
                0.7855882642538894,
                0.8079317978910765,
                0.38541885574257806,
                1.3324980931528796,
                1.33249809315288,
                0.48409893235482326,
                0.6367607656641805,
                0.4500124920466444,
                1.3324980931528798,
                0.8165699174771183,
                0.05613120000000002,
                1.3324980931528798,
                0.77486063679563,
                0.527287800573524,
                1.1052562450020373,
                0.1859832000566108,
                0.5069679756616904,
                1.1732266212015405,
                0.19008051568709772,
                0.073039,
                0.5605338682666836,
                0.13547735879435796,
                1.046457340071967,
                0.19321904339109597,
                0.8298204573606671,
                1.3324980931528796,
                1.1732266212015405,
                1.3324980931528798,
                0.23549210714935215,
                0.7947341733092679,
                0.9609493910721166,
                0.9510757182885154,
                0.3776777631350542,
                0.6575816199703962,
                0.10167930108267066,
                0.2936802820335491,
                0.22500241823561248,
                0.585998208680485,
                0.6637255879580554,
                1.171245779299402,
                0.29493144548635497,
                0.33599259383213353,
                1.1732266212015408,
                0.07494445961456098,
                1.1322703528874032,
                0.8045684253866017,
                1.3324980931528798,
                0.2601270541089103,
                0.45363680652189103,
                0.7075807696416627,
                0.17225663476885983,
                1.1732266212015405,
                0.33081350971155893,
                1.3324980931528796,
                0.09855905890046973,
                0.8780895466634628,
                1.1732266212015408,
                1.1732266212015405,
                0.3321237342110226,
                0.6607862707099011,
                1.1732266212015405,
                0.06447482561491069,
                0.7350567684609168,
                0.9614625637781746,
                0.362664090049457,
                0.6701002603140973,
                0.6702972685207473,
                1.2165346295642019,
                0.4075324919024443,
                0.5031324720533219,
                0.07487341994200691,
                1.3324980931528796,
                0.9155101275655018,
                0.8580156644836852,
                0.2228061050289759,
                0.0035487467176782417,
                0.5157502791748715,
                0.754516036574374,
                0.15433382875209645,
                0.05249327433210993,
                0.4414418016553862,
                0.49717093388378186,
                1.3324980931528796,
                0.44335199931585245,
                0.8702172154724928,
                0.31050027315287987,
                1.3324980931528798,
                0.878535786887794,
                0.9518508834718246,
                0.7612551733713993,
                1.1732266212015405,
                0.540328588214928,
                1.1732266212015408,
                0.19213083353499316,
                0.04263557010944763,
                0.9563821860457458,
                1.3324980931528796,
                0.8023323200389219,
                0.24548238354911833,
                0.8263452559428492,
                0.3506722503665728,
                0.510492710706446,
                1.33249809315288,
                0.3185305866840381,
                0.27592323219412285,
                1.1732266212015405,
                1.1062101710401775,
                1.1732266212015403,
                0.5120712247394265,
                0.08523540000000002,
                0.7900556882504379,
                0.4282206364324099,
                1.1732266212015405,
                0.49864987493202767,
                0.6094336725386885,
                0.7895436652987531,
                0.25857280895799867,
                0.9346527621040015,
                0.14453378365831027,
                0.07525,
                0.5557961874504211,
                1.3324980931528798,
                0.8561948878410803,
                0.9316596614626418,
                0.6142678642123598,
                0.9709008058734685,
                0.4208684009641497,
                0.9530238189048741,
                1.3324980931528798,
                0.666985015274587,
                0.25002104368743205,
                0.7373346512292406,
                0.8752167205833489,
                0.5635228757851984,
                0.9976468640824432,
                0.28535535392805095,
                0.6091026015089551,
                0.25167468600757015,
                0.7187301736246376,
                0.4813636728483691,
                0.353846981445218,
                0.1763947304144447,
                0.5266969533941777,
                1.1732266212015405,
                0.15291985058722687,
                1.1732266212015405,
                1.3324980931528798,
                1.1732266212015408,
                1.1466674600987339,
                0.8433705765436261,
                0.6130976744468054,
                1.3324980931528798,
                1.1732266212015408,
                0.3922556328087291,
                0.012595891064720366,
                0.4888405775786516,
                0.5198809888560194,
                0.22434476193000663,
                0.17123717384916282,
                0.8299239558813688,
                0.053680243568623276,
                0.6261973319332621,
                0.08523540000000002,
                0.9047133831804465,
                0.6814632761398594,
                0.789914846951898,
                1.3324980931528798,
                0.5757721161779507,
                0.26386441103979497,
                0.4016140384835722,
                0.07525,
                0.7451621664283821,
                0.17347008283934362,
                0.9923321004033976,
                0.6995444224382483,
                1.0575949604366075,
                0.2992839374060362,
                0.2882734113358322,
                0.9193134813601656,
                0.8332678162123394,
                0.6018270563473632,
                0.6081251537170034,
                0.8824723563774466,
                1.3324980931528796,
                0.2565423784887071,
                1.1732266212015403,
                0.22481467781170644,
                0.13752133033402625,
                0.7777245703091368,
                1.0897411934757262,
                0.9168995099683408,
                1.33249809315288,
                1.1732266212015405,
                0.429688506940428,
                1.3324980931528796,
                0.10390370161903162,
                1.1732266212015408,
                0.42355745042395865,
                0.9765381466811567,
                0.08013727651755631,
                0.5876497008513415,
                0.2594292899327429,
                0.5570681478680524,
                1.1732266212015405,
                1.152701447636513,
                0.3641138871511318,
                0.009803695141617608,
                1.0043063271581028,
                0.3677343902987916,
                0.8004639680780774,
                0.7507184809099651,
                1.1352989571376098,
                0.42653231672680836,
                0.8157404555629477,
                0.8292874075858471,
                0.04905622585912872,
                0.3901807375356944,
                1.2315320264459493,
                0.6315632428249147,
                1.3324980931528796,
                1.1732266212015405,
                0.2848502900588319,
                0.31260982328535625,
                1.3324980931528796,
                0.4346876363665586,
                1.1732266212015405,
                1.1732266212015405,
                1.022305033676687,
                1.054730938268794,
                1.1732266212015403,
                0.5150321134057868,
                0.6116768104347358,
                1.1732266212015405,
                1.0872904349117571,
                1.1732266212015403,
                0.7509039239764799,
                0.1654670966544767,
                0.9326338679411466,
                1.1732266212015408,
                0.08573495508202456,
                0.6719954275350492,
                0.49689923139458764,
                0.7397610422777122,
                0.40831993541892164,
                1.1732266212015408,
                0.17228470255169404,
                1.1732266212015405,
                0.5978348542987846,
                0.5986786135868539,
                0.44518407583484987,
                1.1732266212015408,
                0.32549201252794824,
                0.7921946803139097,
                0.31375717797329045,
                1.1732266212015405,
                0.9548979352197406,
                0.10288988692039158,
                1.0572987273201062,
                1.3324980931528796,
                0.9382076684557312,
                0.07525,
                0.766781534144781,
                1.3324980931528798,
                0.7552870689095966,
                1.008268365061643,
                0.6818298098622108,
                0.3525658569677551,
                0.5440763367939456,
                0.8936488699356087,
                0.6860810340006442,
                0.7354140306151387,
                1.3324980931528798,
                0.5070820926184707,
                1.1732266212015405,
                1.1732266212015405,
                1.1732266212015405,
                0.0876557,
                0.22522989666731347,
                0.17933564731379303,
                0.6777917116531393,
                1.1732266212015405,
                0.33185731927321704,
                0.5249974656101216,
                0.8314056328807543,
                0.4363413410949215,
                1.1046962533709226,
                1.1732266212015405,
                1.0654178270018053,
                0.6502523573488005,
                0.47713055281976025,
                0.6241972873835708,
                0.8282980038865397,
                0.3609106083726763,
                0.0843090462358409,
                1.0436494963514609,
                0.044484098832691665,
                0.5251676444250883,
                0.7605589358233877,
                1.33249809315288,
                0.9635079481661972,
                0.5635424437154002,
                0.7212034659099439,
                0.19025534930207824,
                0.006895285873046497,
                0.6250215021835195,
                1.1735137361094883,
                1.1732266212015405,
                0.8689378692341256,
                0.966706844479008,
                0.8465308337516924,
                0.741618771664298,
                0.12059786686038199,
                1.021340280815429,
                0.028957605753561655,
                0.3250161762679149,
                0.5662732262325292,
                0.9996796929411025,
                0.6285424397291342,
                0.9518563116072662,
                0.8415826387361813,
                0.40729584627034576,
                0.36709668943602236,
                0.9068691234026477,
                0.9171217513799146,
                0.7942135159084227,
                0.47388947029393114,
                0.15433290187373694,
                1.1732266212015408,
                0.18163495470426716,
                0.5195463342584573,
                0.2600380718048377,
                1.1732266212015405,
                1.2073408812472002,
                1.1732266212015405,
                0.2563611820154566,
                0.6828923202180148,
                0.45981812812000356,
                1.0592044168329389,
                0.07524999999999998,
                1.1732266212015405,
                0.34625186230666494,
                0.7564105608165805,
                0.051895459032895046,
                1.1732266212015405,
                0.6455873949356101,
                0.8891235475148674,
                0.016961937788049886,
                1.1732266212015405,
                0.8009570878068686,
                0.5434096456352678,
                0.6127781560231487,
                1.1732266212015405,
                0.4207529911328528,
                0.4977534034291959,
                0.31374717497955784,
                1.3324980931528796,
                0.7492112536803704,
                0.8305223641177206,
                0.039914218364091925,
                0.2542471766027071,
                1.1732266212015405,
                0.5437730029005723,
                0.27898811935346246,
                0.9191410532079843,
                1.299757583143659,
                0.686512821777288,
                0.5986705241663995,
                1.1732266212015408,
                1.1732266212015405,
                1.3324980931528798,
                0.9021489308834757,
                0.6628029497628904,
                0.20034896111379727,
                1.1732266212015405,
                0.4933360031708468,
                0.7188238828409733,
                1.3324980931528798,
                0.3552551744977932,
                1.1732266212015405,
                1.1732266212015405,
                1.3324980931528796,
                0.6166855651136123,
                1.090882970263991,
                0.7897797092582117,
                0.8643422390214437,
                0.18994382629813944,
                1.1732266212015405,
                0.14673776030008345,
                0.6807368188923153,
                0.5414827207338111,
                0.2823520346314413,
                1.3324980931528798,
                0.0847407,
                1.1529550819040544,
                1.1732266212015405,
                1.0958323606594027,
                0.09030475023858522,
                0.08344519644009285,
                0.6427347103029092,
                0.19464887343881454,
                0.2556575693001795,
                1.3324980931528796,
                0.08959202548079948,
                0.774404423398641,
                1.3324980931528798,
                1.1732266212015405,
                0.44885534582864306,
                0.3091541490462453,
                1.1732266212015408,
                0.6309880244280263,
                0.458543527769505,
                1.1732266212015405,
                0.49700344976224897,
                1.1732266212015403,
                0.9943887004058859,
                0.6559760509802902,
                1.1732266212015403,
                0.6013848079316071,
                0.8203491316783436,
                1.1732266212015405,
                0.6749994083599155,
                0.6266944103895191,
                0.9494320017003182
            ],
            "photocathode": [
                8159,
                6907,
                3777,
                607,
                8164,
                8261,
                8029,
                5340,
                3621,
                6274,
                6026,
                8314,
                1242,
                7933,
                9379,
                4376,
                7466,
                1484,
                3547,
                9499,
                9134,
                6809,
                5632,
                9171,
                5222,
                1881,
                8187,
                4576,
                1592,
                6387,
                6306,
                8408,
                663,
                8261,
                2212,
                9417,
                4268,
                2187,
                1198,
                521,
                6698,
                502,
                3944,
                6063,
                4972,
                8129,
                4654,
                9412,
                8327,
                6403,
                8144,
                1120,
                3944,
                617,
                1635,
                3812,
                8124,
                2266,
                2947,
                313,
                9581,
                3898,
                8292,
                7734,
                5232,
                4528,
                1272,
                2230,
                1229,
                8344,
                781,
                5690,
                1529,
                6916,
                6443,
                8112,
                6975,
                5454,
                5676,
                2783,
                9401,
                9387,
                3309,
                4483,
                3138,
                9218,
                5748,
                363,
                9447,
                5436,
                3665,
                7781,
                1324,
                3566,
                8202,
                1319,
                489,
                3928,
                983,
                7338,
                1306,
                5895,
                9501,
                8192,
                9286,
                1618,
                5480,
                6935,
                6756,
                2683,
                4696,
                705,
                1998,
                1624,
                4185,
                4518,
                8168,
                2047,
                2322,
                8059,
                530,
                7859,
                5555,
                9418,
                1896,
                3241,
                4913,
                1223,
                8194,
                2316,
                9341,
                689,
                6081,
                8289,
                7938,
                2401,
                4760,
                8126,
                456,
                5256,
                6718,
                2505,
                4869,
                4847,
                8581,
                2794,
                3422,
                546,
                9215,
                6533,
                5960,
                1593,
                16,
                3634,
                5342,
                1088,
                382,
                3242,
                3434,
                9316,
                3068,
                6314,
                2195,
                9397,
                6191,
                6622,
                5374,
                8239,
                3862,
                8197,
                1357,
                306,
                6712,
                9678,
                5713,
                1682,
                5895,
                2496,
                3560,
                9429,
                2132,
                1928,
                8155,
                7682,
                8124,
                3618,
                607,
                5546,
                3009,
                8114,
                3570,
                4375,
                5585,
                1894,
                6539,
                1000,
                529,
                4027,
                9287,
                5964,
                6376,
                4266,
                6757,
                3006,
                6743,
                9647,
                4718,
                1789,
                5210,
                6131,
                3901,
                6932,
                1914,
                4392,
                1819,
                4985,
                3311,
                2530,
                1244,
                3691,
                8236,
                1109,
                8174,
                9524,
                8441,
                7916,
                5859,
                4334,
                9526,
                8126,
                2805,
                83,
                3381,
                3618,
                1570,
                1227,
                5868,
                373,
                4261,
                655,
                6367,
                4647,
                5501,
                9351,
                3956,
                1857,
                2770,
                514,
                5079,
                1288,
                7020,
                4894,
                7573,
                2030,
                2014,
                6517,
                5856,
                4215,
                4201,
                6148,
                9267,
                1805,
                8393,
                1567,
                955,
                5475,
                7835,
                6499,
                9464,
                8114,
                3048,
                9273,
                715,
                8358,
                2924,
                6817,
                598,
                4049,
                1879,
                3989,
                8149,
                8200,
                2578,
                63,
                7118,
                2649,
                5672,
                5195,
                8093,
                3157,
                5781,
                5611,
                320,
                2831,
                8574,
                4341,
                9466,
                8088,
                2091,
                2159,
                9245,
                3138,
                8402,
                8384,
                7053,
                7269,
                8039,
                3574,
                4212,
                8437,
                7618,
                8314,
                5342,
                1162,
                6548,
                8326,
                583,
                4623,
                3588,
                5061,
                2955,
                8392,
                1193,
                8091,
                4417,
                4235,
                3201,
                8262,
                2417,
                5583,
                2208,
                8150,
                6575,
                690,
                7461,
                9481,
                6648,
                481,
                5379,
                9304,
                5288,
                7031,
                4770,
                2536,
                3950,
                6194,
                4798,
                5208,
                9514,
                3533,
                8250,
                8402,
                8527,
                663,
                1537,
                1291,
                4892,
                8202,
                2302,
                3745,
                5841,
                3166,
                7715,
                8341,
                7588,
                4491,
                3579,
                4218,
                5911,
                2505,
                594,
                7343,
                312,
                3643,
                5403,
                9538,
                6832,
                3957,
                5046,
                1343,
                48,
                4435,
                8269,
                8371,
                6111,
                6739,
                6015,
                5325,
                817,
                7093,
                191,
                2190,
                3919,
                7084,
                4688,
                6690,
                5825,
                2944,
                2542,
                6198,
                6389,
                5429,
                3318,
                1039,
                8455,
                1275,
                3539,
                1815,
                8236,
                8585,
                8159,
                1835,
                4734,
                3257,
                7349,
                507,
                8077,
                2345,
                5387,
                366,
                8180,
                4475,
                6159,
                100,
                8369,
                5656,
                3910,
                4209,
                8161,
                3000,
                3595,
                2217,
                9262,
                5185,
                6002,
                293,
                1798,
                7998,
                3747,
                1974,
                6671,
                9153,
                4818,
                4198,
                8394,
                8483,
                9385,
                6198,
                4589,
                1473,
                8300,
                3546,
                4910,
                9453,
                2431,
                8290,
                8159,
                9384,
                4387,
                7755,
                5595,
                6026,
                1332,
                8306,
                994,
                4596,
                3867,
                2082,
                9516,
                553,
                8180,
                8196,
                7706,
                629,
                569,
                4609,
                1352,
                1744,
                9275,
                608,
                5614,
                9315,
                8263,
                3232,
                2227,
                8098,
                4506,
                3285,
                8121,
                3596,
                8349,
                6973,
                4747,
                8170,
                4175,
                5748,
                8166,
                4690,
                4368,
                6815
            ]
        },
        "detections": 500,
        "events": 88037
    }
}