{
    "job_args": {
        "metric_limit": 500,
        "seed": 523465902
    },
    "job_id": "batch_27_do_500",
    "result": {
        "collections": {
            "crystal": [
                0.17561534328449424,
                0.7975074210730937,
                0.9216396914238958,
                1.1732266212015405,
                1.1536788892507919,
                0.9238391816052522,
                0.37740020474941954,
                0.7401899936513249,
                0.7377209898486007,
                0.34796432615105655,
                1.1732266212015403,
                0.18181559390969115,
                0.3962494956602154,
                1.3324980931528798,
                1.3324980931528796,
                0.6077385318966375,
                0.06467517691632518,
                0.5360899989562995,
                1.3324980931528798,
                0.6462308882563885,
                0.029927814609266967,
                0.5197998187699988,
                0.5411838102994508,
                0.9952027952976173,
                0.3058632221119777,
                0.18862578781373296,
                0.636833755945148,
                0.05478282314453653,
                1.1732266212015405,
                0.6524855805150487,
                0.6866822975249426,
                0.31115525226983015,
                1.3324980931528798,
                0.9229646854867344,
                0.09904459999596416,
                1.1732266212015405,
                1.1732266212015405,
                0.7125014220409128,
                0.6768685167973327,
                0.6460214825569424,
                1.1732266212015403,
                0.8507348464799347,
                1.3324980931528798,
                0.38259141788272966,
                1.3324980931528798,
                1.1732266212015405,
                0.9965733198264812,
                0.7670183032349169,
                1.0933157894730992,
                1.3324980931528798,
                0.8588129327543033,
                1.3324980931528798,
                0.016172824508736583,
                0.43634809840140226,
                0.26395116111327666,
                0.8628132288189679,
                1.3324980931528796,
                1.3324980931528796,
                1.1052577741668268,
                0.23496232544569254,
                0.8244025923019233,
                0.7580008472383972,
                1.33249809315288,
                0.3484613317357712,
                0.11092463607076379,
                0.14547049859488248,
                1.0672874626089257,
                0.7337329035532565,
                1.3324980931528798,
                1.1732266212015403,
                0.51099891,
                0.0466405,
                0.2791727858466938,
                0.7148311165443746,
                1.0509307714556457,
                1.3324980931528798,
                0.34426397565907296,
                0.47604387308178986,
                0.8769221076191993,
                1.1732266212015403,
                1.1732266212015405,
                0.35602162165106194,
                1.3324980931528798,
                1.3324980931528798,
                1.1732266212015405,
                0.5470025036974017,
                1.3324980931528798,
                0.5657459512034543,
                1.3324980931528796,
                0.32744214522000736,
                0.17887712853013726,
                1.2538250986732067,
                0.7183159892682975,
                0.4904181933160829,
                0.17239563379692383,
                0.51099891,
                0.27596942981558686,
                0.0008182704856348718,
                0.9427566071308204,
                1.1732266212015405,
                0.665722354495127,
                0.8775487582125459,
                0.2246662136604144,
                1.33249809315288,
                1.147440077710152,
                0.592094590243591,
                0.0803519564361801,
                1.3324980931528798,
                0.2817875244048258,
                0.7295753015088906,
                1.33249809315288,
                0.7336132240245216,
                1.1732266212015408,
                0.5658125115857,
                1.3324980931528798,
                0.2732320589042091,
                0.09898354774285194,
                0.3446652326695198,
                0.46164606121560176,
                0.27871697492235387,
                1.1732266212015403,
                0.36443353976235127,
                0.9839985876593518,
                0.9266468579211007,
                0.4533846466185575,
                1.135105878930924,
                1.1732266212015405,
                1.0547041840015026,
                1.1140435686820864,
                0.9957428253272411,
                1.3324980931528798,
                0.7402066564293223,
                0.7122485969115169,
                1.1732266212015408,
                0.6998337870850333,
                1.1732266212015405,
                0.3010255372151664,
                0.48613696189591477,
                1.3324980931528798,
                1.154586132662157,
                1.33249809315288,
                0.4454675935803285,
                1.3324980931528798,
                0.2962571623048218,
                0.03741391788006476,
                1.1732266212015405,
                0.9183370753051352,
                0.9470585244603378,
                0.9133389470551847,
                1.3324980931528798,
                0.3395176232653001,
                0.5207967437883144,
                1.3324980931528798,
                0.7043210238528733,
                1.0154623427589995,
                0.5759145904338052,
                0.6344086763495171,
                1.1732266212015405,
                0.3127130844109517,
                0.800108664525351,
                0.47255817426473334,
                0.06457398491022169,
                0.2720978923621786,
                0.5198459054275755,
                1.1732266212015405,
                0.6242040019520834,
                0.830854060554008,
                0.5044719377952868,
                0.5889188678424981,
                0.8250539172194464,
                1.1604630768375397,
                0.2951179535626144,
                0.6506828455933458,
                0.3450819382061426,
                0.702485971614986,
                0.3597261245299327,
                0.3458613792947882,
                0.8107176461859278,
                0.2412768329789545,
                1.0380114359504904,
                0.2072648935738321,
                0.29294574979986576,
                0.7675734706434385,
                0.0694649177597193,
                0.963452775989027,
                0.33850950676919095,
                0.8359938135045843,
                0.554051660250813,
                0.20475429723196065,
                0.8968377773905459,
                0.6666694564285969,
                0.23515828015149395,
                0.8490703201133345,
                1.1732266212015408,
                0.6365269640739765,
                1.3324980931528798,
                0.5780960735006793,
                0.02422245579317206,
                0.36504737429882406,
                0.04730513712515255,
                0.022855188332544518,
                0.43719478232295805,
                0.7812793291504492,
                0.5305568447227074,
                0.05583555520541528,
                0.727113608147397,
                0.23379083909896803,
                0.09302854220568124,
                1.1732266212015405,
                0.8807678902208286,
                0.13242597730192152,
                1.1732266212015403,
                0.08523539999999999,
                1.1732266212015405,
                0.29952313262209246,
                1.1732266212015408,
                0.6249265785214565,
                1.3324980931528798,
                0.5202401524423371,
                0.42992970153887095,
                0.4722350175187056,
                1.3324980931528798,
                1.3324980931528798,
                0.5342192571645598,
                1.1732266212015403,
                0.7145298754372966,
                0.22118612599346793,
                0.5382995561259224,
                1.1732266212015405,
                0.05398607437496783,
                1.1732266212015405,
                0.020752534828574642,
                1.17322662120154,
                0.8317490237077306,
                1.3324980931528796,
                0.8834444533555037,
                1.3324980931528798,
                0.14116610123911988,
                0.6547596558951828,
                1.1732266212015405,
                0.7097047022690365,
                1.0388932670613695,
                0.5002106683949289,
                0.3901732095899667,
                0.3691214382387489,
                0.07525,
                0.6731555612558636,
                0.22318670545748465,
                1.1732266212015403,
                0.7908305156702141,
                0.41363035858455727,
                1.0738681405752408,
                1.1732266212015405,
                0.891689440832504,
                0.17932533278681584,
                0.7400326825519122,
                0.7178503814715571,
                0.5344756249614995,
                0.18059303630911028,
                0.803343000424043,
                1.3324980931528798,
                1.1732266212015405,
                0.7111307575494872,
                1.3324980931528798,
                1.1732266212015405,
                0.37087887287734816,
                0.31024340309338877,
                0.47830033596562593,
                0.15369308235008705,
                0.3305147751884417,
                0.7119397614626145,
                0.26785364031791853,
                1.1732266212015403,
                1.3324980931528798,
                0.3418536615719451,
                0.34430081913772215,
                1.1732266212015405,
                0.5667971645571851,
                0.04601974425664934,
                0.7362876004746455,
                1.1732266212015403,
                0.08744902696596735,
                0.11405155887864543,
                1.1732266212015405,
                0.25628998740349596,
                0.9949574879527979,
                1.1732266212015405,
                0.10667388469838611,
                1.3324980931528798,
                0.6569766670584265,
                0.5903829161933606,
                0.3808797424033303,
                0.7314744995783015,
                1.1591068884413898,
                1.1732266212015405,
                0.39173962049545963,
                0.10397278470706794,
                0.5788804532246365,
                0.514270222097282,
                1.2715727849918568,
                0.7191462667796338,
                0.580543710570319,
                1.1732266212015405,
                0.5654673169932521,
                0.291612764806661,
                0.4592397659396101,
                0.712479815971717,
                0.9996410614649341,
                1.3324980931528798,
                0.9534441327257096,
                0.311562870824325,
                0.16215800296076852,
                1.1732266212015405,
                0.11056267464171876,
                0.8929112602057868,
                0.4360789248958231,
                0.3140896389398351,
                0.014473333821064216,
                0.3028270711489517,
                0.4810290717733301,
                0.3468138794895549,
                1.1108919463179023,
                0.943099839519356,
                0.68464707432521,
                0.3279740121267326,
                0.8519656311807787,
                0.2909442193176198,
                0.3373960702548192,
                1.3324980931528798,
                1.3324980931528798,
                0.34108521512765955,
                1.3324980931528798,
                0.4443299308279333,
                0.6452325712324151,
                1.04663793983607,
                1.1732266212015405,
                1.0311485057170826,
                0.7141220116848641,
                0.432457044452285,
                1.3324980931528796,
                0.46978685237956663,
                0.30416073263255167,
                0.8199330432334841,
                0.6899173887959176,
                0.3135880994162411,
                1.3324980931528798,
                1.00752048391331,
                1.3324980931528798,
                0.8363053167979072,
                0.4529329524199581,
                0.04458810056720375,
                1.1732266212015405,
                1.3324980931528796,
                0.4358084930207573,
                0.8685009051135544,
                0.03308830431929562,
                1.1732266212015405,
                0.7241445556859044,
                0.10315992003720907,
                0.03333684959013272,
                1.1732266212015405,
                0.45553353982243167,
                1.33249809315288,
                0.9451009488324548,
                0.8095557080118516,
                0.018258451023377406,
                0.40212704707466285,
                0.5964007391751075,
                0.9570951833357948,
                0.7732791297818358,
                0.13961675993298373,
                0.527790809262534,
                0.9676007896471599,
                0.7140231706569579,
                1.1226234359509297,
                0.5203425052724029,
                0.0887135611394512,
                0.570764093440345,
                1.1732266212015405,
                0.5887088171307207,
                0.07525000000000001,
                1.3324980931528798,
                1.1732266212015403,
                0.02876130390157655,
                0.7825330953736904,
                1.1732266212015405,
                1.3324980931528798,
                0.5204440758849416,
                1.1732266212015405,
                0.7718883296103953,
                1.1732266212015405,
                1.3324980931528798,
                0.40796716474864414,
                0.0050148901933762735,
                0.5179454512514746,
                0.12036670565243725,
                0.698967599703712,
                0.42512571139719385,
                1.1650991341876236,
                0.340097826845316,
                0.5046562313503502,
                0.4378689587440795,
                0.07352651026026658,
                0.7402283389100178,
                0.13157519054157452,
                1.0786983568404596,
                0.8523337306553003,
                0.8950422445020256,
                0.07303899999999999,
                1.3324980931528798,
                0.07303899999999999,
                1.1732266212015408,
                0.7545057271783493,
                1.3324980931528798,
                0.1527256498400045,
                1.1474866633904544,
                0.5849765092697089,
                1.1732266212015405,
                0.9721906293002621,
                1.3324980931528798,
                0.1376179674201674,
                0.5758090661850594,
                0.4749793645926199,
                0.35375842889261255,
                0.032917817646492153,
                0.6805927191779176,
                0.1376856289564244,
                1.1732266212015408,
                1.1732266212015405,
                0.2742757834448729,
                1.029914773223116,
                0.1183834584374601,
                0.679348358714392,
                0.9189090420127403,
                0.3319928620446912,
                0.2829435522416235,
                1.1449715617785987,
                1.1732266212015405,
                1.3324980931528796,
                0.4062277709797224,
                0.2771603888667495,
                0.5020332776577806,
                1.3324980931528796,
                0.013637505172821612,
                0.46134325433566,
                0.07151993691777361,
                1.1732266212015405,
                0.3082357865003563,
                1.1732266212015405,
                1.3324980931528798,
                0.35994235937462027,
                1.3324980931528798,
                0.7075157488337391,
                1.3324980931528798,
                0.35433363257245615,
                0.7884979563387007,
                0.4647619974790223,
                0.8259628395379874,
                0.1393250320385623,
                0.30016593425372506,
                0.3952686802163449,
                0.016554543932584043,
                0.39687122066786173,
                0.28171835464236955,
                0.9803422711895801,
                0.026381990922260956,
                0.644951546111693,
                1.3324980931528798,
                0.16899603507000255,
                0.8231115216155642,
                0.06185451319870756,
                0.3094764330938094,
                0.6126977799616342,
                1.0347473736120913,
                1.040216027597573,
                0.7531038309763386,
                0.26456495092338217,
                1.029248235712084,
                0.1099154739940198,
                0.29624763631661605,
                0.6291585204106785,
                0.0847407,
                0.10967368293910967,
                0.08945199620393035,
                0.4873186488915451,
                0.5941162505663307,
                0.8247175061558185,
                0.4448442490417634,
                1.007721848957911,
                0.7433881060365225,
                0.6282408773526886,
                0.3435718318305332,
                1.3324980931528796,
                0.3709640625084045,
                0.4943528829888679,
                0.6710004515947121,
                1.0242901496290049,
                0.6501266156163047,
                1.1732266212015403,
                0.39795752843527143
            ],
            "photocathode": [
                1207,
                5635,
                6604,
                8137,
                8177,
                6439,
                2745,
                5142,
                5332,
                2558,
                8251,
                1319,
                2803,
                9286,
                9120,
                4244,
                500,
                3895,
                9442,
                4427,
                213,
                3670,
                3847,
                7139,
                2146,
                1230,
                4474,
                380,
                8313,
                4529,
                4848,
                2216,
                9497,
                6744,
                691,
                8237,
                8341,
                4891,
                4887,
                4578,
                8216,
                5898,
                9520,
                2652,
                9365,
                8112,
                7186,
                5351,
                7679,
                9491,
                6171,
                9299,
                122,
                3095,
                1793,
                6119,
                9308,
                9276,
                7950,
                1612,
                5853,
                5265,
                9589,
                2424,
                791,
                1069,
                7388,
                5148,
                9566,
                8313,
                3593,
                308,
                1880,
                4902,
                7305,
                9395,
                2432,
                3445,
                6098,
                8144,
                8254,
                2467,
                9342,
                9208,
                8346,
                3855,
                9607,
                3963,
                9343,
                2211,
                1322,
                8553,
                5112,
                3360,
                1220,
                3591,
                1910,
                10,
                6792,
                8121,
                4664,
                6412,
                1627,
                9206,
                7890,
                4218,
                595,
                9302,
                2005,
                5210,
                9290,
                5160,
                8256,
                4010,
                9285,
                2008,
                684,
                2452,
                3161,
                1906,
                8170,
                2585,
                6850,
                6374,
                3169,
                7982,
                8320,
                7402,
                7612,
                7089,
                9415,
                5316,
                4955,
                8272,
                4828,
                8310,
                2088,
                3501,
                9637,
                8090,
                9388,
                3199,
                9227,
                2152,
                239,
                8327,
                6532,
                6658,
                6329,
                9046,
                2447,
                3578,
                9299,
                4909,
                6996,
                4048,
                4491,
                8174,
                2072,
                5473,
                3307,
                402,
                1902,
                3696,
                8167,
                4317,
                5790,
                3430,
                4078,
                5756,
                8335,
                2105,
                4581,
                2407,
                4980,
                2562,
                2442,
                5826,
                1647,
                7334,
                1402,
                2171,
                5247,
                463,
                6787,
                2391,
                5813,
                3925,
                1416,
                6390,
                4699,
                1590,
                5989,
                8235,
                4518,
                9143,
                4182,
                177,
                2657,
                291,
                140,
                3081,
                5580,
                3695,
                387,
                5053,
                1681,
                666,
                8368,
                6181,
                982,
                8009,
                616,
                8292,
                2159,
                8149,
                4289,
                9150,
                3554,
                3125,
                3276,
                9282,
                9585,
                3766,
                8145,
                4967,
                1526,
                3791,
                8377,
                390,
                8130,
                151,
                8049,
                5760,
                9463,
                6294,
                9412,
                1005,
                4535,
                7955,
                4913,
                7353,
                3609,
                2843,
                2786,
                554,
                4674,
                1583,
                8363,
                5579,
                2908,
                7425,
                8278,
                6306,
                1289,
                5153,
                4980,
                3813,
                1214,
                5562,
                9202,
                8097,
                5127,
                9335,
                8172,
                2642,
                2164,
                3354,
                1045,
                2342,
                4920,
                1918,
                8097,
                9307,
                2372,
                2477,
                8273,
                4076,
                322,
                5185,
                8267,
                615,
                854,
                8328,
                1863,
                7017,
                8137,
                745,
                9316,
                4700,
                4108,
                2717,
                5089,
                8241,
                8325,
                2647,
                722,
                4062,
                3574,
                8976,
                5122,
                4178,
                8332,
                4080,
                1919,
                3281,
                5003,
                7113,
                9676,
                6817,
                2253,
                1102,
                8260,
                810,
                6327,
                3060,
                2217,
                103,
                2039,
                3334,
                2474,
                7871,
                6735,
                4738,
                2306,
                6169,
                2118,
                2382,
                9341,
                9337,
                2379,
                9440,
                3191,
                4557,
                7368,
                8040,
                7212,
                5086,
                3049,
                9409,
                3451,
                2128,
                5838,
                4823,
                2213,
                9172,
                7188,
                9688,
                5806,
                3083,
                341,
                8215,
                9173,
                3046,
                5955,
                216,
                8224,
                5048,
                708,
                262,
                7978,
                3195,
                9378,
                6420,
                5795,
                127,
                2920,
                4268,
                6673,
                5384,
                1016,
                3601,
                6798,
                5068,
                7713,
                3664,
                645,
                4083,
                8371,
                4152,
                535,
                9456,
                8291,
                183,
                5338,
                8049,
                9310,
                3612,
                8142,
                5616,
                8331,
                9435,
                2801,
                40,
                3689,
                852,
                4924,
                2937,
                8534,
                2428,
                3504,
                2994,
                551,
                5064,
                901,
                7452,
                5893,
                6302,
                538,
                9363,
                505,
                7995,
                5247,
                9395,
                1079,
                7876,
                4163,
                8083,
                6981,
                9560,
                1001,
                4191,
                3272,
                2460,
                246,
                4923,
                1042,
                8199,
                8220,
                2003,
                7214,
                845,
                4718,
                6705,
                2354,
                2034,
                7959,
                8317,
                9373,
                2887,
                1953,
                3420,
                9350,
                105,
                3319,
                475,
                8430,
                2169,
                8131,
                9184,
                2532,
                9579,
                4918,
                9630,
                2438,
                5710,
                3236,
                5952,
                995,
                2168,
                2765,
                109,
                2664,
                2032,
                6685,
                189,
                4420,
                9194,
                1154,
                5740,
                443,
                2314,
                4274,
                7548,
                7080,
                5282,
                1768,
                7295,
                743,
                2129,
                4405,
                591,
                781,
                618,
                3426,
                4166,
                5877,
                3212,
                7389,
                5091,
                4484,
                2432,
                9173,
                2561,
                3433,
                4532,
                7256,
                4624,
                8069,
                2822
            ]
        },
        "detections": 500,
        "events": 87580
    }
}