{
    "job_args": {
        "metric_limit": 500,
        "seed": 2195960893
    },
    "job_id": "batch_123_do_500",
    "result": {
        "collections": {
            "crystal": [
                1.1009540760177832,
                1.1732266212015405,
                0.570839250982657,
                0.5498117047500728,
                0.9877864542670715,
                0.9600613351924953,
                0.6360984860443382,
                1.1732266212015405,
                0.55676556083372,
                1.1732266212015403,
                0.14754493496223775,
                0.6658057415766314,
                0.10342206657369989,
                0.07525,
                1.1815227851350965,
                1.1732266212015403,
                0.9133038453451071,
                0.39357214943224933,
                0.298182840636471,
                1.1732266212015405,
                0.7408436502891762,
                0.725879436201902,
                0.9358119318743416,
                0.9898794484024886,
                1.3324980931528796,
                0.35285485248654386,
                0.6422935292842672,
                1.3324980931528796,
                0.7828215993632468,
                1.1732266212015403,
                0.22458506099718561,
                0.6602517363039418,
                0.09243877455291405,
                0.12774287784176622,
                0.17462951313822145,
                1.3324980931528798,
                0.8294828563523635,
                1.3324980931528796,
                0.16659617535989854,
                0.6330178458363558,
                1.1732266212015408,
                0.5255794245765146,
                1.1469284918475893,
                1.3324980931528798,
                0.46483319817215046,
                0.8000949663919957,
                1.1732266212015405,
                0.02661241523246871,
                1.1732266212015405,
                0.6562767638675837,
                0.6319476395019767,
                1.1732266212015408,
                1.1732266212015405,
                0.8829950867639335,
                0.07525,
                1.0022175854437636,
                0.9051517820767816,
                1.1732266212015405,
                0.21193084914662363,
                0.1009374574484947,
                0.8354774498537149,
                0.5822046301562431,
                0.6818984341265089,
                1.1732266212015405,
                0.6354756925741303,
                0.3517202133461149,
                0.9260930630968229,
                0.16484029511943118,
                0.06706267287910428,
                1.3324980931528798,
                0.7445996760754909,
                0.5697794344650773,
                0.04664049999999999,
                1.1732266212015405,
                1.1732266212015408,
                0.6752593202345268,
                1.1732266212015405,
                1.3324980931528798,
                0.9128983840332512,
                0.8142784585281116,
                0.2022846227082924,
                0.3380926037081316,
                0.18211489380468215,
                1.135003047268457,
                1.33249809315288,
                1.17322662120154,
                1.0348834885427258,
                0.38026805029056343,
                1.1732266212015405,
                0.48959703335674,
                1.1732266212015405,
                0.9561543270628335,
                1.1732266212015405,
                1.113548314186373,
                1.1072696558090085,
                0.4661610388673054,
                0.5549448826816846,
                0.16383907306919698,
                0.2559926302199237,
                0.23806896559483026,
                1.1732266212015408,
                0.5148207108573255,
                0.15503420559036576,
                0.09465083745670066,
                1.3324980931528798,
                0.07400215248163533,
                1.17322662120154,
                0.01115713020001019,
                0.08125065538433196,
                0.7723159059939585,
                1.3324980931528798,
                0.5397892996537214,
                0.8763585776541608,
                0.19749469915906068,
                1.1732266212015405,
                0.20053849978472232,
                0.6425363000971629,
                1.1732266212015405,
                0.24408456618270813,
                0.1028676008173466,
                0.27275649049966444,
                1.1732266212015405,
                0.6289367970311361,
                0.7356691763304896,
                1.1732266212015405,
                1.3324980931528796,
                0.28152711711187617,
                0.08389131958611162,
                1.1732266212015405,
                0.8170138312328288,
                0.9493992582093445,
                0.8512188847549783,
                0.5323848396655572,
                0.231739894765069,
                0.4491873223095093,
                1.1732266212015405,
                0.9487066753050446,
                1.3324980931528798,
                0.11691276491192693,
                0.42689412798019316,
                0.12480656925672262,
                0.729526650313961,
                1.3182909310904725,
                0.3381582893550351,
                0.2235457576375311,
                1.166690228276427,
                0.8828899086552822,
                1.3324980931528798,
                0.5376935676018609,
                0.6155022531647185,
                0.3024933699604303,
                0.4654980265427532,
                1.3324980931528798,
                1.1732266212015405,
                1.1732266212015405,
                0.9147227744088331,
                0.5096912767359199,
                0.02755874289740573,
                1.1110987317742802,
                1.1732266212015405,
                0.3544619155377799,
                1.3324980931528798,
                1.1732266212015408,
                1.3324980931528798,
                0.5138369926235571,
                0.7912823417639888,
                1.17322662120154,
                0.003701430606340317,
                1.3324980931528798,
                0.9236957272807451,
                0.9222944645285146,
                0.4071703520325347,
                1.1732266212015405,
                1.1732266212015405,
                0.10352061630388865,
                0.7154247871120042,
                0.3951212054465095,
                0.34906446440329597,
                0.722460127274132,
                0.6909171568807713,
                0.5838219984700421,
                0.2877713650483602,
                0.7985651392429117,
                0.6737144807820754,
                0.5446181121275888,
                1.3324980931528796,
                0.869755487894823,
                0.8796260179778526,
                0.5446280580079491,
                0.39999164317685015,
                0.11743065648299145,
                1.3324980931528798,
                0.9478150124282197,
                0.08473369547367682,
                0.2123685916826275,
                1.1732266212015405,
                1.0348086088117452,
                1.1732266212015408,
                0.3103152288555904,
                0.24489463805550085,
                0.950006649800121,
                1.079744206166426,
                1.1732266212015405,
                0.9463828113429231,
                0.7117440760482647,
                0.6834226009787521,
                1.1732266212015405,
                1.1732266212015405,
                0.31728436823171946,
                0.7293797300827418,
                0.7784127925445217,
                1.1732266212015405,
                1.3324980931528798,
                0.6309899275014771,
                0.023681068152553886,
                0.6307286175702577,
                0.6477072764735385,
                1.1732266212015405,
                0.50393041456199,
                0.8835102110950236,
                0.8139200966667519,
                0.22375934936946576,
                0.17290604007077975,
                1.1732266212015405,
                0.18253662775379415,
                0.4325424044360518,
                0.26442153627392706,
                1.3324980931528796,
                0.6283282312353669,
                0.5408200370379157,
                0.31377613467910465,
                1.294890013061934,
                1.167147850537604,
                1.08281947663917,
                0.06230405355343388,
                1.165087809658916,
                0.9676631935261718,
                1.1732266212015405,
                0.3114909877807335,
                0.23269298703565777,
                0.23707641493193576,
                0.4350714705771367,
                0.7318852875229795,
                0.1979228528513981,
                1.1732266212015405,
                1.0516811711138028,
                0.2808887430881001,
                0.6424973208938741,
                1.3324980931528798,
                0.3958133270695614,
                1.1732266212015405,
                1.3324980931528798,
                1.3324980931528798,
                0.811370595724547,
                1.1534646595270044,
                0.7100021847997176,
                1.1732266212015405,
                0.6790928466334537,
                1.1732266212015405,
                0.43547066952283586,
                0.5107688941320129,
                0.5249143627718542,
                0.8415319303629624,
                1.1732266212015405,
                1.1732266212015405,
                0.32410185442848616,
                0.6912163900679235,
                1.33249809315288,
                0.23969315546538783,
                0.9130854594900212,
                0.2774055220078049,
                1.3324980931528798,
                0.4177262235626502,
                0.8541671413974721,
                0.2004193172056422,
                1.0428140754568023,
                0.5096317249781354,
                0.6967158495441867,
                0.5638828455063056,
                0.8272925118240884,
                0.2817834390299766,
                0.7592179415467762,
                0.11601648685237255,
                0.073039,
                0.2781905150136477,
                1.1732266212015405,
                0.33703967033606697,
                0.8034481841552201,
                1.3324980931528798,
                0.35315031552364556,
                0.45169559807843634,
                1.3324980931528798,
                0.7387695104281601,
                1.1732266212015405,
                0.44656692544725496,
                0.817829436258162,
                1.33249809315288,
                0.25442377122056803,
                0.6151838631166202,
                0.274332674919606,
                0.7386986507027649,
                0.48537287813621605,
                0.7152285692896173,
                1.3324980931528796,
                0.6951632697282425,
                0.9706811071072722,
                0.5801591745888663,
                0.569879703524581,
                0.9888432544878043,
                0.18549608663650619,
                1.1732266212015408,
                0.9172012831407653,
                0.4878000427255849,
                0.0594608162534902,
                0.2626531660004078,
                0.29814282027947714,
                1.1732266212015405,
                0.046640499999999994,
                1.3324980931528798,
                1.3324980931528798,
                0.4318494817392662,
                0.7521574507205898,
                0.13479173835727365,
                0.7419764453328912,
                0.0599860892232128,
                0.19383955707684497,
                0.506288013898726,
                1.1732266212015408,
                1.1732266212015405,
                0.3890717583555476,
                1.1732266212015405,
                0.9207131720972419,
                0.3652870742775044,
                1.1732266212015403,
                0.8279340311128104,
                0.5688599937188169,
                1.3324980931528798,
                1.1732266212015405,
                0.49389429527166284,
                0.6392649204541703,
                0.1962180641450657,
                0.14637095176740023,
                1.088118003226505,
                1.0312988218211419,
                0.8574162663260269,
                0.6695272203870524,
                0.42453876876408136,
                1.33249809315288,
                0.07525,
                1.0231038096966683,
                1.3324980931528798,
                1.3324980931528798,
                0.2491576731506228,
                1.0205586760824967,
                0.626969514721531,
                0.6921500856819848,
                1.3324980931528796,
                0.030235218658644092,
                0.3430662317309794,
                0.30320932876972084,
                1.1732266212015408,
                0.2045816018916509,
                0.13945380278311137,
                0.6596544781898666,
                1.3324980931528798,
                0.7830700000763835,
                1.1732266212015403,
                0.8133560693374382,
                0.6335315393293838,
                0.8708854887515584,
                0.3323774267879054,
                1.0473396354366193,
                0.47477821796614006,
                1.0423044428868349,
                0.1132707152676371,
                0.07524999999999998,
                0.0856953,
                1.3324980931528798,
                0.5755748940778095,
                0.8712748346002012,
                0.42438902661821193,
                1.1732266212015405,
                1.3324980931528798,
                0.8846977686045773,
                0.45782615088958345,
                1.1732266212015405,
                0.23315698660811332,
                0.5970782228473648,
                0.4262457081320399,
                0.5193378765357282,
                0.21621650407480086,
                0.007381395683527581,
                0.2677784833499314,
                0.07576985386571511,
                0.804533730998683,
                0.04472954873965729,
                0.17679241295051074,
                0.5417155342244175,
                0.683721987105619,
                0.7520039425479488,
                0.15390944901761028,
                0.007006028945471199,
                0.5783786234492913,
                1.1732266212015403,
                0.03161829822720574,
                1.3324980931528798,
                0.1472550117724546,
                0.9094315771954695,
                0.6198561724983749,
                1.33249809315288,
                0.7661863390352659,
                0.6913860356219391,
                1.3324980931528798,
                0.39678897040021144,
                0.6216938269179915,
                0.49246698637705155,
                1.1732266212015403,
                0.15063626768431312,
                0.1128736914950621,
                1.171996584860353,
                1.33249809315288,
                0.49746866774646686,
                0.755822921580725,
                0.7428778411850763,
                0.07303899999999999,
                1.1732266212015405,
                0.6900484613508528,
                0.5745308719942949,
                1.3324980931528798,
                0.37211252330965205,
                0.11001146944412109,
                0.698319825160452,
                0.53116081221801,
                1.3324980931528798,
                0.47651177722655597,
                0.6849744336813349,
                0.7249699942263518,
                0.7113383106232073,
                0.290496181832422,
                0.21691782155239364,
                0.5892720549306801,
                0.510462612920864,
                0.7224936508517551,
                0.5114285063516029,
                0.2972581781135546,
                0.5180530169684276,
                1.3324980931528796,
                0.9057656858238168,
                1.3324980931528798,
                0.4628090733444241,
                1.109125085236648,
                1.009248013813397,
                1.3324980931528798,
                0.4482559622306719,
                0.3892012496433271,
                0.7042949304903895,
                1.33249809315288,
                0.3769828268250898,
                0.7268395470556088,
                0.6763288826948101,
                1.1732266212015403,
                0.3042286315853576,
                0.5439268270215682,
                0.5857820629427682,
                0.7233248656509668,
                1.3324980931528796,
                0.387616523689839,
                0.5447175105868964,
                0.7447451399594386,
                0.8861822734162135,
                0.8717164937532387,
                0.7505519795920566,
                1.1732266212015408,
                0.09372854210257286,
                0.4470896321394316,
                0.7487287647915208,
                0.5755176273026594,
                0.5535876365596738,
                1.1732266212015405,
                0.7079445476650355,
                0.9912999944197809,
                0.11558439291753952,
                0.6990335792856702,
                1.0132839821029405,
                0.670359655465528,
                1.1732266212015405,
                0.31062997364583467,
                0.17231616291762245,
                0.5216726037505823,
                0.3791271767049742,
                0.8568569928367074,
                0.8267043330863836,
                0.11397906293681115,
                0.07525000000000001,
                1.3324980931528796,
                0.9359126089047077,
                0.8287633592514347,
                0.6413892338975248,
                1.3324980931528798,
                0.5235924563571775
            ],
            "photocathode": [
                7829,
                8230,
                3985,
                3868,
                6848,
                6814,
                4384,
                8481,
                3923,
                8024,
                1066,
                4718,
                757,
                530,
                8397,
                8486,
                6521,
                2804,
                2114,
                8241,
                5290,
                5075,
                6696,
                6956,
                9266,
                2553,
                4478,
                9182,
                5488,
                8062,
                1599,
                4697,
                626,
                947,
                1184,
                9395,
                5862,
                9402,
                1244,
                4479,
                8394,
                3663,
                8227,
                9243,
                3228,
                5843,
                8147,
                183,
                8284,
                4585,
                4427,
                8112,
                8334,
                6315,
                492,
                7226,
                6452,
                8017,
                1485,
                712,
                5952,
                4028,
                4657,
                8155,
                4320,
                2570,
                6668,
                1134,
                493,
                9418,
                5454,
                4002,
                345,
                8104,
                8197,
                4602,
                8122,
                9358,
                6298,
                5687,
                1444,
                2376,
                1300,
                8033,
                9260,
                8257,
                7139,
                2518,
                8349,
                3445,
                8321,
                6612,
                8374,
                7679,
                7677,
                3336,
                3929,
                1216,
                1784,
                1702,
                8124,
                3639,
                1056,
                697,
                9435,
                519,
                8013,
                71,
                563,
                5437,
                9220,
                3678,
                6151,
                1398,
                8333,
                1401,
                4553,
                8230,
                1766,
                741,
                1883,
                8137,
                4483,
                5132,
                8058,
                9288,
                2031,
                589,
                8209,
                5805,
                6700,
                5978,
                3772,
                1442,
                3120,
                8243,
                6626,
                9306,
                824,
                2917,
                878,
                4975,
                9439,
                2412,
                1514,
                8487,
                6272,
                9296,
                3848,
                4270,
                2133,
                3292,
                9624,
                8292,
                8292,
                6175,
                3495,
                203,
                7816,
                8299,
                2454,
                9463,
                8398,
                9328,
                3706,
                5657,
                8313,
                25,
                9171,
                6511,
                6340,
                2846,
                8311,
                8229,
                708,
                4929,
                2829,
                2530,
                5091,
                4858,
                4182,
                2064,
                5574,
                4928,
                3789,
                9326,
                6160,
                6149,
                3783,
                2918,
                859,
                9377,
                6896,
                612,
                1556,
                8260,
                7329,
                8400,
                2168,
                1657,
                6651,
                7461,
                8026,
                6610,
                4916,
                4808,
                8291,
                8306,
                2171,
                5069,
                5488,
                8116,
                9404,
                4533,
                157,
                4515,
                4623,
                8219,
                3406,
                5975,
                5742,
                1512,
                1192,
                8097,
                1262,
                3044,
                1839,
                9591,
                4323,
                3978,
                2213,
                9304,
                8154,
                7719,
                465,
                8238,
                6571,
                8334,
                2182,
                1605,
                1638,
                3132,
                5225,
                1360,
                8293,
                7394,
                1975,
                4384,
                9541,
                2941,
                8131,
                9384,
                9456,
                5727,
                8239,
                5042,
                8307,
                4853,
                7960,
                3059,
                3619,
                3683,
                5922,
                8332,
                8302,
                2319,
                4814,
                9515,
                1665,
                6325,
                1962,
                9346,
                2866,
                5987,
                1405,
                7197,
                3582,
                4874,
                4010,
                5986,
                1950,
                5262,
                813,
                488,
                1961,
                8326,
                2330,
                5636,
                9520,
                2575,
                3222,
                9261,
                5146,
                8110,
                3145,
                5807,
                9516,
                1722,
                4317,
                1842,
                5298,
                3594,
                5137,
                9334,
                4905,
                6983,
                4099,
                3950,
                6854,
                1304,
                8215,
                6277,
                3407,
                395,
                1865,
                2107,
                8236,
                304,
                9191,
                9201,
                3073,
                5246,
                945,
                5344,
                377,
                1391,
                3436,
                8171,
                8489,
                2787,
                8184,
                6703,
                2633,
                8183,
                5768,
                4020,
                9347,
                8111,
                3490,
                4548,
                1368,
                1004,
                7608,
                7285,
                5933,
                4786,
                3013,
                9339,
                502,
                7458,
                9517,
                9467,
                1696,
                7182,
                4385,
                4915,
                9349,
                208,
                2401,
                2175,
                8213,
                1485,
                990,
                4861,
                9315,
                5535,
                8154,
                6013,
                4522,
                6107,
                2422,
                7341,
                3244,
                7319,
                772,
                533,
                557,
                9332,
                4058,
                6180,
                2852,
                8085,
                9628,
                6303,
                3150,
                8342,
                1650,
                4243,
                2958,
                3594,
                1532,
                38,
                1877,
                466,
                5492,
                316,
                1240,
                3760,
                4751,
                5436,
                1011,
                43,
                3974,
                8397,
                237,
                9126,
                1012,
                6548,
                4369,
                9217,
                5465,
                4777,
                9388,
                2812,
                4330,
                3558,
                8478,
                1023,
                762,
                8290,
                9258,
                3488,
                5192,
                5119,
                495,
                8310,
                4969,
                4102,
                9619,
                2710,
                764,
                4875,
                3725,
                9281,
                3344,
                4860,
                5182,
                4967,
                2118,
                1553,
                4195,
                3669,
                4862,
                3604,
                2161,
                3584,
                9275,
                6286,
                9546,
                3218,
                7970,
                7244,
                9399,
                3229,
                2726,
                5012,
                9470,
                2722,
                5169,
                4744,
                8234,
                2097,
                3873,
                4161,
                5142,
                9103,
                2783,
                3904,
                5210,
                6250,
                6067,
                5296,
                8237,
                637,
                3114,
                5500,
                4084,
                3940,
                8238,
                4980,
                6782,
                816,
                4820,
                7137,
                4750,
                8119,
                2151,
                1296,
                3625,
                2677,
                5933,
                5869,
                775,
                509,
                9476,
                6537,
                6045,
                4622,
                9305,
                3653
            ]
        },
        "detections": 500,
        "events": 84438
    }
}