{
    "job_args": {
        "metric_limit": 500,
        "seed": 1230067825
    },
    "job_id": "batch_154_do_500",
    "result": {
        "collections": {
            "crystal": [
                0.554879607306666,
                0.46585775639632365,
                0.25623764346922034,
                0.04359827617931922,
                0.6870139561422078,
                1.3324980931528798,
                0.18336764082797719,
                0.43916914212544045,
                0.09392487572966968,
                1.1732266212015405,
                0.1984215890954416,
                1.1073837786417378,
                0.719291306826082,
                0.7611384349647089,
                0.4278224923156203,
                0.6692078276425547,
                0.8897766334346956,
                0.7976909879952938,
                1.3324980931528796,
                1.33249809315288,
                1.1732266212015405,
                0.0858294696946067,
                0.07894549882922891,
                0.2037005473123551,
                0.7582467708712752,
                0.2549895410977414,
                0.2269393293704867,
                0.6504685857543646,
                1.0297833630236244,
                0.3137659856548347,
                0.7027373896294046,
                0.6359626610485052,
                0.3545246774448714,
                0.9750783979715343,
                1.1732266212015405,
                0.47425074935670064,
                0.6321190441121688,
                0.5469397732086666,
                0.2710031801113726,
                0.5562542027339004,
                1.1427773926673288,
                1.3324980931528798,
                0.702726353406054,
                1.33249809315288,
                1.3324980931528798,
                1.1732266212015405,
                0.4324692150141058,
                0.01684071782297182,
                0.5151091261971755,
                1.0120643062193215,
                0.4694303065584851,
                0.9549626207046719,
                1.0337432300107599,
                0.8872201729406023,
                0.4515081904124031,
                0.2151984753361793,
                0.2323485625002838,
                1.1732266212015405,
                0.39233160860418326,
                0.9328555494479995,
                0.1196940180848863,
                0.4732791478414812,
                0.6098849622597903,
                0.073039,
                0.7214663228201073,
                1.33249809315288,
                0.5818174841991065,
                1.080810963767702,
                0.8735320729450546,
                0.5667279398575638,
                1.1732266212015403,
                0.395988728757656,
                0.32184853488086795,
                0.7576083186239941,
                0.5369610047856822,
                0.9057772282353751,
                1.1732266212015405,
                0.42425575688381645,
                1.0748406300540607,
                1.048147268961594,
                0.4164407530681622,
                0.8142175670330429,
                0.336758058498958,
                0.7504619678173338,
                1.3324980931528796,
                0.44876992887026845,
                1.3324980931528796,
                0.3666139077867157,
                1.1732266212015405,
                0.060279627387843815,
                0.24893470305324494,
                0.41651122771313653,
                1.1732266212015403,
                0.915311026367063,
                1.1732266212015405,
                1.1732266212015403,
                0.2881724490455073,
                0.007110940251974007,
                0.7199688893490679,
                0.8142667850073825,
                0.9262734968640004,
                0.5623700637735268,
                0.7090785508766777,
                0.8238339727605776,
                0.7803773345771731,
                0.8384518525840625,
                0.39221093965555476,
                0.8771078604291467,
                0.6379664659777556,
                1.0408397001766707,
                1.3324980931528798,
                0.2893284549946656,
                0.9964712404911351,
                0.9157748337322098,
                0.7981306830096155,
                0.7334937659848856,
                1.3324980931528798,
                0.4343815268060087,
                0.22628516054301506,
                1.1732266212015405,
                0.34084680528550476,
                0.9023662392907962,
                1.3324980931528798,
                0.2464787062589047,
                1.0414030030107648,
                1.1732266212015403,
                0.5792897184693988,
                0.6138635401359264,
                0.535563147012567,
                0.23201334281306651,
                0.764540538420124,
                0.3419060538156815,
                0.26743436704098583,
                0.6609065783096255,
                0.6153333653117861,
                0.11607197162586845,
                0.5902166403006113,
                0.13908361355291884,
                0.7045450596402941,
                1.3324980931528798,
                0.6021765032445755,
                0.6843529669024074,
                0.33212851456258274,
                1.1732266212015405,
                0.33425459838157,
                1.056682363825408,
                1.1732266212015408,
                0.6146360990308309,
                1.3324980931528798,
                0.8510859164057869,
                0.15780912737703878,
                0.3856249078893162,
                0.5228442647276591,
                0.5345283545721993,
                0.4952759839085772,
                0.46351168021621625,
                0.5939897240521582,
                1.1732266212015405,
                1.1732266212015405,
                1.3324980931528798,
                0.5652798026772532,
                0.073039,
                0.35076827879703704,
                1.3324980931528798,
                1.0063632318222964,
                0.3885508176677888,
                0.7534135221365706,
                0.2914191737573993,
                0.07525,
                0.23072083586439093,
                0.0948168651317254,
                0.8214991831528797,
                0.3270600203356304,
                1.0323123665897738,
                0.012344138869182064,
                0.3162752345274717,
                0.888900338630377,
                0.9194791346401032,
                0.9507842232760111,
                0.2666352317274763,
                0.44727969658174294,
                0.4675573008099619,
                0.3363334633402253,
                1.1732266212015405,
                0.8006955508454452,
                0.3295440468586037,
                1.3324980931528798,
                0.07483370651178389,
                0.7231451036414517,
                0.2542358889736397,
                0.5194211460634608,
                0.2724882752189069,
                0.6495893683162663,
                0.29824397972318933,
                0.32609561167886103,
                0.9052841572922056,
                0.7470800888873799,
                1.3324980931528798,
                0.17540128201616853,
                1.3324980931528796,
                1.1732266212015408,
                0.7161735343416855,
                1.1732266212015405,
                0.3921697539222081,
                1.0549924583373855,
                0.21223437762272435,
                0.7683986504891125,
                0.08270787248860767,
                1.0716172178648622,
                0.3331116251700728,
                0.16773681317422293,
                0.27131326357868835,
                1.1732266212015408,
                0.43453909314983263,
                0.0674635416560563,
                0.6467330106268128,
                0.5030596011591375,
                1.1732266212015408,
                1.1732266212015405,
                1.1732266212015408,
                0.41906011466678844,
                1.146056765631537,
                0.2692174393359537,
                1.2799013193305249,
                0.2484425169266954,
                0.8230950552711808,
                0.4340746688003278,
                0.13211953771843676,
                0.7208913206148898,
                0.6165462316862782,
                0.0717496253062172,
                1.1732266212015405,
                1.1510925416034283,
                0.031234478413846467,
                0.5580479497633279,
                1.1732266212015405,
                0.85864080091348,
                0.2843280439830047,
                0.3771905700171586,
                0.9362105588622804,
                0.7005939019641706,
                1.1732266212015405,
                0.6640154735742718,
                0.26679248561410074,
                0.8834958219568843,
                1.1732266212015405,
                0.3238193651746167,
                0.7023565694233445,
                0.27587713299939787,
                0.4312587370671645,
                1.3324980931528796,
                0.1973507344835248,
                1.1732266212015405,
                0.8598459728429931,
                0.02461246011566609,
                1.1732266212015408,
                0.42859589234396694,
                1.33249809315288,
                0.4249700762372978,
                0.9590303582319673,
                0.4055583196189924,
                0.14297367237304545,
                1.3324980931528798,
                1.1732266212015403,
                0.5281569219617377,
                1.1732266212015405,
                0.9004459421104694,
                0.6449997361004722,
                0.9462430356706906,
                1.1732266212015405,
                0.49353740412550806,
                0.6024413723002129,
                0.37274695066779817,
                0.2896053660861169,
                0.731948032455465,
                1.167277594277786,
                0.7792049878374958,
                0.08523539999999999,
                0.6074311929655878,
                0.9466282724202592,
                0.5805018284674167,
                0.6880549912441215,
                0.21672057640209497,
                0.39075855806777227,
                0.08523539999999999,
                1.1732266212015405,
                1.1732266212015405,
                0.6926238739634341,
                1.1732266212015403,
                0.7492541371261474,
                0.5326816829417481,
                0.3581286759708053,
                0.6830373462556728,
                0.48569560431478787,
                1.1732266212015405,
                0.43437826094473314,
                0.3651177892810681,
                1.1732266212015408,
                0.6838520350491843,
                1.0117275087597735,
                1.1732266212015408,
                0.9900692543969354,
                0.11128869107174788,
                0.44940094935773206,
                0.7161612432629832,
                0.5901324874460129,
                1.0190573878402993,
                0.1199077476664767,
                1.067238162998915,
                0.35249571723369655,
                0.44150804460764986,
                0.524650568519762,
                1.3324980931528796,
                1.3324980931528798,
                0.1846106849700923,
                1.1732266212015408,
                1.1732266212015405,
                1.1732266212015405,
                0.23862658777394288,
                0.4988073805772095,
                0.979832452958302,
                0.6163370014887415,
                0.6652079491306152,
                1.298505765753044,
                0.2520125747289812,
                0.009451384241190075,
                0.01745667782233218,
                0.3025948181152953,
                0.005184779324178657,
                0.08477441449429013,
                0.32669067993038003,
                0.45410043894747654,
                0.5688605929012729,
                1.1002135636916242,
                0.3000419398229373,
                1.33249809315288,
                1.3324980931528798,
                0.6826735692410388,
                1.33249809315288,
                0.8166923002856148,
                1.1732266212015408,
                0.5043920152578946,
                1.3324980931528798,
                0.3778654068497065,
                0.48407503989756284,
                0.014720608766773724,
                0.29528570443158647,
                0.7381277361282828,
                0.40487571232741515,
                1.1089498393201385,
                0.9265044635847764,
                0.621452012841982,
                0.311614396634194,
                1.0157067916475986,
                0.4335717883946606,
                0.8817026719778314,
                1.3324980931528798,
                0.28631909712132153,
                1.1732266212015408,
                0.20955842675427455,
                1.028469721726707,
                0.3881504229034949,
                0.646998016963501,
                0.8877151469745849,
                1.095231437489734,
                0.08284722999161498,
                1.33249809315288,
                0.03807992514722924,
                0.3902928539399264,
                0.1544291031688544,
                1.1732266212015405,
                0.673970858493836,
                1.1732266212015405,
                0.2704785259328499,
                0.983983669858601,
                0.5758380227686704,
                1.3324980931528798,
                0.5413884087058771,
                1.1732266212015405,
                0.548852944436921,
                0.1282121154339182,
                0.9609669762425559,
                1.0270366643947448,
                0.7208317196958813,
                0.03474707276966466,
                0.3897990767487243,
                0.6385797380031388,
                0.7530635964678185,
                0.3487713704715059,
                1.0354535824515012,
                0.0644363116606097,
                0.4939547315311338,
                0.8815991271226381,
                0.9236512852089951,
                0.029419395548210714,
                0.0887009070574698,
                0.4739261403714148,
                0.07303899999999999,
                0.2354701190309454,
                1.0207918656671087,
                0.7209813248160397,
                1.1732266212015403,
                0.14134736687074123,
                0.5054968304334836,
                0.3662479972046499,
                0.08478628214815358,
                0.6631543074438386,
                0.07303900000000002,
                0.6715859162828595,
                0.7201035238469846,
                0.44863154184481746,
                0.7745760860907727,
                0.5574437012413912,
                0.4503634672487461,
                0.6435613097106743,
                0.14500918141020797,
                0.03742522016688743,
                0.14585660510919515,
                0.557712820737521,
                0.9866257798015265,
                1.1732266212015403,
                0.9989215527583464,
                0.3912798989745435,
                1.1798589470346152,
                1.3324980931528798,
                0.2398840874512933,
                0.24871217555716074,
                1.3324980931528798,
                0.902476301673975,
                0.6473502147157251,
                0.5065227643948625,
                0.9310755079122993,
                0.7264802096702707,
                0.061460037470703666,
                1.1732266212015403,
                1.33249809315288,
                0.241868679225659,
                1.1732266212015405,
                1.1732266212015405,
                1.1732266212015405,
                1.1732266212015405,
                0.07524999999999998,
                0.5872807455441038,
                0.5162008992360455,
                1.3324980931528798,
                0.9420822043816518,
                0.8282016692584176,
                0.01528713180090735,
                1.1316452393593899,
                0.838985080486634,
                0.5443446417826201,
                1.0248768842944047,
                0.24885958093967875,
                0.22570742682468456,
                0.6461963228074883,
                0.5149801147024768,
                0.6564361333219147,
                0.27230745518722116,
                0.4690167639172779,
                0.19154315018255239,
                0.6173792671479099,
                1.1732266212015405,
                0.8878077494112413,
                0.07524999999999998,
                0.8234686281133607,
                1.3324980931528798,
                0.98866696920055,
                0.22977756161921647,
                1.1732266212015405,
                0.5885844488940942,
                0.432259001577874,
                0.5096329787165754,
                1.3324980931528798,
                0.8998469247468438,
                0.7504652631927284,
                0.7067167970248448,
                0.0289393657323882,
                1.3324980931528798,
                1.3324980931528798,
                1.3324980931528796,
                0.16429451080560986,
                0.07524999999999998,
                0.8411657180991972,
                0.782946623004778,
                1.1000369225777098,
                0.17027336407642135,
                0.9171186307077636,
                0.6447446473870192,
                1.0521622105085808,
                0.4937137713982392,
                1.0459992116305308,
                0.7619798578756849,
                0.5377482485104996,
                1.1155528085456772,
                0.6930161578055758,
                0.32807360931513785,
                1.0975498203832492,
                0.8012451692410238,
                0.9773789947609596,
                0.774636022410602
            ],
            "photocathode": [
                3889,
                3220,
                1850,
                311,
                4864,
                9544,
                1349,
                3022,
                682,
                8146,
                1344,
                7803,
                5101,
                5314,
                3029,
                4655,
                6402,
                5648,
                9586,
                9473,
                8168,
                592,
                600,
                1457,
                5364,
                1810,
                1625,
                4488,
                7144,
                2159,
                5038,
                4550,
                2513,
                7045,
                8250,
                3246,
                4462,
                3758,
                1857,
                3933,
                7898,
                9166,
                4788,
                9426,
                9403,
                8034,
                2916,
                124,
                3722,
                7079,
                3345,
                6602,
                7201,
                6367,
                3356,
                1493,
                1581,
                8312,
                2689,
                6513,
                876,
                3308,
                4291,
                501,
                5113,
                9153,
                4039,
                7671,
                6102,
                3926,
                8398,
                2755,
                2234,
                5325,
                3760,
                6367,
                8167,
                3023,
                7512,
                7363,
                2874,
                5785,
                2332,
                5413,
                9535,
                3178,
                9639,
                2590,
                8127,
                433,
                1717,
                2909,
                8179,
                6430,
                8059,
                8160,
                2057,
                55,
                4977,
                5674,
                6566,
                3893,
                4817,
                5996,
                5479,
                5876,
                2843,
                6007,
                4538,
                7071,
                9295,
                1994,
                6860,
                6270,
                5701,
                5172,
                9339,
                3019,
                1512,
                8257,
                2300,
                6376,
                9501,
                1701,
                7411,
                8238,
                4054,
                4317,
                3771,
                1681,
                5429,
                2372,
                1878,
                4707,
                4384,
                786,
                3991,
                919,
                4952,
                9403,
                4306,
                4783,
                2353,
                8245,
                2393,
                7321,
                8106,
                4415,
                9719,
                5927,
                1047,
                2777,
                3585,
                3729,
                3392,
                3261,
                4151,
                8311,
                8026,
                9500,
                3973,
                518,
                2502,
                9349,
                6944,
                2709,
                5446,
                2015,
                507,
                1596,
                638,
                5702,
                2291,
                7285,
                87,
                2241,
                6265,
                6506,
                6793,
                1922,
                3230,
                3263,
                2302,
                8070,
                5685,
                2284,
                9285,
                526,
                5092,
                1855,
                3642,
                1918,
                4611,
                2097,
                2320,
                6350,
                5438,
                9159,
                1194,
                9284,
                8357,
                5059,
                8243,
                2809,
                7724,
                1461,
                5546,
                603,
                7584,
                2333,
                1180,
                1921,
                8198,
                3066,
                452,
                4520,
                3527,
                8233,
                8274,
                8264,
                2972,
                7991,
                1975,
                8735,
                1796,
                5982,
                3106,
                965,
                5078,
                4276,
                494,
                7992,
                8047,
                247,
                3843,
                8215,
                6055,
                2028,
                2692,
                6705,
                4780,
                8299,
                4530,
                1963,
                6108,
                8413,
                2328,
                4851,
                1938,
                3105,
                9543,
                1333,
                8235,
                6057,
                201,
                8520,
                2966,
                9280,
                2944,
                6777,
                2841,
                1011,
                9439,
                8252,
                3505,
                8293,
                6443,
                4722,
                6543,
                8081,
                3368,
                4228,
                2643,
                2097,
                4920,
                8247,
                5336,
                575,
                4532,
                6612,
                4147,
                4700,
                1582,
                2797,
                635,
                8202,
                8571,
                4736,
                8197,
                5147,
                3688,
                2524,
                4898,
                3410,
                8281,
                3060,
                2551,
                8186,
                4811,
                7093,
                8225,
                6885,
                789,
                3079,
                5079,
                4072,
                7220,
                818,
                7365,
                2421,
                3166,
                3739,
                9317,
                9371,
                1278,
                8062,
                8038,
                8307,
                1719,
                3566,
                6790,
                4445,
                4654,
                8995,
                1801,
                63,
                108,
                2234,
                27,
                626,
                2307,
                3180,
                4131,
                7632,
                2070,
                9178,
                9361,
                4851,
                9649,
                5739,
                8357,
                3403,
                9281,
                2657,
                3491,
                105,
                2077,
                5283,
                2865,
                7782,
                6490,
                4322,
                2338,
                7112,
                3123,
                6307,
                9427,
                2018,
                8265,
                1437,
                7193,
                2805,
                4578,
                6332,
                7818,
                598,
                9464,
                277,
                2822,
                1076,
                8362,
                4707,
                8189,
                1919,
                7001,
                3911,
                9131,
                3723,
                8283,
                3877,
                883,
                6764,
                7064,
                5143,
                257,
                2768,
                4465,
                5650,
                2440,
                7266,
                437,
                3440,
                6214,
                6480,
                234,
                678,
                3277,
                504,
                1694,
                7090,
                5016,
                8124,
                962,
                3591,
                2624,
                581,
                4749,
                497,
                4635,
                4929,
                3117,
                5322,
                3922,
                3227,
                4348,
                1022,
                245,
                1013,
                3924,
                6796,
                8299,
                7107,
                2696,
                8110,
                9458,
                1641,
                1771,
                9491,
                6432,
                4544,
                3596,
                6519,
                4942,
                465,
                8379,
                9380,
                1689,
                8570,
                8451,
                8082,
                8280,
                515,
                4263,
                3705,
                9198,
                6589,
                5820,
                116,
                8048,
                5825,
                3762,
                7110,
                1744,
                1629,
                4577,
                3554,
                4684,
                1942,
                3420,
                1367,
                4267,
                7925,
                6224,
                517,
                5990,
                9285,
                6894,
                1611,
                8005,
                4059,
                3003,
                3626,
                9211,
                6279,
                5224,
                5018,
                210,
                8951,
                9314,
                9184,
                1172,
                540,
                5974,
                5412,
                7700,
                1198,
                6511,
                4388,
                7345,
                3616,
                7181,
                5250,
                3698,
                7962,
                4968,
                2332,
                7523,
                5770,
                6776,
                5407
            ]
        },
        "detections": 500,
        "events": 88846
    }
}