{
    "job_args": {
        "metric_limit": 500,
        "seed": 3171708462
    },
    "job_id": "batch_76_do_500",
    "result": {
        "collections": {
            "crystal": [
                0.07525,
                0.30569912107397074,
                1.3324980931528798,
                0.23389630922139787,
                1.1732266212015405,
                0.8753891999843135,
                0.3619996338843733,
                0.23466297516650098,
                1.1068729518092912,
                0.012176135793421916,
                1.33249809315288,
                0.22700505784838668,
                0.9641272117761309,
                0.03363033473581978,
                0.9270852093840702,
                0.6804752304235631,
                0.0936578292938468,
                0.5451255692394106,
                1.1732266212015405,
                1.173226621201541,
                0.254776130462557,
                1.3324980931528798,
                0.29469539244380494,
                0.04462702271952023,
                0.1321751880757549,
                1.0475038655971325,
                1.3324980931528798,
                1.203090229438192,
                0.721456037872503,
                1.0752710760923734,
                0.4010584200071972,
                1.2432539106928413,
                0.08523539999999999,
                0.7259755961622127,
                0.8737626086091927,
                0.5031579545744624,
                0.5907559896318658,
                0.07525,
                0.34519447024072647,
                0.885775718659241,
                0.407997587163459,
                0.18298679619720268,
                0.8812277702277678,
                1.1732266212015405,
                0.6946091734466588,
                0.9151192556673446,
                0.3775772729270105,
                0.033408949062383675,
                0.07525,
                0.8165639243000355,
                0.9979355856588252,
                0.5057543177327134,
                0.481995801176705,
                0.6713175701502619,
                0.8993460887727383,
                0.3914777053225841,
                0.9480938799840436,
                0.9733604856960212,
                0.1781451841330719,
                0.4699268194636135,
                0.6021686326740611,
                0.11820272054269686,
                1.3324980931528796,
                0.6645356839696597,
                1.0337427012255835,
                0.3929397120990603,
                0.8022373081862628,
                0.810321647435317,
                0.6052525028205211,
                0.9096891095884284,
                0.3473787746681132,
                0.4085317629418621,
                0.19712128621785252,
                1.1732266212015405,
                0.054504199999999996,
                1.3324980931528798,
                0.02647473673295686,
                0.479554322757461,
                1.1732266212015408,
                1.1732266212015405,
                0.310911311132101,
                0.6507140771377999,
                0.8381103039325789,
                0.08569407019442599,
                0.39195980058055313,
                0.1785095251553126,
                0.41697615267974225,
                0.41297236461617454,
                0.5740200663531045,
                0.7856121563545754,
                0.018735448222045648,
                0.34088686737286444,
                0.8499496096779837,
                0.3038228218621347,
                0.6900545926799702,
                0.9934851696999027,
                0.09127279853972614,
                0.6705229403352483,
                0.9608126452649284,
                0.2825844685622869,
                0.7333264807312306,
                1.0014099852941452,
                0.15462745892031826,
                0.2575250549128525,
                1.1732266212015403,
                0.8356264969945455,
                1.1732266212015405,
                0.0562077742146102,
                0.42316625604793257,
                1.1732266212015405,
                1.0524849124623865,
                0.2776183990612442,
                0.3903594266634486,
                0.7111426494879375,
                0.15824780746854072,
                0.671244479606007,
                0.20200893049065116,
                0.34925849424509076,
                0.9357909491599109,
                0.826843558230593,
                0.7484885123467668,
                0.6856669102645686,
                0.8086888033018959,
                1.3324980931528798,
                0.022932619848073155,
                0.17543288408128058,
                0.5936524024564016,
                1.3324980931528798,
                1.1732266212015405,
                1.1732266212015403,
                0.6146866628486927,
                0.5300667474398485,
                0.016914041486432083,
                0.5474098371528838,
                0.23082673324977854,
                0.5247755056474658,
                1.3324980931528796,
                0.5109989100000001,
                1.33249809315288,
                0.5766066136410976,
                0.9525835038644307,
                1.1732266212015408,
                0.43085512460388353,
                1.1732266212015405,
                0.8129368909837209,
                0.9951656986230155,
                0.2615044748904709,
                0.5077030333354883,
                0.6685290420654144,
                1.1732266212015405,
                0.019534481464559054,
                0.2482894205816722,
                1.1732266212015405,
                0.8962381412161543,
                0.8899500330595211,
                1.1626986558833534,
                1.3324980931528796,
                0.6226417111838105,
                0.22163991211407585,
                0.5293166871705641,
                0.5027618323621189,
                1.2253567003718884,
                1.1732266212015408,
                0.4096551796829494,
                0.41829392091310624,
                0.8017081884136584,
                0.6241266556093501,
                0.8254416614171738,
                0.11665493349462637,
                0.37833841949577485,
                0.12724374308428366,
                0.31478963814935773,
                0.06577657205798926,
                0.42053051576996275,
                0.2155443231070224,
                0.5755449580150386,
                1.3324980931528798,
                0.2265730113059632,
                0.9426033170131178,
                1.1732266212015405,
                0.4644273291249893,
                1.33249809315288,
                0.2022098461360753,
                0.027344192962502123,
                0.45862387336650656,
                0.51099891,
                0.1129262158944153,
                0.24551293323893886,
                1.1732266212015408,
                1.3324980931528798,
                1.1732266212015405,
                0.9955552935312275,
                0.5049177807487454,
                1.1732266212015403,
                0.5083852188169325,
                0.2906939609023391,
                1.3324980931528798,
                1.3324980931528796,
                0.2546371155007135,
                0.01252405288029157,
                0.7499540916585037,
                0.8678757077072179,
                0.2746323211843598,
                0.9048002777829602,
                0.456950631891191,
                0.701449489018823,
                1.3324980931528798,
                1.3324980931528798,
                0.8938093464004606,
                1.0298911830203357,
                1.3324980931528798,
                1.3324980931528798,
                1.0800207548984055,
                0.9579979148048092,
                1.0416101254607946,
                1.1732266212015405,
                0.9191001046106161,
                0.16149683873163256,
                0.5244825950200052,
                0.13342319091074015,
                0.5086800453004872,
                0.366376645958421,
                0.2683922812753227,
                1.1516337614580014,
                1.3324980931528798,
                0.2963101536510684,
                0.7808241279407139,
                0.3604921551646412,
                0.27576367820723907,
                1.105753366582447,
                0.7379111782780456,
                0.2963393989559411,
                1.1732266212015405,
                1.3324980931528796,
                0.08351515559372968,
                0.8842102389340696,
                1.132421340215451,
                0.2850352148247699,
                0.12656175476442735,
                1.33249809315288,
                1.1732266212015405,
                0.9474131135169486,
                0.6519588488928114,
                1.0956352385922012,
                1.3324980931528796,
                0.503784414161636,
                0.9208724459128004,
                1.1732266212015405,
                0.33031293469610695,
                0.21835650220462868,
                0.8412825671841706,
                1.1732266212015405,
                0.018699052703012115,
                0.6123062757965394,
                0.2942936137838106,
                0.4871691166594937,
                0.33701805022614867,
                1.3324980931528798,
                0.1831883065423967,
                1.1732266212015405,
                0.9424422970291978,
                0.413992081236211,
                0.7772052815765108,
                0.8600921402493116,
                1.33249809315288,
                1.1732266212015405,
                0.5795301912763047,
                0.6707273241278489,
                1.1732266212015405,
                1.3324980931528798,
                0.8262219599130536,
                0.6486222362669075,
                1.1874421359935072,
                0.26853373325738467,
                0.4136313271543504,
                0.6053567278441483,
                1.1732266212015405,
                1.3324980931528798,
                0.6666887780102182,
                1.1732266212015405,
                0.831655710331612,
                0.4356491805082319,
                0.4327625895851579,
                1.3324980931528798,
                0.07525,
                0.4771323326599921,
                0.7119680640998418,
                0.4967479628188648,
                1.0173995404015177,
                0.4102692283182179,
                0.24405407404529522,
                0.7003708973542273,
                0.19291318710723815,
                1.1732266212015405,
                0.490325408194881,
                0.37485500609879285,
                0.35681260931010816,
                1.33249809315288,
                1.3324980931528798,
                0.14837986414662577,
                0.5873082829171056,
                0.20612846140212482,
                0.27602394746722003,
                0.7301017831003878,
                1.3324980931528798,
                0.6187527415672228,
                0.6429875732974317,
                1.33249809315288,
                0.7006627311853113,
                1.0114403142296773,
                0.002135550582055945,
                0.5622183752756261,
                0.9302464535059228,
                1.1732266212015405,
                1.1732266212015405,
                0.18643274803970877,
                0.3105849985852964,
                0.3531653458897047,
                1.3324980931528796,
                1.3324980931528796,
                1.373848568201637,
                0.49441650297218026,
                0.0847407,
                0.5763010510116502,
                1.3324980931528798,
                1.1732266212015403,
                0.6692973284688841,
                0.4631543085349995,
                1.1093702741619154,
                0.6116528736845549,
                0.0876557,
                0.45270615816666093,
                1.1732266212015408,
                0.04760506873751136,
                0.1180200905939832,
                0.7335542769360025,
                0.2708945905807002,
                1.3324980931528798,
                0.32191380614482834,
                0.8497031215757437,
                1.3324980931528798,
                1.3324980931528803,
                0.8668490888614266,
                1.1732266212015403,
                0.6796180066971854,
                0.6015571191786687,
                1.1732266212015405,
                0.11678465496490514,
                0.6022408550909666,
                0.6223598872306857,
                0.7596963182932297,
                1.1732266212015405,
                0.455063987629772,
                0.7669266774636343,
                1.1732266212015405,
                0.37953913817814533,
                0.8891779874219985,
                1.3324980931528798,
                1.3324980931528798,
                0.29060400740142966,
                0.019165346010053375,
                0.5051833786932444,
                0.8556785598964016,
                0.9525655109354492,
                0.07525000000000001,
                0.3309227393221863,
                1.3324980931528798,
                0.6164735524681191,
                0.16720950594248274,
                0.6001014097987989,
                1.0195682457959045,
                0.3311797633831829,
                0.5513297596858742,
                0.9363778115775798,
                0.11207998705508275,
                0.2795440441271541,
                0.21912393479642267,
                0.7504701381009512,
                1.123063830587376,
                1.1732266212015405,
                0.3214712796079458,
                1.3324980931528796,
                1.1732266212015403,
                0.6981004189945195,
                1.3324980931528798,
                1.3324980931528798,
                0.5626929208842246,
                0.5421007533152848,
                0.007823006026162815,
                0.870756224844284,
                0.22780209279209598,
                1.1732266212015405,
                1.3324980931528796,
                1.33249809315288,
                1.3324980931528798,
                0.8950099104322963,
                1.1732266212015405,
                1.0649663027231822,
                0.1875084634499542,
                1.1732266212015405,
                1.3324980931528796,
                1.1732266212015405,
                0.7079728261255024,
                1.0081576362256424,
                0.5965459180340611,
                1.115710107332856,
                1.1732266212015403,
                1.3324980931528796,
                0.4897146673418309,
                0.8388537522141395,
                0.6242818137290536,
                1.1732266212015405,
                0.073039,
                1.1732266212015405,
                0.688432374436586,
                0.07525,
                0.5720594968974728,
                0.8372475093224455,
                0.5720376520871813,
                0.1391849167982172,
                1.1732266212015405,
                0.5839050708069756,
                1.1732266212015405,
                0.913866013682259,
                0.5703930404220989,
                0.5739166737630321,
                1.1197005595096141,
                0.5357275857529176,
                0.596383319574703,
                0.318905731712535,
                0.7546064537005686,
                1.3324980931528798,
                0.6841228287054941,
                0.25921798871580615,
                1.1732266212015405,
                1.1732266212015405,
                0.6187628373834402,
                0.619418162369755,
                1.1732266212015405,
                0.49807226495663814,
                0.7792953440983253,
                1.3324980931528798,
                0.443132995286168,
                0.7465664225657722,
                0.2779125599290254,
                0.6679480574377799,
                0.6031373425599369,
                0.8448595493004449,
                0.6024400021883095,
                1.1732266212015403,
                0.3923478894118346,
                0.007050899273533862,
                0.9391394752614626,
                0.1511485262597527,
                0.9295270370546361,
                0.5416330582611388,
                0.9084632072382488,
                0.5988905095505253,
                0.03192466242377878,
                0.9860010667874896,
                0.8918062989095041,
                0.1062825704520164,
                0.6505553115485125,
                0.4530683988513418,
                1.1732266212015405,
                0.3795027911173551,
                0.07525,
                0.05330596122794784,
                0.7640685019629999,
                0.94904688662701,
                1.1117554505887626,
                0.9165456905477113,
                1.3324980931528796,
                0.5642108945659586,
                0.7082593037230924,
                0.9960994715328538,
                0.27089727400598296,
                0.07028484877017127,
                0.313750510443935,
                0.7734861235078119,
                0.6526206112011332,
                1.1732266212015405,
                1.3324980931528796,
                0.9071155579110399,
                1.1732266212015405,
                0.20665970395802014,
                0.7399231032082743,
                1.1732266212015403,
                0.49138047476834484,
                1.1732266212015405,
                1.1732266212015405,
                0.18738617777164268,
                0.24200753585459567,
                1.3324980931528798,
                0.9050291710234604,
                1.0779549493309144,
                1.1732266212015405,
                0.8172771151631002,
                0.019476452300116964,
                1.1732266212015405
            ],
            "photocathode": [
                529,
                2036,
                9336,
                1608,
                8115,
                6068,
                2460,
                1711,
                7901,
                80,
                9403,
                1585,
                6649,
                246,
                6376,
                4678,
                680,
                3994,
                8206,
                8182,
                1779,
                9325,
                2102,
                319,
                927,
                7399,
                9182,
                8413,
                5007,
                7680,
                2884,
                8539,
                617,
                5162,
                6095,
                3478,
                4291,
                552,
                2434,
                6219,
                2826,
                1256,
                6127,
                8212,
                4883,
                6331,
                2580,
                225,
                530,
                5743,
                6979,
                3565,
                3404,
                4616,
                6400,
                2747,
                6771,
                6827,
                1220,
                3258,
                4296,
                789,
                9301,
                4671,
                7315,
                2790,
                5682,
                5758,
                4363,
                6254,
                2385,
                3011,
                1437,
                8307,
                334,
                9356,
                162,
                3292,
                8248,
                8065,
                2231,
                4728,
                5951,
                606,
                2744,
                1225,
                2875,
                2957,
                3933,
                5422,
                118,
                2369,
                5990,
                2133,
                4831,
                7041,
                645,
                4772,
                6600,
                1922,
                5023,
                7043,
                1079,
                1850,
                8385,
                5829,
                8169,
                359,
                2954,
                8005,
                7388,
                1974,
                2893,
                4997,
                1119,
                4685,
                1487,
                2537,
                6601,
                5818,
                5212,
                4877,
                5657,
                9523,
                166,
                1300,
                4145,
                9463,
                8322,
                8343,
                4516,
                3641,
                115,
                3852,
                1651,
                3652,
                9519,
                3633,
                9375,
                3980,
                6624,
                8270,
                2953,
                8221,
                5723,
                7000,
                1858,
                3419,
                4692,
                8167,
                119,
                1842,
                8166,
                6201,
                6224,
                8143,
                9354,
                4393,
                1535,
                3735,
                3452,
                8928,
                8269,
                2891,
                2809,
                5514,
                4253,
                5829,
                782,
                2701,
                896,
                2235,
                467,
                2934,
                1456,
                4189,
                9352,
                1585,
                6685,
                8293,
                3218,
                9195,
                1413,
                198,
                3099,
                3628,
                775,
                1717,
                8212,
                9484,
                8285,
                6945,
                3652,
                8277,
                3526,
                2076,
                9373,
                9584,
                1748,
                95,
                5262,
                6214,
                1891,
                6373,
                3163,
                5115,
                9375,
                9309,
                6345,
                7130,
                9256,
                9542,
                7656,
                6792,
                7358,
                8295,
                6482,
                1136,
                3716,
                928,
                3678,
                2556,
                1890,
                8149,
                9221,
                2009,
                5696,
                2456,
                1960,
                7942,
                5174,
                2260,
                8277,
                9436,
                575,
                6298,
                7995,
                1963,
                891,
                9365,
                8285,
                6662,
                4632,
                7637,
                9479,
                3573,
                6389,
                8249,
                2273,
                1518,
                5879,
                8212,
                111,
                4349,
                2107,
                3382,
                2265,
                9727,
                1302,
                8095,
                6664,
                2897,
                5550,
                6002,
                9327,
                8165,
                4023,
                4679,
                8202,
                9474,
                5785,
                4574,
                8184,
                1862,
                3016,
                4205,
                8266,
                9420,
                4664,
                8264,
                5951,
                3119,
                3100,
                9526,
                525,
                3291,
                5012,
                3539,
                7101,
                2859,
                1806,
                4914,
                1353,
                8200,
                3389,
                2621,
                2564,
                9340,
                9459,
                1031,
                4225,
                1434,
                2010,
                5184,
                9378,
                4293,
                4577,
                9299,
                4894,
                7261,
                9,
                3969,
                6638,
                8353,
                8197,
                1326,
                2217,
                2478,
                9154,
                9162,
                9519,
                3482,
                556,
                4013,
                9257,
                8475,
                4739,
                3156,
                7972,
                4372,
                643,
                3038,
                8054,
                347,
                825,
                5123,
                1873,
                9246,
                2202,
                5830,
                9528,
                9555,
                6304,
                8102,
                4772,
                4323,
                8328,
                874,
                4234,
                4465,
                5339,
                8073,
                3119,
                5396,
                8471,
                2583,
                6155,
                9625,
                9356,
                2068,
                122,
                3538,
                6121,
                6689,
                519,
                2254,
                9469,
                4213,
                1217,
                4093,
                7254,
                2262,
                3920,
                6612,
                821,
                2015,
                1506,
                5262,
                7785,
                8216,
                2333,
                9116,
                8159,
                4834,
                9449,
                9341,
                3923,
                3873,
                57,
                6066,
                1608,
                8211,
                9143,
                9669,
                9230,
                6310,
                8201,
                7713,
                1356,
                8104,
                9392,
                8096,
                4893,
                7132,
                4118,
                7861,
                8335,
                9612,
                3502,
                5746,
                4306,
                8489,
                495,
                8148,
                4942,
                562,
                4046,
                5924,
                3967,
                987,
                8162,
                3973,
                8086,
                6388,
                3932,
                4104,
                7827,
                3690,
                4145,
                2234,
                5312,
                9244,
                4726,
                1820,
                8169,
                8184,
                4336,
                4243,
                8336,
                3564,
                5753,
                9232,
                3094,
                5247,
                2000,
                4507,
                4153,
                6048,
                4194,
                8231,
                2742,
                42,
                6670,
                1041,
                6566,
                3789,
                6408,
                4248,
                213,
                7060,
                6370,
                788,
                4562,
                3300,
                8334,
                2722,
                550,
                352,
                5431,
                6717,
                7864,
                6673,
                9341,
                4008,
                5107,
                6949,
                1869,
                459,
                2267,
                5412,
                4474,
                8359,
                9285,
                6317,
                8281,
                1495,
                5156,
                8312,
                3388,
                8506,
                8426,
                1316,
                1648,
                9642,
                6389,
                7446,
                8386,
                5663,
                130,
                8285
            ]
        },
        "detections": 500,
        "events": 68989
    }
}