{
    "job_args": {
        "metric_limit": 500,
        "seed": 2927809087
    },
    "job_id": "batch_64_do_500",
    "result": {
        "collections": {
            "crystal": [
                0.017179512054789847,
                0.397189924260653,
                0.5178565134109796,
                0.6616572831606166,
                0.23976453025224256,
                0.6616572831606166,
                0.6616572831606167,
                0.009165382338843897,
                0.6616572831606167,
                0.4514509358543338,
                0.0876557,
                0.6616572831606167,
                0.5063525300980997,
                0.2285459661307485,
                0.363941019563007,
                0.42153656614301516,
                0.02607377915948028,
                0.007875298718069912,
                0.6616572831606167,
                0.36892473701124345,
                0.6616572831606166,
                0.1516674121924394,
                0.6616572831606166,
                0.10722130404512964,
                0.6616572831606167,
                0.2562704249717974,
                0.6616572831606167,
                0.208111215943666,
                0.5595467955131495,
                0.029337016466192467,
                0.6616572831606166,
                0.6616572831606164,
                0.24717728934970673,
                0.6616572831606166,
                0.5825391808786579,
                0.40346760597952547,
                0.6616572831606167,
                0.5038532887833884,
                0.3906276940502207,
                0.6616572831606166,
                0.19974617431032243,
                0.6616572831606167,
                0.5015698417255983,
                0.6616572831606166,
                0.6616572831606166,
                0.6616572831606166,
                0.6616572831606164,
                0.6616572831606167,
                0.5776997389066206,
                0.6616572831606166,
                0.2341453719317538,
                0.251580202063717,
                0.4328314202786406,
                0.21522349859557194,
                0.017649132858981623,
                0.11939671695736565,
                0.3371788059533394,
                0.15325847340083898,
                0.5512262138897256,
                0.21870432372379944,
                0.017448968102992568,
                0.2934791511959694,
                0.6616572831606166,
                0.6616572831606167,
                0.6616572831606167,
                0.6616572831606166,
                0.6616572831606166,
                0.6616572831606166,
                0.6616572831606164,
                0.014759649754277127,
                0.207565434615604,
                0.6616572831606166,
                0.6616572831606166,
                0.6616572831606167,
                0.354815812781876,
                0.33627630714425005,
                0.15599311166871166,
                0.6616572831606166,
                0.6616572831606168,
                0.3284554778414217,
                0.6616572831606166,
                0.4981191285684103,
                0.18881938085174027,
                0.6616572831606164,
                0.3750251477328856,
                0.4649217742796699,
                0.6616572831606164,
                0.6616572831606167,
                0.3781233104953434,
                0.6616572831606164,
                0.6616572831606166,
                0.06841861208178074,
                0.37665167152868817,
                0.2389162951405468,
                0.4516928035910054,
                0.17581627932381294,
                0.6616572831606164,
                0.6616572831606167,
                0.07525,
                0.6616572831606167,
                0.2088766383895322,
                0.6616572831606164,
                0.14476577893728326,
                0.6616572831606167,
                0.07303900000000002,
                0.2555505763481784,
                0.6616572831606166,
                0.258374108026156,
                0.6616572831606166,
                0.6616572831606167,
                0.25031488755422643,
                0.43180755389094994,
                0.2317030570205676,
                0.6616572831606167,
                0.12440305138795738,
                0.11955709614238054,
                0.27915835416141405,
                0.6616572831606166,
                0.6616572831606166,
                0.3196465046135543,
                0.6616572831606164,
                0.15379233172632312,
                0.46148275245045606,
                0.26257550142975755,
                0.6616572831606164,
                0.6616572831606164,
                0.6616572831606166,
                0.3696319085101498,
                0.6616572831606167,
                0.34968742877902403,
                0.1942431753264857,
                0.6616572831606167,
                0.6616572831606166,
                0.08523539999999999,
                0.19820272941718348,
                0.4031262573145648,
                0.24025762223376657,
                0.21097477927102085,
                0.12433280544494985,
                0.6616572831606166,
                0.6616572831606166,
                0.13154546640033143,
                0.2480438102633578,
                0.6616572831606166,
                0.11402223851223847,
                0.19712771387002181,
                0.5448298425866972,
                0.6616572831606167,
                0.31657899781102883,
                0.6616572831606164,
                0.6293630831606166,
                0.24543160702087166,
                0.6616572831606166,
                0.6616572831606166,
                0.31690662100716627,
                0.4061041465520163,
                0.6616572831606166,
                0.6616572831606164,
                0.6616572831606167,
                0.3381989101324069,
                0.6616572831606166,
                0.6616572831606164,
                0.07871840845735413,
                0.6616572831606167,
                0.49200404706388484,
                0.6616572831606166,
                0.47637218406463866,
                0.3881106919344164,
                0.6616572831606167,
                0.6616572831606166,
                0.18214826477031582,
                0.37807207346052163,
                0.32546672304138435,
                0.028934622869785653,
                0.3981515604007777,
                0.40814033184958287,
                0.44144487096442675,
                0.10041270437485683,
                0.6616572831606167,
                0.6616572831606167,
                0.07303900000000002,
                0.29802488232382485,
                0.43861180049521853,
                0.07218572674985088,
                0.6616572831606166,
                0.06883390837211678,
                0.6616572831606166,
                0.09327880177332548,
                0.6616572831606164,
                0.6616572831606166,
                0.19363939427189913,
                0.4357643334661443,
                0.4412859995877375,
                0.42224395254153396,
                0.17384238128236007,
                0.35917459767271154,
                0.3259972940123887,
                0.17659678838991855,
                0.5887527338604942,
                0.6616572831606164,
                0.22042836652731163,
                0.18681114255021355,
                0.0319017787620991,
                0.3794464647462108,
                0.6616572831606166,
                0.06553642992321229,
                0.6616572831606166,
                0.07525000000000001,
                0.6616572831606166,
                0.09779628836287316,
                0.16183696634916248,
                0.49087731720701555,
                0.39724610112771186,
                0.3333100944171332,
                0.4482129612285508,
                0.18999622033019503,
                0.13596093267919657,
                0.4293228482888605,
                0.18945396991618046,
                0.05432985546732949,
                0.21778721762539183,
                0.6616572831606167,
                0.3797918817034873,
                0.6616572831606164,
                0.3512150479395051,
                0.6616572831606166,
                0.6616572831606166,
                0.2264473075191391,
                0.01508136558426243,
                0.2934058450979063,
                0.6616572831606166,
                0.07252370168062777,
                0.6616572831606164,
                0.6616572831606166,
                0.6616572831606167,
                0.18570556151928702,
                0.6616572831606166,
                0.3575947415953583,
                0.39105275810952533,
                0.38249050997059786,
                0.4517342997170979,
                0.0645521677656673,
                0.6616572831606167,
                0.4369056463469272,
                0.6616572831606164,
                0.291215424373217,
                0.6616572831606166,
                0.6616572831606164,
                0.6616572831606164,
                0.6616572831606166,
                0.6616572831606167,
                0.6616572831606166,
                0.35090901774466865,
                0.6616572831606167,
                0.0975753225077971,
                0.39954568397018925,
                0.6616572831606166,
                0.6616572831606166,
                0.39077665720072197,
                0.6616572831606164,
                0.24590479688684322,
                0.6616572831606164,
                0.17919600118216267,
                0.3094157715948239,
                0.2027576078374157,
                0.4363779142543655,
                0.1501762919693438,
                0.45103087614909765,
                0.061275718825716696,
                0.2578532593112394,
                0.0876557,
                0.4461321393814069,
                0.4019081694879669,
                0.6616572831606166,
                0.24141253906394694,
                0.020810376090096616,
                0.17733075084262795,
                0.09893303774839396,
                0.6616572831606167,
                0.08435471972624142,
                0.3010082126011418,
                0.6616572831606167,
                0.6616572831606167,
                0.6616572831606164,
                0.6616572831606166,
                0.6616572831606166,
                0.41365606720912285,
                0.6616572831606166,
                0.6616572831606164,
                0.6616572831606166,
                0.6616572831606166,
                0.6616572831606164,
                0.6616572831606166,
                0.6616572831606166,
                0.6616572831606167,
                0.07604159974044154,
                0.6616572831606166,
                0.6616572831606166,
                0.4622534312245338,
                0.6616572831606166,
                0.6616572831606166,
                0.6616572831606166,
                0.6616572831606164,
                0.3868553863991974,
                0.1365642895759699,
                0.6616572831606164,
                0.6616572831606166,
                0.4002805263808309,
                0.6616572831606166,
                0.6616572831606166,
                0.3725075089054347,
                0.6616572831606166,
                0.6616572831606164,
                0.034146500833548754,
                0.6616572831606164,
                0.6616572831606166,
                0.27697834004578437,
                0.6616572831606164,
                0.6616572831606166,
                0.4289773154592483,
                0.41898580100818006,
                0.6616572831606167,
                0.2159857410239902,
                0.6616572831606166,
                0.3886237617082471,
                0.3819345472975295,
                0.6616572831606166,
                0.6616572831606164,
                0.47356988041109305,
                0.416813338473024,
                0.6616572831606163,
                0.073039,
                0.4734446943840646,
                0.6616572831606166,
                0.6616572831606167,
                0.15453949363070207,
                0.1965869071532511,
                0.6616572831606166,
                0.6616572831606166,
                0.6616572831606166,
                0.3291028268631874,
                0.07524999999999998,
                0.6616572831606167,
                0.2970146601094999,
                0.1634759238080296,
                0.6616572831606166,
                0.1734325250138728,
                0.6616572831606166,
                0.018179597767851385,
                0.08523539999999999,
                0.07525,
                0.6616572831606164,
                0.2925940827039438,
                0.6616572831606166,
                0.6616572831606167,
                0.1857721859933622,
                0.6616572831606166,
                0.6616572831606164,
                0.6616572831606167,
                0.6616572831606166,
                0.6616572831606164,
                0.38302939492942295,
                0.5483089804731872,
                0.6616572831606166,
                0.4066974102963288,
                0.10876328619020438,
                0.09494451405238313,
                0.6616572831606166,
                0.34970792487139557,
                0.333060455817895,
                0.6616572831606164,
                0.24915946630132157,
                0.08209881413362996,
                0.6616572831606166,
                0.6616572831606166,
                0.29834649851856565,
                0.6616572831606166,
                0.6616572831606167,
                0.18869735510448998,
                0.6616572831606167,
                0.2939940700486271,
                0.6616572831606166,
                0.6616572831606167,
                0.30965041589435033,
                0.6616572831606164,
                0.5095043465815151,
                0.28287273705571114,
                0.2202603047344866,
                0.6616572831606164,
                0.6616572831606167,
                0.03689073162632983,
                0.4093111442648478,
                0.6616572831606166,
                0.13800576264507003,
                0.4213986458264942,
                0.28232661163469586,
                0.09040397419221732,
                0.6616572831606167,
                0.6616572831606166,
                0.6616572831606167,
                0.0961832429120607,
                0.4001445515011598,
                0.3450113354308767,
                0.6616572831606166,
                0.6616572831606166,
                0.14638944726019684,
                0.10626781466492075,
                0.4035649360229879,
                0.08259222590374804,
                0.6616572831606164,
                0.6616572831606166,
                0.2059293218526515,
                0.3753128925509043,
                0.1610119103342753,
                0.45659232468170374,
                0.5319578292379824,
                0.6616572831606166,
                0.6616572831606164,
                0.4944602576824393,
                0.41426816512350795,
                0.08880626200687047,
                0.012047223898785653,
                0.2674650031755724,
                0.6616572831606167,
                0.10888885178474193,
                0.40682529832847386,
                0.6616572831606166,
                0.6616572831606166,
                0.2247880133789582,
                0.24884780305302873,
                0.4440208851316522,
                0.28396250218626606,
                0.6616572831606166,
                0.17853177278024557,
                0.42794600426996077,
                0.33137402402322047,
                0.52253026060256,
                0.6616572831606166,
                0.29329734087308074,
                0.260078066373127,
                0.46044345043081664,
                0.16987425643268578,
                0.6616572831606164,
                0.6616572831606166,
                0.6616572831606167,
                0.3462684460734811,
                0.6616572831606164,
                0.45137329537239657,
                0.6616572831606164,
                0.4012694841655583,
                0.6616572831606167,
                0.6616572831606167,
                0.6616572831606166,
                0.24408123163859735,
                0.319495289196891,
                0.6616572831606167,
                0.1486612217915053,
                0.06282219844978137,
                0.2761069721662318,
                0.45173199947696024,
                0.6616572831606166,
                0.14594820811801915,
                0.15536352558073785,
                0.13017676739883755,
                0.45682847639672264,
                0.0852354,
                0.0814253776016961,
                0.6616572831606167,
                0.6616572831606166,
                0.6616572831606164,
                0.39885887161929623,
                0.008902389865784704,
                0.6616572831606164,
                0.39498077504084506,
                0.6616572831606166,
                0.36206864341858475,
                0.6616572831606166,
                0.6616572831606167,
                0.3546881539175877,
                0.4555145724532237,
                0.32552594766880816,
                0.6616572831606166,
                0.6616572831606166,
                0.6616572831606167,
                0.6616572831606166,
                0.07525,
                0.6616572831606163,
                0.4228318470077272,
                0.2657239430259269,
                0.46212485013417665,
                0.6616572831606166,
                0.6616572831606167,
                0.43474228626167616,
                0.530094429434713,
                0.10685214723500835,
                0.6616572831606166,
                0.07303899999999999,
                0.07524999999999998,
                0.6616572831606164,
                0.6616572831606166
            ],
            "photocathode": [
                121,
                2750,
                3607,
                4582,
                1710,
                4663,
                4656,
                57,
                4612,
                3126,
                623,
                4597,
                3627,
                1668,
                2564,
                2996,
                174,
                44,
                4674,
                2513,
                4573,
                1142,
                4680,
                785,
                4584,
                1878,
                4513,
                1566,
                3894,
                199,
                4522,
                4515,
                1778,
                4532,
                4218,
                2890,
                4720,
                3454,
                2866,
                4558,
                1457,
                4679,
                3610,
                4787,
                4613,
                4603,
                4742,
                4640,
                3972,
                4608,
                1681,
                1768,
                3033,
                1538,
                119,
                861,
                2374,
                1137,
                3852,
                1467,
                124,
                2047,
                4646,
                4642,
                4745,
                4606,
                4658,
                4662,
                4581,
                108,
                1486,
                4658,
                4576,
                4784,
                2591,
                2397,
                1130,
                4705,
                4530,
                2309,
                4815,
                3496,
                1337,
                4557,
                2572,
                3257,
                4690,
                4615,
                2704,
                4474,
                4646,
                500,
                2567,
                1647,
                3276,
                1220,
                4686,
                4590,
                569,
                4515,
                1443,
                4643,
                1000,
                4735,
                501,
                1770,
                4737,
                1777,
                4729,
                4622,
                1740,
                2913,
                1635,
                4746,
                924,
                871,
                1891,
                4563,
                4574,
                2355,
                4597,
                1045,
                3153,
                1872,
                4644,
                4737,
                4816,
                2597,
                4543,
                2519,
                1396,
                4703,
                4810,
                615,
                1374,
                2873,
                1739,
                1445,
                880,
                4888,
                4575,
                898,
                1728,
                4630,
                813,
                1388,
                3738,
                4686,
                2177,
                4572,
                4363,
                1826,
                4713,
                4600,
                2346,
                2876,
                4533,
                4679,
                4544,
                2304,
                4448,
                4791,
                542,
                4635,
                3443,
                4794,
                3379,
                2670,
                4758,
                4761,
                1281,
                2622,
                2282,
                226,
                2796,
                2866,
                3066,
                694,
                4672,
                4636,
                543,
                2150,
                3095,
                522,
                4620,
                487,
                4599,
                643,
                4655,
                4653,
                1362,
                2968,
                3126,
                3053,
                1314,
                2592,
                2229,
                1186,
                4150,
                4620,
                1547,
                1310,
                232,
                2698,
                4588,
                468,
                4610,
                513,
                4585,
                679,
                1094,
                3457,
                2862,
                2332,
                3267,
                1356,
                912,
                3028,
                1367,
                407,
                1586,
                4533,
                2663,
                4759,
                2405,
                4594,
                4619,
                1572,
                94,
                2061,
                4517,
                495,
                4644,
                4569,
                4585,
                1354,
                4546,
                2479,
                2745,
                2649,
                3117,
                420,
                4771,
                3091,
                4716,
                2069,
                4561,
                4539,
                4676,
                4630,
                4723,
                4679,
                2424,
                4858,
                645,
                2957,
                4573,
                4486,
                2765,
                4535,
                1852,
                4695,
                1218,
                2149,
                1463,
                3045,
                1072,
                3190,
                446,
                1825,
                651,
                3150,
                2798,
                4688,
                1637,
                145,
                1244,
                717,
                4481,
                567,
                2215,
                4652,
                4606,
                4599,
                4626,
                4541,
                2982,
                4576,
                4474,
                4841,
                4617,
                4689,
                4488,
                4588,
                4749,
                555,
                4713,
                4661,
                3182,
                4721,
                4625,
                4582,
                4521,
                2697,
                982,
                4652,
                4782,
                2715,
                4641,
                4760,
                2552,
                4698,
                4684,
                252,
                4604,
                4610,
                1957,
                4539,
                4609,
                2984,
                2893,
                4785,
                1500,
                4638,
                2730,
                2614,
                4796,
                4721,
                3209,
                2824,
                4772,
                492,
                3362,
                4591,
                4564,
                1109,
                1362,
                4835,
                4650,
                4771,
                2339,
                554,
                4646,
                2156,
                1151,
                4662,
                1223,
                4527,
                112,
                608,
                522,
                4588,
                2062,
                4646,
                4723,
                1321,
                4599,
                4654,
                4677,
                4764,
                4635,
                2756,
                3741,
                4770,
                2804,
                779,
                672,
                4558,
                2469,
                2343,
                4636,
                1639,
                609,
                4616,
                4669,
                2100,
                4617,
                4680,
                1383,
                4571,
                2054,
                4667,
                4565,
                2169,
                4621,
                3435,
                2063,
                1547,
                4602,
                4586,
                285,
                2879,
                4479,
                1011,
                2939,
                2012,
                637,
                4707,
                4715,
                4549,
                643,
                2751,
                2360,
                4656,
                4711,
                1050,
                738,
                2939,
                548,
                4722,
                4707,
                1430,
                2590,
                1095,
                3245,
                3726,
                4642,
                4536,
                3415,
                2907,
                613,
                90,
                1837,
                4655,
                771,
                2805,
                4708,
                4597,
                1586,
                1705,
                3046,
                1994,
                4760,
                1300,
                2954,
                2280,
                3698,
                4652,
                2123,
                1898,
                3327,
                1162,
                4574,
                4887,
                4652,
                2488,
                4624,
                3133,
                4604,
                2897,
                4575,
                4552,
                4769,
                1633,
                2163,
                4647,
                1013,
                427,
                1929,
                3218,
                4657,
                1061,
                1071,
                887,
                3222,
                586,
                560,
                4644,
                4656,
                4630,
                2867,
                70,
                4586,
                2777,
                4605,
                2489,
                4687,
                4708,
                2465,
                3251,
                2450,
                4647,
                4542,
                4535,
                4688,
                532,
                4678,
                3086,
                1828,
                3211,
                4603,
                4464,
                3179,
                3722,
                767,
                4510,
                498,
                502,
                4594,
                4593
            ]
        },
        "detections": 500,
        "events": 138899
    }
}