{
    "job_args": {
        "metric_limit": 500,
        "seed": 1547051698
    },
    "job_id": "batch_68_do_500",
    "result": {
        "collections": {
            "crystal": [
                0.6616572831606164,
                0.6616572831606164,
                0.5132029452780972,
                0.2886236016520389,
                0.2188604568026274,
                0.6616572831606167,
                0.14153062950164652,
                0.6616572831606167,
                0.6616572831606164,
                0.45072210034054894,
                0.06788879628746727,
                0.6616572831606164,
                0.6616572831606164,
                0.4482849651493055,
                0.6616572831606166,
                0.3437536272278609,
                0.11932999798509505,
                0.39379234724903467,
                0.6616572831606166,
                0.36910443325194753,
                0.6616572831606166,
                0.6616572831606166,
                0.6616572831606166,
                0.2781987542715597,
                0.4744431545628016,
                0.41003973245985725,
                0.6616572831606167,
                0.6616572831606164,
                0.30640311484625715,
                0.6616572831606166,
                0.6616572831606164,
                0.6616572831606166,
                0.6616572831606167,
                0.6616572831606166,
                0.4731401848753539,
                0.3621188554722999,
                0.40830976823771997,
                0.6616572831606166,
                0.6616572831606167,
                0.6616572831606166,
                0.23452599990976547,
                0.5711154231988574,
                0.4285020245759529,
                0.6616572831606164,
                0.6616572831606167,
                0.6616572831606167,
                0.3865951046261957,
                0.6616572831606166,
                0.6616572831606167,
                0.6616572831606166,
                0.4648243804687543,
                0.3678700092531677,
                0.3411395760316378,
                0.6616572831606167,
                0.6616572831606166,
                0.6616572831606167,
                0.19931256885566437,
                0.6616572831606164,
                0.6616572831606166,
                0.1958815759052825,
                0.44751556757256683,
                0.6616572831606164,
                0.47314226336954596,
                0.47460813040373406,
                0.6616572831606166,
                0.6616572831606167,
                0.6616572831606166,
                0.6616572831606166,
                0.07524999999999998,
                0.1914036915493077,
                0.6616572831606166,
                0.4625195527602551,
                0.6616572831606166,
                0.3460532998275751,
                0.33994364073424177,
                0.6616572831606166,
                0.03467364611938717,
                0.38754679161151817,
                0.44168828732970256,
                0.09383156998370645,
                0.5331002692536305,
                0.07525000000000001,
                0.6616572831606167,
                0.34503485271611517,
                0.6616572831606164,
                0.4641610109151143,
                0.6616572831606167,
                0.09305130978717646,
                0.6616572831606164,
                0.26781243135791377,
                0.31444038738457686,
                0.6616572831606167,
                0.42312972274381244,
                0.5014240300840995,
                0.6616572831606164,
                0.6616572831606166,
                0.11177465310980032,
                0.5538079189632523,
                0.28406883529613325,
                0.4169602321626572,
                0.013823915430381195,
                0.07525,
                0.1870786994446244,
                0.4611956632479167,
                0.07278992028162402,
                0.6616572831606164,
                0.6616572831606166,
                0.6616572831606164,
                0.6616572831606166,
                0.6616572831606163,
                0.6333507831606165,
                0.028179872856083588,
                0.3441134958714537,
                0.6616572831606166,
                0.6616572831606167,
                0.6616572831606167,
                0.510229257433222,
                0.2791870297031146,
                0.6616572831606166,
                0.2854899896572987,
                0.6616572831606167,
                0.27889373267922457,
                0.16791408833503263,
                0.33721764831953027,
                0.21033238183541048,
                0.6616572831606166,
                0.6616572831606164,
                0.6616572831606167,
                0.5660225670576459,
                0.6616572831606166,
                0.6616572831606166,
                0.36585937536046903,
                0.6616572831606166,
                0.27665213614525486,
                0.6616572831606167,
                0.6616572831606164,
                0.21157093251961362,
                0.6616572831606164,
                0.6616572831606166,
                0.04523481700144505,
                0.596040665711772,
                0.3374948499035579,
                0.44648168611327077,
                0.20085620782740504,
                0.13001033111433113,
                0.29574274699465064,
                0.6616572831606166,
                0.1453223228185988,
                0.6616572831606166,
                0.08905318922833523,
                0.6616572831606166,
                0.1883916652469752,
                0.13207232722107226,
                0.6616572831606166,
                0.5534320599717247,
                0.07525,
                0.4962575874018148,
                0.6616572831606166,
                0.6268812429872838,
                0.44993703046250183,
                0.16969101038305795,
                0.6616572831606166,
                0.49989072426890574,
                0.6616572831606167,
                0.4202762467528259,
                0.00837957712207238,
                0.25697359819477006,
                0.6616572831606166,
                0.43270709339219654,
                0.6616572831606166,
                0.31360992213140493,
                0.6616572831606167,
                0.14481182904170814,
                0.3065286657180178,
                0.2759020916040782,
                0.6616572831606166,
                0.6616572831606164,
                0.6616572831606166,
                0.6616572831606166,
                0.6616572831606167,
                0.23899650241073211,
                0.6616572831606164,
                0.5690216895440663,
                0.4608172957430242,
                0.09082589722795908,
                0.35783907281975236,
                0.22662550688174093,
                0.5437391731417085,
                0.6616572831606166,
                0.5841896759775154,
                0.10049121845329612,
                0.38178286920907206,
                0.4731224350967351,
                0.04438694438080493,
                0.6616572831606166,
                0.6616572831606166,
                0.27736303156211295,
                0.4099346850419814,
                0.6616572831606164,
                0.07525,
                0.6616572831606167,
                0.6616572831606166,
                0.6616572831606167,
                0.6616572831606164,
                0.6616572831606166,
                0.6616572831606164,
                0.17733118711588214,
                0.06947735611581607,
                0.6616572831606166,
                0.6616572831606166,
                0.6616572831606167,
                0.32066129674467875,
                0.4488198134085513,
                0.050433913455614994,
                0.3386996889423091,
                0.2292769061821736,
                0.4266963583075738,
                0.39665980436238824,
                0.38852856160201577,
                0.5180433641057054,
                0.44302804043221405,
                0.6616572831606167,
                0.19517590331200108,
                0.07303899999999999,
                0.6616572831606164,
                0.6616572831606167,
                0.6616572831606164,
                0.6616572831606166,
                0.4265680431435566,
                0.3895436280292581,
                0.22093413463291015,
                0.4364186472560797,
                0.6616572831606166,
                0.6616572831606166,
                0.6616572831606166,
                0.6616572831606166,
                0.6616572831606167,
                0.6616572831606166,
                0.6616572831606164,
                0.44367252702932936,
                0.6616572831606166,
                0.6616572831606167,
                0.6616572831606166,
                0.40595290809608764,
                0.18023267032938126,
                0.44918434739683444,
                0.2472758590325509,
                0.23439580987493167,
                0.029491943135363408,
                0.12018575414664445,
                0.4675974938337861,
                0.3539218115047889,
                0.6616572831606167,
                0.19547759731907885,
                0.40195348734679753,
                0.15863806203252984,
                0.549795393644225,
                0.2467391335672454,
                0.28754238639734664,
                0.31184970010981516,
                0.43773887077033924,
                0.47793007801763976,
                0.6616572831606164,
                0.6616572831606166,
                0.6616572831606164,
                0.2676827713934817,
                0.6616572831606164,
                0.48575086329533207,
                0.6616572831606166,
                0.5477147667604851,
                0.6616572831606167,
                0.6616572831606168,
                0.6616572831606166,
                0.6616572831606167,
                0.29884416654230894,
                0.10507416749837731,
                0.04673322796275281,
                0.30160201279700755,
                0.4513566579729237,
                0.6616572831606164,
                0.6616572831606167,
                0.05028883095728698,
                0.09149301896308476,
                0.4376754719831212,
                0.6616572831606166,
                0.005788860341888302,
                0.20104710569779596,
                0.36054194640225057,
                0.6616572831606166,
                0.092921468210594,
                0.6616572831606164,
                0.6616572831606167,
                0.31437235500735716,
                0.6616572831606167,
                0.6616572831606164,
                0.2425929316238037,
                0.6616572831606167,
                0.2675608877021871,
                0.43420571655963397,
                0.40677122655457343,
                0.6616572831606166,
                0.6616572831606166,
                0.6616572831606164,
                0.6616572831606166,
                0.16683865761985678,
                0.6616572831606167,
                0.5370364594824343,
                0.3619409964266333,
                0.6616572831606166,
                0.6616572831606164,
                0.07484211786264151,
                0.6616572831606164,
                0.6616572831606167,
                0.3045631247643952,
                0.6616572831606166,
                0.4748674703303307,
                0.2755591337931352,
                0.5753105929476865,
                0.32197492567084085,
                0.6616572831606164,
                0.6057014723969341,
                0.6616572831606166,
                0.6616572831606167,
                0.3462268150231855,
                0.6616572831606164,
                0.25858752520879147,
                0.28416275418600817,
                0.4111684062414733,
                0.08024956092352908,
                0.6616572831606166,
                0.6616572831606166,
                0.6616572831606167,
                0.4711008584688397,
                0.05792486833230748,
                0.32398425348875026,
                0.6616572831606167,
                0.13980735758977691,
                0.6616572831606164,
                0.16951768777889914,
                0.6616572831606166,
                0.33489946032401485,
                0.6616572831606166,
                0.6616572831606166,
                0.6616572831606167,
                0.04743591352826104,
                0.6616572831606164,
                0.6616572831606164,
                0.16327916224826566,
                0.6616572831606164,
                0.6616572831606167,
                0.4325389055105402,
                0.6616572831606164,
                0.6616572831606166,
                0.47074574590328877,
                0.6616572831606166,
                0.4405775519026349,
                0.02977923660723547,
                0.6616572831606166,
                0.6616572831606166,
                0.6616572831606166,
                0.25820752411153347,
                0.21862357627468665,
                0.6616572831606164,
                0.6616572831606166,
                0.4718984511672709,
                0.6616572831606166,
                0.3528708628638093,
                0.6616572831606166,
                0.3013780756846946,
                0.6616572831606164,
                0.46792064143611034,
                0.6616572831606166,
                0.47915764235607555,
                0.23833792053437283,
                0.5558199197120328,
                0.6616572831606164,
                0.6616572831606167,
                0.6616572831606166,
                0.5977834715516723,
                0.19280708535629865,
                0.17236902457810738,
                0.6616572831606166,
                0.6616572831606166,
                0.2811561601454828,
                0.32834371508169613,
                0.4411280439771148,
                0.6616572831606166,
                0.6616572831606167,
                0.6616572831606164,
                0.48717802470864435,
                0.4269404202289759,
                0.052146512293169356,
                0.6616572831606166,
                0.17903852268527473,
                0.19081072369465688,
                0.386303523107713,
                0.07525,
                0.6616572831606164,
                0.6616572831606168,
                0.44010453345005535,
                0.24922799257182582,
                0.48629848341822834,
                0.25871076678828175,
                0.6616572831606167,
                0.2142181930480037,
                0.6616572831606166,
                0.47267039920159415,
                0.2178962594127744,
                0.3779642060397234,
                0.6616572831606167,
                0.6616572831606166,
                0.055261517275720595,
                0.44277922470022324,
                0.6616572831606164,
                0.3804692593015765,
                0.6616572831606164,
                0.21052922406527244,
                0.21040261532244714,
                0.6616572831606164,
                0.4471143335160168,
                0.6616572831606166,
                0.23631659125052235,
                0.0813442268669112,
                0.6616572831606166,
                0.12462671256818614,
                0.6350689720784193,
                0.6616572831606167,
                0.3905983474258504,
                0.23279658170314466,
                0.0343609321231122,
                0.363102471376639,
                0.6616572831606166,
                0.6616572831606166,
                0.6616572831606166,
                0.0925094758534436,
                0.18224059923336577,
                0.12755687447360475,
                0.22238854432700195,
                0.26978029605026155,
                0.2920037690823786,
                0.2659270258981919,
                0.4096008293196182,
                0.15077852299704667,
                0.4752992353972676,
                0.6616572831606166,
                0.6616572831606164,
                0.17584174934830746,
                0.6616572831606167,
                0.1936260598212819,
                0.335449047376282,
                0.6616572831606167,
                0.6616572831606167,
                0.11393327933674502,
                0.6616572831606167,
                0.6616572831606164,
                0.4346846081364293,
                0.6616572831606166,
                0.6616572831606167,
                0.07184303756984245,
                0.6616572831606167,
                0.6616572831606166,
                0.07525,
                0.22396432781882986,
                0.6616572831606166,
                0.11228881245176481,
                0.45297383121523216,
                0.3971338306310212,
                0.07618000207473985,
                0.6616572831606166,
                0.23018376689678924,
                0.24501924085950402,
                0.09822170669255459,
                0.016718773148193696,
                0.43901382300620223,
                0.4682413092561593,
                0.45116667709549924,
                0.3697255307862234,
                0.6616572831606163,
                0.23598729091778775,
                0.6616572831606167,
                0.3742928426267094,
                0.6616572831606167,
                0.3910314779345489,
                0.5317011275653167,
                0.6616572831606166,
                0.6616572831606166,
                0.6616572831606164,
                0.21575401753984763,
                0.2179823020072157,
                0.4905452080610932,
                0.19862382008328366,
                0.5406661499853809,
                0.6616572831606167,
                0.6616572831606167,
                0.6616572831606167,
                0.44615640109764493,
                0.012437322057391675,
                0.6616572831606166,
                0.6616572831606167,
                0.3848221431272675
            ],
            "photocathode": [
                4557,
                4822,
                3601,
                2074,
                1517,
                4467,
                1016,
                4645,
                4710,
                3148,
                520,
                4556,
                4606,
                3147,
                4625,
                2431,
                819,
                2776,
                4644,
                2562,
                4578,
                4651,
                4679,
                1958,
                3224,
                2819,
                4798,
                4543,
                2141,
                4640,
                4678,
                4585,
                4603,
                4596,
                3330,
                2689,
                2802,
                4547,
                4838,
                4566,
                1644,
                4071,
                3084,
                4761,
                4532,
                4540,
                2773,
                4801,
                4698,
                4531,
                3234,
                2508,
                2325,
                4955,
                4690,
                4675,
                1368,
                4636,
                4693,
                1335,
                3041,
                4742,
                3327,
                3319,
                4806,
                4677,
                4580,
                4782,
                504,
                1366,
                4628,
                3283,
                4554,
                2379,
                2429,
                4600,
                227,
                2672,
                3111,
                638,
                3793,
                473,
                4682,
                2336,
                4647,
                3177,
                4545,
                672,
                4762,
                1890,
                2175,
                4616,
                2982,
                3626,
                4651,
                4642,
                780,
                3904,
                1953,
                2942,
                107,
                527,
                1306,
                3083,
                543,
                4643,
                4709,
                4651,
                4636,
                4738,
                4403,
                231,
                2498,
                4905,
                4674,
                4633,
                3555,
                1989,
                4601,
                1994,
                4609,
                1906,
                1184,
                2522,
                1446,
                4655,
                4589,
                4631,
                3905,
                4631,
                4509,
                2647,
                4788,
                1870,
                4626,
                4539,
                1439,
                4785,
                4612,
                311,
                4171,
                2396,
                3057,
                1351,
                923,
                1993,
                4567,
                1029,
                4698,
                682,
                4694,
                1350,
                914,
                4644,
                3752,
                560,
                3529,
                4717,
                4423,
                3026,
                1250,
                4549,
                3486,
                4613,
                3035,
                49,
                1822,
                4776,
                2938,
                4589,
                2191,
                4670,
                1058,
                2217,
                1951,
                4575,
                4588,
                4576,
                4644,
                4652,
                1655,
                4581,
                4007,
                3165,
                680,
                2473,
                1618,
                3751,
                4713,
                4158,
                715,
                2660,
                3325,
                288,
                4608,
                4512,
                1808,
                2917,
                4725,
                503,
                4540,
                4737,
                4630,
                4536,
                4481,
                4731,
                1242,
                525,
                4664,
                4557,
                4581,
                2174,
                3239,
                355,
                2427,
                1612,
                2819,
                2830,
                2763,
                3657,
                3090,
                4711,
                1388,
                483,
                4699,
                4700,
                4711,
                4679,
                2955,
                2804,
                1569,
                3001,
                4753,
                4637,
                4578,
                4577,
                4635,
                4514,
                4634,
                3106,
                4697,
                4650,
                4560,
                2842,
                1212,
                3250,
                1816,
                1543,
                196,
                834,
                3344,
                2552,
                4654,
                1417,
                2855,
                1108,
                3854,
                1784,
                2083,
                2322,
                3092,
                3319,
                4656,
                4541,
                4493,
                1926,
                4605,
                3410,
                4606,
                3830,
                4661,
                4578,
                4578,
                4673,
                2112,
                731,
                315,
                2171,
                3190,
                4624,
                4627,
                386,
                692,
                3114,
                4619,
                46,
                1432,
                2555,
                4621,
                603,
                4605,
                4619,
                2237,
                4581,
                4682,
                1641,
                4522,
                1916,
                3053,
                2957,
                4603,
                4635,
                4485,
                4634,
                1150,
                4553,
                3654,
                2584,
                4582,
                4694,
                460,
                4706,
                4651,
                2110,
                4621,
                3463,
                2011,
                4090,
                2285,
                4767,
                4350,
                4575,
                4535,
                2494,
                4667,
                1902,
                1928,
                2820,
                533,
                4845,
                4653,
                4555,
                3278,
                434,
                2353,
                4610,
                994,
                4606,
                1156,
                4647,
                2238,
                4690,
                4871,
                4582,
                358,
                4701,
                4665,
                1138,
                4466,
                4536,
                3084,
                4663,
                4643,
                3285,
                4727,
                3098,
                212,
                4534,
                4652,
                4644,
                1884,
                1524,
                4693,
                4623,
                3266,
                4709,
                2497,
                4678,
                2074,
                4423,
                3278,
                4485,
                3318,
                1654,
                3928,
                4551,
                4642,
                4628,
                4203,
                1386,
                1276,
                4569,
                4659,
                2022,
                2288,
                3237,
                4619,
                4413,
                4709,
                3456,
                3013,
                343,
                4581,
                1273,
                1380,
                2820,
                530,
                4584,
                4900,
                3110,
                1825,
                3571,
                1859,
                4726,
                1485,
                4715,
                3322,
                1522,
                2599,
                4617,
                4711,
                376,
                3210,
                4664,
                2717,
                4457,
                1466,
                1489,
                4631,
                3123,
                4592,
                1713,
                583,
                4666,
                926,
                4419,
                4609,
                2747,
                1637,
                270,
                2513,
                4629,
                4627,
                4662,
                634,
                1222,
                863,
                1570,
                1993,
                2050,
                1881,
                2884,
                1054,
                3319,
                4676,
                4482,
                1185,
                4564,
                1318,
                2324,
                4735,
                4715,
                800,
                4539,
                4734,
                3009,
                4585,
                4709,
                501,
                4559,
                4746,
                529,
                1521,
                4604,
                773,
                3182,
                2785,
                535,
                4553,
                1602,
                1691,
                647,
                117,
                3044,
                3288,
                3113,
                2670,
                4494,
                1621,
                4684,
                2584,
                4730,
                2748,
                3742,
                4623,
                4715,
                4590,
                1446,
                1552,
                3334,
                1409,
                3824,
                4640,
                4589,
                4622,
                3217,
                87,
                4525,
                4541,
                2796
            ]
        },
        "detections": 500,
        "events": 127317
    }
}