{
    "job_args": {
        "metric_limit": 300,
        "seed": 965890302
    },
    "job_id": "batch_212_do_300",
    "result": {
        "collections": {
            "crystal": [
                0.5109989099999999,
                0.51099891,
                0.51099891,
                0.34098666489306606,
                0.3061842636148293,
                0.05905832965295876,
                0.5341938476439119,
                0.5109989100000001,
                0.33723831157709705,
                0.51099891,
                0.07525000000000001,
                0.5109989100000001,
                0.5109989100000001,
                0.51099891,
                0.5109989100000001,
                0.4826924099999999,
                0.22550815381095274,
                0.33694293807232145,
                0.51099891,
                0.51099891,
                0.51099891,
                0.51099891,
                0.51099891,
                0.51099891,
                0.5109989099999999,
                0.22954513768840631,
                0.14962662866551552,
                0.2606595594082328,
                0.25307150710956694,
                0.51099891,
                0.5109989100000001,
                1.274537340179464,
                0.51099891,
                0.5109989100000001,
                0.51099891,
                0.21723938701752293,
                0.04866816807418778,
                0.08523540000000002,
                0.0159753910616538,
                0.51099891,
                0.1701016153888546,
                0.51099891,
                0.356061182454527,
                0.51099891,
                0.51099891,
                0.51099891,
                0.51099891,
                0.51099891,
                0.51099891,
                0.10699067159640883,
                0.062405353923327744,
                0.4019234225898801,
                0.51099891,
                0.51099891,
                0.012396309522676674,
                0.5109989100000001,
                0.51099891,
                1.274537340179464,
                0.23097857785666742,
                0.5109989100000001,
                0.5886377885897258,
                0.51099891,
                0.51099891,
                0.08523539999999999,
                0.51099891,
                0.1613263674183207,
                0.4787621099999999,
                0.07693268323980773,
                0.06581692543423345,
                0.51099891,
                0.37181509513887895,
                0.51099891,
                0.51099891,
                0.3813623243346307,
                0.48734827293540717,
                0.51099891,
                0.5109989100000001,
                1.2745373401794642,
                0.51099891,
                0.2380349834593131,
                0.51099891,
                0.3363204813598295,
                0.2866686101646624,
                0.51099891,
                0.5109989099999999,
                0.51099891,
                1.274537340179464,
                0.51099891,
                1.2745373401794642,
                1.274537340179464,
                0.3171338268455669,
                1.274537340179464,
                0.51099891,
                0.51099891,
                0.5109989100000001,
                0.51099891,
                0.5109989100000001,
                0.2305718706490885,
                0.51099891,
                0.51099891,
                0.472118279107035,
                0.5109989099999999,
                0.51099891,
                0.51099891,
                0.3389019332481139,
                0.15179087742351666,
                0.3724096183093538,
                0.5109989099999999,
                1.274537340179464,
                0.51099891,
                0.22984563132027916,
                0.07303899999999999,
                0.11332892474656275,
                0.51099891,
                0.51099891,
                0.5109989100000001,
                0.51099891,
                0.51099891,
                0.51099891,
                0.2774270359352912,
                0.3404000325509631,
                0.9792460855356422,
                0.5109989100000001,
                0.51099891,
                0.9000911348738145,
                0.6670695618398517,
                0.4463070863545365,
                0.2919790488188342,
                0.28090967873924466,
                0.27040603830817606,
                0.334417411649975,
                0.5109989099999999,
                0.51099891,
                0.7206181157096955,
                0.5109989099999999,
                0.33171203668254834,
                0.5156971134148433,
                0.4650243676782703,
                0.5109989100000001,
                0.51099891,
                0.5109989100000001,
                0.5109989099999999,
                0.51099891,
                0.2940361513661459,
                0.5109989100000001,
                0.51099891,
                0.20815675694902552,
                0.1315204414234602,
                0.2535769943316159,
                0.5109989099999999,
                0.5109989100000001,
                0.51099891,
                0.16906076997835182,
                0.23918741322220588,
                0.48192040615180853,
                0.07060064633474611,
                0.2684818406056476,
                0.130009936480942,
                0.8335441250016806,
                0.5109989100000001,
                0.5029079426440266,
                1.274537340179464,
                0.5109989100000001,
                0.5784540815826246,
                0.51099891,
                1.2745373401794642,
                0.5109989100000001,
                0.51099891,
                1.274537340179464,
                1.0230824384244346,
                0.51099891,
                0.11752519183811927,
                0.06977939978146352,
                0.51099891,
                0.19087752628287882,
                0.32785609104858837,
                0.27938088524964855,
                0.17359499456124036,
                0.51099891,
                0.51099891,
                0.51099891,
                1.2745373401794637,
                0.5212290564676143,
                0.51099891,
                0.7270888547585875,
                0.5109989100000001,
                0.5109989099999999,
                0.51099891,
                0.51099891,
                0.51099891,
                0.45394363613309097,
                0.51099891,
                0.20753719234291218,
                0.2759135718999683,
                0.3956392558199847,
                0.3402132940829723,
                0.51099891,
                0.25741129388108497,
                0.6319171002452021,
                0.11655555949650558,
                0.19876878543577892,
                1.274537340179464,
                0.3177512537980808,
                0.06082414676694203,
                0.07291341975345833,
                1.274537340179464,
                0.057648371947319685,
                0.6025481844470124,
                0.33243609281326975,
                0.16816091586847856,
                0.4363587085903155,
                0.51099891,
                0.5109989099999999,
                0.08431334366008658,
                0.51099891,
                0.42733905950013373,
                0.51099891,
                0.022626950838470276,
                0.5109989100000001,
                0.8317527000527118,
                0.22140787375941656,
                0.51099891,
                0.5109989100000001,
                0.5109989099999999,
                0.51099891,
                0.07736648666781121,
                0.27056074311150624,
                0.1530279512864074,
                0.51099891,
                0.51099891,
                0.01004572819766325,
                0.799072656590591,
                0.5109989099999999,
                1.0791321872846678,
                0.25551948473816377,
                0.0537260258285574,
                0.51099891,
                0.20071677130261062,
                0.24847246185523636,
                0.18732476148089378,
                0.13212665093175902,
                0.17799702183711988,
                1.274537340179464,
                0.51099891,
                0.7169067168865059,
                0.51099891,
                0.10479913926878043,
                0.08523539999999999,
                0.43204605373631005,
                0.38242637196749585,
                0.51099891,
                1.2745373401794637,
                0.51099891,
                1.2745373401794637,
                0.029905065685657983,
                0.51099891,
                1.274537340179464,
                0.8527738060421088,
                0.51099891,
                0.5109989100000001,
                0.51099891,
                0.51099891,
                0.05746294062559415,
                0.17257123554936693,
                0.13119576017082799,
                0.7963377833017078,
                1.274537340179464,
                0.258403665686857,
                0.9879862401508862,
                0.5109989100000001,
                0.51099891,
                0.06988147100158848,
                0.5109989100000001,
                0.5109989099999999,
                0.5109989100000001,
                0.51099891,
                0.2081572943945416,
                0.51099891,
                0.5109989099999999,
                0.04039226511975813,
                0.48851260228093174,
                0.5109989100000001,
                0.21338349161784284,
                0.07525,
                0.023292287781504162,
                0.51099891,
                0.5109989100000001,
                0.05008153248036949,
                0.07525,
                0.2865619759213774,
                0.41410779920657664,
                0.073039,
                0.7922398469247159,
                1.274537340179464,
                0.34138538736900575,
                0.51099891,
                0.2909880069557773,
                0.51099891,
                0.24935466120455946,
                0.51099891
            ]
        },
        "detections": 300,
        "events": 14628
    }
}