{
    "job_args": {
        "metric_limit": 300,
        "seed": 912582747
    },
    "job_id": "batch_96_do_300",
    "result": {
        "collections": {
            "crystal": [
                0.51099891,
                0.13115143953479566,
                0.5109989099999999,
                0.5109989099999999,
                0.31057117705477244,
                0.5109989100000001,
                0.51099891,
                1.2745373401794637,
                0.5109989100000001,
                0.7420965649056649,
                0.08814099656255142,
                0.5109989099999999,
                1.274537340179464,
                0.5109989099999999,
                0.20890358648085527,
                0.1939496614012869,
                0.51099891,
                0.51099891,
                0.6351790151669805,
                1.2745373401794642,
                0.35562602527608217,
                1.032487712422253,
                0.51099891,
                0.51099891,
                0.5109989099999999,
                0.4845684342427782,
                0.51099891,
                0.5109989099999999,
                0.3473213481078495,
                0.51099891,
                0.3301031504659072,
                0.5109989099999999,
                0.04922031329764232,
                1.2745373401794642,
                0.5109989099999999,
                0.3149805769611703,
                0.7017782139126489,
                0.51099891,
                0.19595116012356517,
                0.51099891,
                0.07525,
                0.51099891,
                0.15121494292071846,
                0.0852354,
                0.005062699259647752,
                0.9643524287331967,
                0.51099891,
                0.51099891,
                0.51099891,
                0.51099891,
                0.5109989100000001,
                0.11706915567544923,
                0.5109989099999999,
                0.5109989100000001,
                1.274537340179464,
                0.51099891,
                0.4778719260052793,
                0.51099891,
                0.51099891,
                0.3021131744555033,
                0.15270244265477978,
                0.51099891,
                0.2253196027563544,
                0.31283103480399665,
                0.51099891,
                0.51099891,
                1.274537340179464,
                0.08222291641096197,
                0.8597721711885216,
                0.51099891,
                0.3608421031639986,
                0.3185774187660194,
                0.51099891,
                0.18694325465786604,
                0.35780529438745146,
                0.5109989099999999,
                0.5109989099999999,
                0.51099891,
                0.09148424789130738,
                1.274537340179464,
                0.5109989099999999,
                0.31216811246653076,
                0.7279661408950041,
                0.38261961727563815,
                0.51099891,
                0.5109989100000001,
                0.29596618363350125,
                0.0407654306378592,
                0.31636083504044243,
                0.6900568939295169,
                0.5109989100000001,
                0.05382891481867769,
                0.51099891,
                0.51099891,
                0.26234979754322235,
                0.51099891,
                0.5109989100000001,
                0.51099891,
                0.8205246347758468,
                0.51099891,
                0.51099891,
                0.0847407,
                0.51099891,
                1.2745373401794642,
                0.5109989099999999,
                0.073039,
                0.51099891,
                0.51099891,
                0.25880059966204905,
                0.08501026676923928,
                0.51099891,
                0.2918511885990182,
                0.51099891,
                0.51099891,
                0.51099891,
                0.03898678028959601,
                0.51099891,
                0.04074480000000001,
                0.5109989099999999,
                0.5109989100000001,
                0.51099891,
                1.2745373401794637,
                1.2745373401794635,
                0.51099891,
                0.5109989100000001,
                0.378372594327415,
                0.3043813367576623,
                0.51099891,
                0.31048762397599006,
                0.5109989099999999,
                0.51099891,
                1.274537340179464,
                1.2745373401794642,
                1.2745373401794642,
                1.274537340179464,
                0.31056683298036153,
                0.51099891,
                0.51099891,
                0.17923836858706632,
                0.12656515060341458,
                0.3483638032332871,
                0.9153143593525834,
                0.07676790474463158,
                0.5109989099999999,
                0.51099891,
                1.274537340179464,
                0.51099891,
                0.51099891,
                0.5109989099999999,
                1.2745373401794642,
                0.3532264433196187,
                0.03193772483050189,
                0.51099891,
                0.37830663019749955,
                0.229067616650536,
                0.4445521729980254,
                0.51099891,
                0.5109989099999999,
                0.4826924099999999,
                0.012469368555318772,
                0.51099891,
                0.16308469410213053,
                0.3548325777996667,
                0.14802995744420946,
                0.5109989100000001,
                0.15241763606252934,
                0.51099891,
                0.5109989099999999,
                1.2745373401794642,
                0.07376003314203117,
                0.39111305127816615,
                1.2745373401794637,
                0.51099891,
                0.05643419999999998,
                0.24564081885357636,
                0.30440235568742885,
                0.83135104630848,
                0.30104638631423103,
                0.51099891,
                0.5109989100000001,
                0.23953306895549412,
                0.3257325318993658,
                0.3369470003859472,
                0.23964990486692656,
                0.51099891,
                0.5109989099999999,
                0.18623357188814527,
                0.51099891,
                0.35484701765613647,
                0.51099891,
                0.51099891,
                0.33755917803127455,
                0.12577177186660005,
                0.0847407,
                0.23464931932932154,
                0.043451808081223564,
                0.51099891,
                0.51099891,
                0.7468950104496381,
                0.51099891,
                0.33855425235383513,
                0.5109989100000001,
                0.51099891,
                0.51099891,
                0.51099891,
                0.51099891,
                0.51099891,
                0.07525,
                0.51099891,
                0.51099891,
                0.51099891,
                0.03173609367193109,
                0.51099891,
                0.21819786838651703,
                0.51099891,
                0.06789919890965945,
                0.04529696442368608,
                0.33026520620789984,
                0.036462870887224885,
                0.22782208215704808,
                0.16643494609895726,
                0.51099891,
                0.5109989100000001,
                0.51099891,
                0.9166811407375466,
                0.005452383631540103,
                0.51099891,
                0.51099891,
                0.51099891,
                0.29430986089694267,
                1.391452557355793,
                0.51099891,
                0.51099891,
                0.09150122830502638,
                0.07525000000000001,
                0.2028623698419461,
                0.5109989100000001,
                0.51099891,
                0.5109989099999999,
                0.51099891,
                0.20691579285242068,
                0.15839381453997,
                0.07195240970424943,
                0.11499563116659682,
                0.5109989099999999,
                0.457412208658714,
                0.51099891,
                0.51099891,
                0.22457119980456122,
                0.51099891,
                0.3017129680909755,
                0.51099891,
                1.2745373401794637,
                0.11360246457885255,
                0.08085325123777565,
                0.7635384301794641,
                0.5109989099999999,
                0.31551623650025984,
                0.23920397186779813,
                0.24486664526597843,
                0.2692802471384008,
                0.13525679709994276,
                0.6203739434126054,
                0.51099891,
                0.8399043546971705,
                0.3159082306940101,
                0.51099891,
                0.7984692594251863,
                1.2745373401794637,
                0.51099891,
                0.289814712007012,
                1.274537340179464,
                0.5109989099999999,
                0.573893037322011,
                0.51099891,
                0.51099891,
                0.07303899999999999,
                0.51099891,
                0.2102131280403587,
                0.51099891,
                0.5109989100000001,
                1.274537340179464,
                0.44095414583259585,
                0.011399256615882258,
                0.09388350588959127,
                0.51099891,
                0.5109989100000001,
                0.51099891,
                0.51099891,
                0.012023364992126528,
                0.0469435,
                0.5109989100000001,
                0.02727221651989581,
                0.51099891,
                0.51099891,
                0.1055329672089504,
                1.274537340179464,
                1.274537340179464,
                1.2745373401794642,
                0.5109989100000001
            ]
        },
        "detections": 300,
        "events": 14183
    }
}