{
    "job_args": {
        "metric_limit": 300,
        "seed": 1143977135
    },
    "job_id": "batch_135_do_300",
    "result": {
        "collections": {
            "crystal": [
                0.019652561531602553,
                0.1602334486895276,
                1.2745373401794637,
                0.11695390812850687,
                0.914103863364929,
                0.51099891,
                0.51099891,
                0.51099891,
                0.45594657477726963,
                0.51099891,
                0.07525,
                0.37651665925239797,
                0.1085186487152705,
                0.07085080096494759,
                0.51099891,
                0.731802038801035,
                0.31439856098483776,
                0.10546942008675897,
                0.08474069999999999,
                0.5109989100000001,
                0.51099891,
                0.2817392914101271,
                0.3098038278364113,
                1.014145482828468,
                0.16218866085869002,
                0.51099891,
                0.51099891,
                0.30288160867954605,
                0.34479402781978535,
                0.772702607527431,
                0.51099891,
                0.058965780823585945,
                0.07524999999999998,
                0.1720151050206668,
                0.31801529337609935,
                0.483817361053118,
                0.5109989099999999,
                0.1815980914245054,
                0.17126739881979436,
                0.6149856567131735,
                1.274537340179464,
                0.5109989100000001,
                0.9222338449015559,
                0.14187468437908088,
                0.51099891,
                0.07525,
                1.274537340179464,
                0.4330801288989166,
                0.51099891,
                0.1257703809346695,
                0.056698456273556186,
                0.2164511452306882,
                0.46660458927224696,
                0.29469472506107985,
                0.8062783908641333,
                0.51099891,
                0.51099891,
                0.2930097147936802,
                0.5109989099999999,
                0.19906607975191154,
                0.51099891,
                0.51099891,
                0.51099891,
                0.51099891,
                0.5109989100000001,
                1.101339287945117,
                0.09801518165466976,
                0.42771453900068657,
                0.2095164449912943,
                0.29458019471018015,
                0.3563241101368163,
                0.48800873425430835,
                0.026946622437541756,
                0.6106153137312039,
                0.51099891,
                0.28584064208867965,
                0.07524999999999998,
                0.51099891,
                0.05802310141551431,
                0.51099891,
                0.51099891,
                0.51099891,
                0.750754043801021,
                0.09708985387377411,
                0.5109989099999999,
                0.073039,
                0.5155244342649059,
                0.6842511811779128,
                0.24459270850401643,
                0.51099891,
                0.7052064798499335,
                0.5109989100000001,
                0.032787801261290384,
                0.46537779023772863,
                0.51099891,
                0.07630875781389035,
                0.8339986947614793,
                0.3270020262589628,
                0.5109989100000001,
                0.51099891,
                0.3050660974783097,
                0.51099891,
                0.51099891,
                0.51099891,
                0.20131691002121696,
                0.16170390461570788,
                0.005928787165686122,
                0.5109989099999999,
                0.5109989099999999,
                0.51099891,
                0.51099891,
                0.4467638203811849,
                1.0426608805478288,
                0.35647650762977634,
                0.51099891,
                0.5109989099999999,
                0.5005325157585934,
                0.51099891,
                1.274537340179464,
                0.51099891,
                0.51099891,
                0.51099891,
                0.5109989099999999,
                0.6590822581786492,
                0.5109989100000001,
                0.51099891,
                0.5109989099999999,
                0.5109989100000001,
                0.07525,
                0.2539551523478105,
                0.6035366168167643,
                1.2183803592981268,
                0.51099891,
                1.274537340179464,
                0.3037125375484138,
                0.51099891,
                0.51099891,
                0.51099891,
                0.51099891,
                0.51099891,
                1.048147407005009,
                0.5109989099999999,
                0.260645692372181,
                0.45820855667471594,
                0.3070643083151181,
                0.5109989100000001,
                0.51099891,
                0.1133839992599207,
                0.23247240366811117,
                0.14620306857606963,
                0.51099891,
                0.07525,
                0.0048573123212444225,
                0.1386261219018043,
                0.07447619658004842,
                0.5109989099999999,
                0.51099891,
                0.17635083190512527,
                0.19922653383609681,
                0.51099891,
                0.51099891,
                0.642471023176689,
                0.51099891,
                0.1274352995960802,
                0.5109989099999999,
                0.5109989099999999,
                0.013552699060930318,
                0.5109989100000001,
                0.51099891,
                1.045525368843509,
                0.51099891,
                0.8107182580804423,
                1.1829443050506236,
                0.5109989100000001,
                1.2745373401794642,
                0.5109989100000001,
                0.0025380648326499555,
                0.5109989099999999,
                0.11755680882233388,
                0.15787425351411782,
                0.5776959928897691,
                0.51099891,
                0.3624436046358503,
                0.07524999999999998,
                0.16206438262694026,
                0.073039,
                0.2787165638720843,
                0.0983097145856819,
                0.51099891,
                0.27978732865616535,
                0.51099891,
                0.51099891,
                1.0135298938020887,
                0.029767539776750562,
                1.274537340179464,
                0.29962994743128357,
                0.25569668904526616,
                0.1036645424735052,
                0.01433210588887146,
                0.5109989100000001,
                0.1568407667874107,
                0.51099891,
                0.5109989100000001,
                0.12671016881786343,
                0.51099891,
                0.51099891,
                0.12240498749479156,
                0.51099891,
                0.07524999999999998,
                0.2929880139956561,
                0.4792378563082007,
                0.2876690097434784,
                0.11996773634280805,
                0.21579815221681597,
                4.389735042681364e-05,
                0.51099891,
                0.08753399999999999,
                0.031688892910272326,
                0.6403699407381023,
                0.5109989100000001,
                0.51099891,
                0.5109989100000001,
                0.2030311343875133,
                0.5109989100000001,
                0.345572364384756,
                0.030495913478799097,
                0.194478468036023,
                0.51099891,
                1.7855362501794638,
                0.14520247138845582,
                0.19075690047188726,
                0.259918564961241,
                0.46008978314308246,
                0.51099891,
                0.1380659353730314,
                0.51099891,
                0.2807832051497941,
                0.19208385325256103,
                0.7762391534428905,
                0.5109989099999999,
                0.5109989100000001,
                0.5109989099999999,
                0.5717748194150541,
                0.3189904428517843,
                0.0814252648514347,
                0.1795066195875728,
                0.51099891,
                0.5109989099999999,
                0.30787461359947,
                0.30584178032552606,
                0.5109989100000001,
                0.5109989100000001,
                0.10463710708283575,
                0.51099891,
                0.22487374137464963,
                0.2253363018891251,
                0.5109989099999999,
                0.5109989100000001,
                0.047926995522732,
                0.14378408220913239,
                0.22574293423614034,
                0.08523539999999999,
                0.8270445248590008,
                0.5109989100000001,
                0.5109989100000001,
                0.5109989100000001,
                0.51099891,
                0.978852304648992,
                0.51099891,
                0.073039,
                0.51099891,
                0.51099891,
                0.053973356053306665,
                0.641765501382464,
                0.2952919827503818,
                0.51099891,
                0.037415290724232,
                0.5109989099999999,
                0.3097669915844706,
                0.31647641357037,
                0.2733090023693161,
                0.51099891,
                0.8163142133860146,
                0.5109989099999999,
                0.5109989099999999,
                0.15863309305068113,
                0.5109989099999999,
                0.22428824120520785,
                0.24363379120533685,
                0.5109989099999999,
                0.51099891,
                0.5109989100000001,
                0.2713091799557012,
                0.22828893623789268,
                0.33831850421017445,
                0.5109989100000001,
                0.2729667527091788,
                0.1292531859579073,
                0.51099891,
                0.51099891
            ]
        },
        "detections": 300,
        "events": 14592
    }
}