{
    "job_args": {
        "metric_limit": 300,
        "seed": 1620746340
    },
    "job_id": "batch_75_do_300",
    "result": {
        "collections": {
            "crystal": [
                1.274537340179464,
                0.27392093580024257,
                0.39520574715237716,
                1.2745373401794637,
                0.8538630258901904,
                0.51099891,
                0.30240965852597945,
                0.5109989100000001,
                1.274537340179464,
                0.4302066168876264,
                0.25465429156596675,
                0.3064064849309925,
                1.274537340179464,
                0.51099891,
                0.11334833990076648,
                0.2691012892973101,
                0.054658087571771874,
                1.274537340179464,
                1.274537340179464,
                0.5485066525046485,
                0.51099891,
                0.18532905130187127,
                0.7452459465257539,
                0.51099891,
                0.0052308671676403184,
                0.51099891,
                0.51099891,
                0.51099891,
                0.6028889714206682,
                0.51099891,
                0.017656062743339362,
                0.5109989100000001,
                1.2745373401794637,
                0.51099891,
                0.51099891,
                0.6123954669321924,
                0.51099891,
                0.51099891,
                0.261262348568491,
                0.2001326241884801,
                1.2745373401794637,
                0.51099891,
                0.06718474492190418,
                0.3058003157515943,
                0.10572132375349465,
                0.4392137897775403,
                0.51099891,
                0.51099891,
                0.21787944437095813,
                0.04664049999999999,
                0.0831615432845409,
                0.51099891,
                0.37347723968041896,
                0.495799930871406,
                0.29932040962714973,
                0.51099891,
                0.51099891,
                0.0775550095846535,
                0.376585357284603,
                0.51099891,
                0.21102719074850793,
                0.07372330102615422,
                0.9461524213654418,
                0.51099891,
                0.2531018239179402,
                0.3998026977071758,
                0.5109989099999999,
                0.5109989100000001,
                0.51099891,
                0.5109989100000001,
                1.274537340179464,
                0.5109989099999999,
                0.08413347753885908,
                0.3558053525874491,
                0.51099891,
                0.2644205984603749,
                0.6113706661153533,
                0.51099891,
                0.5109989099999999,
                0.5109989100000001,
                0.51099891,
                0.51099891,
                1.3256008100350531,
                0.3108401175968251,
                0.09976301289995315,
                0.2009479893478745,
                0.07525,
                0.5109989099999999,
                0.15158559585684767,
                0.3544984727507438,
                0.51099891,
                0.51099891,
                0.04382132922125109,
                0.51099891,
                0.51099891,
                0.51099891,
                0.13576666757341127,
                0.14365882498849913,
                0.5109989100000001,
                0.51099891,
                0.5109989099999999,
                0.3381593956542144,
                0.51099891,
                0.51099891,
                1.274537340179464,
                0.5109989100000001,
                0.5109989100000001,
                0.8293626117683889,
                1.2745373401794637,
                0.51099891,
                0.13171207216526123,
                0.13272758733219026,
                0.5109989099999999,
                0.51099891,
                0.6974890462991706,
                0.51099891,
                0.20299085560935268,
                0.51099891,
                0.28566440720708475,
                1.0308351450765105,
                0.18816842769284756,
                0.51099891,
                0.51099891,
                0.6283086915029867,
                0.5109989100000001,
                0.07524999999999998,
                0.5109989100000001,
                0.5351309042307162,
                0.08523539999999999,
                0.51099891,
                0.09424548189159826,
                0.3360363843515448,
                0.0876557,
                0.5109989100000001,
                0.0771126591181801,
                1.274537340179464,
                0.39015675701609054,
                0.51099891,
                0.1772965196183422,
                0.2842149843960211,
                0.5937437840933473,
                0.30919685931497487,
                1.274537340179464,
                0.5109989099999999,
                0.51099891,
                0.3039912167972997,
                0.5109989099999999,
                0.51099891,
                0.51099891,
                0.08958981057234622,
                0.6277267982652256,
                0.5109989099999999,
                0.5109989100000001,
                0.51099891,
                0.51099891,
                0.51099891,
                0.48238940999999996,
                0.51099891,
                0.07655066278122497,
                0.040938498296810066,
                0.12613944632571444,
                0.11957395208189642,
                0.08523540000000002,
                1.7855362501794643,
                0.5109989100000001,
                0.5109989099999999,
                0.5092858582681159,
                0.20145272637971018,
                0.51099891,
                0.51099891,
                1.2745373401794637,
                0.07524999999999998,
                0.51099891,
                0.5109989099999999,
                0.51099891,
                0.13696452985082863,
                0.19456353736817134,
                0.5109989100000001,
                0.51099891,
                0.51099891,
                0.51099891,
                1.274537340179464,
                0.51099891,
                0.51099891,
                0.2720277554237057,
                0.07525,
                0.08921524567643824,
                1.2745373401794642,
                0.51099891,
                0.51099891,
                0.7835170320564455,
                0.47847769882578084,
                0.5109989099999999,
                0.10150873936744859,
                0.31675962331719465,
                0.3701853375465545,
                0.22971906006087628,
                0.3763988069295728,
                0.5109989100000001,
                0.0876557,
                0.0028805768462855097,
                0.9246796639599792,
                1.274537340179464,
                0.2106958247009011,
                0.06877682569894755,
                0.17866170678036475,
                0.13817912921892345,
                0.51099891,
                0.2129298197679073,
                1.2745373401794642,
                0.51099891,
                0.5109989099999999,
                0.5109989100000001,
                0.019753266624075394,
                0.51099891,
                0.5109989100000001,
                0.51099891,
                0.4779870463247715,
                0.5599358663838413,
                0.51099891,
                0.42358487404299494,
                0.510771273316098,
                0.0826347152532394,
                0.05386044639896026,
                0.51099891,
                0.23719560971993153,
                0.08523539999999999,
                0.51099891,
                0.5109989100000001,
                0.5109989100000001,
                0.51099891,
                0.51099891,
                0.5109989100000001,
                0.44818832837336403,
                0.51099891,
                0.12959045085696147,
                0.8692485745368753,
                0.51099891,
                0.170521487649459,
                0.626840720115977,
                0.51099891,
                0.1762692775301895,
                0.51099891,
                0.16867945750530308,
                0.2708860221652364,
                0.09005975222864138,
                0.51099891,
                0.51099891,
                0.07525000000000001,
                0.2490904291991733,
                0.2747692405974641,
                0.3051082641111095,
                0.51099891,
                0.5109989100000001,
                0.7785750129815198,
                1.2745373401794637,
                0.3338594752251771,
                0.41890076125420794,
                0.51099891,
                1.2745373401794642,
                0.06281421636206136,
                1.274537340179464,
                0.3188338532324086,
                0.51099891,
                0.2622716915115805,
                0.51099891,
                0.2236096678954961,
                0.3023292599585095,
                0.05303147127773,
                0.51099891,
                0.3273565321897714,
                1.1515928537999438,
                0.33252227592712896,
                0.8519026892555397,
                0.14628026405350106,
                0.7678804133458101,
                0.0847407,
                0.39577281196364045,
                0.3080359626688477,
                0.2785549070146386,
                0.17125304638354027,
                0.23844112546285817,
                0.014057699845447358,
                0.3339419027503059,
                0.04954324440034186,
                0.5109989100000001,
                0.7680267271672956,
                0.5109989100000001,
                0.5656863024306336,
                0.51099891,
                0.33497938646238967,
                0.51099891,
                0.5109989100000001,
                0.5109989100000001,
                0.12163509771416475,
                0.07524999999999998,
                0.5109989099999999,
                0.51099891,
                0.017796658837775203,
                0.5109989100000001
            ]
        },
        "detections": 300,
        "events": 14886
    }
}