{
    "job_args": {
        "metric_limit": 500,
        "seed": 3454551935
    },
    "job_id": "batch_110_do_500",
    "result": {
        "collections": {
            "crystal": [
                0.5109989099999999,
                0.073039,
                0.33978130487626534,
                1.2745373401794637,
                0.15880328924714432,
                0.3349067189786334,
                0.32852507430815625,
                1.274537340179464,
                0.16264551208209405,
                1.274537340179464,
                0.199947381921488,
                0.9765180291735983,
                0.16228937274818078,
                0.043013199999999994,
                1.0506872453811702,
                0.7247339929274255,
                1.274537340179464,
                0.07525,
                0.45174177582160596,
                0.7505634614577797,
                0.3935098944977846,
                0.32756777745047555,
                0.15062452296884213,
                0.11075272022364546,
                0.51099891,
                0.34276383486065254,
                0.8286204141938812,
                1.274537340179464,
                0.51099891,
                0.9446035432998678,
                0.4292266035157532,
                0.9148036300598172,
                0.11384291565810761,
                0.51099891,
                0.04664049999999999,
                0.8445904160263968,
                0.8078071326085541,
                1.274537340179464,
                1.0303291147841558,
                0.51099891,
                0.20567875520856677,
                0.5109989099999999,
                0.29079210591269306,
                0.2959918322878209,
                1.274537340179464,
                0.51099891,
                0.51099891,
                0.51099891,
                0.02670965455346691,
                0.5109989100000001,
                0.51099891,
                0.9223280240553935,
                0.51099891,
                0.5109989099999999,
                0.5109989100000001,
                0.015432915877738068,
                0.8910445956506463,
                0.5109989100000001,
                0.5843927211357475,
                0.2110993223557932,
                0.1046468386463041,
                0.07303900000000002,
                0.431428364930677,
                0.51099891,
                0.51099891,
                0.51099891,
                0.27456109833741904,
                1.2745373401794642,
                0.5225667489791408,
                0.9305962126073328,
                0.294620860478977,
                1.274537340179464,
                0.0466405,
                0.2608613030801218,
                0.5109989099999999,
                0.51099891,
                0.51099891,
                0.51099891,
                0.2524977927975879,
                0.5109989099999999,
                0.3711176905558905,
                0.26834767911101526,
                0.327604605776275,
                0.31232247116659867,
                0.33716989065378555,
                0.28412837468772706,
                0.51099891,
                0.51099891,
                0.08523539999999999,
                0.5109989100000001,
                0.51099891,
                0.51099891,
                0.20490706758912725,
                1.274537340179464,
                0.1575800107485632,
                0.6899828023615175,
                0.1035297717157303,
                0.40668957055233546,
                0.15186782539803878,
                0.5109989100000001,
                0.51099891,
                0.07303899999999999,
                0.51099891,
                0.51099891,
                0.1533807430491455,
                0.18732794005774522,
                0.51099891,
                1.2745373401794637,
                0.5109989100000001,
                0.31568838647105935,
                0.5109989099999999,
                0.338692757639394,
                0.008617156675070597,
                0.5109989099999999,
                0.4711422259091084,
                1.274537340179464,
                0.1738943308882912,
                0.5109989099999999,
                0.5109989099999999,
                0.51099891,
                0.4337989279825196,
                0.6429439025404972,
                0.7594789005396467,
                0.51099891,
                0.51099891,
                0.5109989099999999,
                0.40572421394455527,
                0.51099891,
                0.06080418653396957,
                0.5109989099999999,
                0.8136169853116386,
                0.48238940999999996,
                0.51099891,
                0.5174344469571656,
                0.4174157838218622,
                0.07303899999999999,
                0.29038687700838595,
                0.9889179534045254,
                0.15614277758717954,
                0.1659719371822829,
                0.51099891,
                0.9497927057380559,
                0.3105365513192414,
                0.05323044530165688,
                0.30134589740636486,
                0.08523540000000002,
                0.5109989099999999,
                0.5109989099999999,
                1.2745373401794637,
                0.23813923615869637,
                1.274537340179464,
                0.07878397400321085,
                0.51099891,
                0.1689958300337447,
                0.51099891,
                0.09924646812455405,
                0.40322280839256464,
                0.51099891,
                0.4014989243642344,
                0.21535725228121982,
                1.2745373401794642,
                0.07525,
                1.274537340179464,
                0.51099891,
                0.16307838715628642,
                0.2014988804286123,
                0.51099891,
                0.06055465936813348,
                0.51099891,
                0.4255093451982027,
                0.51099891,
                1.2745373401794642,
                0.09202845167465457,
                1.274537340179464,
                0.17480002313794502,
                1.274537340179464,
                0.28334578996410265,
                0.07525,
                0.51099891,
                0.51099891,
                0.3436831064024739,
                0.3898513302450729,
                0.34854834378194416,
                0.36930106180359057,
                0.46881672759891446,
                0.32049695989317134,
                0.5109989100000001,
                0.1670170284706527,
                0.15738235684110635,
                0.37650591403911043,
                0.2981990292054709,
                0.006563040949924104,
                0.51099891,
                0.51099891,
                0.22285759475791345,
                0.8557397210355919,
                0.35987792839505484,
                0.10195112827614178,
                0.9204215424492477,
                0.2760068443121153,
                0.3615832878033558,
                0.51099891,
                0.51099891,
                0.5109989100000001,
                1.274537340179464,
                0.04245856326460183,
                0.5109989099999999,
                0.8272017105520043,
                0.07525000000000001,
                0.51099891,
                1.2745373401794637,
                0.51099891,
                0.08523539999999999,
                0.4835912540297773,
                0.8526718092262918,
                0.9519931041879299,
                0.51099891,
                0.51099891,
                0.28263976119208156,
                0.51099891,
                0.9672442395170953,
                0.38521713386015083,
                0.32747650845635845,
                0.2608422233551938,
                1.274537340179464,
                0.2807385049987725,
                0.5109989099999999,
                0.26525143724324207,
                0.7571834803037677,
                0.008967840800724602,
                0.51099891,
                0.51099891,
                0.29448753762043284,
                0.51099891,
                0.2788114891151079,
                0.3947370120551159,
                1.274537340179464,
                1.2745373401794637,
                0.12015527213598008,
                0.904577557299644,
                0.11632803160755206,
                0.51099891,
                0.51099891,
                0.0634805874128952,
                0.3360122833394275,
                0.5109989099999999,
                0.25077984811348875,
                0.51099891,
                0.5109989100000001,
                0.2527165192025902,
                0.5109989099999999,
                0.4106486945256463,
                0.34681672225448773,
                0.6885987269419506,
                0.5109989099999999,
                0.44586223749246523,
                0.8092664858702392,
                0.51099891,
                0.51099891,
                1.274537340179464,
                0.8425330849442145,
                0.51099891,
                0.51099891,
                0.51099891,
                0.44780922504370213,
                0.51099891,
                0.51099891,
                1.274537340179464,
                0.17039680978211091,
                0.4018822775552712,
                0.2187553228232002,
                0.40897187520309464,
                0.51099891,
                0.07303900000000002,
                0.51099891,
                0.5109989099999999,
                0.5109989100000001,
                0.3220920894816446,
                0.5109989099999999,
                0.51099891,
                0.24471833495097836,
                0.5109989099999999,
                0.3733285184713284,
                0.3973173212346887,
                0.6501133571090179,
                1.2745373401794642,
                0.3321138411072426,
                0.51099891,
                0.07525,
                0.0852354,
                0.51099891,
                0.12044877693772292,
                0.09470197568325907,
                0.51099891,
                0.51099891,
                0.16959818395926218,
                0.8876911154048573,
                0.51099891,
                0.5109989100000001,
                1.097893492658603,
                0.08322761921168442,
                0.7080132961564841,
                0.4248016796484153,
                0.51099891,
                0.12848462269588445,
                0.51099891,
                0.2574296510388679,
                0.04993491779780218,
                0.17996105245770938,
                0.35464646518265497,
                0.21859989999601664,
                0.7199392418770516,
                0.5109989099999999,
                0.10162305471221966,
                0.03867962253122759,
                0.1955029452403249,
                0.5074911558077888,
                0.5109989099999999,
                0.5109989100000001,
                0.600981806655556,
                0.5728626690884382,
                0.09391359567453811,
                0.15535540761408545,
                0.51099891,
                0.51099891,
                0.5109989099999999,
                0.51099891,
                0.51099891,
                0.5109989099999999,
                0.17993517937289238,
                0.51099891,
                0.51099891,
                0.45100817679255834,
                0.6175995050946328,
                0.51099891,
                0.30732594490756515,
                0.2948151726949596,
                0.26505162448315545,
                0.35083685154068517,
                0.1369693321015474,
                0.2125263365264997,
                1.2745373401794637,
                0.1448502090147083,
                0.1484794853561895,
                1.274537340179464,
                0.51099891,
                0.005843609486217316,
                0.40551477596380225,
                0.51099891,
                0.51099891,
                0.5109989100000001,
                0.6614566144886037,
                0.07525,
                0.6082075399370955,
                0.46782360805658935,
                0.03126096749902235,
                0.5845668864587157,
                0.3489299266187883,
                0.36381598795682435,
                0.51099891,
                0.51099891,
                1.274537340179464,
                0.51099891,
                0.05523665715959869,
                0.3627577518500983,
                0.888709932945275,
                0.51099891,
                0.26247364674259704,
                0.5109989099999999,
                0.33250451862861413,
                0.51099891,
                0.5109989100000001,
                1.274537340179464,
                0.32109224046479057,
                0.08487088429647438,
                0.1065287281762467,
                0.5109989099999999,
                0.2560499139880619,
                0.8798269814508113,
                0.51099891,
                0.5109989100000001,
                0.2477369915062999,
                0.5109989099999999,
                0.5109989099999999,
                0.4145213053278942,
                0.17445394991129354,
                0.477042409050629,
                0.05162349904821356,
                0.51099891,
                1.2745373401794635,
                0.1139834381386255,
                0.51099891,
                0.2917771440907801,
                0.2717770146493922,
                0.38769503114229464,
                1.2745373401794642,
                0.51099891,
                0.21803710800670795,
                0.3483157340497238,
                0.1247304157441105,
                0.09174974101608596,
                0.51099891,
                0.51099891,
                0.51099891,
                0.35919660663086006,
                0.5473477654288017,
                0.08474069999999999,
                0.51099891,
                0.5109989099999999,
                1.0443212791908345,
                1.0570213091921732,
                0.05977430304968884,
                0.860186863378112,
                0.3906198248817858,
                0.4323548320785946,
                0.23680665212714014,
                0.5109989100000001,
                0.5109989100000001,
                0.3175415660501906,
                0.07524999999999998,
                0.11163079831212953,
                0.4457313137200623,
                0.51099891,
                0.51099891,
                0.07303899999999999,
                0.33579726719120734,
                0.28313624883988936,
                0.0852354,
                0.51099891,
                0.15043593656413468,
                0.06645557603023883,
                1.274537340179464,
                0.19458927177696217,
                0.51099891,
                0.087534,
                0.5109989100000001,
                0.51099891,
                0.51099891,
                0.12579563916755096,
                0.5890700687872399,
                0.08820240000000001,
                0.07239545876533132,
                0.5458635632355882,
                0.51099891,
                0.33866293763101984,
                0.19811016286074234,
                0.5109989100000001,
                0.20512855388749968,
                0.24719103723012736,
                0.5109989100000001,
                0.27536317687082873,
                0.51099891,
                0.40179619524641697,
                0.6426977255179782,
                0.51099891,
                0.5219584456168961,
                0.5109989099999999,
                0.20061047835991916,
                0.6852235394755806,
                0.087534,
                0.5556398245114427,
                0.06419989534061787,
                0.51099891,
                0.8369485433596928,
                0.7732127670011392,
                0.07779582135230756,
                0.28562899911284817,
                0.51099891,
                0.0026043161590774133,
                0.3213612415261506,
                0.3700300284058796,
                1.274537340179464,
                0.0328657890949321,
                0.18255561984209223,
                0.5109989100000001,
                0.51099891,
                0.51099891,
                0.5109989099999999,
                0.51099891,
                0.19963154113660886,
                0.51099891,
                0.21271469024909678,
                0.9455911523577445,
                1.274537340179464,
                0.3984850844432797,
                0.763538430179464,
                0.13509424473302228,
                0.51099891,
                0.08174604152159115,
                1.274537340179464,
                1.0345003979136465,
                0.5109989099999999,
                0.51099891,
                0.6156303078434602,
                0.5109989100000001,
                1.274537340179464,
                0.2703898372174249,
                0.51099891,
                0.10817577274526635,
                0.2260257105041591
            ],
            "photocathode": [
                3583,
                514,
                2339,
                8810,
                1097,
                2331,
                2212,
                8866,
                1138,
                8965,
                1410,
                6908,
                1134,
                299,
                7370,
                5013,
                9015,
                570,
                3112,
                5330,
                2743,
                2189,
                1011,
                780,
                3680,
                2391,
                5946,
                9058,
                3514,
                6905,
                3037,
                6390,
                800,
                3675,
                319,
                5827,
                5830,
                8965,
                7082,
                3573,
                1442,
                3596,
                2056,
                2190,
                9309,
                3471,
                3530,
                3493,
                170,
                3506,
                3520,
                6581,
                3625,
                3572,
                3710,
                131,
                6210,
                3631,
                4198,
                1442,
                721,
                544,
                3031,
                3510,
                3697,
                3573,
                1900,
                8979,
                3621,
                6605,
                2088,
                9099,
                336,
                1856,
                3532,
                3548,
                3598,
                3631,
                1859,
                3677,
                2679,
                1941,
                2308,
                2209,
                2385,
                2001,
                3542,
                3589,
                550,
                3552,
                3549,
                3676,
                1482,
                9041,
                1094,
                4748,
                701,
                2886,
                1037,
                3661,
                3623,
                493,
                3476,
                3643,
                1071,
                1289,
                3503,
                8707,
                3588,
                2232,
                3481,
                2396,
                51,
                3451,
                3336,
                8921,
                1236,
                3513,
                3627,
                3497,
                3067,
                4511,
                5427,
                3650,
                3643,
                3622,
                2761,
                3612,
                422,
                3453,
                5605,
                3341,
                3711,
                3687,
                2862,
                472,
                2076,
                6952,
                1081,
                1195,
                3458,
                6709,
                2139,
                375,
                2223,
                597,
                3487,
                3663,
                8785,
                1698,
                9038,
                542,
                3515,
                1233,
                3607,
                720,
                2883,
                3585,
                2863,
                1435,
                9021,
                518,
                8724,
                3646,
                1119,
                1437,
                3564,
                473,
                3590,
                2932,
                3628,
                8823,
                701,
                8992,
                1257,
                8864,
                1993,
                534,
                3535,
                3451,
                2345,
                2742,
                2334,
                2468,
                3251,
                2219,
                3641,
                1206,
                1086,
                2568,
                2090,
                43,
                3654,
                3401,
                1553,
                5978,
                2501,
                692,
                6439,
                1966,
                2466,
                3598,
                3531,
                3535,
                8865,
                302,
                3512,
                5664,
                567,
                3621,
                8968,
                3602,
                604,
                3332,
                6010,
                6922,
                3449,
                3512,
                1933,
                3657,
                6768,
                2756,
                2304,
                1875,
                8965,
                2012,
                3450,
                1775,
                5194,
                54,
                3586,
                3439,
                1996,
                3536,
                1915,
                2778,
                8853,
                9106,
                804,
                6384,
                781,
                3614,
                3420,
                467,
                2368,
                3566,
                1770,
                3571,
                3588,
                1784,
                3601,
                2877,
                2325,
                4805,
                3460,
                3090,
                5766,
                3709,
                3531,
                9039,
                6054,
                3678,
                3536,
                3589,
                3273,
                3687,
                3655,
                8959,
                1223,
                2838,
                1527,
                3068,
                3553,
                513,
                3554,
                3489,
                3576,
                2076,
                3701,
                3659,
                1729,
                3569,
                2551,
                2906,
                4591,
                9344,
                2365,
                3567,
                493,
                605,
                3640,
                843,
                663,
                3587,
                3721,
                1208,
                6205,
                3447,
                3725,
                7748,
                578,
                5113,
                2987,
                3612,
                910,
                3561,
                1782,
                321,
                1276,
                2502,
                1560,
                5086,
                3653,
                731,
                267,
                1320,
                3439,
                3585,
                3755,
                4228,
                3916,
                669,
                1115,
                3508,
                3595,
                3590,
                3560,
                3544,
                3624,
                1217,
                3469,
                3546,
                3246,
                4334,
                3530,
                2190,
                2086,
                1825,
                2430,
                935,
                1468,
                8878,
                997,
                1019,
                8861,
                3469,
                45,
                2928,
                3662,
                3557,
                3577,
                4563,
                491,
                4301,
                3286,
                231,
                4109,
                2492,
                2550,
                3611,
                3702,
                9083,
                3600,
                387,
                2477,
                6257,
                3598,
                1803,
                3669,
                2254,
                3618,
                3602,
                9045,
                2203,
                591,
                735,
                3651,
                1857,
                6190,
                3412,
                3535,
                1716,
                3537,
                3520,
                2946,
                1198,
                3280,
                349,
                3512,
                9138,
                805,
                3619,
                2020,
                1933,
                2652,
                9270,
                3694,
                1531,
                2494,
                877,
                610,
                3576,
                3587,
                3631,
                2553,
                3974,
                631,
                3733,
                3620,
                7170,
                7395,
                420,
                6107,
                2691,
                2925,
                1629,
                3628,
                3510,
                2210,
                558,
                770,
                3190,
                3552,
                3632,
                551,
                2223,
                1937,
                622,
                3484,
                1027,
                488,
                8781,
                1346,
                3550,
                602,
                3570,
                3572,
                3661,
                886,
                4055,
                631,
                499,
                3950,
                3550,
                2322,
                1283,
                3568,
                1437,
                1766,
                3617,
                1960,
                3522,
                2865,
                4556,
                3517,
                3726,
                3707,
                1470,
                4689,
                598,
                3854,
                453,
                3475,
                5843,
                5532,
                550,
                2026,
                3625,
                18,
                2170,
                2548,
                8910,
                262,
                1315,
                3553,
                3523,
                3740,
                3508,
                3432,
                1388,
                3578,
                1450,
                6590,
                8853,
                2788,
                5289,
                970,
                3761,
                568,
                8912,
                7128,
                3655,
                3551,
                4283,
                3548,
                8890,
                1876,
                3657,
                777,
                1602
            ]
        },
        "detections": 500,
        "events": 34833
    }
}