{
    "job_args": {
        "metric_limit": 500,
        "seed": 257910311
    },
    "job_id": "batch_36_do_500",
    "result": {
        "collections": {
            "crystal": [
                0.6181724837842517,
                1.460822329157775,
                1.1181637629577381,
                0.5133307342765188,
                0.6321325106993558,
                0.6228504567024115,
                0.6477878499385173,
                0.1419888216496097,
                0.748380463730111,
                0.8165999741274352,
                0.38382460991845285,
                0.4965573511792458,
                1.460822329157775,
                0.12710622354273637,
                0.7775645919234899,
                0.5319776935367698,
                1.4608223291577749,
                0.4502638065664091,
                0.1394440568343962,
                1.017864948753291,
                0.6818812974076532,
                0.25140502980271157,
                0.6215635903022488,
                0.7018907572138018,
                1.2197938491596922,
                0.8519332851661656,
                1.113504845721799,
                0.36658938240437633,
                1.0174003395698588,
                1.2603380026065372,
                0.05926788240547326,
                0.0315113412322634,
                0.2748703536613383,
                0.10231401479201692,
                0.9718879249888644,
                0.6316633038774585,
                1.4608223291577755,
                0.6124351156894636,
                1.2347735068651067,
                1.1576894575408982,
                1.03493574987708,
                0.9114472016244425,
                0.7395298825467889,
                1.460822329157775,
                1.460822329157775,
                1.4608223291577747,
                1.4608223291577747,
                0.31504114509499836,
                0.2973788582906935,
                1.2557559063211847,
                0.34622027193545657,
                1.2095350873856137,
                1.0353114184588321,
                0.5393561983148375,
                0.387675423094261,
                1.460822329157775,
                0.3772375746722809,
                0.8211076965824549,
                0.6937066392576677,
                0.3170206954663191,
                1.4608223291577753,
                0.09148403250854664,
                0.2731283522890221,
                0.3587336172969635,
                1.460822329157775,
                0.7795199410632768,
                0.4460861086074746,
                0.8131376731863985,
                0.2940237507787461,
                1.2043956566478313,
                0.3533661758552774,
                1.4608223291577749,
                1.0447348531079936,
                1.1815894102059064,
                0.36880676466055573,
                0.08523539999999999,
                0.8774781490014149,
                0.9027605846053853,
                0.28540363424158477,
                1.460822329157775,
                0.23431044793208677,
                1.460822329157775,
                0.6449457146233405,
                0.3631774511244626,
                1.4608223291577753,
                0.044429500000000004,
                1.2176336617858357,
                0.8154401889363199,
                0.756047031892484,
                0.23288783500729776,
                0.2715195808815476,
                0.36179376061224006,
                0.3580974961011706,
                0.35589731821589526,
                1.460822329157775,
                0.07277704965334275,
                0.2284649097033871,
                0.14113730814633582,
                1.460822329157775,
                1.418629887464298,
                0.25820838570423155,
                0.07303899999999999,
                1.1196953467244581,
                0.7634304225167796,
                0.32814193705356665,
                1.4608223291577753,
                0.5334681531193193,
                0.9654991159535969,
                0.6862193200032033,
                0.9174323569755706,
                1.460822329157775,
                0.3960519843592538,
                0.6252403196424385,
                0.8512218374243974,
                0.8458925544521121,
                0.5292640547266406,
                1.0628971863309242,
                1.4608223291577749,
                1.037515407859148,
                0.9078968974877926,
                1.460822329157775,
                0.7020120507464285,
                1.1226412407476434,
                0.21323687017479487,
                0.8512303631925806,
                0.6420127200237736,
                0.2650601777407162,
                1.4608223291577753,
                1.1599686516631316,
                0.8338486628987379,
                0.7679051686704405,
                0.5763392881865707,
                0.8575754462791801,
                1.460822329157775,
                0.5134233401162418,
                0.39754902672050985,
                0.028427783383331184,
                0.8783866524823816,
                0.4970058512111682,
                1.165260211321634,
                0.6132279249010529,
                0.39577832155246334,
                1.1009908899078804,
                1.1296489863938486,
                0.6713535055500421,
                0.07525,
                0.8326158951045058,
                0.5247900014817647,
                0.9867142844166439,
                0.3362960803271555,
                0.5868135300823425,
                1.4608223291577753,
                1.284430460146002,
                0.060423873162744446,
                0.12671209030298813,
                0.7505832407665978,
                0.9665479301592208,
                0.9992277073957296,
                1.096345125578425,
                0.29838435655113504,
                0.6303508525780475,
                0.33050218758843086,
                0.7331471313957478,
                0.3647675734380752,
                1.460822329157775,
                1.1620855826364278,
                0.01274782885453507,
                0.8626208744611492,
                0.8322640458761102,
                0.604891075352754,
                0.45445484668648783,
                0.6016261627784658,
                1.460822329157775,
                0.6273596976496156,
                1.460822329157775,
                1.4608223291577753,
                1.460822329157775,
                0.5188793938916751,
                1.4608223291577749,
                0.2625695444889026,
                0.16302805205772342,
                0.51099891,
                0.3561423984421547,
                0.39723147567565176,
                1.230837609788909,
                0.2975313920232553,
                1.460822329157775,
                1.460822329157775,
                0.47508073579815036,
                0.04576625412821139,
                1.4089456556279931,
                1.460822329157775,
                0.10752060002985364,
                0.9705908222719446,
                0.7119865541164729,
                1.4608223291577749,
                1.460822329157775,
                0.3731256474955489,
                0.28136320513396107,
                0.5664247445883355,
                1.3897093370510207,
                0.38373263125616175,
                1.206939669404323,
                0.45911860886537953,
                1.4608223291577749,
                0.9892919368645448,
                0.4952135263470484,
                0.23383679180733222,
                0.14978000140432257,
                1.1288580360881941,
                0.7191973059671742,
                0.25738454632622093,
                0.21479484664849952,
                0.047822874364578216,
                0.6594815891484785,
                0.916312628536493,
                0.732956000221582,
                0.041812764557196624,
                0.724006140798672,
                1.4608223291577749,
                1.115922977201253,
                0.3664640428883113,
                0.7750030433298627,
                1.4608223291577755,
                0.6349781692211135,
                0.6295381035328071,
                0.339674488241893,
                0.5503661152343259,
                0.5277883712885122,
                1.4608223291577749,
                1.007386103718434,
                0.47648391853448,
                1.145488433322336,
                0.10273888790878205,
                1.3010767894771733,
                1.460822329157775,
                1.06958194265703,
                0.7496325528668694,
                1.460822329157775,
                0.9498234191577751,
                0.3856377211646763,
                0.6278116413146364,
                1.460822329157775,
                1.460822329157775,
                0.3421075472098929,
                0.20930001816609578,
                1.460822329157775,
                0.4964999010081079,
                0.9251085973566284,
                1.4608223291577753,
                1.2428150215164677,
                1.1574692727763274,
                0.39367563535461486,
                0.7917011158586832,
                0.7271253107785259,
                0.07524999999999998,
                0.9049547684808544,
                0.44310883341374696,
                1.4608223291577749,
                0.031922387686222575,
                0.7416231360959731,
                0.9376696546087183,
                0.18056123727838733,
                0.05552648298664131,
                1.2152149009963176,
                0.48941253227267656,
                0.2637898655515493,
                0.500663713577843,
                0.7256481646454316,
                0.413608031241917,
                0.08910681242063567,
                0.7073337482638167,
                0.5378132393934455,
                0.4011291197387761,
                0.23316588451548872,
                1.1999461355536518,
                0.2715629656384879,
                1.213667991354674,
                1.460822329157775,
                0.2783352070643478,
                1.460822329157775,
                1.460822329157775,
                1.4608223291577753,
                0.17619147874877017,
                0.3582779595956613,
                0.20694575101518575,
                0.3969147397342736,
                0.9790262818592421,
                0.035751989013602437,
                0.7860819508441209,
                1.142382515787548,
                1.4608223291577749,
                1.4608223291577753,
                0.7587087810071498,
                0.799784979068827,
                0.2777398629884859,
                0.4860068385974339,
                1.460822329157775,
                1.460822329157775,
                1.122909902260903,
                0.18442080107895756,
                0.28499971878391256,
                1.4608223291577753,
                0.06420663112970804,
                0.27919057058009017,
                1.1624391819239979,
                1.4608223291577753,
                1.2326628274117843,
                0.3341927910766736,
                0.6048759342009495,
                0.5091794561025468,
                1.4608223291577749,
                0.8554462273464521,
                1.4608223291577755,
                1.2251509461787728,
                0.5149580215378723,
                0.5912987029604114,
                0.45553430803163286,
                0.9657484806601679,
                0.01752936844092412,
                0.404506171982212,
                1.2304654998514493,
                0.8290275900415067,
                1.4608223291577749,
                1.4608223291577753,
                1.095219259018241,
                0.4683321673755662,
                0.9382451475512943,
                1.2317844434032086,
                1.4608223291577753,
                0.07303899999999999,
                0.0852354,
                1.4608223291577755,
                0.9977021619850153,
                1.4608223291577749,
                0.929979027960983,
                0.5648247397688073,
                1.35752471437129,
                1.256702331677681,
                0.5605090909278339,
                0.1334951441724166,
                1.0357124347315758,
                1.460822329157775,
                0.6997260663965601,
                0.3413953397293737,
                1.460822329157775,
                1.0007493574936772,
                1.4608223291577749,
                0.27223589920890423,
                1.4608223291577749,
                1.460822329157775,
                0.2969237471389714,
                0.9321165079664275,
                0.4583037568592739,
                0.3905009809372666,
                0.4853003157995887,
                1.2139432582475047,
                1.0530230754793262,
                0.12209742199860868,
                0.11917023988811803,
                0.5601525443729813,
                1.0495435659686807,
                0.8080315362510573,
                0.3784482336557892,
                0.4022710366018639,
                1.4608223291577749,
                1.048366122061806,
                0.28532781849087463,
                1.1249818847543152,
                0.24162285828518149,
                1.2700871845511208,
                0.44643804567881396,
                0.24247338969776414,
                1.233504471751987,
                1.0205613649774454,
                0.254555151971558,
                1.460822329157775,
                0.7774978380061552,
                0.3097776829986809,
                1.460822329157775,
                0.4297692178576835,
                0.16542379979290833,
                0.055531880917356,
                1.0611091636379173,
                0.8794585830852416,
                0.3265244905122433,
                0.9042290775662961,
                0.9515745101653901,
                0.11473046195625147,
                0.574020612468982,
                0.4707607673670824,
                1.4608223291577753,
                0.5978200503973763,
                0.25701806536942556,
                1.460822329157775,
                0.4604543968419601,
                1.3785522645464239,
                0.392411530454724,
                1.2136058371188199,
                1.1764251390610245,
                0.3471896883176314,
                1.460822329157775,
                1.1136545571620988,
                1.4514505577924919,
                1.460822329157775,
                1.4608223291577753,
                0.8704361096659626,
                1.460822329157775,
                0.544390766768818,
                0.3998762667374023,
                0.6093337232143359,
                1.4608223291577749,
                0.33920265216157075,
                0.27960536863869734,
                0.8567715405448925,
                0.3469196714035767,
                1.0552079177069813,
                1.4608223291577753,
                0.015715907565631237,
                0.06811265183423165,
                0.576145716164656,
                0.9675367098517118,
                0.26191920106249966,
                0.0466405,
                1.209491603607295,
                0.1608867708792149,
                0.9643728850373768,
                0.6731904862498124,
                0.26921010737736356,
                1.460822329157775,
                1.460822329157775,
                0.7136912300489391,
                0.056288376560824645,
                1.4608223291577749,
                1.4608223291577753,
                0.33985058509897526,
                1.4014255143100245,
                0.4649175274676537,
                0.19051633666047846,
                1.1048766050462575,
                1.0452812004555319,
                1.0151395314152514,
                1.4608223291577749,
                0.03154355207496384,
                1.460822329157775,
                0.30077896229247536,
                0.5088344202179378,
                0.0839314357604841,
                1.1407202980710593,
                1.0045348920557713,
                1.266724806818116,
                0.1426138075590928,
                0.24203357739787368,
                0.6720010061184961,
                0.3186485669964817,
                1.460822329157775,
                0.8864751967300553,
                1.0059972130674726,
                0.07525,
                0.07525,
                0.1509941827802299,
                1.460822329157775,
                0.4966321760247951,
                0.013311739306610448,
                0.2167649387240105,
                0.3475241519224681,
                0.33050908263787315,
                1.2278722337949275,
                0.7374645324959739,
                0.1670999680214441,
                0.26367635968052405,
                0.4207448869709147,
                0.8429285339845822,
                0.3729957315677761,
                0.7575062140955643,
                1.460822329157775,
                0.18584511833782025,
                0.6081146701869211,
                1.0048886462536937,
                0.2536140002086455,
                1.171795404260153,
                0.9774110177320642,
                0.42934298300216034,
                0.073039,
                0.9589541375762282,
                0.7264985494203685,
                0.28538895693802596,
                1.2277140038506327,
                0.5587113206242106,
                1.1366999079199402,
                0.2465787627393618,
                0.5227968883753739,
                1.1242571700908373,
                1.460822329157775,
                1.460822329157775,
                0.369082720069336,
                1.1370182814632905,
                1.2388518928955359,
                0.2861870566566129,
                0.27279362164746784
            ],
            "photocathode": [
                4308,
                10321,
                7923,
                3553,
                4393,
                4436,
                4808,
                1020,
                5236,
                5711,
                2699,
                3597,
                10389,
                830,
                5644,
                3682,
                10346,
                3132,
                977,
                7060,
                4776,
                1802,
                4417,
                4906,
                8620,
                5885,
                7868,
                2590,
                7131,
                8809,
                411,
                222,
                1909,
                766,
                6945,
                4439,
                10349,
                4470,
                8517,
                8129,
                7314,
                6432,
                5269,
                10319,
                10371,
                10155,
                10126,
                2272,
                2117,
                8740,
                2442,
                8338,
                7370,
                3718,
                2637,
                10206,
                2638,
                5796,
                4743,
                2199,
                10199,
                626,
                1850,
                2514,
                10293,
                5411,
                3207,
                5582,
                2091,
                8503,
                2457,
                10091,
                7262,
                8441,
                2675,
                644,
                6079,
                6248,
                2031,
                10552,
                1651,
                10478,
                4417,
                2622,
                10348,
                303,
                8550,
                5846,
                5312,
                1659,
                1935,
                2508,
                2551,
                2435,
                10356,
                511,
                1588,
                972,
                10108,
                10001,
                1897,
                507,
                7801,
                5504,
                2231,
                10358,
                3831,
                6807,
                4751,
                6528,
                10159,
                2875,
                4395,
                5910,
                6011,
                3684,
                7422,
                10437,
                7322,
                6191,
                10471,
                5014,
                7892,
                1478,
                6057,
                4510,
                1936,
                10147,
                8271,
                5833,
                5466,
                4188,
                6128,
                10306,
                3593,
                2863,
                201,
                6198,
                3478,
                8126,
                4248,
                2724,
                7871,
                8059,
                4701,
                525,
                5850,
                3539,
                7078,
                2360,
                4155,
                10016,
                9111,
                413,
                906,
                5307,
                6788,
                6882,
                7718,
                2175,
                4451,
                2296,
                5280,
                2504,
                10198,
                8337,
                109,
                6184,
                5919,
                4221,
                3157,
                4211,
                10398,
                4411,
                10105,
                10217,
                10352,
                3626,
                10468,
                1818,
                1131,
                3574,
                2560,
                2866,
                8643,
                2096,
                10507,
                10181,
                3437,
                353,
                9990,
                10280,
                711,
                7169,
                4942,
                10452,
                10234,
                2642,
                2046,
                3905,
                9853,
                2817,
                8686,
                3262,
                10231,
                6839,
                3423,
                1659,
                1085,
                7909,
                5046,
                1780,
                1500,
                315,
                4755,
                6427,
                4976,
                296,
                4982,
                10344,
                7887,
                2684,
                5381,
                10185,
                4505,
                4461,
                2388,
                3969,
                3717,
                10356,
                7017,
                3389,
                8170,
                754,
                9093,
                10112,
                7796,
                5243,
                10506,
                6715,
                2711,
                4421,
                10124,
                10152,
                2412,
                1443,
                10010,
                3440,
                6294,
                10160,
                8759,
                8290,
                2819,
                5489,
                5067,
                558,
                6306,
                3042,
                10610,
                226,
                5263,
                6827,
                1300,
                359,
                8558,
                3471,
                1882,
                3517,
                5102,
                2968,
                605,
                4926,
                3789,
                2828,
                1678,
                8528,
                1913,
                8380,
                10258,
                2035,
                10203,
                10190,
                10095,
                1201,
                2484,
                1462,
                2877,
                6967,
                251,
                5588,
                8069,
                9974,
                10443,
                5489,
                5475,
                1901,
                3456,
                10191,
                10047,
                7858,
                1292,
                2042,
                10088,
                455,
                1933,
                8232,
                10352,
                8351,
                2485,
                4133,
                3554,
                10321,
                6212,
                10158,
                8600,
                3582,
                4059,
                3240,
                6874,
                127,
                2810,
                8900,
                5769,
                10244,
                10136,
                7518,
                3223,
                6495,
                8612,
                10431,
                474,
                572,
                10334,
                7203,
                10390,
                6564,
                3992,
                9470,
                8805,
                3935,
                920,
                7320,
                10328,
                4887,
                2522,
                10504,
                7106,
                10290,
                1921,
                10489,
                10046,
                2133,
                6710,
                3335,
                2944,
                3419,
                8517,
                7324,
                878,
                868,
                3829,
                7338,
                5636,
                2717,
                2855,
                10076,
                7460,
                2020,
                8090,
                1700,
                8894,
                3161,
                1634,
                8594,
                7226,
                1702,
                10172,
                5340,
                2207,
                10142,
                3044,
                1230,
                358,
                7416,
                6179,
                2251,
                6396,
                6778,
                798,
                3997,
                3391,
                10287,
                4229,
                1759,
                10282,
                3246,
                9657,
                2790,
                8651,
                8231,
                2238,
                10291,
                7928,
                10192,
                10313,
                10122,
                6062,
                10383,
                3777,
                2744,
                4267,
                10197,
                2388,
                1894,
                6057,
                2389,
                7380,
                10341,
                109,
                478,
                4102,
                6802,
                1808,
                319,
                8593,
                1075,
                6780,
                4541,
                1889,
                10327,
                10678,
                4966,
                386,
                10375,
                10033,
                2335,
                9822,
                3367,
                1387,
                7766,
                7375,
                7241,
                10155,
                225,
                10223,
                2026,
                3561,
                597,
                8106,
                7142,
                9038,
                1036,
                1739,
                4722,
                2287,
                10273,
                6233,
                7159,
                520,
                519,
                1039,
                10176,
                3537,
                101,
                1474,
                2387,
                2221,
                8638,
                5243,
                1224,
                1805,
                3039,
                5777,
                2655,
                5183,
                10253,
                1268,
                4164,
                7062,
                1820,
                8308,
                6866,
                2933,
                517,
                6772,
                5235,
                1929,
                8602,
                3975,
                7915,
                1752,
                3688,
                7706,
                10331,
                10500,
                2588,
                7791,
                8835,
                2043,
                1897
            ]
        },
        "detections": 500,
        "events": 1154655
    }
}