{
    "job_args": {
        "metric_limit": 500,
        "seed": 2053285338
    },
    "job_id": "batch_13_do_500",
    "result": {
        "collections": {
            "crystal": [
                0.3340092605139249,
                0.4071750865055175,
                1.2337641769340186,
                1.4608223291577749,
                0.2764272723280212,
                1.460822329157775,
                0.09191328410190769,
                1.460822329157775,
                1.0430977498637026,
                1.4133200046564227,
                0.4249310987078435,
                0.06919825273647895,
                1.4608223291577753,
                0.40952985541512366,
                0.023521617696731,
                1.4608223291577747,
                0.19078644588463972,
                1.460822329157775,
                0.5522329032242235,
                0.3090579641584239,
                0.3968337055488871,
                0.6951828150392865,
                0.5213937926988613,
                1.4608223291577753,
                0.5339084048448536,
                1.4608223291577749,
                0.27828075700522215,
                0.952583668845365,
                0.5633762463997536,
                0.8011270450402337,
                0.31973461212473425,
                0.3487969345655839,
                1.1810398964686402,
                0.403815197359539,
                0.42050810340993106,
                1.150859381883371,
                0.6135342832907076,
                1.1898961040258818,
                0.073039,
                0.1919663453369476,
                1.4608223291577749,
                0.17522303551993454,
                0.8562211630653579,
                0.5105360734116544,
                0.8602184158972952,
                1.0833128061763275,
                0.2928166329645183,
                1.460822329157775,
                0.6907967108628519,
                0.7549663454422467,
                1.282239760854945,
                0.5740318112758843,
                1.4608223291577747,
                1.4608223291577753,
                1.4608223291577749,
                1.4608223291577753,
                1.460822329157775,
                0.5559442183637237,
                1.460822329157775,
                0.6131551836766859,
                1.460822329157775,
                0.4269429758692203,
                0.8999906908103481,
                0.7265266204587161,
                1.460822329157775,
                1.3619963445882206,
                0.02222072451531243,
                0.7033519999374761,
                0.07525,
                0.21275894487877425,
                0.20761196032829465,
                1.1790668854829007,
                0.4492005646686503,
                0.9498234191577751,
                0.07055819979190514,
                0.21308683193400274,
                0.04557464352602858,
                0.38341710826907016,
                0.2914180219763085,
                1.100279559367698,
                0.37134559563758446,
                1.0376349483716598,
                1.460822329157775,
                0.7907643603191827,
                1.4608223291577753,
                0.8464584056466085,
                0.6030389228473108,
                0.9498234191577751,
                1.460822329157775,
                0.6081452539166156,
                0.2087519312097446,
                0.7478749927221164,
                1.162515175807527,
                1.1413632185557034,
                1.460822329157775,
                0.353550704933314,
                0.16634052905065477,
                0.7213414791288831,
                0.6582669974906251,
                0.24649960351236633,
                1.2191048412198464,
                1.4608223291577753,
                1.460822329157775,
                0.1413565573723572,
                1.460822329157775,
                0.4262149956375304,
                0.48210975062461275,
                1.460822329157775,
                0.8281864281794564,
                0.12650231205255646,
                1.1443058835386746,
                1.460822329157775,
                1.460822329157775,
                1.275235561530555,
                1.460822329157775,
                1.4608223291577749,
                0.3988802684144426,
                1.4608223291577749,
                0.4014266409705928,
                1.4608223291577753,
                1.460822329157775,
                1.0878844604517341,
                1.4608223291577753,
                0.9352517533527759,
                0.3892219023970842,
                0.07495540141391333,
                0.3271289936593391,
                1.0225756312389842,
                1.1776185077677843,
                0.42836199267524966,
                0.002961890559278868,
                0.5835320322441815,
                0.9595022000704364,
                0.07525,
                0.7557876082246301,
                1.4608223291577749,
                0.5109989100000001,
                0.24395299256902495,
                0.0381583712656155,
                0.22335028453577355,
                0.8621321352517217,
                1.4608223291577753,
                0.6907646273544514,
                0.7142569280803698,
                0.9420192263905386,
                1.4608223291577749,
                0.9911070872236719,
                1.4608223291577749,
                0.5211974995840631,
                0.4638107748495485,
                0.4644327614292401,
                0.26584962866697437,
                0.518384445548237,
                0.40849956674634424,
                1.460822329157775,
                1.118852114754601,
                0.24831148185670904,
                1.1559335075123158,
                0.04134989142983936,
                0.5984902339060367,
                0.357314847738065,
                0.8889258676314534,
                1.4608223291577749,
                0.13969746932544092,
                0.5309633648066837,
                0.8837167049788169,
                0.1258278699814691,
                0.501911860848536,
                1.460822329157775,
                0.3523482862788955,
                0.48931454466581126,
                0.12579377957194007,
                1.460822329157775,
                0.021268546097613195,
                0.5456322136463869,
                1.460822329157775,
                0.1879668791001381,
                0.3905200444144742,
                0.644631757985897,
                0.4814991202686348,
                1.460822329157775,
                0.451992555777811,
                0.317596467451448,
                0.25257612473455954,
                0.49622904888680547,
                0.5129155552402462,
                1.4608223291577753,
                0.38770609233639813,
                0.22731507570763965,
                1.0256207603347813,
                0.9110770180154044,
                1.122257994644471,
                0.20798586540244252,
                1.4608223291577749,
                1.460822329157775,
                0.8702564351692517,
                0.29979812378333937,
                0.23222134093582592,
                0.6368533622897246,
                1.0085680379550743,
                1.4608223291577753,
                1.460822329157775,
                1.4608223291577753,
                1.460822329157775,
                0.2236298061989012,
                1.2416664094092287,
                0.17509778905961682,
                0.31281765227754277,
                0.19638981174767234,
                1.0285603719910723,
                0.4584518052882449,
                1.1601768335364562,
                1.2255975133003663,
                0.17929247765339376,
                0.48920360713429206,
                0.27155151289582025,
                0.8178344856461617,
                0.34740487798265685,
                0.36931990944176313,
                0.5190586586749601,
                0.44064530796421936,
                0.8123332227967491,
                0.7184393263233159,
                0.6402018085763743,
                0.3009106317001362,
                0.7853189180614959,
                0.19561131109155533,
                0.5603404201296593,
                0.9163707939908808,
                1.4608223291577749,
                1.2334546779229598,
                0.98382281763521,
                1.3904405469034204,
                0.07525000000000001,
                1.1399886046291998,
                0.037885990623732435,
                1.4608223291577753,
                0.972866765100223,
                0.413634511720262,
                0.9748131305950449,
                0.3497574447768121,
                1.460822329157775,
                1.460822329157775,
                0.5547946269190246,
                0.28185248880745184,
                0.5826166087690466,
                0.5007731168444391,
                0.6465659879989052,
                1.460822329157775,
                0.4579680584351392,
                0.2367770141345289,
                0.41366896406736736,
                0.8625682601294571,
                1.1215686880284463,
                0.6816214767860924,
                0.6855090955321536,
                1.460822329157775,
                0.8325270474653478,
                0.550991132701149,
                1.2043728207762137,
                0.15035957825032165,
                0.07525,
                1.0922331818166868,
                0.3130238584596181,
                0.09453681953281545,
                0.36758785366022173,
                0.3394624165545384,
                0.5951382794134011,
                0.3890567392910596,
                0.864781877050439,
                0.36993895520307407,
                1.4608223291577749,
                1.0949231350773165,
                0.931999913145134,
                0.500926036652463,
                0.7654852268886092,
                0.0847407,
                0.8481276182400864,
                1.4608223291577755,
                1.1849231976728998,
                0.25404634412075033,
                1.4608223291577749,
                0.6670113180422601,
                0.3247029939180098,
                0.7652285171601765,
                0.0852354,
                1.460822329157775,
                0.14108497012023766,
                1.4608223291577753,
                1.0587115701736143,
                0.3819054046330525,
                1.0792694378477787,
                0.6931929636574083,
                0.41555516711740315,
                1.460822329157775,
                1.4608223291577753,
                0.41043201543886515,
                0.6514137181413355,
                1.460822329157775,
                1.2045978351546913,
                0.03346687088117717,
                0.8242348086691784,
                1.1548677016264481,
                0.370678035134223,
                0.3152614258760325,
                1.4608223291577753,
                1.460822329157775,
                0.3315281490076354,
                1.1124351050740275,
                1.3608408031906387,
                0.5337841993307638,
                1.0339248278448434,
                0.8932578794455611,
                0.5219627640074227,
                1.4608223291577749,
                0.5887584365009245,
                1.1116186047712302,
                1.4237004006096556,
                1.460822329157775,
                0.45104210332088174,
                0.3708417747675465,
                1.460822329157775,
                1.4608223291577753,
                0.1790517187774549,
                1.460822329157775,
                0.5589846878796796,
                0.3960056532185584,
                0.43177211361953105,
                1.4608223291577749,
                0.08866517238877725,
                0.30595386406177055,
                0.11491369976424665,
                1.460822329157775,
                0.6091625788601874,
                1.460822329157775,
                0.956276183084477,
                0.054604133988765347,
                0.7365016132376666,
                1.460822329157775,
                0.46092335646266425,
                1.460822329157775,
                1.0043752187582515,
                0.4208308605780445,
                1.1642361074071867,
                1.0553545070335981,
                0.38510152377349827,
                1.2211252239504558,
                0.7849083111247446,
                0.9332297932679628,
                1.0155903263016453,
                1.0971828064659286,
                0.5132936652371248,
                1.460822329157775,
                1.460822329157775,
                0.49967512090586996,
                1.1332934346995058,
                1.460822329157775,
                0.2685057029757052,
                0.3178271526572488,
                0.9138796306520353,
                0.8010334692294611,
                1.4608223291577749,
                0.567243774602862,
                1.4608223291577749,
                0.21974283005315404,
                0.9963662324564765,
                0.37075562799988115,
                0.7241945749901592,
                1.2134775363501134,
                1.4608223291577753,
                0.087534,
                0.41923568720302895,
                0.598119486521747,
                1.460822329157775,
                0.3102546633476572,
                0.6462011933627793,
                0.7523997366974136,
                0.3604663094206353,
                0.04468834006707256,
                0.21139239604383903,
                0.26064661441253706,
                1.239845333024253,
                1.0237989644453633,
                1.460822329157775,
                0.5975903144011424,
                0.0816022998259891,
                1.1641402150310751,
                1.0005030404257809,
                1.4608223291577749,
                0.43870414444465045,
                0.6364116683386807,
                1.1560513674196977,
                0.8818448769789805,
                0.5955981741752258,
                0.4468195784518682,
                0.08522498350369623,
                0.9961026632590395,
                0.9910159387016173,
                0.5035236878413923,
                0.4541566605544906,
                0.5417662006241599,
                1.460822329157775,
                0.9557205378536562,
                0.2425899131425864,
                0.12512208878013764,
                0.7213524899732232,
                1.0942553237161006,
                1.209249375704129,
                1.2089647909615298,
                0.3083596550210629,
                0.6655684016778289,
                1.4608223291577753,
                1.460822329157775,
                1.2019778829847259,
                1.460822329157775,
                0.16144513764248156,
                0.5220290390600176,
                1.044776371358231,
                0.08474069999999999,
                0.11360240955773993,
                0.9915495867859005,
                1.460822329157775,
                0.5109989100000001,
                0.042600291155350245,
                1.2500071885604085,
                0.45144295145522967,
                0.06126825206576125,
                0.10433015483428466,
                0.7861597920746639,
                0.15087576687232018,
                0.49468372833349333,
                1.0362464187766576,
                0.43523111865756514,
                0.6097802296895942,
                0.7855646145902516,
                0.33411414106065074,
                0.17945596217607873,
                0.3622903530509195,
                1.167022162191123,
                1.1992144791587211,
                0.7256276406250801,
                1.0865035733555917,
                1.460822329157775,
                1.4608223291577753,
                0.5375684154993831,
                1.460822329157775,
                0.35148430326262514,
                1.460822329157775,
                0.4416667876325058,
                0.09367141276808821,
                0.862014041798125,
                0.43096200102921256,
                0.10727124273563794,
                1.460822329157775,
                1.460822329157775,
                1.152249163563012,
                0.5639945387023376,
                0.5766317267331827,
                0.1788259030085317,
                0.7685039569447691,
                0.6638964882503634,
                1.1092595834524546,
                0.26936079492355836,
                1.156622835085559,
                0.03003093210482044,
                0.5236656595956184,
                0.34151289612734304,
                0.12972381319119775,
                1.2505690578358306,
                0.8842819456149377,
                0.36105366610997547,
                1.0178935896510872,
                0.4622734290931618,
                0.16312756546400076,
                0.8489195907967791,
                0.6354513952082654,
                1.4608223291577749,
                0.9893741401719236,
                1.2234570759088728,
                0.6563172727884281,
                0.5109989099999999,
                0.16811874203438615,
                1.4608223291577753,
                0.31740558649455186,
                1.4608223291577747,
                0.6102631532120079,
                0.7121143833269535,
                1.460822329157775,
                1.4608223291577755,
                0.506432206881981,
                1.460822329157775,
                0.3804810441362888,
                0.6542488971338364,
                1.4371065396815568,
                1.460822329157775,
                0.33510009474006486,
                1.144416856822861,
                0.8010759233633447,
                1.460822329157775,
                1.460822329157775
            ],
            "photocathode": [
                2313,
                2772,
                8537,
                10563,
                1861,
                10194,
                639,
                10336,
                7518,
                10039,
                2918,
                501,
                10082,
                2976,
                180,
                10271,
                1357,
                10170,
                3860,
                2204,
                2811,
                4925,
                3646,
                10103,
                3678,
                10186,
                1953,
                6679,
                3978,
                5505,
                2268,
                2474,
                8550,
                2867,
                2950,
                8101,
                4305,
                8370,
                521,
                1323,
                10322,
                1248,
                5969,
                3488,
                5983,
                7682,
                2067,
                10223,
                4944,
                5105,
                9134,
                4011,
                10513,
                10300,
                10017,
                10239,
                10351,
                3927,
                10346,
                4355,
                9940,
                2988,
                6365,
                5101,
                10252,
                9651,
                165,
                4751,
                518,
                1521,
                1483,
                8502,
                3130,
                6696,
                537,
                1464,
                320,
                2669,
                2062,
                7827,
                2697,
                7430,
                10508,
                5538,
                10376,
                5959,
                4203,
                6894,
                10122,
                4233,
                1512,
                5163,
                8184,
                8012,
                10087,
                2582,
                1226,
                5061,
                4602,
                1696,
                8548,
                10412,
                10279,
                1002,
                10333,
                2994,
                3594,
                10153,
                5835,
                900,
                7933,
                10444,
                10084,
                8888,
                10168,
                10348,
                2884,
                10194,
                2818,
                10077,
                10109,
                7710,
                10007,
                6432,
                2763,
                521,
                2137,
                7114,
                8452,
                3113,
                16,
                4000,
                6971,
                513,
                5240,
                10156,
                3565,
                1598,
                288,
                1551,
                5980,
                10192,
                4906,
                4871,
                6404,
                10772,
                7059,
                10171,
                3801,
                3262,
                3209,
                1890,
                3714,
                2912,
                10415,
                7720,
                1717,
                8160,
                314,
                4185,
                2551,
                6219,
                10135,
                1009,
                3793,
                6250,
                885,
                3516,
                10165,
                2548,
                3422,
                896,
                10131,
                131,
                3925,
                10340,
                1309,
                2768,
                4467,
                3395,
                10179,
                3228,
                2157,
                1828,
                3526,
                3645,
                10292,
                2833,
                1624,
                7113,
                6376,
                7686,
                1546,
                10459,
                10157,
                5999,
                2107,
                1666,
                4499,
                7329,
                10340,
                10251,
                10352,
                9892,
                1596,
                8654,
                1310,
                2227,
                1441,
                7298,
                3229,
                7915,
                8614,
                1200,
                3529,
                1995,
                5730,
                2529,
                2588,
                3582,
                3215,
                5787,
                5172,
                4525,
                2092,
                5553,
                1456,
                3958,
                6381,
                9939,
                8533,
                6893,
                9795,
                516,
                8142,
                244,
                10212,
                6808,
                2913,
                6904,
                2395,
                10147,
                10254,
                3888,
                1949,
                4123,
                3547,
                4480,
                10113,
                3088,
                1752,
                3038,
                5978,
                7825,
                4883,
                4881,
                10200,
                5788,
                3812,
                8231,
                1003,
                556,
                7691,
                2133,
                640,
                2595,
                2360,
                4307,
                2634,
                5980,
                2547,
                10296,
                7711,
                6605,
                3641,
                5352,
                601,
                5895,
                10204,
                8354,
                1726,
                10196,
                4693,
                2387,
                5333,
                588,
                10248,
                1077,
                10325,
                7466,
                2618,
                7759,
                5113,
                2966,
                10386,
                10542,
                2898,
                4580,
                10276,
                8329,
                241,
                5746,
                8289,
                2527,
                2207,
                10402,
                9906,
                2339,
                7844,
                9555,
                3786,
                7123,
                6316,
                3667,
                10391,
                4193,
                7848,
                9907,
                10267,
                3205,
                2576,
                10339,
                10577,
                1240,
                10202,
                3903,
                2825,
                2941,
                10516,
                627,
                2198,
                779,
                10147,
                4261,
                10412,
                6742,
                385,
                5248,
                10343,
                3286,
                10079,
                7131,
                2813,
                8395,
                7453,
                2710,
                8577,
                5526,
                6507,
                7188,
                7823,
                3579,
                10046,
                10182,
                3420,
                8001,
                10106,
                1918,
                2252,
                6476,
                5642,
                10202,
                3942,
                9957,
                1573,
                6974,
                2599,
                5197,
                8455,
                10414,
                596,
                2900,
                4285,
                10160,
                2047,
                4532,
                5236,
                2452,
                298,
                1533,
                1784,
                8682,
                7195,
                10544,
                4267,
                603,
                8205,
                7157,
                10377,
                3129,
                4468,
                8217,
                6251,
                4107,
                3138,
                557,
                7034,
                7268,
                3470,
                3176,
                3765,
                10357,
                6850,
                1713,
                840,
                5220,
                7677,
                8687,
                8499,
                2080,
                4693,
                10499,
                10292,
                8440,
                10541,
                1166,
                3489,
                7467,
                602,
                800,
                7066,
                10092,
                3565,
                310,
                8663,
                3117,
                453,
                736,
                5559,
                1077,
                3561,
                7398,
                2976,
                4305,
                5440,
                2255,
                1279,
                2610,
                8275,
                8358,
                5021,
                7871,
                10495,
                10292,
                3720,
                10180,
                2464,
                10208,
                3112,
                681,
                5900,
                2991,
                682,
                9920,
                10326,
                8424,
                3930,
                4098,
                1313,
                5282,
                4808,
                7845,
                1953,
                8130,
                209,
                3519,
                2404,
                909,
                8585,
                6156,
                2479,
                7058,
                3289,
                1206,
                5988,
                4484,
                10188,
                6950,
                8739,
                4615,
                3527,
                1214,
                10123,
                2223,
                10296,
                4209,
                5159,
                10666,
                10482,
                3519,
                10169,
                2691,
                4483,
                10091,
                10434,
                2267,
                7878,
                5798,
                10241,
                10165
            ]
        },
        "detections": 500,
        "events": 1203086
    }
}