{
    "job_args": {
        "metric_limit": 500,
        "seed": 1609857182
    },
    "job_id": "batch_119_do_500",
    "result": {
        "collections": {
            "crystal": [
                1.460822329157775,
                0.7841397976429495,
                0.4628340085513004,
                1.3161003398389135,
                0.3441091671501723,
                1.460822329157775,
                0.389658642271329,
                0.9628674261995536,
                0.5961749697003846,
                0.12890845791640754,
                0.9432912234616213,
                0.3504727840348414,
                0.4970308207485148,
                0.9220974050517371,
                1.0339184420290262,
                0.580699634154793,
                1.4608223291577749,
                0.006037853357283074,
                1.4608223291577749,
                1.1381789011739751,
                0.6583020159234984,
                0.5473142071864299,
                1.2310275622780438,
                1.460822329157775,
                0.2638362846436654,
                0.4091985474614359,
                1.460822329157775,
                0.8950145403295886,
                0.27989174443005826,
                0.0957490236024901,
                1.4608223291577753,
                0.6071299881798096,
                1.460822329157775,
                0.11208991109337729,
                1.460822329157775,
                0.3760137863486125,
                1.1109568688336457,
                1.1508310269930926,
                0.5981720014702798,
                0.8988035425109653,
                0.374676395699393,
                0.4594271726657088,
                0.9622916711248269,
                1.2083921623938418,
                1.1290824902314058,
                1.460822329157775,
                1.128881640511949,
                0.09827729639175464,
                0.6633522669254628,
                1.1574955443970054,
                1.460822329157775,
                1.4608223291577749,
                1.4608223291577753,
                1.460822329157775,
                1.172421641684843,
                1.02874053619149,
                1.4608223291577749,
                0.27520534754856407,
                0.09314024407844901,
                1.460822329157775,
                1.4608223291577749,
                1.1575781340126248,
                1.460822329157775,
                1.460822329157775,
                1.3070528537722166,
                1.460822329157775,
                0.18202157147676457,
                0.07303900000000002,
                0.6745062006978784,
                1.1393437350814146,
                0.3683960835431736,
                0.7278447263988528,
                1.1597425011719917,
                0.8314654844876115,
                0.38437081169266973,
                0.3494466388616124,
                0.43671816512172246,
                1.1032877872931728,
                0.036719911955904294,
                1.4608223291577753,
                0.07253642359445517,
                1.0859760173650113,
                1.460822329157775,
                1.0051292490639359,
                0.7814658487967816,
                1.460822329157775,
                0.5010386258643375,
                0.6943553955725242,
                0.51099891,
                0.6587326343768041,
                1.1822904816749524,
                0.5921162476162687,
                0.8801512960731741,
                0.6626883229492413,
                0.4106340472304429,
                1.4608223291577747,
                1.460822329157775,
                0.26467553113793013,
                0.819423544574531,
                1.0663424447571492,
                0.2400231300470406,
                0.7079600679835758,
                0.8460662368779153,
                0.42275745757767935,
                1.0628732098951763,
                1.4608223291577753,
                0.6206871597091814,
                0.8145310617089085,
                0.8493742733964511,
                0.24761015563454003,
                1.460822329157775,
                0.6690895448627576,
                0.6867409963041866,
                1.4608223291577749,
                0.23125387853325047,
                1.460822329157775,
                1.460822329157775,
                1.006844067928844,
                1.2165014124970062,
                1.4608223291577753,
                1.1670592067377836,
                0.7030113764141449,
                1.0045021768546998,
                1.460822329157775,
                0.8584014984971777,
                0.5156444653310251,
                0.07524999999999998,
                0.8106444222167698,
                1.460822329157775,
                0.5882274535423215,
                0.41758636981701314,
                0.5960212010875601,
                1.1165108627847422,
                0.5831214795444185,
                1.0367168790874588,
                1.460822329157775,
                0.9642871336270338,
                1.460822329157775,
                0.9021379765989057,
                0.08129827233641351,
                0.5704348280092078,
                0.441497919987869,
                0.6567753305160913,
                0.6593280012221078,
                1.2217657001580964,
                1.043869593133524,
                0.09041380908246577,
                0.8640662117345481,
                1.1140859767421178,
                1.0354893916976668,
                1.1996603116493303,
                1.4608223291577753,
                0.7081331737780651,
                1.460822329157775,
                0.6264857227557724,
                0.13274007574410204,
                1.4608223291577753,
                0.9657667856690619,
                0.9051251567317599,
                0.28037103882523984,
                1.4608223291577753,
                0.6730893259925875,
                0.2524309383219739,
                0.8830798767570178,
                0.6915470971021431,
                0.9054255791228729,
                0.86577345009115,
                0.9498234191577752,
                0.5128451568520848,
                0.7762963051243267,
                0.9527610769122843,
                0.753480019086699,
                0.4391843542035474,
                1.4608223291577749,
                1.460822329157775,
                0.5864380255223864,
                1.0004549374212186,
                1.4608223291577749,
                1.460822329157775,
                1.460822329157775,
                0.4110441442241792,
                1.105288688780473,
                0.3107371482481982,
                0.46371051005519215,
                1.460822329157775,
                1.460822329157775,
                1.4608223291577749,
                0.4968268071960832,
                1.4608223291577753,
                0.8577110686656745,
                1.4608223291577749,
                1.126288826172019,
                1.0241120221911277,
                1.1760272295587446,
                1.1293909186044504,
                1.3349553897320992,
                0.35142013126458593,
                0.10044175803749966,
                0.412762034925494,
                0.9826899510548615,
                0.6179426084131004,
                0.0690307328412216,
                0.4684206673643599,
                0.8709666625692983,
                0.21744506238417682,
                0.4535938534666615,
                1.460822329157775,
                0.3640292501201544,
                0.36588056222913995,
                1.0351716348211888,
                0.4217826301694576,
                1.2505414019917815,
                0.46267923655996174,
                0.09060420503687383,
                1.3254668226384825,
                0.7417931859393947,
                1.172487043019172,
                1.460822329157775,
                0.8640222460429814,
                0.8099051241745411,
                1.460822329157775,
                0.9281208316090321,
                0.027263556107637532,
                1.0510391060363133,
                0.3625864400456573,
                1.4608223291577753,
                0.2851498501107683,
                1.220829107418653,
                1.2480575719142601,
                0.9198986734373154,
                0.8738694908535232,
                1.153722985513397,
                1.2340424524037088,
                0.8710495452987974,
                1.1457588752847248,
                0.3452542314660605,
                1.0083666777660438,
                0.27403932370604966,
                0.7116967225797977,
                1.4608223291577749,
                0.21750649274677888,
                0.43882450915777527,
                1.460822329157775,
                0.4439207797236777,
                1.162365112038413,
                0.9113054246259085,
                1.460822329157775,
                0.29827498514962597,
                1.088364300097254,
                0.32946923150586893,
                1.2279758559930527,
                0.4283600210817976,
                1.460822329157775,
                0.5109989100000001,
                0.3384783369329072,
                0.6586692226507275,
                1.4608223291577749,
                0.7640260084796102,
                0.7382913352884055,
                1.0053635112659614,
                0.2662851676510306,
                0.875018455925027,
                1.1125155927513037,
                1.153927085925735,
                0.8321827112814206,
                0.522840948456074,
                1.460822329157775,
                0.33767835133488244,
                0.900219533114702,
                1.4608223291577753,
                0.34982419320328706,
                1.1138659503392077,
                1.460822329157775,
                0.27162327680048437,
                1.4608223291577753,
                0.3357719116435902,
                0.07562071600348244,
                1.460822329157775,
                0.6366189561779231,
                0.6656727863692283,
                1.460822329157775,
                0.39101420071383397,
                1.460822329157775,
                0.7258682471424236,
                0.5515346805370878,
                1.4608223291577755,
                0.05294423500634893,
                0.023157890661966385,
                0.3501275112835768,
                0.8308227303830089,
                1.460822329157775,
                0.0591815294017729,
                1.460822329157775,
                0.14900839124174997,
                0.25508496660214397,
                0.8207026761293333,
                1.460822329157775,
                0.2507402215298177,
                0.8821703946729582,
                1.4608223291577753,
                0.9065780678039872,
                0.3123092786958994,
                0.17287361533189882,
                1.2077151538715898,
                1.460822329157775,
                1.1892040806751338,
                1.4608223291577749,
                1.1191036713329463,
                0.3319954477584705,
                0.27571118081081314,
                1.1518981495901564,
                0.2788205512290862,
                0.07525,
                0.31253114708513563,
                1.460822329157775,
                1.4608223291577753,
                0.019490507983468186,
                0.4709943950399673,
                0.35132346231541123,
                0.8476940744491307,
                1.274168590899708,
                1.460822329157775,
                1.460822329157775,
                0.29148935602921133,
                0.9782985112600066,
                0.2168942708506647,
                0.6934006035409914,
                0.974160526354781,
                0.6290093873585774,
                0.9250123493226534,
                0.33840979683876043,
                0.08057836350910047,
                1.2103445963899115,
                1.460822329157775,
                0.45478275943739227,
                0.358225240728693,
                0.5195707128222763,
                0.8292114702853604,
                1.460822329157775,
                0.12798018579985138,
                1.4608223291577749,
                1.460822329157775,
                0.17344884239855607,
                0.34999824711394767,
                0.9423470065494504,
                1.147501615755533,
                0.22556947851422232,
                0.29625102244643586,
                0.10085697908178659,
                0.8082703507901551,
                1.460822329157775,
                0.7953906708288102,
                1.4608223291577749,
                0.7550990339493975,
                1.092201856654227,
                0.8857467635972988,
                1.21622617717315,
                1.4608223291577753,
                0.155078631087322,
                0.417131967275589,
                0.07525,
                0.7344287801746352,
                1.460822329157775,
                0.7139736715885844,
                0.45421422739879125,
                0.48656603156396105,
                1.1079329413081667,
                0.9498234191577751,
                0.3643375430196656,
                0.48444640667332484,
                1.108655375706896,
                0.3973264749168618,
                1.2317679935858896,
                1.460822329157775,
                1.4608223291577749,
                0.8377320659606894,
                0.7247719408487991,
                1.460822329157775,
                0.5399311323119617,
                0.1452852175973912,
                0.51099891,
                1.460822329157775,
                0.2974525892813561,
                0.6139783703523078,
                0.649558764154665,
                0.07524999999999998,
                0.5103168141870666,
                0.7675878820915405,
                0.07422347431390142,
                0.7651672256992101,
                0.717936222645422,
                0.08523539999999999,
                1.0046841282764722,
                1.0918808113844467,
                0.5243817284050001,
                0.061811222264965604,
                0.777584169491816,
                0.9770176723529765,
                0.5032699909358506,
                1.460822329157775,
                0.6906889611938412,
                0.7050613841465199,
                1.4608223291577749,
                1.0474330393014724,
                1.460822329157775,
                0.2913010190530574,
                0.04635485298068165,
                0.8585526423768735,
                0.2753469602662115,
                1.4608223291577749,
                0.5235846577232502,
                1.1273821435487217,
                1.460822329157775,
                1.4608223291577749,
                0.9751157345597693,
                0.025572770942052903,
                0.48685930843367903,
                1.0741544028965635,
                1.460822329157775,
                1.2005804593479668,
                1.460822329157775,
                0.04664049999999999,
                0.3017786442101851,
                0.2451208685691396,
                0.9770287714175895,
                0.07525,
                1.4608223291577753,
                1.460822329157775,
                1.1510047221051152,
                0.6457466334436719,
                1.0330405639846867,
                0.2549974068573172,
                1.349875720691058,
                1.1968883264280015,
                1.2256899896837237,
                0.3991516295882584,
                1.4608223291577749,
                0.8589715835654461,
                0.5606465898865036,
                0.3189628723332548,
                0.8358150275634999,
                0.7185352393356044,
                1.2833617066567489,
                1.460822329157775,
                1.460822329157775,
                0.43882450915777516,
                1.1196238968532835,
                0.2649337153942118,
                1.0568863920403029,
                0.9748369406936717,
                1.052532555498188,
                0.772805719892774,
                0.38640767016878247,
                1.460822329157775,
                1.460822329157775,
                0.8618731471239359,
                1.2942106652879848,
                1.3351287138744972,
                0.06009911353458619,
                0.42378285766271845,
                1.2051307043076935,
                0.9316469490786352,
                0.7111541600120168,
                1.460822329157775,
                0.4592783592503802,
                0.17788285496383355,
                0.547999198702409,
                0.9455480110633067,
                1.460822329157775,
                1.1917656713554585,
                0.3666565396934996,
                0.7255407690674675,
                1.4608223291577749,
                1.4608223291577753,
                0.9510625778197395,
                1.2173804587655679,
                0.3924212802815252,
                1.460822329157775,
                0.7029907741554265,
                0.22906892946684554,
                1.0558002248663405,
                0.41092330988191844,
                0.8446641846042323,
                1.4608223291577749,
                0.9681008106239364,
                0.6482837715204085,
                1.4608223291577749,
                1.2147480536483706,
                0.2713380990985392,
                0.8390406679476344,
                0.6362934800842402,
                0.20634946307925675,
                0.9080595784939677,
                0.29539762739025055,
                1.1168954145888266,
                0.8360690322332394,
                1.460822329157775,
                0.47373027476056984,
                0.47470584357800993,
                1.460822329157775
            ],
            "photocathode": [
                10269,
                5370,
                3268,
                9026,
                2430,
                10119,
                2647,
                6841,
                4234,
                889,
                6625,
                2559,
                3431,
                6440,
                7256,
                4176,
                10179,
                41,
                10178,
                7995,
                4780,
                3977,
                8608,
                10403,
                1902,
                2937,
                10174,
                6218,
                1987,
                624,
                10118,
                4210,
                10185,
                827,
                10392,
                2692,
                7586,
                7897,
                4080,
                6385,
                2551,
                3208,
                6789,
                8430,
                7879,
                9950,
                7910,
                697,
                4757,
                8160,
                10418,
                10566,
                10321,
                10146,
                8158,
                7387,
                10270,
                1935,
                629,
                10500,
                10123,
                8117,
                10136,
                10162,
                9317,
                10189,
                1347,
                507,
                4609,
                7821,
                2613,
                5183,
                8210,
                5808,
                2658,
                2563,
                3124,
                7993,
                233,
                10326,
                524,
                7580,
                10183,
                7008,
                5501,
                10267,
                3583,
                4864,
                3549,
                4757,
                8428,
                4047,
                6096,
                4674,
                2902,
                10359,
                10304,
                1903,
                5716,
                7445,
                1699,
                4799,
                5993,
                2988,
                7584,
                10037,
                4380,
                5653,
                5984,
                1644,
                10408,
                4722,
                4782,
                10249,
                1646,
                10097,
                10474,
                7054,
                8467,
                10310,
                8177,
                4894,
                7022,
                10194,
                5972,
                3591,
                515,
                5799,
                10313,
                4019,
                3001,
                4199,
                7751,
                4100,
                7353,
                10204,
                6928,
                10107,
                6307,
                593,
                4101,
                3067,
                4537,
                4598,
                8628,
                7845,
                686,
                6074,
                7935,
                7280,
                8503,
                10327,
                4985,
                10065,
                4247,
                931,
                10134,
                6788,
                6312,
                1951,
                10281,
                4711,
                1730,
                6209,
                4712,
                6349,
                6053,
                6630,
                3752,
                5471,
                6765,
                5321,
                3028,
                10300,
                10515,
                4238,
                7087,
                10580,
                9886,
                10456,
                2880,
                7816,
                2217,
                3138,
                10217,
                10451,
                10213,
                3486,
                10128,
                5812,
                10348,
                8162,
                7219,
                8242,
                7994,
                9797,
                2375,
                699,
                2856,
                7120,
                4398,
                505,
                3390,
                6262,
                1524,
                3181,
                10401,
                2677,
                2668,
                7349,
                2962,
                8818,
                3162,
                650,
                9193,
                5305,
                8381,
                10199,
                6123,
                5721,
                10222,
                6366,
                174,
                7630,
                2484,
                10214,
                2043,
                8595,
                8842,
                6437,
                6332,
                8354,
                8630,
                6058,
                7968,
                2436,
                7060,
                2013,
                5094,
                10148,
                1535,
                3071,
                10312,
                3177,
                8089,
                6326,
                10228,
                2078,
                7414,
                2229,
                8595,
                2882,
                10246,
                3589,
                2414,
                4640,
                10032,
                5228,
                5218,
                6942,
                2014,
                6403,
                7812,
                8208,
                5891,
                3592,
                10180,
                2379,
                6283,
                10144,
                2434,
                7766,
                10299,
                1918,
                10370,
                2345,
                522,
                10221,
                4570,
                4701,
                10168,
                2913,
                10155,
                5009,
                3962,
                10273,
                340,
                141,
                2400,
                5920,
                10254,
                392,
                10282,
                1086,
                1793,
                5776,
                10229,
                1738,
                6265,
                10086,
                6396,
                2210,
                1265,
                8504,
                10466,
                8132,
                10212,
                8014,
                2379,
                1996,
                8240,
                1939,
                487,
                2114,
                10215,
                10196,
                139,
                3287,
                2501,
                6092,
                9057,
                10302,
                10195,
                2205,
                6789,
                1510,
                4898,
                6906,
                4711,
                6454,
                2354,
                554,
                8732,
                10255,
                3159,
                2408,
                3655,
                5940,
                10414,
                911,
                10247,
                10196,
                1285,
                2441,
                6518,
                8204,
                1520,
                2009,
                721,
                5678,
                10040,
                5599,
                10276,
                5109,
                7641,
                6035,
                8610,
                10448,
                1123,
                2980,
                492,
                5201,
                10111,
                5056,
                3232,
                3456,
                7915,
                6668,
                2616,
                3419,
                7878,
                2800,
                8710,
                10487,
                10284,
                5989,
                5161,
                10250,
                3813,
                992,
                3651,
                10348,
                2008,
                4372,
                4619,
                538,
                3642,
                5479,
                517,
                5255,
                5064,
                587,
                7021,
                7532,
                3661,
                455,
                5366,
                6934,
                3551,
                10401,
                4831,
                5063,
                10064,
                7253,
                10194,
                1984,
                307,
                6059,
                1922,
                10378,
                3810,
                7931,
                10370,
                10288,
                6738,
                189,
                3442,
                7352,
                10481,
                8201,
                10384,
                318,
                2113,
                1704,
                6944,
                501,
                10354,
                10084,
                8199,
                4452,
                7279,
                1859,
                9593,
                8435,
                8632,
                2927,
                10171,
                6055,
                3950,
                2307,
                6067,
                5013,
                9118,
                10137,
                10101,
                3111,
                8175,
                1848,
                7469,
                6840,
                7285,
                5407,
                2707,
                10170,
                10149,
                6137,
                9042,
                9475,
                415,
                2887,
                8525,
                6753,
                5044,
                10345,
                3194,
                1294,
                3784,
                6557,
                10296,
                8317,
                2592,
                5151,
                10239,
                10463,
                6769,
                8469,
                2770,
                10323,
                4856,
                1606,
                7263,
                2955,
                5935,
                10566,
                6762,
                4567,
                10179,
                8859,
                1841,
                6136,
                4445,
                1491,
                6275,
                2202,
                7752,
                5861,
                10537,
                3286,
                3406,
                10366
            ]
        },
        "detections": 500,
        "events": 1060284
    }
}