{
    "job_args": {
        "metric_limit": 500,
        "seed": 132459395
    },
    "job_id": "batch_64_do_500",
    "result": {
        "collections": {
            "crystal": [
                0.10660726924922218,
                0.16784875361551507,
                0.29614460224446165,
                0.39330042584940395,
                0.7607388536186183,
                1.460822329157775,
                0.6438622308703681,
                1.4608223291577749,
                0.504622962996472,
                0.3521530971187294,
                0.01996615414805525,
                0.16641054325101678,
                0.8131840983035848,
                0.27147578197245814,
                0.20418222295139454,
                1.4608223291577753,
                1.460822329157775,
                0.37310234065584624,
                0.7627604811550799,
                0.15220327665989908,
                1.4465987048405538,
                1.0600837719568328,
                1.4608223291577753,
                0.09603085731955902,
                0.4331992668469671,
                0.7638548307317267,
                0.6589852020914201,
                1.460822329157775,
                0.5104444886987675,
                0.502284407195811,
                0.25291303589461256,
                0.8340067319898744,
                0.8076976342840054,
                1.1765933400806476,
                1.0610356736355544,
                0.8342600291581302,
                0.202988133977259,
                1.1909190361351603,
                1.242569539115574,
                0.08523539999999999,
                0.6981971945571692,
                1.1400964959823798,
                1.460822329157775,
                0.5719186009812409,
                0.15410955320334574,
                0.2708330916993342,
                0.3200414116966321,
                1.134497016774441,
                0.936682377022465,
                0.4174807789366933,
                0.550293172696583,
                0.7118156584341233,
                0.07303899999999999,
                0.8188783116821519,
                0.40138266682010093,
                0.9962564150770992,
                1.4608223291577753,
                0.8778043664059418,
                0.43882450915777516,
                0.4608079433659161,
                0.006191426334072325,
                0.330896494158496,
                1.460822329157775,
                0.8268668897014462,
                0.08544337444864158,
                1.460822329157775,
                0.4111778063313991,
                0.30443370394014424,
                0.073039,
                0.3252264673703649,
                1.4608223291577749,
                0.07525,
                0.8203377767313093,
                0.03390829051954931,
                1.460822329157775,
                0.37814549256644114,
                0.7484570509238102,
                1.2188634388827286,
                0.9391404332463399,
                0.14834912101333064,
                0.47623857374845646,
                1.460822329157775,
                0.2551975455932963,
                0.5060183837620105,
                0.9302221460684307,
                1.4608223291577749,
                0.048641534464055315,
                0.3581007097229275,
                0.5197075131060921,
                0.7680461276313657,
                1.0754773871446597,
                0.954129054596006,
                1.1684577406374719,
                0.880657701636566,
                1.0923442654667128,
                1.1290968065705906,
                0.18334814120876963,
                0.8935258330796572,
                1.460822329157775,
                0.6126658225823061,
                1.460822329157775,
                0.1925497445728036,
                1.2159377457754017,
                0.009124314547787116,
                0.40718235692654503,
                0.22686981626999259,
                0.4435889710655759,
                1.145027771211185,
                1.0553998673734513,
                1.460822329157775,
                0.5334857350488871,
                1.1748586775625938,
                1.0043029855165764,
                0.14555406847410723,
                0.3546881524166354,
                1.4608223291577749,
                0.25501140265667877,
                1.0632022943704718,
                1.0169582564594162,
                0.28358395008809756,
                0.07524999999999998,
                1.4608223291577749,
                0.2462077728355782,
                1.460822329157775,
                0.3939589086053994,
                1.232031160483327,
                0.39130361117072715,
                1.460822329157775,
                0.10900633336805021,
                1.4608223291577749,
                1.227233249939744,
                0.4023158437154125,
                0.4386700696074412,
                1.4608223291577753,
                0.6080262884171388,
                0.948239498150586,
                0.7430973163481525,
                0.6223708184792208,
                1.4608223291577749,
                1.460822329157775,
                0.08185438520002325,
                0.4727937087337072,
                1.4608223291577747,
                1.460822329157775,
                0.6444497722020426,
                0.8653905867592135,
                0.5324602416816635,
                0.6267283798700898,
                1.460822329157775,
                1.0761145226750004,
                0.444004933642855,
                0.2804767975698625,
                0.2783227366980686,
                1.4608223291577747,
                0.3572730166324166,
                0.6495177650045668,
                0.36182084312667834,
                0.29684389120043786,
                0.19704822966104318,
                0.7571086831792786,
                0.6097748417891776,
                0.22787189963005375,
                0.8158061132963638,
                1.4608223291577753,
                0.4305747903074523,
                1.460822329157775,
                1.460822329157775,
                0.928390059572348,
                0.2923898071258233,
                0.5713752735317764,
                0.88278562557274,
                0.08718031884147842,
                0.35581208440842477,
                0.48914022093693876,
                0.779981768619051,
                1.460822329157775,
                0.06387575823165426,
                0.42340355146748326,
                1.460822329157775,
                0.48104049960171025,
                1.0711507310563855,
                0.5185979874078122,
                0.39287101476689906,
                0.3730892032120396,
                0.522016359945193,
                0.2240561130497113,
                0.7512921652523057,
                0.03595145105169193,
                0.07623539846921285,
                0.7941608317269728,
                0.10329400881184791,
                0.9798365801752302,
                0.594056254781603,
                0.24588429149112834,
                1.4608223291577747,
                1.4608223291577753,
                0.5579780997904692,
                0.506336473219094,
                0.1593290975217892,
                1.4129395823383688,
                0.09659021782858357,
                1.192513716718592,
                0.21594980969052824,
                0.8181440363371139,
                0.3335115335688009,
                0.4089489324609563,
                0.7900910871079304,
                0.2845721019159204,
                0.2097639187116281,
                1.460822329157775,
                0.14375921041049405,
                1.460822329157775,
                1.4608223291577749,
                1.460822329157775,
                0.45588202513751774,
                0.28338096503349197,
                1.460822329157775,
                1.460822329157775,
                0.8445513026078952,
                0.725620436131427,
                1.1954580305724771,
                1.460822329157775,
                0.4906077247219347,
                0.9139588361456263,
                1.460822329157775,
                0.41638959847735957,
                0.6759607136399911,
                0.43442626098417514,
                1.2393872438008975,
                1.4608223291577753,
                0.3945899386943721,
                1.04827543626862,
                0.454951847400304,
                1.4608223291577749,
                0.09363786828230158,
                0.15391310154035756,
                1.460822329157775,
                0.3400631963973413,
                1.4608223291577749,
                1.2766361974055793,
                1.460822329157775,
                0.3969882748453295,
                0.8916024980364045,
                1.4608223291577749,
                1.4608223291577749,
                0.6586009836565487,
                1.460822329157775,
                0.5492844595659314,
                0.6647309331973451,
                0.30265828562684727,
                0.47304743724639325,
                0.20699060479671516,
                0.1830669356611181,
                0.6670345198081934,
                0.2849710830842682,
                1.222389827320338,
                0.2001097495989324,
                0.251292789770518,
                0.7506029592905945,
                0.612220379186454,
                0.47017302770288516,
                0.8731626331499093,
                1.460822329157775,
                1.2044340005181529,
                0.25039309001558624,
                1.4608223291577749,
                0.3532049893292789,
                1.1662175660212761,
                0.22493229432352568,
                1.4608223291577749,
                1.460822329157775,
                0.51099891,
                0.6571619852828445,
                0.5273801961690944,
                0.46857175760767,
                0.47012551234585676,
                0.05306528505958297,
                0.19636047298489667,
                0.20920600584322016,
                0.40240284321203124,
                1.460822329157775,
                0.27047084087799955,
                1.078538159099263,
                0.2019249548659614,
                0.30426249259152893,
                0.7047216144301827,
                0.44230493786362635,
                0.19812731237208256,
                0.956282244388641,
                0.8464318886149199,
                1.4608223291577749,
                0.4233224726036828,
                0.20394620741222869,
                0.02090607769491533,
                0.17422131381454709,
                1.4608223291577749,
                0.5894204413875204,
                0.6059738540781829,
                1.460822329157775,
                0.3245935063960461,
                0.3631228449238986,
                1.460822329157775,
                0.7559813934901299,
                1.460822329157775,
                0.8759543636218607,
                1.460822329157775,
                0.4748016767964039,
                0.29262605061866864,
                0.5289666236300083,
                0.6658097512815138,
                1.133699404092822,
                1.460822329157775,
                0.3998142118147795,
                1.0345676309545944,
                0.6216927658654745,
                1.4608223291577749,
                0.073039,
                0.2106764057064519,
                0.3267203859987015,
                0.1599054348952239,
                0.2161359744290616,
                0.8894605423768709,
                1.460822329157775,
                1.101437217958159,
                0.961555591799526,
                1.460822329157775,
                1.460822329157775,
                0.8204516498250121,
                0.2868869907368181,
                0.4246053210873717,
                0.6192152354538467,
                1.4608223291577749,
                0.33070185325659185,
                1.460822329157775,
                0.4888595663107362,
                1.4608223291577753,
                1.0705578876998698,
                0.20214242993747278,
                0.3631163617788479,
                0.39788446936310884,
                1.460822329157775,
                0.20433223389680022,
                0.8817744649618245,
                1.0075691438300367,
                0.4848657769300194,
                1.2245061691627337,
                0.3382517711120644,
                1.0405873350444028,
                0.6848601711852809,
                0.19287797509427906,
                1.4608223291577749,
                0.1701250579891075,
                0.6369291192845192,
                0.7856478201630135,
                0.03856770060695258,
                0.4921349243095138,
                1.460822329157775,
                0.3143411541166474,
                0.20621056902753276,
                1.460822329157775,
                0.7685083071195126,
                0.7100067262172141,
                1.1004225189408232,
                0.2776893110859596,
                1.460822329157775,
                0.9381775778482178,
                1.0203060787434162,
                1.1140880315097297,
                0.7470621073141903,
                1.460822329157775,
                0.9465121233617141,
                0.8530155414397049,
                0.914518060127254,
                1.4608223291577749,
                0.41660848676079176,
                1.460822329157775,
                0.43341629216258976,
                1.460822329157775,
                0.2888896134942915,
                1.4608223291577749,
                0.8433926184442657,
                0.9624288344386579,
                1.460822329157775,
                1.460822329157775,
                0.152009224153061,
                0.5447993024077232,
                0.2592638323352644,
                0.181302451842,
                0.663302012355237,
                0.4012216347912834,
                0.0767670655599748,
                1.0309073354893141,
                0.5171343511239036,
                1.4608223291577749,
                1.460822329157775,
                0.9513535444213657,
                1.2283844607077377,
                0.524181638677229,
                0.5484447482078939,
                0.5478390021890988,
                1.4608223291577749,
                0.1529898194011008,
                0.8020945856549585,
                1.4080131639207427,
                1.4608223291577749,
                1.460822329157775,
                0.5319783688820903,
                1.108788971051906,
                1.460822329157775,
                0.29947502812222837,
                0.5942436791649474,
                0.9107636360269945,
                1.460822329157775,
                0.29148021099513105,
                0.48033065954909016,
                0.8256342474329936,
                0.2563684652521564,
                0.3327966990561494,
                1.2302485758484314,
                1.460822329157775,
                0.35169587015892223,
                0.9335774292028154,
                0.13056711235443835,
                1.186203296161448,
                1.4608223291577749,
                0.702745891837246,
                0.8329713216108917,
                1.4608223291577753,
                0.07384321020455532,
                1.2323591497745794,
                0.2469933153972916,
                0.7134069451371975,
                1.460822329157775,
                0.7596824303181745,
                0.788126012717738,
                1.4608223291577753,
                0.8895425756423027,
                0.5265677481487993,
                1.460822329157775,
                1.460822329157775,
                0.28208671380473493,
                1.1208049736966283,
                0.18396639309305554,
                0.10872590696874918,
                0.073039,
                1.224752873649499,
                0.42086894767048444,
                1.2576265210921729,
                1.460822329157775,
                1.460822329157775,
                0.8405822372710254,
                1.2174468665679434,
                0.9935304499535562,
                0.29711249642568194,
                0.6615681811195481,
                1.224560404246031,
                1.0490114808065123,
                0.37684295573531273,
                1.4608223291577749,
                1.460822329157775,
                0.2948919878844979,
                1.460822329157775,
                0.8816190311522571,
                0.9547554111238026,
                1.4608223291577749,
                1.460822329157775,
                0.8833677996040834,
                0.2911965627011518,
                0.043200290475002845,
                1.0243919723380337,
                1.460822329157775,
                0.3455791680661604,
                0.42901091147683523,
                0.0466405,
                0.03373948050841835,
                1.460822329157775,
                0.48900577527724653,
                0.2162351436781959,
                0.1246583146102278,
                0.22466548679607912,
                1.0126084069835601,
                0.3979545185875912,
                0.44327685778231835,
                0.20997168166047464,
                1.4608223291577749,
                0.8951501837255893,
                0.3760315521165072,
                0.51099891,
                1.4608223291577749,
                0.9801411161323227,
                0.07525,
                0.7249471721055456,
                1.460822329157775,
                0.7655367815383498,
                0.8866007490918739,
                0.6855765380840421,
                1.202971596092522,
                0.073039,
                0.5894425844254051,
                1.4608223291577749
            ],
            "photocathode": [
                726,
                1190,
                2013,
                2727,
                5225,
                10184,
                4476,
                10341,
                3573,
                2454,
                134,
                1135,
                5685,
                1883,
                1395,
                10351,
                10329,
                2578,
                5416,
                1118,
                10157,
                7550,
                10159,
                640,
                3060,
                5461,
                4474,
                10401,
                3542,
                3543,
                1738,
                5847,
                5618,
                8182,
                7463,
                5783,
                1418,
                8389,
                8721,
                589,
                4949,
                8089,
                10417,
                4146,
                1127,
                1959,
                2224,
                8050,
                6700,
                2872,
                3832,
                4904,
                503,
                5934,
                2829,
                7008,
                10334,
                6057,
                3146,
                3261,
                47,
                2184,
                10399,
                5752,
                602,
                10293,
                2870,
                2091,
                498,
                2334,
                10531,
                526,
                5771,
                270,
                10231,
                2699,
                5269,
                8516,
                6526,
                1058,
                3294,
                9879,
                1757,
                3636,
                6594,
                9972,
                344,
                2509,
                3872,
                5442,
                7526,
                6661,
                8288,
                6124,
                7829,
                8243,
                1327,
                6253,
                10343,
                4222,
                10336,
                1432,
                8219,
                63,
                2932,
                1511,
                3159,
                8023,
                7397,
                10200,
                3717,
                8336,
                7171,
                927,
                2408,
                10201,
                1803,
                7418,
                7262,
                2078,
                480,
                10222,
                1709,
                10495,
                2722,
                8727,
                2730,
                10147,
                762,
                10093,
                8619,
                2741,
                3104,
                10333,
                4186,
                6759,
                5250,
                4387,
                10335,
                10005,
                604,
                3375,
                10337,
                10291,
                4560,
                6115,
                3747,
                4419,
                10367,
                7421,
                3095,
                1918,
                1922,
                10592,
                2537,
                4709,
                2628,
                2007,
                1379,
                5303,
                4351,
                1657,
                5835,
                10469,
                3093,
                10378,
                10369,
                6638,
                2054,
                4052,
                5923,
                622,
                2598,
                3364,
                5455,
                10294,
                433,
                3013,
                10504,
                3313,
                7632,
                3738,
                2732,
                2652,
                3737,
                1537,
                5201,
                275,
                515,
                5537,
                665,
                6838,
                4106,
                1756,
                10375,
                10218,
                3937,
                3621,
                1183,
                9792,
                675,
                8357,
                1477,
                5668,
                2290,
                2838,
                5493,
                2030,
                1420,
                10334,
                993,
                10132,
                10313,
                10401,
                3252,
                1964,
                10204,
                10059,
                5802,
                5081,
                8412,
                10449,
                3468,
                6582,
                10077,
                3008,
                4638,
                3141,
                8734,
                10034,
                2745,
                7447,
                3268,
                10003,
                659,
                1056,
                10165,
                2272,
                10119,
                8783,
                10125,
                2815,
                6402,
                10333,
                10185,
                4681,
                10255,
                3936,
                4757,
                2096,
                3186,
                1484,
                1237,
                4653,
                1954,
                8495,
                1398,
                1802,
                5458,
                4308,
                3132,
                6141,
                10233,
                8439,
                1802,
                10412,
                2509,
                8196,
                1553,
                10273,
                10171,
                3431,
                4690,
                3583,
                3337,
                3375,
                350,
                1358,
                1485,
                2864,
                10135,
                1898,
                7610,
                1468,
                2109,
                5075,
                3145,
                1398,
                6763,
                5805,
                10249,
                2932,
                1479,
                133,
                1316,
                10522,
                4075,
                4182,
                10349,
                2366,
                2641,
                10347,
                5381,
                10347,
                6130,
                10180,
                3382,
                2008,
                3684,
                4857,
                8071,
                10112,
                2784,
                7481,
                4352,
                10577,
                488,
                1538,
                2383,
                1079,
                1492,
                6330,
                10163,
                7612,
                6962,
                9947,
                10266,
                5783,
                2118,
                2990,
                4352,
                10368,
                2290,
                10017,
                3576,
                10239,
                7317,
                1439,
                2640,
                2853,
                10249,
                1448,
                6299,
                7238,
                3435,
                8492,
                2406,
                7317,
                4961,
                1363,
                10255,
                1227,
                4437,
                5487,
                283,
                3531,
                10266,
                2174,
                1460,
                10408,
                5332,
                5096,
                7669,
                1977,
                10291,
                6539,
                7176,
                7939,
                5181,
                10273,
                6519,
                5961,
                6402,
                10141,
                2928,
                10355,
                3113,
                10159,
                2026,
                10469,
                5938,
                6754,
                10257,
                10217,
                1041,
                3805,
                1755,
                1288,
                4794,
                2841,
                533,
                7309,
                3669,
                10080,
                10154,
                6630,
                8574,
                3657,
                3951,
                3898,
                10295,
                1092,
                5620,
                9786,
                10122,
                9965,
                3790,
                7920,
                10354,
                2172,
                4204,
                6457,
                10197,
                2101,
                3465,
                5678,
                1795,
                2306,
                8496,
                10044,
                2441,
                6631,
                909,
                8339,
                10295,
                4994,
                5976,
                10431,
                520,
                8833,
                1753,
                5231,
                10137,
                5157,
                5651,
                10208,
                6380,
                3597,
                10183,
                10177,
                1968,
                8088,
                1273,
                782,
                547,
                8590,
                2962,
                8851,
                10267,
                10193,
                5839,
                8563,
                7125,
                1978,
                4660,
                8395,
                7311,
                2591,
                10438,
                10181,
                2114,
                10768,
                6410,
                6605,
                10188,
                10185,
                6228,
                1986,
                307,
                7151,
                10263,
                2425,
                3087,
                346,
                239,
                10526,
                3372,
                1576,
                929,
                1685,
                7170,
                2747,
                3080,
                1491,
                10047,
                6313,
                2631,
                3620,
                10342,
                6957,
                561,
                5065,
                10382,
                5323,
                6452,
                4901,
                8588,
                471,
                4073,
                10300
            ]
        },
        "detections": 500,
        "events": 1161755
    }
}