{
    "job_args": {
        "metric_limit": 500,
        "seed": 3887640034
    },
    "job_id": "batch_25_do_500",
    "result": {
        "collections": {
            "crystal": [
                0.05948840222359012,
                0.057437979159157174,
                0.059563972169423274,
                0.05956948997613397,
                0.05959193407839129,
                0.05956841221980894,
                0.05956194854489153,
                0.059567632840852244,
                0.05950737890419804,
                0.05957823438697918,
                0.059513249628934346,
                0.026342148718013374,
                0.05954147168244718,
                0.01802056472445328,
                0.059533400313238366,
                0.0595199330168144,
                0.05955491635612125,
                0.058848352885418974,
                0.05951230945866366,
                0.059550137552793286,
                0.05958445801994905,
                0.05954007170351366,
                0.05955999294530073,
                0.013778346416237793,
                0.03087828590925993,
                0.05954390736167507,
                0.05952979310093943,
                0.059497125458455806,
                0.030937007171341346,
                0.05949881495562664,
                0.017845397105991572,
                0.059497180235437416,
                0.0595041885556665,
                0.05956863997981466,
                0.01686484431292261,
                0.05955924290813172,
                0.02090208221920798,
                0.030932102183140985,
                0.05957767382554545,
                0.05949902992834225,
                0.05956755132556868,
                0.05953638523006469,
                0.059580741337667636,
                0.059584830902066135,
                0.017856298334301114,
                0.026325076931830556,
                0.05955455622027575,
                0.05952444288012699,
                0.059487729847649974,
                0.04882498040611513,
                0.05954238127610574,
                0.026342053928085057,
                0.05949739575971024,
                0.05955966511732109,
                0.031232059991981524,
                0.059586995235665574,
                0.017846085119900976,
                0.059510602522843084,
                0.05959102166553946,
                0.0595048218016089,
                0.059592864564137094,
                0.059535819167369865,
                0.05955276972136019,
                0.0595700621219455,
                0.05951424848334089,
                0.059501306989928754,
                0.059585646578702904,
                0.0595607281963208,
                0.026320938236091742,
                0.0595887957823689,
                0.059493586998803256,
                0.05658045735248546,
                0.030891998588986853,
                0.031238676074115505,
                0.05948917233852153,
                0.059491769907165884,
                0.030936725081954844,
                0.030901171808573682,
                0.05957760534285646,
                0.059527014941044946,
                0.031225854057755752,
                0.059576612763511616,
                0.05957332026854905,
                0.01685195046390433,
                0.059579223934532785,
                0.057228811528360374,
                0.05948906308181288,
                0.05954304846670142,
                0.05956330398893203,
                0.05953394759745461,
                0.059507677299936224,
                0.059582596100282395,
                0.05953806031903918,
                0.026331025167387376,
                0.059518624973766664,
                0.059593549503388264,
                0.0595076335939238,
                0.05949594290884895,
                0.059504911365257054,
                0.026478897197685314,
                0.059508023568761344,
                0.05956196838553018,
                0.05952139311233532,
                0.059579459261279465,
                0.059532979573328246,
                0.059516164096199656,
                0.027227154091816638,
                0.018030399987020135,
                0.059564005121759384,
                0.059541815429536536,
                0.059556838226406006,
                0.059534771190141444,
                0.016862859341286316,
                0.059505647543275225,
                0.05959024738816984,
                0.05953607975821857,
                0.020889335048190877,
                0.05954586246856146,
                0.059558221595895314,
                0.05956464241716953,
                0.017064547596085635,
                0.059501367733085925,
                0.026345118534877712,
                0.059582948735560665,
                0.013953025099350648,
                0.05950921833127229,
                0.013959036613958658,
                0.026344529797098438,
                0.017831149697464695,
                0.05956600623639026,
                0.059562365958137485,
                0.05956849124784164,
                0.05957763536554913,
                0.059576266517284,
                0.015978994335604766,
                0.01785462398815344,
                0.05959473122038966,
                0.05957680976420331,
                0.05953759154673634,
                0.05957483773274804,
                0.05954786417345482,
                0.05948854865466756,
                0.0033633540663893374,
                0.05950995667044536,
                0.05959150863462602,
                0.05954670460705726,
                0.05957536092793686,
                0.05955294794311936,
                0.0168637468131744,
                0.026339663826379422,
                0.05956773640408172,
                0.05954829960555891,
                0.059499540074200115,
                0.05953999074138716,
                0.059554479267427296,
                0.02636830490274043,
                0.059541536777499966,
                0.01783639304531085,
                0.059570419445901926,
                0.017856107502174184,
                0.017842908006009343,
                0.05956436678375775,
                0.059554554576438,
                0.05949887322173995,
                0.0595318114402611,
                0.059519382901105665,
                0.05950677552858271,
                0.02636831082289158,
                0.05956561309590148,
                0.031210968692869004,
                0.05957322097422005,
                0.059514204761470776,
                0.059559035277885065,
                0.02088655959331171,
                0.020872758177370762,
                0.016846827048675857,
                0.05958652261099627,
                0.05950050469363476,
                0.03120339154871681,
                0.05952556645517558,
                0.031214086299209288,
                0.059578035545219926,
                0.059574446172907684,
                0.01684594633846984,
                0.059498825388582546,
                0.030941858722255224,
                0.031280640971679714,
                0.012350003208262655,
                0.059563154200377194,
                0.05957469515687311,
                0.05949507466005372,
                0.05949269375832669,
                0.059487115618660075,
                0.05954251868638136,
                0.017838759921457115,
                0.05950716064704008,
                0.05956977262974609,
                0.05951390926344225,
                0.0595589820786201,
                0.059523679767966194,
                0.059506709562751024,
                0.018007239185247218,
                0.059538070139071156,
                0.030967100589417644,
                0.059511213978388856,
                0.05954261966875665,
                0.05952119848410469,
                0.03095714546589901,
                0.05948843777681025,
                0.030876969527224706,
                0.05956004142667253,
                0.05955636557306401,
                0.026324665123052676,
                0.05958156156676534,
                0.01782896098637398,
                0.059495632846249175,
                0.059516956727741606,
                0.059490058487691316,
                0.05697667074595858,
                0.059541667345672775,
                0.01784635943669525,
                0.059539627564385474,
                0.059500903144513784,
                0.05948662839458995,
                0.01687088310122344,
                0.01616009477546839,
                0.059489855348083605,
                0.01783483351173991,
                0.05952121891182616,
                0.017831828586676614,
                0.05957089255148,
                0.059502422914033466,
                0.027272843740612764,
                0.05948939731429677,
                0.05950495905269679,
                0.017841094039301838,
                0.016807800130144237,
                0.059533764375083016,
                0.05951671998748242,
                0.05486241201602095,
                0.05949896225405704,
                0.016851402318022922,
                0.030971800788474356,
                0.03093688154450348,
                0.059495959697595746,
                0.05949861155424468,
                0.05954127401737514,
                0.05952563935562069,
                0.05954310593190311,
                0.05954471576564567,
                0.05018576808476547,
                0.059529618497422436,
                0.05955726532008324,
                0.05950764431826683,
                0.059528365427680426,
                0.059542559664820346,
                0.05952298525196142,
                0.027356315908620987,
                0.01760301319296586,
                0.013948881102239408,
                0.021602803814559004,
                0.0586234409238205,
                0.05957871251812735,
                0.05949391026602249,
                0.05951353208157558,
                0.05950872192028409,
                0.05954611748826372,
                0.05958032536287171,
                0.059549788971818285,
                0.03126549678191696,
                0.05959449471998964,
                0.05952705586835374,
                0.059589138943118104,
                0.059574016590711314,
                0.059492439091616674,
                0.05953351500924026,
                0.013957498776562374,
                0.05958146624518621,
                0.059576551798149885,
                0.059517918843421766,
                0.05950398046040657,
                0.05959507135765269,
                0.05949018375207784,
                0.05958494961261516,
                0.05952058586679458,
                0.05951083748638542,
                0.05951922100720141,
                0.05952779287733627,
                0.013964445580342053,
                0.0594885695724655,
                0.059527080502474086,
                0.05954598302149464,
                0.05950888983856158,
                0.059550130298893555,
                0.05951448422700645,
                0.05949027288410646,
                0.05954408899956466,
                0.026322162589633387,
                0.0595260572249395,
                0.059575738706779666,
                0.05954194359905111,
                0.05958229493311651,
                0.05954521917260787,
                0.059563326696965846,
                0.016864931979580063,
                0.05954997876192949,
                0.05949177020970689,
                0.03121169451550609,
                0.030944422802306592,
                0.059510058919247176,
                0.05953446494695742,
                0.05949107935717886,
                0.05952944179045201,
                0.02633018163439784,
                0.026336972017697614,
                0.021570674846528002,
                0.05952448971201066,
                0.030883457597566267,
                0.059517716551058746,
                0.030937839873824403,
                0.017853752471256933,
                0.05958212923063604,
                0.05948781060008578,
                0.05951710206790787,
                0.05951073038284888,
                0.059590715311510306,
                0.05955469886431001,
                0.05957007475365629,
                0.05803298945292789,
                0.05958587823883877,
                0.026361222620732636,
                0.017826512216055454,
                0.02136448958698029,
                0.05954838672112269,
                0.013952060720590536,
                0.05951898955715538,
                0.0595407535303547,
                0.059535925797508306,
                0.059560541218857704,
                0.059530878994809286,
                0.05955508748062936,
                0.05958286021171061,
                0.043400965824160136,
                0.059515800166836275,
                0.05444238350561451,
                0.059586186032897184,
                0.059571234825433035,
                0.059535664611778,
                0.059592075843203904,
                0.05952111268663785,
                0.05959113908227888,
                0.059591125689689425,
                0.059563537645613375,
                0.059562727968041546,
                0.05950790879622332,
                0.05949479319718069,
                0.05959355458701647,
                0.05955353919761802,
                0.021131300856306226,
                0.03320165262599402,
                0.05954136001143767,
                0.05955484230613437,
                0.0584584905674622,
                0.03320705514893033,
                0.059506264842680755,
                0.05956815348800692,
                0.031186449137162276,
                0.059516441770508306,
                0.05949029179781498,
                0.0595907224965599,
                0.05953641478913372,
                0.01783040450709506,
                0.020875181888120042,
                0.021130104002661954,
                0.05959200429945509,
                0.02632493466428805,
                0.05953534061675289,
                0.0595135503731333,
                0.031246870518050255,
                0.059517877613501274,
                0.05951595954921536,
                0.05957121300398224,
                0.01785781569346162,
                0.059520940169473305,
                0.059559912175977794,
                0.059589824172336124,
                0.05958179296142869,
                0.05956913831252622,
                0.0595153330464174,
                0.030933001941173047,
                0.05955277979634355,
                0.05954986574343692,
                0.05954256055102505,
                0.0595460698539657,
                0.013955165265313553,
                0.05958395924266957,
                0.05948977960684608,
                0.013957111030099618,
                0.05955446654186246,
                0.05953796021640505,
                0.018027899915644536,
                0.05953994360608141,
                0.05955480380048224,
                0.05950269906621401,
                0.03094295606942203,
                0.01686553090819578,
                0.0595109087897385,
                0.05953632872579146,
                0.05955212505728659,
                0.020905103422936888,
                0.05955365345559031,
                0.013947809602325292,
                0.0178578303754532,
                0.05953476503989699,
                0.05958457157633748,
                0.059530458449714656,
                0.059573873320008644,
                0.030900784237703434,
                0.016847500243447812,
                0.05954983883267635,
                0.059582032963241306,
                0.05953537304977005,
                0.031230040907461527,
                0.017837957112250773,
                0.05951966338397477,
                0.059577912809197685,
                0.017826914656083367,
                0.059532816238822554,
                0.020884071634894433,
                0.05951346684276382,
                0.030893907869758062,
                0.05948686605955463,
                0.059536492684081246,
                0.059542131776436344,
                0.05958667922668009,
                0.05955109655656096,
                0.019849720235609967,
                0.059546389652470395,
                0.059552977766970674,
                0.059534815229095615,
                0.021595449684640892,
                0.05952886391341054,
                0.05954734139728423,
                0.059589424328809565,
                0.05952991769137873,
                0.05954745296090432,
                0.0595196820441401,
                0.059541587214054385,
                0.059525829418027684,
                0.0208745933139825,
                0.059563543947809286,
                0.030963661996155932,
                0.013965706400997382,
                0.05952488348432375,
                0.017828838144245147,
                0.05953740142697636,
                0.03093737857120375,
                0.05956109452331196,
                0.05954423847346705,
                0.02088367926040191,
                0.05954743001787591,
                0.059527940160584124,
                0.0595582347357367,
                0.059526291673666853,
                0.05957425051976723,
                0.020877141171708347,
                0.059529684502893754,
                0.059503035660009015,
                0.017832859928048898,
                0.027343414454912292,
                0.05951392848321325,
                0.01685371601089005,
                0.05955490436341316,
                0.059534176884967725,
                0.05950269514728851,
                0.026334856936108157,
                0.05951534996945077,
                0.017082800463114105,
                0.05954690454330064,
                0.027299102331093672,
                0.059528179776583943,
                0.059522708566254974,
                0.013955720571622077,
                0.01395679264103134,
                0.05957768004186543,
                0.05956708481988501,
                0.05953342933185289,
                0.05951773366552739,
                0.031217414045222654,
                0.05887472034217269,
                0.031271219609804335,
                0.031286371755656905,
                0.027320593274968687,
                0.030910774818841913,
                0.05948769372796151,
                0.05959150824789887,
                0.05957844755935304,
                0.05951127330420093,
                0.05954387404334927,
                0.016848101856110215
            ]
        },
        "detections": 500,
        "events": 215477
    }
}