{
    "job_args": {
        "metric_limit": 500,
        "seed": 4220296525
    },
    "job_id": "batch_46_do_500",
    "result": {
        "collections": {
            "crystal": [
                0.05957442778460461,
                0.05951126980941461,
                0.05957770787988976,
                0.05953894428924629,
                0.020908050633420053,
                0.05949549954017621,
                0.059541697221049315,
                0.05956619032506562,
                0.026322524722199103,
                0.05954316095289794,
                0.059528195358744936,
                0.059559995002536566,
                0.059576803048677344,
                0.059549745200600544,
                0.0595162805458784,
                0.05952281364072448,
                0.05952427785600559,
                0.059498306824319044,
                0.05957897949785223,
                0.05959124716912101,
                0.03088699290805763,
                0.017839925842229147,
                0.05840969141154089,
                0.05953690554163343,
                0.013963615791489381,
                0.017834821548691173,
                0.016856147972088835,
                0.017085499728523832,
                0.059507989821828276,
                0.02731018069903509,
                0.020888327324324378,
                0.05950495845323104,
                0.05949333374635089,
                0.059529558514886644,
                0.05951976842644684,
                0.05950674493117635,
                0.05954944248830176,
                0.026322235974587528,
                0.01684760852890717,
                0.05955834665830376,
                0.05958735704722917,
                0.05958912754196791,
                0.05957042428381431,
                0.02089860867374013,
                0.03123121410201113,
                0.05951996439938665,
                0.05959135724840847,
                0.0595120829998084,
                0.059533738648736755,
                0.05959286223022999,
                0.059517688468713935,
                0.05956933385707212,
                0.059520589560416816,
                0.05958452333522689,
                0.059592882139608255,
                0.059514248663017334,
                0.05957418156690673,
                0.05954465804203372,
                0.059526111596420524,
                0.0595412715392616,
                0.026338648867334488,
                0.01783007411844291,
                0.05958740718693244,
                0.05959456751120402,
                0.059513628856075196,
                0.030910263418224587,
                0.020894556738481736,
                0.026360489623187648,
                0.059525520111999373,
                0.05949146025831109,
                0.016857522338329232,
                0.05948806827499283,
                0.059556970086671754,
                0.05955702985085379,
                0.05955248360828035,
                0.05958928862578523,
                0.059584496801767736,
                0.0595606699588081,
                0.05954826017831075,
                0.020892407240778454,
                0.017061693406941917,
                0.031251296464432726,
                0.017842789234246963,
                0.05954918746085285,
                0.01785217567196914,
                0.05952033123548887,
                0.05956895295304306,
                0.05958339228452514,
                0.05958803891126716,
                0.02138358045183991,
                0.03126328963626734,
                0.05951447618540932,
                0.04344514550763635,
                0.030894666190080328,
                0.059489591199104935,
                0.0168622466453361,
                0.05955566824591418,
                0.059534277168211275,
                0.04951676606532635,
                0.05959008574370726,
                0.10301105329392334,
                0.059524771038507465,
                0.059504737861252904,
                0.059486621276963296,
                0.01782692053763849,
                0.01785580536729445,
                0.05954539202584336,
                0.05955531454726658,
                0.05948649073880383,
                0.0595362852929045,
                0.059537221434948266,
                0.059520172726746895,
                0.05953413920174216,
                0.05952975381921481,
                0.059489118710661724,
                0.026348571370925864,
                0.05958920812935119,
                0.05949605416719307,
                0.05952297122870793,
                0.03888489535789282,
                0.0595578914590473,
                0.059549689652246884,
                0.027206275854071142,
                0.013949650216785766,
                0.05957363254829581,
                0.059490029618256036,
                0.05954889910586915,
                0.014846609504913233,
                0.0467596291732696,
                0.059554481038144404,
                0.05952327652958169,
                0.05948764085301048,
                0.059553682623751526,
                0.018768640557074355,
                0.05949176223686928,
                0.059589268080279055,
                0.05954840825175897,
                0.059497185363711035,
                0.05951500869243499,
                0.031202521795216716,
                0.05956203796802518,
                0.026326970754174974,
                0.05953799746695852,
                0.01751759613677772,
                0.05955702778301572,
                0.059510637368633705,
                0.05957338684801073,
                0.059555952827660325,
                0.016866434905942324,
                0.059552190413632064,
                0.05958278946105222,
                0.0594945614558557,
                0.05959255740515782,
                0.0594986980785663,
                0.05952757426945508,
                0.05949079514546884,
                0.044638579423553634,
                0.059519401395207366,
                0.01784483428405641,
                0.02157156372183564,
                0.059514697226353656,
                0.05953474260832627,
                0.05951593485296203,
                0.059557537773894005,
                0.031220811392984854,
                0.05950914872901599,
                0.059578075091616674,
                0.059548248148260416,
                0.016824120089060018,
                0.027169957266238165,
                0.059545342697557624,
                0.05959538650537835,
                0.05958140945734182,
                0.05952121741254917,
                0.05950776189096778,
                0.0595841334867268,
                0.05951653063461945,
                0.059582469872161745,
                0.05958440400968471,
                0.05950429682064532,
                0.0595117607724682,
                0.031235368565147793,
                0.05959094953491961,
                0.01395921869324001,
                0.028690578351846702,
                0.05955193244531849,
                0.059510613982961105,
                0.059572523964242535,
                0.013957429374569636,
                0.059507856961006994,
                0.059573753114013146,
                0.018020412410305206,
                0.059520804955786204,
                0.030934638058159724,
                0.031272965008844786,
                0.059559863858711204,
                0.020886440930818123,
                0.0594998586635693,
                0.05950005174083171,
                0.059565914457023465,
                0.05951592316690779,
                0.05951477351719483,
                0.059582188219543405,
                0.026366769267812205,
                0.05957218024657331,
                0.02137782673136989,
                0.05959169799795498,
                0.05950724695054978,
                0.05956998430526674,
                0.05958557521906527,
                0.05952690066901703,
                0.059578069241082485,
                0.05956226710478689,
                0.05954311826869916,
                0.02633648642160317,
                0.05953486627230703,
                0.05762508117478962,
                0.05953789037334059,
                0.05949016034417074,
                0.059543455325227534,
                0.059549788186683876,
                0.059568379738785614,
                0.05516691323247973,
                0.05950669891290626,
                0.059556033902240756,
                0.059541171201401566,
                0.02636557090816733,
                0.05952059324432232,
                0.05950764410319487,
                0.059499402142361456,
                0.05956162579337366,
                0.017838780876475613,
                0.05954143647305052,
                0.0595641013406693,
                0.05950418172546557,
                0.01708312310835365,
                0.03244566917799923,
                0.05951514000935126,
                0.059566314439163076,
                0.05956951027199846,
                0.059541708906897035,
                0.013960705879123778,
                0.05956239940705636,
                0.05951384140106073,
                0.059508352483431046,
                0.01396471829003122,
                0.05955044602221991,
                0.059585431675927496,
                0.059506328632656924,
                0.059590924596024435,
                0.05951599795040284,
                0.059555420712184476,
                0.05957515766920303,
                0.05957121389501041,
                0.059567029975104595,
                0.0265493675401214,
                0.05924205349428887,
                0.059515741569088815,
                0.016552350439044763,
                0.05957163824582196,
                0.018023010984840826,
                0.05950419448882747,
                0.013960374405985448,
                0.059503305551937356,
                0.016810365656497905,
                0.05957535014801993,
                0.0595371497710356,
                0.02730306526281171,
                0.05955099271376699,
                0.05950742345042917,
                0.0595012012751588,
                0.05954215256608633,
                0.0208930854000245,
                0.04986748276331105,
                0.059533267763973344,
                0.013952822348963346,
                0.05951591639365897,
                0.01783897080044971,
                0.05951195396461758,
                0.059538127932403206,
                0.05949465948667285,
                0.05958602672551621,
                0.0595486271027474,
                0.05958154502919753,
                0.05952990286765084,
                0.059495631744056546,
                0.059515015093510704,
                0.05958734274295802,
                0.01783341494263625,
                0.05955291532666432,
                0.059517357619379256,
                0.059498736692531466,
                0.059576937430673244,
                0.017837811031321177,
                0.05950677675139954,
                0.017853975545233807,
                0.05959082907810963,
                0.05955417959635337,
                0.059493218424808814,
                0.059549843754437504,
                0.05959324470534002,
                0.059496945015787714,
                0.013968303445765686,
                0.05953944556617316,
                0.017833644011274994,
                0.05955282896390566,
                0.05957801787005302,
                0.017847195906883294,
                0.017858844944001508,
                0.05957202802590584,
                0.05953876618265643,
                0.05954759746735542,
                0.05955890056074467,
                0.05956297640041289,
                0.016865970649367526,
                0.017840763334131406,
                0.013960111028502854,
                0.05958689425709585,
                0.0595407182826651,
                0.05949699374710807,
                0.020904161896330826,
                0.013951233348952003,
                0.017845139103473216,
                0.0594938449426884,
                0.05948679464287142,
                0.059532042180071285,
                0.059535011909739276,
                0.05951756569427149,
                0.013960102555852408,
                0.026341567659034542,
                0.05957609781561956,
                0.03090392904820821,
                0.05955980658636285,
                0.059563890878096035,
                0.05956887683933622,
                0.05958418544785592,
                0.05953487004085426,
                0.0595030023344831,
                0.055536520347661086,
                0.059539840650512696,
                0.05951309325390683,
                0.059539376665284624,
                0.05956797256185838,
                0.05959291110131199,
                0.05954184257939188,
                0.05951312175362837,
                0.05956876917990794,
                0.0312738808792492,
                0.05958710946958373,
                0.03089379975797219,
                0.020879850250028975,
                0.05950073849774697,
                0.05958719028462037,
                0.017840097836772557,
                0.059586186526477056,
                0.059564998349946156,
                0.0595779011856578,
                0.01686185938998895,
                0.05955477659298826,
                0.03092375469297961,
                0.026324003390036214,
                0.059527091973418815,
                0.059535820688486646,
                0.059591743567280364,
                0.030959826160500296,
                0.059549606754213884,
                0.05956678654065518,
                0.026498290937853747,
                0.0595451064132949,
                0.028511849998579485,
                0.05949023572609791,
                0.0595498021106706,
                0.05954785975015535,
                0.05951071229917479,
                0.05949590607532001,
                0.05954302395385498,
                0.059557294039639705,
                0.059504093648203714,
                0.05953157348918954,
                0.031212248437039923,
                0.013946599437278641,
                0.02090566255824782,
                0.05950723193841557,
                0.018029465474734364,
                0.05957427807497741,
                0.017827415203774673,
                0.05951300193756276,
                0.04991703466278466,
                0.059493840469114254,
                0.059552045043632214,
                0.059585449592760784,
                0.05952238713616723,
                0.05952061375781976,
                0.05950180010604554,
                0.05952554503977853,
                0.0594898641255014,
                0.059577440236141456,
                0.0595479713850557,
                0.05952801932213041,
                0.05950243825079443,
                0.05954013605281103,
                0.017851608616301577,
                0.05957039460598336,
                0.05950613654347583,
                0.05951514662327269,
                0.017858762601673142,
                0.01784279930842358,
                0.013954560006961794,
                0.017852686146655,
                0.01685897936712325,
                0.05954461965195629,
                0.059505957321545296,
                0.059586611221536336,
                0.017857815034525264,
                0.05954936529291203,
                0.017840180691676387,
                0.05661741849254561,
                0.013968086109124998,
                0.059489151005122386,
                0.0595868973887597,
                0.0595804370925658,
                0.013945615211678801,
                0.01784919805693376,
                0.017833936409118695,
                0.03090967571797102,
                0.05949935715536268,
                0.05948701453617901,
                0.05958251245673566,
                0.027271474546557612,
                0.01785355732990586,
                0.05951260734970052,
                0.0263450406371902,
                0.0595423440055514,
                0.05953774174415534,
                0.05951549602405844,
                0.059582142015671156,
                0.059515303618199435,
                0.059515495746296325,
                0.017061700871371283,
                0.030899323156623602,
                0.013962889827256674,
                0.05799953094708008,
                0.05954039103895167,
                0.05956227032820416,
                0.026342916854229896,
                0.0595734705849674,
                0.059556046610571844,
                0.05948779734618842,
                0.05953008189255385,
                0.059503832157275824,
                0.05954774480567279,
                0.030927899973202187,
                0.017838128648758427,
                0.01396691547518221,
                0.059590198620446296,
                0.059543247957064595,
                0.03097380804511618,
                0.05955508780434269,
                0.020880183336461834,
                0.05953668634343343,
                0.05955138292242224,
                0.017842247313339964,
                0.05957686969734954,
                0.059541733259248296,
                0.05098155925975239,
                0.05951546594707914,
                0.020930446350432803,
                0.026361383379619362,
                0.05956118163050417,
                0.016850515475157094,
                0.059570947748957,
                0.03089940242570959,
                0.059575719536617,
                0.059531914145476095,
                0.059586286214257746,
                0.059548509934664616,
                0.05953372919796641,
                0.05949708886831295,
                0.059582235786617324,
                0.05954028382102802,
                0.05953644667304384,
                0.05949121174701463,
                0.05955412539879687,
                0.059487908731330044,
                0.05948756161882871,
                0.017851421341361515,
                0.05954038499615314,
                0.03126230115465505,
                0.03090683849471871,
                0.026350388734811117,
                0.004593019559719884,
                0.059535476164926375,
                0.022219609263363648,
                0.05949229210789058,
                0.05951981607210783,
                0.059495623445420136,
                0.059582136849769374,
                0.059504936120974836,
                0.05951362803589363,
                0.05950565038711241
            ]
        },
        "detections": 500,
        "events": 208567
    }
}