{
    "job_args": {
        "metric_limit": 500,
        "seed": 3704424120
    },
    "job_id": "batch_139_do_500",
    "result": {
        "collections": {
            "crystal": [
                0.8721093680408322,
                0.8606175522493967,
                0.5991818488434663,
                0.8909485612653723,
                0.29953329832242015,
                0.3564003631626633,
                0.450847000970216,
                1.1732266212015405,
                1.1732266212015405,
                0.9354943545197055,
                1.1732266212015403,
                0.43139329887073863,
                0.9349052391829663,
                1.3324980931528798,
                0.4695643076382773,
                0.4627194226160901,
                0.962457844822966,
                0.5152028709377153,
                1.1732266212015405,
                0.5936619771796542,
                1.0577602005438096,
                0.1758680138011529,
                1.1732266212015405,
                0.7433135812980908,
                1.3324980931528798,
                0.07545749527515322,
                0.5976645480163756,
                0.40537037227312495,
                1.3324980931528798,
                0.520902204221725,
                1.33249809315288,
                1.1732266212015408,
                0.1510810870168107,
                0.2250751921886741,
                0.3957709695942134,
                0.09598180573735426,
                0.12790704651523208,
                0.20678341467117978,
                0.6360782653357664,
                1.0693788318472544,
                0.35880275805115125,
                1.3324980931528796,
                0.07524999999999998,
                0.026601759148469573,
                0.33046012221893717,
                0.6611372230718948,
                0.4028905940939816,
                0.4313581840710122,
                1.1732266212015408,
                0.5305655311394653,
                0.8333390948701479,
                0.22092313226321114,
                1.3324980931528798,
                0.12945180418956337,
                1.3324980931528796,
                1.3324980931528798,
                1.3324980931528798,
                0.27817895620810396,
                1.33249809315288,
                0.9989663192182798,
                0.9483913372970862,
                0.7974197828969145,
                0.8210919989187142,
                0.8681021093715068,
                0.32936650859190064,
                0.4652540801405332,
                0.51099891,
                1.3324980931528798,
                0.3155722817274362,
                0.06095282460934448,
                1.092218244252747,
                0.7642223057532121,
                0.342634617915761,
                0.09373914526259886,
                0.95161961065528,
                0.7432324536635637,
                1.1732266212015403,
                0.3096681907859633,
                1.3324980931528798,
                0.4975590236915547,
                1.3324980931528796,
                0.9089374670118554,
                0.7769944584606462,
                1.3324980931528796,
                0.6174969886538303,
                1.1732266212015408,
                0.23409125201978487,
                1.1732266212015408,
                1.0389326268340833,
                0.7284625006985722,
                0.26930523771457837,
                0.13534988928099279,
                1.1732266212015408,
                0.4886418893057804,
                1.0384358135455698,
                0.29151362624329913,
                1.1732266212015405,
                1.1732266212015405,
                1.3324980931528796,
                1.1732266212015405,
                1.3324980931528798,
                0.3942576552992686,
                0.4912936984214521,
                0.10204332245508707,
                0.5471245414594033,
                0.631978638538487,
                0.6083645319913348,
                0.4506773977891627,
                1.1732266212015405,
                0.866433357428968,
                1.0409912692571224,
                1.17322662120154,
                0.5879884797382421,
                1.1732266212015405,
                1.3324980931528803,
                0.568133907239951,
                0.2746462611509175,
                0.6185312065672524,
                0.9257472655726625,
                0.43396571775328663,
                0.6386115112731795,
                0.2515545123792053,
                1.3324980931528796,
                0.34225527386256593,
                0.31794099231949424,
                1.009285866192419,
                0.5460380863955904,
                0.4780907775170383,
                1.1732266212015408,
                0.6481161575035146,
                1.1732266212015405,
                0.8712293393251527,
                0.9679929679770979,
                0.8066702705299483,
                1.3324980931528798,
                0.8692760473788107,
                0.7576918104606981,
                0.5603110549366154,
                0.5535190474572605,
                0.38254403516690805,
                0.38358838625305747,
                0.8546938197991634,
                0.5481296583878537,
                1.1732266212015405,
                0.0510326281246416,
                0.51099891,
                1.1732266212015405,
                0.3651188151144227,
                0.004841918204861906,
                0.047898589906495426,
                0.21787402511624232,
                0.3563319797168274,
                0.690804337098596,
                0.3671016542591246,
                0.704365322239478,
                0.9162450517516636,
                0.662485947017206,
                0.8851310867273899,
                0.9826225200390649,
                0.4765798109191141,
                0.5774273942991891,
                0.907350021412286,
                1.173226621201541,
                1.0635195661756047,
                0.16861709557055593,
                0.16037628455937625,
                0.31002216364564494,
                0.5875224964463943,
                0.7216148375000551,
                0.31933937696534476,
                0.9812729439857578,
                0.07637266847305713,
                0.4640097584035549,
                1.1732266212015405,
                0.9118680995474905,
                0.08523539999999999,
                1.1732266212015405,
                0.35612529159249257,
                1.1732266212015405,
                0.24513097816264967,
                0.5211629544808927,
                1.1732266212015405,
                1.1732266212015405,
                0.9428560495629333,
                0.9140236703234011,
                1.33249809315288,
                0.12919662526925713,
                1.1732266212015405,
                0.3969810891642431,
                1.1732266212015403,
                1.1732266212015405,
                1.0478535180402484,
                0.6287792936597155,
                0.7158890036004318,
                1.1732266212015408,
                0.43627595702665356,
                1.1352537581950177,
                0.7204294685781352,
                1.33249809315288,
                0.9399353738215208,
                1.1009699487523696,
                0.09875175853845451,
                1.1732266212015403,
                0.9534106739145817,
                1.173226621201541,
                1.1316850859202174,
                1.1330371044005203,
                0.5860563067013121,
                0.03818283237453879,
                0.004822685032098706,
                0.5849859228370948,
                1.1732266212015405,
                0.3530503294046236,
                0.47563163462376634,
                0.07525000000000001,
                0.3101955773832539,
                0.40247365314080186,
                1.1732266212015405,
                0.6171817267244227,
                1.3324980931528798,
                1.1732266212015405,
                1.3324980931528798,
                0.51099891,
                0.9496157450626422,
                0.5741281317882801,
                0.08817909999999998,
                0.6304452611494982,
                0.4513413202993143,
                1.1732266212015408,
                0.32644373910592406,
                0.4389759532257274,
                1.1732266212015405,
                0.04560894135267768,
                0.2080878593941227,
                0.30564596499560615,
                1.1732266212015405,
                1.33249809315288,
                0.08122410335131658,
                0.17341092670857838,
                0.14246250237445834,
                0.24902456011385013,
                0.8036505853529766,
                0.011400071103215483,
                0.5809111037452531,
                1.0635126493137774,
                0.5696317488389468,
                0.4828720323630862,
                0.9687979283232813,
                0.7027398737017664,
                0.9848125828232187,
                0.19577979078112115,
                1.1732266212015408,
                0.5039100872124191,
                0.619408778956158,
                1.3324980931528798,
                1.3324980931528796,
                1.1732266212015405,
                0.9403103878155398,
                0.6598866076121293,
                1.136357864801735,
                0.10175448163574385,
                0.9178443676468042,
                1.1732266212015405,
                0.7301729457958239,
                0.3024340201261673,
                0.04472642546964567,
                1.33249809315288,
                1.1942581364272986,
                0.49829304136261743,
                1.073223184943732,
                0.37971022924891684,
                0.9019262516775619,
                0.23736925124018626,
                1.3324980931528798,
                0.8919508189654786,
                0.7095225714318408,
                0.3861774490958375,
                1.1732266212015405,
                1.1732266212015403,
                1.3324980931528798,
                0.2825334971615018,
                1.3324980931528798,
                1.1732266212015403,
                1.1732266212015405,
                0.8967809395772143,
                0.7971373744537726,
                0.4092644130102201,
                1.3324980931528798,
                1.1732266212015405,
                1.1732266212015403,
                0.7213857575944188,
                0.9987768975186448,
                0.6253039965117263,
                0.8602300155252721,
                1.3324980931528798,
                0.9549773177493318,
                0.0140651644298605,
                0.6030922075654371,
                0.28667395124749884,
                0.8431498980659133,
                1.3324980931528798,
                1.3324980931528798,
                0.010653554513634367,
                0.4376411826284097,
                1.1732266212015405,
                0.7820078989858968,
                1.1732266212015405,
                0.3317650536576262,
                0.4616240661481165,
                1.17322662120154,
                1.1732266212015405,
                1.1732266212015405,
                0.18698178636169374,
                0.8479117886031269,
                1.1732266212015405,
                1.1732266212015408,
                0.8083568052050283,
                0.7448309316396915,
                0.28843292978713575,
                1.1732266212015405,
                0.6606264822006401,
                0.554327515086086,
                0.5196600247922047,
                0.5409337467388813,
                0.3448170510825136,
                0.35762176136727575,
                0.6085944265083565,
                0.24367049513681804,
                0.541162236161443,
                0.28485642285571444,
                0.5904373997896386,
                0.07525,
                0.5844324103484426,
                0.8132687567281166,
                1.1732266212015405,
                1.33249809315288,
                1.1732266212015405,
                0.04169967716923906,
                0.5708238153163727,
                1.0567474305885425,
                0.8205880177374058,
                1.3324980931528796,
                0.4721537603602605,
                0.5396402038169954,
                0.4588052410134084,
                0.16141183115271807,
                1.1732266212015403,
                0.28556440614084644,
                0.14815731324211492,
                0.45356689195436983,
                1.3324980931528798,
                1.1732266212015403,
                0.6023544266856571,
                0.07524999999999998,
                0.47337812912804994,
                0.5232086949379745,
                0.15122880120154059,
                0.04983699890625659,
                0.7603525497311592,
                0.2231247931068844,
                0.6106039744048668,
                0.08675896295966834,
                0.530277786114373,
                1.1732266212015405,
                0.4379525658004464,
                0.37495250392043533,
                1.1732266212015405,
                0.41163963335292636,
                0.3382848994875396,
                0.5343853668785263,
                0.7320524065697542,
                0.5511161565384061,
                0.7993087005018421,
                0.6049086354781172,
                0.07470920090883859,
                1.1732266212015405,
                1.1732266212015405,
                0.5294171393228271,
                0.5873148057165296,
                0.541430810821213,
                0.6503701102539584,
                0.018352196118493147,
                0.9858351864120454,
                1.1732266212015403,
                1.3324980931528798,
                0.3848736585194561,
                0.17059311785693757,
                1.3324980931528798,
                1.1732266212015405,
                1.3324980931528794,
                1.1732266212015405,
                0.4115759199961806,
                0.7470386306968286,
                0.05529562507008712,
                1.1732266212015405,
                0.571374823086636,
                0.36818026185463143,
                0.6294614900014843,
                0.007427141549783078,
                0.27129665486444016,
                0.23115010056184382,
                0.6284123224520444,
                1.3324980931528798,
                1.1732266212015405,
                1.1732266212015403,
                0.5612733083244478,
                0.0931886430320264,
                0.8311861794403748,
                0.9887755017015377,
                0.8428224022930215,
                0.0429176269607483,
                0.9655765123035267,
                0.42384798748582436,
                1.3324980931528798,
                0.6174423371491835,
                0.8377796581096361,
                0.3900696354582715,
                0.9706204161015966,
                1.3324980931528798,
                0.903393541385572,
                0.07841088183289902,
                1.1732266212015408,
                0.9134941898384334,
                1.3324980931528798,
                1.1732266212015405,
                1.1732266212015405,
                0.5983477217797133,
                0.8560780933491782,
                0.9742935636852172,
                0.6700276068311731,
                0.5542528237196083,
                0.9652978979167137,
                0.06555587901743808,
                0.23098448986288808,
                0.3064446143952252,
                0.11751163046901425,
                0.935873215968232,
                0.8681115896129229,
                0.9060222584607056,
                0.8297187001662767,
                0.5531831112238973,
                0.20658388598387167,
                0.8294672538467034,
                0.6564273880886226,
                0.3061568590200774,
                0.51099891,
                0.8919676791442137,
                1.1773163461952287,
                0.053647956978510436,
                1.3324980931528798,
                0.9495829887949917,
                0.8852839501477868,
                0.8801000862123267,
                0.38595790538052344,
                1.1732266212015405,
                0.5294033010542619,
                0.5517699988763489,
                0.7436740406215783,
                1.05851419682061,
                0.3114312126486295,
                0.07525000000000001,
                0.34734634116425855,
                1.1732266212015408,
                0.7175632564743284,
                0.8042913476846887,
                0.39437547896131564,
                0.8766724176429121,
                1.3324980931528798,
                0.6163724443918509,
                0.087608307941907,
                0.3722376028952897,
                0.12478837990768454,
                0.6996486497476639,
                0.7680271460152337,
                0.3384747248630388,
                0.8498494819242083,
                0.9744777422364086,
                0.5046791056597192,
                0.46243204156501433,
                0.3966033730396504,
                0.866732297654551,
                0.900984166669371,
                0.31126633411435795,
                0.27242210420822177,
                1.1447624206894238,
                0.07525,
                1.1732266212015408,
                0.5292823996234511,
                0.37594229781515887,
                0.4363955508131609,
                0.6437087208652988,
                0.07525,
                0.10357693756787568,
                1.1732266212015408,
                0.07345393957734825,
                0.08474069999999999,
                0.7829598436621533,
                0.2775623070914663,
                0.8839454231977146,
                0.3339694738191764
            ],
            "photocathode": [
                6101,
                6181,
                4231,
                6151,
                2192,
                2531,
                3107,
                8138,
                8373,
                6573,
                8112,
                3044,
                6541,
                9213,
                3307,
                3252,
                6778,
                3603,
                8242,
                4110,
                7596,
                1245,
                8238,
                5190,
                9366,
                525,
                4271,
                2842,
                9332,
                3743,
                9335,
                8042,
                1076,
                1542,
                2723,
                692,
                937,
                1429,
                4434,
                7619,
                2572,
                9368,
                488,
                206,
                2238,
                4623,
                2757,
                2998,
                8188,
                3713,
                6039,
                1608,
                9325,
                940,
                9648,
                9193,
                9374,
                1936,
                9401,
                7149,
                6842,
                5492,
                5637,
                6219,
                2336,
                3237,
                3632,
                9362,
                2213,
                423,
                7635,
                5319,
                2576,
                685,
                6720,
                5200,
                8331,
                2101,
                9380,
                3481,
                9237,
                6517,
                5594,
                9503,
                4497,
                8217,
                1627,
                8254,
                7281,
                5036,
                1896,
                958,
                8139,
                3478,
                7241,
                2040,
                8155,
                8365,
                9324,
                8179,
                9360,
                2789,
                3489,
                707,
                3840,
                4409,
                4137,
                3161,
                8211,
                6383,
                7402,
                8075,
                4173,
                8386,
                9547,
                4046,
                1989,
                4346,
                6577,
                3054,
                4614,
                1730,
                9505,
                2399,
                2177,
                7042,
                3840,
                3387,
                8371,
                4445,
                8185,
                6177,
                6674,
                5672,
                9418,
                6054,
                5582,
                4003,
                3916,
                2755,
                2718,
                6161,
                3829,
                8155,
                328,
                3468,
                8243,
                2460,
                34,
                337,
                1527,
                2501,
                4857,
                2742,
                4940,
                6663,
                4654,
                6216,
                6948,
                3308,
                4014,
                6443,
                8339,
                7591,
                1123,
                1125,
                2183,
                4135,
                4998,
                2239,
                7030,
                501,
                3294,
                8103,
                6390,
                554,
                8123,
                2552,
                8074,
                1742,
                3593,
                8299,
                8478,
                6580,
                6420,
                9434,
                964,
                8173,
                2723,
                8272,
                8110,
                7304,
                4469,
                4962,
                8381,
                3121,
                7952,
                5062,
                9465,
                6713,
                7562,
                698,
                8152,
                6698,
                8045,
                8065,
                7963,
                4156,
                281,
                25,
                4073,
                8357,
                2515,
                3313,
                530,
                2192,
                2949,
                8267,
                4408,
                9335,
                8133,
                9460,
                3478,
                6582,
                4204,
                570,
                4417,
                3294,
                8237,
                2295,
                3024,
                8043,
                350,
                1470,
                2180,
                8237,
                9222,
                584,
                1200,
                1043,
                1813,
                5660,
                84,
                3926,
                7566,
                4063,
                3261,
                6684,
                5090,
                7044,
                1318,
                8185,
                3552,
                4359,
                9317,
                9222,
                8189,
                6353,
                4482,
                8064,
                734,
                6567,
                8265,
                5039,
                2098,
                290,
                9458,
                8257,
                3356,
                7514,
                2562,
                6406,
                1614,
                9385,
                6298,
                4950,
                2702,
                8118,
                8341,
                9181,
                1994,
                9261,
                8043,
                8422,
                6356,
                5541,
                2918,
                9400,
                8097,
                8132,
                4891,
                7056,
                4454,
                6138,
                9308,
                6880,
                113,
                4241,
                2005,
                6058,
                9159,
                9483,
                82,
                3104,
                8281,
                5635,
                8113,
                2334,
                3233,
                8348,
                8078,
                8142,
                1292,
                5976,
                8088,
                8008,
                5662,
                5050,
                2027,
                8034,
                4647,
                3962,
                3863,
                3843,
                2402,
                2542,
                4230,
                1751,
                3716,
                2042,
                4260,
                539,
                4124,
                5692,
                8012,
                9233,
                8368,
                338,
                4106,
                7386,
                5715,
                9276,
                3382,
                3758,
                3333,
                1133,
                8186,
                2042,
                1059,
                3229,
                9519,
                8172,
                4366,
                473,
                3366,
                3697,
                1124,
                340,
                5421,
                1604,
                4217,
                589,
                3635,
                8328,
                3050,
                2595,
                8124,
                2941,
                2353,
                3699,
                5017,
                3750,
                5932,
                4279,
                475,
                8175,
                8252,
                3801,
                4174,
                3972,
                4580,
                137,
                6909,
                8124,
                9356,
                2566,
                1158,
                9322,
                8259,
                9437,
                8542,
                2853,
                5418,
                429,
                8069,
                3987,
                2566,
                4486,
                58,
                1847,
                1655,
                4465,
                9297,
                8271,
                8139,
                3906,
                681,
                5782,
                7259,
                6083,
                322,
                6783,
                2894,
                9168,
                4378,
                6028,
                2717,
                6783,
                9543,
                6460,
                566,
                8167,
                6385,
                9251,
                8138,
                8379,
                4244,
                6265,
                7117,
                4710,
                4078,
                7037,
                464,
                1570,
                2100,
                798,
                6511,
                6136,
                6441,
                5775,
                3951,
                1471,
                5995,
                4635,
                2185,
                3608,
                6364,
                8548,
                356,
                9274,
                6550,
                6118,
                6004,
                2753,
                8342,
                3624,
                3855,
                5291,
                7414,
                2142,
                576,
                2474,
                8358,
                5121,
                5633,
                2765,
                6233,
                9223,
                4405,
                600,
                2546,
                903,
                4991,
                5504,
                2503,
                6086,
                7040,
                3559,
                3329,
                2809,
                6257,
                6320,
                2182,
                1869,
                8136,
                524,
                8357,
                3669,
                2635,
                3187,
                4536,
                523,
                752,
                8132,
                511,
                564,
                5483,
                1959,
                6188,
                2295
            ]
        },
        "detections": 500,
        "events": 68543
    }
}