{
    "job_args": {
        "metric_limit": 500,
        "seed": 2908050712
    },
    "job_id": "batch_140_do_500",
    "result": {
        "collections": {
            "crystal": [
                1.1732266212015405,
                0.5481874531426127,
                1.066403027405807,
                0.35363361819364786,
                0.45895608629746065,
                0.8962936162629328,
                0.4771986466529805,
                0.4938525972645179,
                1.3324980931528798,
                0.25690045777229376,
                0.6251509768941687,
                0.05197122407940675,
                0.3521755945457629,
                1.1732266212015405,
                1.3324980931528798,
                1.3324980931528796,
                0.42186157045921624,
                0.4891151708853444,
                1.019707566604385,
                0.7321494011325227,
                0.41002404661520125,
                1.002289057372391,
                0.8837473562816814,
                0.08767284788056329,
                0.2696586529580063,
                0.6946491311717461,
                0.8604652116234248,
                1.1732266212015405,
                1.1131466601369857,
                0.6382242346152237,
                0.7207557935280673,
                1.1732266212015405,
                1.1732266212015408,
                0.7716310085890314,
                1.136314872708633,
                0.6208456893637113,
                0.11198557475446402,
                0.9604069928713757,
                0.8884369885246538,
                1.1732266212015405,
                0.5895335867942091,
                0.4305974149373393,
                0.24817450242003025,
                1.2554865218791464,
                0.6216267603348444,
                0.8696677437752619,
                0.9511075591361566,
                0.154225222859675,
                0.8141123756838025,
                0.7857519009020734,
                1.0012404121830616,
                0.07525,
                0.3619980468612233,
                1.1732266212015405,
                1.110445030085339,
                0.1057316885738302,
                0.86033428001232,
                0.07525,
                1.33249809315288,
                0.23726140783144273,
                0.28448311808424254,
                0.37449143821302955,
                0.06937868903636923,
                0.07525,
                1.3324980931528798,
                0.5508337238846055,
                1.1732266212015405,
                1.3324980931528798,
                0.639427446907133,
                0.1733030144001384,
                1.3324980931528796,
                1.1732266212015405,
                1.1732266212015405,
                0.9515587456579652,
                0.4819215265438945,
                0.37209934427800606,
                0.13882997563841903,
                0.20332261819224315,
                1.1732266212015403,
                1.0206474948529232,
                1.1732266212015408,
                1.1732266212015403,
                0.7270249914890891,
                0.020314786614532343,
                0.3346053775731427,
                1.33249809315288,
                0.7503802338943195,
                0.51099891,
                1.1732266212015405,
                0.18703174946098955,
                0.3755927065650058,
                1.3324980931528798,
                0.4430224507486769,
                0.903135282944446,
                0.2664006542372756,
                1.3324980931528798,
                0.7108137231491815,
                0.5999459030911486,
                1.1732266212015405,
                1.0742691545082774,
                0.4234221481683218,
                0.08523539999999999,
                1.3324980931528798,
                0.9516152784788651,
                1.1732266212015405,
                1.1732266212015405,
                0.3329597531459351,
                0.7861899067282068,
                1.123142068145704,
                0.3952832021365389,
                0.4015682829269552,
                1.1732266212015405,
                0.19852139653624368,
                0.5376620225526452,
                0.9218320719799579,
                1.3324980931528796,
                0.2546354089332085,
                0.3271102147490884,
                0.14434550575534827,
                0.6173600671260493,
                1.1732266212015405,
                0.8243984265450153,
                0.2759830205195076,
                0.37515131460539175,
                0.7442563456059775,
                1.3324980931528798,
                0.7114044449587353,
                0.45525455343840954,
                0.07525,
                0.16483419686272582,
                1.3324980931528798,
                0.31803344296119807,
                0.6468286646457134,
                0.6170819503053271,
                0.7789058958269556,
                1.33249809315288,
                0.3910616523432761,
                0.4813294660806768,
                0.6550277088118377,
                1.1732266212015408,
                0.19572997717262888,
                1.0249143562939285,
                1.33249809315288,
                0.7695304054904485,
                0.8130733944476216,
                1.3324980931528796,
                0.7695635652144667,
                1.33249809315288,
                1.0502265479097208,
                0.5439503349231942,
                0.22016156812418272,
                1.1732266212015405,
                0.8841869329692262,
                0.05510634367932732,
                0.015550228153413115,
                0.09264383973650248,
                1.0003395311978096,
                1.1449201212015407,
                1.1732266212015403,
                1.1732266212015403,
                1.1732266212015405,
                0.9362770445396054,
                1.1732266212015403,
                1.3324980931528798,
                0.7507707196373885,
                1.3324980931528794,
                0.5400759215382117,
                1.3324980931528796,
                0.8796332613978951,
                0.6322482521098673,
                0.31860128820864875,
                1.1732266212015405,
                1.1732266212015405,
                0.1644052404541807,
                0.41975746281450227,
                0.9084100259813284,
                0.8627286823061964,
                1.33249809315288,
                0.6077779437956382,
                0.8797025217143482,
                0.06637944571234322,
                0.8885589423404331,
                0.6001812313039804,
                0.9081528773478565,
                0.28246882759619174,
                0.14195626803146394,
                1.3324980931528798,
                1.1732266212015408,
                0.9324780772994867,
                0.8780500324483149,
                0.3318193569234574,
                0.36913211030463544,
                1.1732266212015405,
                0.48840915560830744,
                1.1732266212015405,
                0.8317319518981179,
                1.1732266212015405,
                1.3324980931528798,
                1.3324980931528798,
                0.6772361212977211,
                0.8571680893051754,
                1.3324980931528798,
                1.1732266212015405,
                1.3324980931528798,
                0.33754296024366126,
                0.7602224541334031,
                0.02699732705113478,
                0.43159451563503165,
                0.26149858753924177,
                1.1732266212015408,
                0.41055461110522573,
                1.33249809315288,
                1.33249809315288,
                1.0585269593704922,
                0.7257735153520503,
                0.26700283747950604,
                1.1008394732731293,
                0.2876365511997331,
                1.1732266212015403,
                1.1732266212015405,
                1.1732266212015405,
                0.6791623494200836,
                0.33516198414351417,
                0.055461212848852415,
                0.3459853228106937,
                1.1732266212015405,
                0.47641236754384575,
                0.3246377044973549,
                1.3324980931528798,
                0.9291379748156885,
                0.8270039999937454,
                0.7510572373900608,
                0.9632525453295203,
                0.3166680152231621,
                0.8850283925375771,
                0.48351875877821476,
                0.4802573486686209,
                1.1732266212015405,
                0.40538495498723753,
                0.5306224794439308,
                0.9950762392982127,
                0.8159466039192484,
                1.33249809315288,
                0.2204622918870263,
                0.6733931599814811,
                0.9563196868221592,
                0.5858923857859406,
                0.8634835047673255,
                0.12894061843628818,
                1.33249809315288,
                0.6450380062970131,
                0.6091664798736611,
                1.1732266212015405,
                0.346778149654696,
                1.1732266212015408,
                1.3324980931528798,
                0.4529521444670528,
                1.0468697868263361,
                0.04147808898943106,
                1.2011174531695856,
                1.1732266212015405,
                0.8587595182269216,
                0.6553872944159611,
                0.2847959302074199,
                0.5246591186014654,
                1.0575532223847757,
                0.19878315939578395,
                0.7000852268392072,
                0.08244225896671731,
                0.8526458028008133,
                0.03367176940146588,
                0.2206471624898758,
                1.1732266212015408,
                1.1732266212015405,
                0.15279159726078162,
                0.9230714952434831,
                0.3649742607331221,
                0.11422313093004689,
                0.8367530805291987,
                0.01996598592792087,
                0.7072671381707916,
                0.007954337662723576,
                0.30071086630631305,
                0.15425741211579813,
                0.5850944877896259,
                1.1732266212015405,
                0.373296936379323,
                0.35369791586020005,
                0.7007895647374998,
                1.1732266212015405,
                0.3985259562489367,
                0.12358068913525246,
                1.1732266212015405,
                0.028431426861533063,
                1.3324980931528798,
                1.3324980931528798,
                1.051728953551745,
                0.6229694782083622,
                0.7619944160280342,
                1.33249809315288,
                0.3824714443807816,
                0.04600841887906637,
                0.3494484477079266,
                0.4185616874730921,
                0.17613133707392145,
                1.2505789859881353,
                0.07303899999999999,
                1.3324980931528798,
                1.3324980931528798,
                0.8555306112948149,
                0.3674478454583854,
                1.1732266212015408,
                0.29292831129719504,
                0.27647797926700046,
                0.11266040220757312,
                1.3324980931528798,
                1.1732266212015405,
                1.3324980931528796,
                1.3324980931528798,
                0.6481043761742167,
                0.9148736939423184,
                0.5812308804795567,
                0.29099215554345004,
                1.1732266212015405,
                0.14089127012875194,
                0.3729380376235804,
                0.9674811181465026,
                0.8549445740944412,
                1.3324980931528798,
                0.1341440233041815,
                1.3324980931528798,
                1.3324980931528798,
                0.583067846699634,
                0.27774754402691426,
                1.3324980931528798,
                0.07524999999999998,
                1.0927743183197247,
                0.37296740101909087,
                1.1732266212015405,
                1.3324980931528798,
                0.36521762673557817,
                0.47213027996780055,
                0.5193161925275036,
                0.8538102451718482,
                0.09879069197733736,
                1.3324980931528794,
                0.44810782045846714,
                0.6189079336824874,
                0.04155250430475421,
                0.573376209318224,
                0.8415536636300295,
                1.1401784893113303,
                0.4866709242756996,
                0.8569598574591885,
                0.2510081787771317,
                0.8080128506951173,
                0.21235253156308642,
                1.1732266212015408,
                0.4016618871002514,
                1.037549189172608,
                0.9444112552885628,
                0.9427047766729292,
                0.3412929851945472,
                0.8925666088174551,
                0.9565453711675692,
                0.1336674910138518,
                0.4505873440499671,
                0.14942460367506888,
                0.7151304008211304,
                0.36216696045665936,
                0.5342813955646137,
                0.11854046041575296,
                1.0973739527692201,
                0.540430760572032,
                1.1732266212015405,
                0.51099891,
                0.51099891,
                0.3471644340866977,
                0.5342949305957697,
                0.34493223460270483,
                1.1732266212015408,
                0.4277555214192873,
                0.7495744162051118,
                0.43524614967451236,
                1.3324980931528798,
                1.3324980931528798,
                1.1696710827564811,
                0.3611688601023598,
                0.8883999515825315,
                0.3902147867282644,
                0.5495240706581128,
                0.6011383340306669,
                1.3324980931528798,
                1.1732266212015405,
                0.9926089928066799,
                1.3324980931528796,
                0.4820839417011544,
                0.20302696847780008,
                0.13698585158268722,
                0.051222365734157956,
                0.31050027315288,
                1.0047640746516446,
                0.34720232872802675,
                1.1732266212015405,
                0.01767836406423517,
                1.0186542433490204,
                0.814958647614011,
                1.33249809315288,
                0.6111200013299888,
                1.1013232772931651,
                0.0992925524009789,
                0.4093512491862975,
                0.09899847979947053,
                1.33249809315288,
                0.10407437154062782,
                1.3324980931528798,
                1.1732266212015405,
                0.4970757518978517,
                1.0630963109423632,
                1.1732266212015408,
                0.809637276062378,
                1.0582028736512308,
                0.5524538087027128,
                0.6017283904695312,
                1.1732266212015405,
                1.1732266212015405,
                0.5415744145346342,
                0.41170301187367164,
                1.33249809315288,
                0.5871496458192855,
                0.4630534511017902,
                0.2349634585554895,
                1.1732266212015405,
                0.6271726923646722,
                1.0169290154741086,
                1.053376582549307,
                1.1732266212015405,
                0.5480493015980081,
                0.6341825276049131,
                0.07525,
                1.1732266212015405,
                0.3738796740380184,
                0.5408327351317761,
                0.6856230718482881,
                1.3324980931528798,
                0.13510393000273568,
                0.9290216848815445,
                1.0375046234098755,
                1.3324980931528794,
                0.11604788190392538,
                1.1732266212015408,
                0.9684406014830013,
                0.603614459665688,
                0.1313445740630963,
                0.2112223094354898,
                1.3324980931528796,
                0.19640429392909098,
                0.2799259463367899,
                1.1732266212015405,
                0.0876209013074058,
                0.18978664790901933,
                1.1732266212015403,
                0.05153969218102494,
                0.9209870285937679,
                1.3324980931528798,
                0.9892588985319052,
                0.073039,
                1.1732266212015405,
                0.606150253951947,
                1.33249809315288,
                0.015889039016938056,
                0.6682039719123801,
                0.23104215489500957,
                1.1732266212015408,
                1.1732266212015405,
                0.1623376203903296,
                0.3222491217565319,
                0.400115897718185,
                1.1732266212015403,
                0.5019323574688029,
                0.6722992886696983,
                0.17903284289583565,
                0.7846341019777648,
                0.7525650233713623,
                0.16349158078589587,
                0.9588786564609322,
                1.1732266212015405,
                0.8456545398697297,
                0.6973329218465047,
                0.07525,
                0.13644267626125145,
                0.6979355047365179,
                1.1732266212015405,
                1.3324980931528798,
                1.0110979830057167,
                0.8794210280743608,
                0.8227676223837754,
                1.3324980931528798,
                0.12641021082754808,
                0.9789987984009355
            ],
            "photocathode": [
                8280,
                3827,
                7508,
                2420,
                3262,
                6338,
                3366,
                3340,
                9446,
                1835,
                4470,
                341,
                2329,
                8284,
                9829,
                9354,
                2951,
                3419,
                7311,
                5180,
                2849,
                6831,
                6056,
                599,
                1870,
                4880,
                6199,
                8297,
                7840,
                4602,
                5148,
                8194,
                8246,
                5503,
                8082,
                4310,
                733,
                6784,
                6277,
                8279,
                4075,
                2988,
                1770,
                8845,
                4232,
                6116,
                6721,
                1126,
                5622,
                5492,
                7114,
                533,
                2583,
                8284,
                7973,
                724,
                6027,
                544,
                9304,
                1668,
                1955,
                2621,
                517,
                523,
                9189,
                3912,
                8348,
                9491,
                4398,
                1241,
                9343,
                8180,
                8264,
                6507,
                3386,
                2699,
                980,
                1419,
                8498,
                7173,
                8162,
                8250,
                5177,
                149,
                2394,
                9340,
                5405,
                3679,
                8280,
                1280,
                2703,
                9107,
                3138,
                6548,
                1846,
                9455,
                4855,
                4167,
                8252,
                7639,
                2805,
                592,
                9234,
                6776,
                8716,
                8362,
                2340,
                5499,
                7896,
                2781,
                2847,
                8326,
                1365,
                3720,
                6492,
                9371,
                1774,
                2333,
                1056,
                4389,
                8559,
                5683,
                1959,
                2585,
                5288,
                9185,
                5167,
                3191,
                519,
                1174,
                9350,
                2201,
                4546,
                4338,
                5644,
                9372,
                2735,
                3387,
                4480,
                8036,
                1391,
                7303,
                9456,
                5434,
                5862,
                9562,
                5291,
                9200,
                7508,
                3905,
                1527,
                8622,
                6192,
                415,
                101,
                669,
                7023,
                8135,
                8375,
                8278,
                8184,
                6417,
                8025,
                9317,
                5292,
                9339,
                3799,
                9619,
                6282,
                4394,
                2225,
                8265,
                7968,
                1173,
                3003,
                6378,
                6129,
                9341,
                4261,
                6091,
                453,
                6377,
                4189,
                6520,
                1972,
                976,
                9342,
                8328,
                6469,
                6244,
                2230,
                2498,
                8455,
                3593,
                8208,
                5776,
                8453,
                9347,
                9586,
                5054,
                6055,
                9437,
                8260,
                9312,
                2302,
                5501,
                212,
                3038,
                1858,
                8112,
                2902,
                9156,
                9426,
                7379,
                5204,
                1887,
                7680,
                1991,
                8242,
                8405,
                8314,
                4819,
                2367,
                375,
                2506,
                8263,
                3393,
                2349,
                9328,
                6557,
                5769,
                5377,
                6791,
                2188,
                6125,
                3443,
                3317,
                8085,
                2803,
                3826,
                7001,
                5893,
                9366,
                1563,
                4811,
                6627,
                4030,
                6059,
                917,
                9342,
                4433,
                4317,
                8225,
                2392,
                8075,
                9715,
                3117,
                7370,
                279,
                8821,
                8137,
                6031,
                4777,
                1967,
                3711,
                7301,
                1302,
                5010,
                597,
                5953,
                226,
                1518,
                8274,
                8385,
                1070,
                6552,
                2519,
                800,
                5679,
                154,
                4994,
                54,
                2131,
                1154,
                4125,
                8293,
                2611,
                2436,
                5002,
                8147,
                2782,
                918,
                8264,
                197,
                9483,
                9251,
                7259,
                4394,
                5247,
                9352,
                2700,
                295,
                2452,
                2967,
                1161,
                8937,
                510,
                9383,
                9263,
                6118,
                2683,
                8555,
                1994,
                2030,
                807,
                9150,
                8110,
                9688,
                9332,
                4644,
                6522,
                4131,
                2006,
                8302,
                1007,
                2596,
                6835,
                6067,
                9331,
                927,
                9553,
                9453,
                4171,
                1929,
                9477,
                549,
                7598,
                2651,
                8206,
                9333,
                2548,
                3310,
                3698,
                6301,
                682,
                9398,
                3124,
                4283,
                302,
                3971,
                5899,
                8090,
                3498,
                6081,
                1802,
                5870,
                1440,
                8517,
                2776,
                7188,
                6671,
                6724,
                2481,
                6465,
                6846,
                957,
                3198,
                1069,
                4917,
                2605,
                3849,
                838,
                7756,
                3804,
                8078,
                3563,
                3573,
                2405,
                3681,
                2410,
                8322,
                2979,
                5279,
                3085,
                9378,
                9408,
                8262,
                2497,
                6057,
                2811,
                3866,
                4246,
                9639,
                8319,
                7001,
                9556,
                3312,
                1402,
                950,
                335,
                2226,
                6940,
                2441,
                8238,
                113,
                7235,
                5741,
                9265,
                4350,
                7623,
                689,
                2869,
                739,
                9472,
                742,
                9570,
                8351,
                3410,
                7548,
                8328,
                5617,
                7501,
                3869,
                4188,
                8368,
                8127,
                3813,
                2928,
                9131,
                4107,
                3316,
                1656,
                8125,
                4365,
                7130,
                7539,
                8097,
                3897,
                4440,
                554,
                8254,
                2591,
                3752,
                4792,
                9454,
                968,
                6438,
                7409,
                9424,
                809,
                8319,
                6709,
                4193,
                959,
                1431,
                9313,
                1392,
                2027,
                8072,
                600,
                1342,
                7997,
                349,
                6699,
                9272,
                7126,
                526,
                8005,
                4133,
                9372,
                102,
                4612,
                1576,
                8257,
                8133,
                1143,
                2238,
                2846,
                8309,
                3577,
                4670,
                1251,
                5596,
                5481,
                1213,
                6666,
                8331,
                6014,
                4856,
                518,
                905,
                5016,
                8232,
                9201,
                7143,
                6241,
                5828,
                9531,
                883,
                7052
            ]
        },
        "detections": 500,
        "events": 69812
    }
}