{
    "job_args": {
        "metric_limit": 300,
        "seed": 2643394781
    },
    "job_id": "batch_66_do_300",
    "result": {
        "collections": {
            "crystal": [
                0.4804349569416673,
                1.0,
                1.0,
                0.7824217245531464,
                1.0000000000000002,
                0.28584533166701637,
                0.9999999999999999,
                0.9999999999999999,
                1.0,
                0.7780920965948748,
                1.0,
                0.9999999999999999,
                0.8018147838990543,
                1.0,
                0.9999999999999999,
                0.7221339273302645,
                0.06910807174653055,
                0.7308625445038193,
                0.21298770335477968,
                1.0,
                1.0,
                1.0,
                1.0,
                1.0,
                0.6453136698459695,
                1.0000000000000002,
                1.0,
                1.0,
                1.0,
                0.5994628119950589,
                1.0,
                1.0,
                1.0000000000000002,
                1.0,
                1.0000000000000002,
                1.0,
                0.9999999999999998,
                0.9999999999999999,
                1.0,
                0.5012931240507599,
                0.5384723422245896,
                1.0,
                1.0,
                1.0,
                1.0,
                0.6927802481674084,
                1.0,
                0.8308239114379525,
                1.0,
                1.0,
                0.09743423808884864,
                1.0,
                1.0,
                0.05746830274498327,
                0.9999999999999998,
                0.7652570725870216,
                0.9999999999999999,
                0.6562117762051981,
                0.11106357529137845,
                0.37019188293388217,
                1.0,
                1.0,
                0.4588413785396718,
                1.0,
                0.37196509098301367,
                0.6233033761808322,
                1.0,
                0.20486064532181975,
                0.19333994507913432,
                1.0,
                1.0,
                1.0000000000000002,
                0.35214635790851767,
                1.0,
                1.0,
                1.0,
                0.9999999999999999,
                0.7411874231036905,
                0.9999999999999998,
                1.0,
                1.0,
                0.5633447293167912,
                1.0,
                0.9999999999999998,
                0.9999999999999999,
                0.6225119302953294,
                0.9648693620047307,
                1.0,
                0.9999999999999999,
                0.7470579422577338,
                1.0,
                1.0,
                0.405185981773113,
                0.5067610280504931,
                1.0000000000000002,
                1.0,
                0.9999999999999999,
                1.0,
                1.0000000000000002,
                1.0,
                0.2660198978821593,
                1.0,
                1.0,
                0.4186356858541251,
                0.5575459076755285,
                1.0,
                0.3065932991674143,
                0.3415265969703617,
                0.09179403308266731,
                0.5920935137385036,
                0.6115687047221968,
                0.9999999999999999,
                0.46378947966181,
                0.5751688607735684,
                0.69896970033787,
                0.12339578755118608,
                1.0,
                0.2576433705843063,
                1.0,
                0.9999999999999997,
                0.5064131574732225,
                0.25692665884274746,
                1.0,
                1.0,
                0.7990991878931845,
                0.050192513488207524,
                0.2913439313202952,
                1.0,
                0.8310539174273374,
                0.720492668173302,
                0.0773654617122268,
                1.0000000000000002,
                1.0,
                1.0,
                1.0,
                1.0,
                0.9999999999999998,
                0.9999999999999999,
                1.0,
                0.22025405189561734,
                0.380454812967499,
                0.7153869856552271,
                1.0,
                0.47255199779477053,
                0.416413296246806,
                0.9999999999999999,
                1.0000000000000002,
                1.0,
                0.5958176342471257,
                0.749799793946531,
                0.09201764825128333,
                1.0,
                1.0000000000000002,
                0.28506966776998693,
                1.0,
                0.9999999999999999,
                0.10669808934347458,
                0.20173954733402766,
                0.6996783173421255,
                1.0000000000000002,
                0.9999999999999999,
                0.6178272446941215,
                0.9999999999999998,
                1.0,
                0.6717519101963872,
                0.7259505125899146,
                1.0,
                0.3779616195656259,
                0.5734372467857255,
                1.0,
                1.0,
                1.0,
                0.7019665730801701,
                0.6048798219405657,
                1.0,
                0.5076670165122011,
                0.38736362347579756,
                0.6939725582278928,
                1.0,
                0.38481675936969395,
                0.3265957214989152,
                1.0000000000000002,
                1.0000000000000002,
                0.4407357069979826,
                0.9999999999999999,
                0.9999999999999999,
                1.0,
                0.9999999999999999,
                0.9999999999999999,
                1.0,
                1.0,
                0.7471651217059817,
                0.8194184913182908,
                1.0000000000000002,
                1.0,
                0.5984304975372543,
                0.5799792366284352,
                0.05637220435620938,
                0.9999999999999999,
                0.7019915586772794,
                1.0000000000000002,
                1.0,
                0.0985988472316317,
                0.44315665690512374,
                1.0,
                0.8574758134584908,
                0.11207521980506083,
                1.0000000000000002,
                1.0,
                0.4592969793341693,
                1.0,
                0.5283925037403139,
                1.0000000000000002,
                0.7110707059931631,
                1.0,
                1.0000000000000002,
                1.0,
                1.0,
                1.0,
                1.0,
                0.7442562352457003,
                0.9999999999999999,
                0.7669246571763251,
                0.606341547310033,
                1.0000000000000002,
                0.9999999999999999,
                0.7903352889262957,
                0.32843331530014735,
                1.0,
                0.7770959429349473,
                1.0000000000000002,
                1.0,
                0.7344796458216498,
                0.39673757924964714,
                1.0,
                0.6469787642170423,
                0.7677130680164912,
                0.2353482197435408,
                1.0000000000000002,
                1.0,
                0.2296239254112904,
                1.0,
                0.9999999999999999,
                1.0000000000000002,
                1.0,
                0.476451506193335,
                0.7451618587069855,
                1.0,
                0.525593708947403,
                1.0,
                0.9999999999999998,
                1.0000000000000002,
                1.0,
                0.592801005293305,
                1.0,
                1.0000000000000002,
                1.0,
                0.4086004104977683,
                0.9999999999999999,
                0.9999999999999999,
                1.0,
                0.9999999999999999,
                0.3683798221855351,
                0.13819863562121673,
                1.0,
                0.5594794396710951,
                0.9999999999999998,
                1.0000000000000002,
                0.6394770307712518,
                0.7867317639682936,
                1.0,
                0.9999999999999999,
                1.0,
                0.9999999999999999,
                1.0000000000000002,
                0.3866082427684517,
                1.0,
                1.0,
                1.0,
                0.6873994682413526,
                0.9999999999999999,
                0.2142018176426982,
                0.9999999999999999,
                0.140290145782638,
                0.7936025701655359,
                1.0,
                0.48998246262906175,
                1.0,
                0.17247668817428,
                0.500881927159511,
                0.5070526084140552,
                0.9999999999999999,
                0.7936369460703802,
                1.0,
                1.0,
                1.0000000000000002,
                1.0,
                1.0,
                1.0,
                1.0
            ],
            "photocathode": [
                3486,
                7178,
                6965,
                5466,
                7252,
                2052,
                7139,
                7125,
                7195,
                5472,
                7356,
                7246,
                5828,
                7043,
                7253,
                5070,
                477,
                5208,
                1565,
                7059,
                7035,
                7294,
                7129,
                7085,
                4543,
                7042,
                7008,
                6860,
                7318,
                4263,
                7069,
                7201,
                7031,
                6866,
                7062,
                7021,
                6979,
                7009,
                7140,
                3484,
                3864,
                6901,
                6984,
                7125,
                7272,
                4892,
                7113,
                5853,
                6996,
                6975,
                678,
                7183,
                6937,
                366,
                7137,
                5486,
                6994,
                4612,
                819,
                2542,
                7089,
                7033,
                3109,
                7111,
                2604,
                4366,
                7020,
                1382,
                1380,
                6876,
                7316,
                7075,
                2517,
                7007,
                7086,
                6927,
                7024,
                5223,
                7207,
                6966,
                7222,
                4093,
                6935,
                7049,
                7021,
                4305,
                6730,
                6854,
                7289,
                5478,
                7033,
                6948,
                2905,
                3515,
                7047,
                6952,
                6981,
                6994,
                6971,
                7116,
                1836,
                7421,
                6935,
                3059,
                3934,
                7037,
                2115,
                2336,
                649,
                4157,
                4336,
                7357,
                3306,
                3993,
                4862,
                817,
                7010,
                1830,
                7194,
                7190,
                3492,
                1802,
                7137,
                7109,
                5534,
                424,
                2055,
                6987,
                5827,
                5156,
                543,
                7134,
                7026,
                7014,
                7371,
                7114,
                7272,
                7017,
                7020,
                1574,
                2525,
                5132,
                7002,
                3297,
                2996,
                7086,
                6968,
                6988,
                4205,
                5291,
                688,
                6991,
                7095,
                2002,
                7255,
                6830,
                782,
                1415,
                4829,
                7173,
                7169,
                4458,
                7080,
                6929,
                4805,
                5020,
                7228,
                2674,
                4027,
                7024,
                6939,
                7179,
                4905,
                4294,
                7091,
                3509,
                2829,
                4865,
                6827,
                2708,
                2283,
                6965,
                6967,
                3146,
                7054,
                6957,
                7068,
                7030,
                7256,
                7129,
                6983,
                5212,
                5739,
                7198,
                6843,
                4155,
                4190,
                434,
                7213,
                4947,
                7115,
                7012,
                706,
                3194,
                7031,
                6264,
                746,
                7188,
                7058,
                3195,
                6996,
                3714,
                7310,
                4913,
                7136,
                7115,
                7001,
                7128,
                7078,
                7084,
                5373,
                7138,
                5357,
                4231,
                7080,
                7187,
                5535,
                2250,
                7001,
                5448,
                7132,
                6949,
                5232,
                2832,
                7080,
                4663,
                5495,
                1576,
                7166,
                7093,
                1582,
                7182,
                6991,
                7054,
                7181,
                3380,
                5402,
                7015,
                3659,
                7029,
                7044,
                6763,
                6976,
                4276,
                6984,
                7027,
                7131,
                2980,
                6992,
                7027,
                7065,
                7028,
                2680,
                945,
                7104,
                4167,
                7283,
                7193,
                4530,
                5522,
                6932,
                7116,
                7240,
                6993,
                6975,
                2716,
                7006,
                7110,
                7021,
                4860,
                6999,
                1575,
                7201,
                1050,
                5539,
                7228,
                3366,
                6943,
                1262,
                3511,
                3635,
                7236,
                5686,
                6952,
                7148,
                7040,
                7187,
                7044,
                7113,
                7065
            ]
        },
        "detections": 300,
        "events": 389
    }
}