{
    "job_args": {
        "metric_limit": 300,
        "seed": 1013287669
    },
    "job_id": "batch_129_do_300",
    "result": {
        "collections": {
            "crystal": [
                0.9999999999999999,
                0.027076461771229132,
                0.2797743948285353,
                0.9999999999999999,
                1.0,
                0.9999999999999999,
                0.9999999999999999,
                1.0,
                1.0,
                1.0000000000000002,
                1.0,
                0.015223939364296557,
                1.0,
                1.0,
                0.21384799026750145,
                1.0,
                0.5210342132637983,
                1.0,
                0.6290137253230283,
                1.0000000000000002,
                1.0000000000000002,
                1.0,
                1.0,
                0.791752263026947,
                0.44210050764428555,
                0.015902884631842085,
                1.0,
                0.07290116480911646,
                0.07525405742195723,
                0.5661125892592085,
                0.3228183790133975,
                0.6026494788063081,
                1.0,
                1.0,
                0.7501536757005098,
                1.0,
                0.7670181412958883,
                0.26078961662840205,
                1.0,
                0.6221505891818471,
                1.0,
                0.07232641300348708,
                1.0,
                1.0,
                1.0,
                0.2152839654509311,
                0.1906831429201934,
                1.0,
                0.213680204188106,
                1.0,
                0.9999999999999998,
                0.7939386864656234,
                1.0000000000000002,
                1.0,
                0.9999999999999999,
                0.6265252589778729,
                1.0,
                0.7478696673896594,
                0.19613905279635602,
                0.6177178364460506,
                0.2646217519750376,
                1.0000000000000002,
                1.0,
                0.5837290216742607,
                0.09842691332068144,
                1.0,
                1.0,
                0.9999999999999999,
                0.4187112292420453,
                0.7615732925129034,
                0.29413685701071257,
                1.0,
                0.004407694161112419,
                1.0,
                0.2902137585532018,
                0.25836013776688094,
                1.0,
                1.0,
                0.9999999999999999,
                1.0,
                1.0,
                1.0,
                1.0,
                1.0,
                0.9999999999999999,
                0.34037462907198124,
                1.0000000000000002,
                0.48350651733021327,
                1.0,
                1.0000000000000002,
                1.0,
                0.7783471044289259,
                1.0,
                0.1387281808542593,
                1.0000000000000002,
                1.0,
                0.6174355681535671,
                0.008789265703971427,
                0.7206179642592061,
                1.0,
                0.048570771645904065,
                0.0020167960510232286,
                0.6363549127000013,
                0.7731119894603722,
                0.5249142217977646,
                1.0,
                1.0,
                1.0,
                0.7376883685242757,
                1.0000000000000002,
                0.7858682291613547,
                1.0,
                1.0000000000000002,
                1.0,
                0.7170653646405385,
                0.7936577551002166,
                0.5194550966124529,
                0.3609771502918645,
                0.7434924466295919,
                0.48881800047862056,
                0.9999999999999999,
                1.0000000000000002,
                1.0,
                0.3636374601735418,
                0.023932547706277063,
                0.33584598952759237,
                1.0,
                1.0,
                1.0000000000000002,
                1.0000000000000002,
                1.0,
                0.4665801756279485,
                1.0,
                1.0,
                1.0,
                1.0,
                1.0,
                0.6280828457055622,
                1.0,
                0.9999999999999999,
                1.0000000000000002,
                1.0,
                1.0,
                0.9999999999999999,
                0.418229388173526,
                0.05829118499991326,
                0.44013022889306175,
                0.5794036522076992,
                1.0,
                1.0,
                1.0,
                1.0,
                1.0,
                0.1548688468468813,
                1.0,
                1.0,
                1.0,
                0.38091318359040094,
                0.06786206791587057,
                1.0,
                1.0,
                1.0,
                1.0,
                1.0000000000000002,
                0.5560983037289913,
                0.9999999999999999,
                0.7180764404082839,
                1.0000000000000002,
                0.5548644251494069,
                0.6002533529662797,
                0.6965126315341694,
                0.9999999999999999,
                0.7687858488400273,
                1.0,
                1.0,
                0.19671532133666894,
                1.0,
                0.246796928168841,
                0.27369216794759843,
                0.6734812734706338,
                0.6255654395568155,
                0.9999999999999999,
                0.5865540473657963,
                1.0,
                1.0000000000000002,
                0.3421673266959271,
                0.9999999999999999,
                1.0,
                1.0,
                0.3130116113352367,
                0.3627727627677493,
                0.2521674579687125,
                0.9999999999999998,
                1.0,
                0.9999999999999999,
                1.0000000000000002,
                0.9999999999999999,
                1.0,
                1.0,
                0.11585176579653456,
                1.0000000000000002,
                0.5493059098943225,
                0.5393765243685557,
                1.0,
                1.0,
                0.023415026640497327,
                0.13577618370052924,
                0.9999999999999999,
                1.0,
                1.0,
                0.595792469640805,
                1.0000000000000002,
                0.9999999999999999,
                0.42127978765932395,
                1.0,
                1.0,
                0.11810381297234884,
                0.9999999999999998,
                0.025785531895412328,
                0.7698436228195855,
                0.7714169646161988,
                1.0,
                0.32362479081044954,
                0.2969539403454894,
                0.7653950082328945,
                0.25660650359897275,
                0.9999999999999999,
                0.19926784970878264,
                1.0,
                1.0,
                1.0,
                1.0000000000000002,
                1.0,
                1.0,
                1.0,
                0.48577979872836496,
                1.0,
                0.7749428085806869,
                1.0000000000000002,
                0.7104678052570339,
                0.5258362895430371,
                1.0,
                1.0,
                0.5845736124051983,
                1.0,
                0.08337289155338526,
                1.0,
                0.685267541863101,
                0.5046652359372781,
                1.0,
                0.7976688059326038,
                1.0,
                1.0,
                1.0,
                0.08140295367238337,
                1.0,
                1.0,
                0.5586135460505961,
                0.5780016860518722,
                0.5818155825754368,
                0.560499691782793,
                1.0,
                0.6334667524635793,
                0.779119653152867,
                0.45614147329267535,
                1.0000000000000002,
                0.6920008700948028,
                1.0000000000000002,
                0.6678263032354809,
                0.30348322073391776,
                1.0,
                1.0000000000000002,
                1.0,
                0.1767811999757191,
                1.0,
                0.0845129876633558,
                1.0,
                0.4243467175004265,
                0.8026902417120163,
                0.7520531517827668,
                0.4222756205815799,
                1.0,
                1.0000000000000002,
                1.0,
                0.7823213159438175,
                0.9999999999999998,
                0.3340607685390391,
                1.0,
                0.9999999999999999,
                0.572104359278026,
                1.0,
                1.0,
                0.7870060525462794,
                0.2885665218112927,
                0.21281366267465285,
                1.0,
                0.5058505143264123,
                0.4754605880096272,
                1.0,
                1.0
            ],
            "photocathode": [
                7152,
                194,
                1981,
                6877,
                7108,
                7110,
                6901,
                7034,
                6991,
                7151,
                7003,
                108,
                6872,
                6909,
                1542,
                7050,
                3960,
                7068,
                4491,
                7041,
                6967,
                6957,
                7101,
                5630,
                3070,
                127,
                7051,
                522,
                532,
                3863,
                2339,
                4292,
                6993,
                7139,
                5264,
                6919,
                5506,
                1906,
                7026,
                4322,
                7101,
                490,
                7034,
                7100,
                6954,
                1512,
                1352,
                7050,
                1646,
                7152,
                6977,
                5633,
                6999,
                7191,
                7013,
                4341,
                7093,
                5337,
                1399,
                4260,
                1952,
                7173,
                7293,
                4050,
                737,
                7042,
                7030,
                7162,
                2961,
                5507,
                2029,
                7267,
                34,
                7138,
                2068,
                1824,
                6982,
                7072,
                7009,
                6859,
                7085,
                7112,
                7028,
                7322,
                7250,
                2304,
                7363,
                3452,
                7095,
                7336,
                7224,
                5524,
                6942,
                924,
                7179,
                7023,
                4441,
                55,
                5140,
                7059,
                368,
                15,
                4430,
                5388,
                3803,
                6975,
                7009,
                7252,
                5404,
                7162,
                5547,
                7025,
                6922,
                7028,
                5113,
                5608,
                3687,
                2518,
                5203,
                3446,
                7039,
                7089,
                7247,
                2575,
                158,
                2366,
                7100,
                7187,
                7002,
                6954,
                7244,
                3171,
                7087,
                7178,
                7064,
                6893,
                6868,
                4466,
                6970,
                7269,
                6943,
                7219,
                6915,
                6990,
                3014,
                432,
                3157,
                4245,
                7087,
                7049,
                7030,
                7181,
                7037,
                1151,
                7134,
                7008,
                7159,
                2699,
                443,
                7134,
                7105,
                7028,
                7075,
                7052,
                3975,
                6980,
                4998,
                7127,
                3951,
                4289,
                4832,
                7102,
                5222,
                6973,
                7129,
                1344,
                7077,
                1695,
                1921,
                4721,
                4464,
                7034,
                4165,
                7028,
                7072,
                2435,
                6885,
                7049,
                7215,
                2180,
                2455,
                1770,
                7012,
                7069,
                7054,
                7191,
                7147,
                6942,
                6853,
                777,
                7309,
                3952,
                3868,
                6997,
                6965,
                182,
                956,
                7304,
                7074,
                6954,
                4285,
                7021,
                6799,
                3007,
                7084,
                7035,
                844,
                7155,
                199,
                5436,
                5424,
                7178,
                2385,
                2143,
                5375,
                1823,
                7037,
                1370,
                7020,
                6871,
                6901,
                7042,
                7052,
                7147,
                7160,
                3323,
                7082,
                5454,
                6870,
                4935,
                3775,
                7067,
                7118,
                4051,
                7046,
                596,
                7044,
                4724,
                3560,
                7129,
                5722,
                7035,
                7093,
                7012,
                591,
                7021,
                6902,
                4016,
                4176,
                4080,
                4094,
                7048,
                4527,
                5533,
                3186,
                7342,
                5054,
                6956,
                4658,
                2150,
                7223,
                7356,
                7124,
                1283,
                6938,
                633,
                7033,
                3014,
                5657,
                5232,
                3045,
                7189,
                7171,
                7225,
                5582,
                7168,
                2431,
                7155,
                7051,
                3948,
                7081,
                6955,
                5582,
                2017,
                1584,
                7074,
                3556,
                3344,
                7287,
                7163
            ]
        },
        "detections": 300,
        "events": 397
    }
}