{
    "job_args": {
        "metric_limit": 300,
        "seed": 1484702846
    },
    "job_id": "batch_123_do_300",
    "result": {
        "collections": {
            "crystal": [
                0.9999999999999999,
                0.5193437784151544,
                0.3781607682559991,
                0.8702693988405491,
                1.0,
                0.5268522870270564,
                1.0,
                0.11354573760964526,
                0.08365187545850328,
                0.29987348655307766,
                0.28511406250866644,
                1.0,
                1.0000000000000002,
                1.0000000000000002,
                0.389946706537662,
                1.0000000000000002,
                0.2529410684593122,
                0.0005721838531801415,
                1.0,
                1.0000000000000002,
                0.44677358531737976,
                0.9999999999999998,
                0.32779599054953,
                1.0,
                0.7282457586012568,
                0.29384924193381956,
                0.6032064993896324,
                1.0,
                0.4878902606304032,
                1.0,
                0.20658786757239256,
                0.17452849074921098,
                0.6890234319429411,
                0.9999999999999999,
                1.0,
                1.0,
                1.0,
                1.0,
                1.0,
                1.0,
                1.0,
                0.180618474980331,
                1.0,
                0.3819686620925003,
                1.0,
                0.9999999999999999,
                1.0,
                0.5709066302302384,
                1.0,
                0.2663436996218881,
                1.0,
                1.0,
                1.0,
                1.0,
                0.9999999999999999,
                1.0,
                0.5289823715146298,
                0.3167074513054387,
                1.0,
                0.012389362619823818,
                0.09016581816728175,
                1.0,
                1.0000000000000002,
                1.0,
                0.36487825702004306,
                1.0,
                1.0,
                0.9999999999999999,
                1.0,
                1.0,
                0.360172495598011,
                1.0,
                0.6788296981346172,
                1.0,
                1.0,
                1.0000000000000002,
                0.40123332437090165,
                1.0,
                0.9999999999999999,
                0.7422691269851307,
                0.4072883222756962,
                0.4022412512646323,
                1.0,
                0.8398929258301646,
                1.0,
                0.6855122926619488,
                1.0,
                0.7710892855976544,
                1.0,
                1.0,
                1.0,
                1.0,
                1.0,
                0.9999999999999999,
                1.0000000000000002,
                1.0,
                0.9999999999999998,
                0.9999999999999998,
                0.9999999999999998,
                1.0,
                0.03273826198730234,
                0.013266401560908525,
                1.0,
                1.0,
                1.0,
                1.0,
                1.0,
                1.0,
                1.0,
                1.0000000000000002,
                0.3988573747580123,
                0.10865077581527927,
                0.9999999999999999,
                0.8399896793183019,
                1.0,
                1.0,
                1.0,
                0.4871066025584695,
                0.9999999999999998,
                0.743891750542018,
                0.9999999999999999,
                1.0000000000000002,
                1.0,
                1.0,
                1.0,
                1.0,
                1.0000000000000002,
                1.0000000000000002,
                0.017174480694434502,
                0.48452175624159466,
                0.32668489619606483,
                0.9999999999999999,
                0.26967677336940643,
                0.7384755830017484,
                1.0,
                0.1812987557606971,
                0.49991520105294973,
                0.7284220362189572,
                0.39949386244126867,
                1.0,
                1.0,
                1.0000000000000002,
                0.024071338282477428,
                0.9999999999999999,
                1.0,
                1.0,
                0.9999999999999999,
                0.6694249670548558,
                0.9999999999999998,
                0.4779924758894456,
                0.9999999999999999,
                0.4516882437982682,
                1.0,
                1.0,
                1.0,
                1.0,
                1.0,
                0.7618721809882684,
                0.4611953756728838,
                1.0,
                0.7500393261002573,
                1.0,
                1.0,
                0.02648904864909718,
                0.9999999999999999,
                1.0,
                0.5678738652059333,
                0.1550166945277065,
                0.26338845743636796,
                0.4673002576973518,
                1.0,
                0.7928395817004152,
                0.19605489750935845,
                1.0000000000000002,
                0.9999999999999999,
                0.24142714124277387,
                0.6790406537853656,
                0.7347183776599171,
                0.6471421123447144,
                1.0,
                0.5091503740349822,
                1.0,
                0.9999999999999998,
                1.0,
                0.4433723223997474,
                0.6496784122837412,
                1.0,
                0.9999999999999999,
                0.41868147008868833,
                0.9999999999999998,
                1.0,
                0.573220595393248,
                1.0,
                1.0,
                0.4998568439422491,
                0.3550677998328581,
                0.11263510870183914,
                0.4687025804271842,
                1.0000000000000002,
                0.4660822262780585,
                0.7723667413290397,
                1.0,
                0.9999999999999999,
                0.30065179876765524,
                0.9999999999999998,
                1.0,
                1.0,
                0.9999999999999999,
                1.0,
                0.9999999999999999,
                0.15874566386761613,
                1.0,
                0.8780244885747625,
                1.0,
                0.9999999999999999,
                0.41495304995546956,
                0.9999999999999999,
                0.3456528952372768,
                0.685144909228596,
                0.7780982978209894,
                0.2814810842232124,
                0.16792979244392692,
                0.5036109822174603,
                1.0,
                1.0,
                0.9999999999999999,
                0.12912715042229536,
                0.4850045879201129,
                0.9999999999999999,
                1.0,
                0.8505368747144993,
                0.6788687440524299,
                0.9999999999999999,
                0.6038890569080895,
                0.7356056415370347,
                1.0,
                0.35745899871275655,
                1.0,
                0.9999999999999999,
                0.9999999999999999,
                1.0,
                1.0,
                0.7020871019667028,
                1.0000000000000002,
                1.0,
                1.0,
                1.0,
                1.0,
                1.0,
                1.0,
                0.13298345571368042,
                0.9999999999999999,
                0.42343339900507126,
                0.9999999999999999,
                0.9999999999999999,
                1.0,
                1.0000000000000002,
                0.5464517503058687,
                0.11225202658629507,
                0.49156848404844794,
                0.6930381200252105,
                1.0,
                0.2662147272705856,
                0.17516522765803033,
                0.49800785681044213,
                0.9999999999999999,
                0.4501832030235332,
                0.3023133616929836,
                1.0,
                1.0,
                0.8636407195409368,
                0.9999999999999999,
                0.09800212597783398,
                1.0000000000000002,
                0.3744045990077056,
                1.0,
                0.7721909373368788,
                0.5993222412462961,
                0.5800943302406494,
                1.0,
                0.2676741575727162,
                0.7012132750608883,
                0.2161820847046939,
                0.06420526616944955,
                0.9999999999999999,
                0.5548880855135356,
                0.632245094109819,
                1.0,
                0.1490419402170501,
                0.6188667090975242,
                0.3757111851532786,
                0.789700422645487,
                0.25993970384378207,
                0.9999999999999999,
                0.9999999999999999,
                0.9999999999999999,
                0.41172429818248796,
                1.0,
                0.9999999999999999,
                1.0
            ],
            "photocathode": [
                6984,
                3708,
                2670,
                6222,
                7308,
                3751,
                6963,
                864,
                579,
                2122,
                2048,
                7009,
                7195,
                7157,
                2756,
                7337,
                1795,
                1,
                7010,
                6836,
                3152,
                7255,
                2432,
                7026,
                5146,
                2143,
                4229,
                7051,
                3486,
                7045,
                1467,
                1290,
                4963,
                7063,
                6969,
                7045,
                7366,
                6983,
                7001,
                7005,
                7013,
                1392,
                7018,
                2682,
                7012,
                7161,
                6797,
                4057,
                7357,
                1895,
                6922,
                7073,
                7028,
                7117,
                6835,
                7100,
                3593,
                2181,
                7072,
                99,
                642,
                7061,
                7050,
                7096,
                2597,
                7015,
                7164,
                7038,
                6868,
                7047,
                2537,
                7089,
                4671,
                7234,
                7098,
                7102,
                2881,
                7076,
                7043,
                5158,
                2828,
                2881,
                7116,
                5918,
                7106,
                5006,
                7034,
                5482,
                7069,
                7075,
                7096,
                6878,
                7100,
                6947,
                7025,
                6993,
                7068,
                6974,
                7118,
                6976,
                207,
                94,
                7219,
                7082,
                7112,
                7033,
                6931,
                7072,
                7096,
                7090,
                2925,
                774,
                7117,
                5823,
                7029,
                7128,
                7234,
                3366,
                7043,
                5441,
                7011,
                7177,
                7091,
                7131,
                7276,
                7066,
                6964,
                7295,
                102,
                3535,
                2283,
                7014,
                1898,
                5145,
                7058,
                1313,
                3371,
                5171,
                2939,
                6883,
                6876,
                7202,
                170,
                7070,
                7117,
                7039,
                7067,
                4676,
                6991,
                3483,
                7167,
                3115,
                6871,
                7045,
                7184,
                6919,
                7030,
                5385,
                3299,
                7086,
                5284,
                6955,
                6879,
                163,
                7279,
                7116,
                4130,
                1094,
                1751,
                3272,
                7300,
                5646,
                1372,
                7091,
                7337,
                1717,
                5059,
                5182,
                4494,
                7099,
                3523,
                7111,
                7033,
                7012,
                3042,
                4463,
                6961,
                7076,
                2937,
                6901,
                6957,
                3910,
                7087,
                6967,
                3474,
                2490,
                780,
                3283,
                6989,
                3298,
                5326,
                7175,
                7058,
                2132,
                7156,
                6935,
                7171,
                7222,
                7268,
                6975,
                1105,
                6992,
                6147,
                6897,
                7075,
                2812,
                6834,
                2380,
                4858,
                5486,
                1900,
                1158,
                3621,
                7082,
                7029,
                7172,
                907,
                3405,
                6923,
                7099,
                5881,
                5030,
                6988,
                4253,
                5295,
                7072,
                2451,
                7093,
                7124,
                7166,
                7242,
                6973,
                4953,
                7059,
                7142,
                7134,
                7129,
                7446,
                7018,
                7033,
                933,
                7014,
                2946,
                7068,
                7029,
                7094,
                7176,
                3745,
                787,
                3589,
                4939,
                7067,
                1968,
                1239,
                3445,
                7173,
                3140,
                2143,
                6941,
                6881,
                6015,
                7328,
                703,
                6879,
                2632,
                7119,
                5488,
                4241,
                4110,
                7045,
                1923,
                5027,
                1517,
                472,
                7167,
                3959,
                4465,
                7073,
                1070,
                4202,
                2657,
                5632,
                1786,
                7132,
                7105,
                6973,
                2982,
                7153,
                7161,
                7000
            ]
        },
        "detections": 300,
        "events": 378
    }
}