{
    "job_args": {
        "metric_limit": 300,
        "seed": 1982640005
    },
    "job_id": "batch_68_do_300",
    "result": {
        "collections": {
            "crystal": [
                1.0,
                1.0,
                1.0,
                0.6105637928432839,
                1.0,
                0.37622687894418727,
                0.9999999999999998,
                1.0,
                0.1459302125703249,
                1.0,
                0.36350066131710246,
                0.0030717311056916996,
                0.14501638411368167,
                1.0,
                0.6700356226968275,
                1.0,
                0.7930404831768451,
                0.49985878379446025,
                0.231808183559023,
                0.766398312135344,
                0.5732038383717395,
                0.21434601224280858,
                0.7312741691681208,
                1.0,
                0.9173186412156236,
                0.10284731781775903,
                0.9999999999999999,
                1.0,
                1.0,
                1.0,
                1.0,
                0.7687295116280222,
                1.0,
                0.9999999999999999,
                0.7736727149566084,
                1.0,
                1.0000000000000002,
                0.15571967986867474,
                1.0,
                0.3013851734647781,
                0.9999999999999999,
                1.0,
                1.0000000000000002,
                1.0,
                1.0,
                1.0000000000000002,
                0.9999999999999999,
                0.9999999999999999,
                0.7763298940596,
                1.0000000000000002,
                0.08893343501480466,
                0.5562734781369307,
                0.7609890943923249,
                0.5738983827235767,
                0.9999999999999999,
                1.0000000000000002,
                1.0,
                0.9999999999999999,
                0.6965651686092516,
                0.7528710119137292,
                0.2617330672813891,
                0.6758986820026355,
                0.9999999999999999,
                1.0,
                0.6903204012572911,
                0.3248586126580576,
                1.0000000000000002,
                1.0,
                1.0,
                0.11944223767237551,
                1.0,
                0.9999999999999999,
                0.26482843506136833,
                1.0,
                1.0,
                1.0,
                0.6564897728139595,
                1.0,
                0.11597513230874786,
                1.0,
                1.0,
                0.6933784695491184,
                0.9999999999999999,
                0.5135835388386695,
                1.0,
                0.9999999999999999,
                0.18661616724943375,
                1.0,
                0.7597762181444526,
                1.0,
                0.9999999999999998,
                1.0,
                1.0,
                1.0,
                1.0,
                0.7092122371009759,
                0.22429059197522774,
                1.0000000000000002,
                0.6625341779545784,
                0.7085701036832713,
                0.35148994516517496,
                0.6848753768518364,
                1.0,
                0.9999999999999998,
                0.5593178363761454,
                0.6262191569928768,
                1.0,
                0.141359033200818,
                0.30657954261601106,
                0.02755829879185212,
                1.0,
                0.5587075709748457,
                0.016833435033757782,
                1.0,
                1.0,
                1.0,
                1.0000000000000002,
                1.0,
                0.9999999999999999,
                1.0000000000000002,
                1.0,
                1.0,
                0.6149555839368557,
                1.0,
                0.5630269841206248,
                0.4975499996279891,
                0.3139961676165678,
                1.0,
                0.9999999999999998,
                0.18606708090335192,
                0.5987717917044747,
                0.732254705492547,
                0.5915582687083871,
                0.9999999999999999,
                0.22038571189469702,
                0.7204505098899951,
                1.0,
                0.758321723546225,
                1.0,
                1.0,
                0.6612046592715353,
                0.16118709070465165,
                1.0,
                1.0,
                1.0,
                1.0,
                1.0000000000000002,
                0.9999999999999999,
                0.9999999999999999,
                0.3975918348129435,
                1.0,
                1.0,
                1.0,
                0.46146292865092303,
                0.5670943346796841,
                0.601969866828463,
                0.4134241493308839,
                0.288249415729778,
                1.0,
                0.6956137373177499,
                1.0,
                1.0,
                0.06972570979610969,
                1.0,
                0.467973733760373,
                0.6117149340195241,
                1.0,
                1.0,
                0.34702004993713403,
                0.623931866948654,
                1.0,
                0.606844480566023,
                1.0000000000000002,
                0.2094895165570354,
                1.0,
                0.26255825917471864,
                1.0,
                1.0,
                0.08567749503829114,
                1.0000000000000002,
                1.0,
                0.4890298941400853,
                0.6748664034203504,
                1.0000000000000002,
                0.07950540953997144,
                0.9999999999999999,
                0.9999999999999999,
                0.7689421550599711,
                0.609641010183993,
                0.1762605531631076,
                0.9999999999999999,
                1.0,
                1.0,
                0.7074609051591784,
                1.0,
                1.0,
                0.6736709326306305,
                1.0,
                1.0000000000000002,
                1.0,
                0.9999999999999999,
                1.0,
                1.0000000000000002,
                1.0,
                0.7402554226715781,
                0.38332093015789104,
                0.9999999999999998,
                0.9999999999999999,
                0.18083936609288728,
                1.0,
                0.8510329999085468,
                1.0,
                1.0,
                1.0,
                0.3217694865641738,
                1.0,
                0.20104055960697031,
                0.583173744286059,
                0.3496636843480221,
                0.46123854991371427,
                1.0,
                0.4243396411904626,
                0.7109197025244754,
                1.0,
                0.29586152560259654,
                1.0000000000000002,
                0.7136045702840551,
                0.7447897095228516,
                0.6973324095826984,
                0.9999999999999999,
                0.5879207133619808,
                0.16626347609056136,
                0.9999999999999999,
                0.2786055887419847,
                0.9999999999999999,
                0.5576265566542238,
                0.0664487071356461,
                1.0,
                0.08597704349317892,
                1.0,
                1.0,
                1.0,
                0.6103716591428671,
                1.0,
                0.9999999999999999,
                0.6589665499125406,
                0.1908022664757263,
                0.14729248954249174,
                1.0,
                0.9999999999999999,
                1.0,
                0.9999999999999999,
                0.6625735214084691,
                0.6253738300858116,
                1.0,
                0.7487216739215806,
                1.0,
                0.802937192052267,
                0.9999999999999998,
                1.0,
                0.171608216985076,
                0.7435637784630912,
                1.0,
                1.0,
                0.9999999999999999,
                1.0,
                0.0153152365801289,
                0.748226400006838,
                0.765996606708795,
                1.0,
                0.7213099143162585,
                0.3132224656920959,
                0.4456753159681572,
                0.5337373140708739,
                0.7659275704575009,
                1.0,
                0.48695500133780767,
                0.006526504738719852,
                0.6466457647048679,
                0.25676879062029456,
                1.0,
                1.0,
                1.0,
                0.5614320910116954,
                0.19772010997570466,
                0.40363584077790116,
                0.9999999999999999,
                0.348245464356767,
                1.0,
                0.9999999999999998,
                1.0,
                1.0,
                0.3331618070912435,
                1.0,
                1.0,
                0.7338368036494434,
                1.0,
                0.42684675703302677,
                1.0,
                1.0
            ],
            "photocathode": [
                7000,
                7166,
                7005,
                4389,
                6972,
                2543,
                7099,
                6953,
                994,
                6938,
                2667,
                19,
                1024,
                7058,
                4670,
                7009,
                5607,
                3545,
                1682,
                5372,
                3942,
                1514,
                5400,
                7352,
                6716,
                752,
                6988,
                6912,
                7138,
                7304,
                7056,
                5430,
                7084,
                6998,
                5490,
                7008,
                7095,
                1092,
                6925,
                2205,
                7219,
                6894,
                6964,
                6879,
                7188,
                7066,
                7048,
                7221,
                5513,
                7023,
                638,
                4135,
                5383,
                4033,
                6982,
                7129,
                7140,
                7126,
                4875,
                5434,
                1889,
                4702,
                6892,
                7347,
                4909,
                2319,
                7015,
                6883,
                7124,
                842,
                6771,
                6974,
                1829,
                7184,
                7022,
                7150,
                4747,
                6961,
                848,
                6875,
                6997,
                4824,
                7074,
                3695,
                7331,
                7006,
                1348,
                7082,
                5395,
                6852,
                7327,
                7030,
                6920,
                7100,
                7016,
                5056,
                1524,
                7108,
                4764,
                4870,
                2645,
                4865,
                7159,
                7135,
                3838,
                4387,
                7045,
                1016,
                2146,
                204,
                7066,
                3932,
                120,
                6914,
                7022,
                6911,
                7092,
                7348,
                7039,
                6997,
                7051,
                7123,
                4240,
                7059,
                4010,
                3521,
                2202,
                6972,
                6952,
                1278,
                4146,
                5133,
                4175,
                7005,
                1526,
                4995,
                6936,
                5360,
                7101,
                7059,
                4656,
                1125,
                7017,
                6867,
                7224,
                6932,
                6937,
                7228,
                7074,
                2860,
                7133,
                7051,
                6874,
                3245,
                4042,
                4159,
                2922,
                2013,
                6815,
                4810,
                6936,
                7124,
                466,
                6934,
                3243,
                4251,
                6957,
                7217,
                2472,
                4442,
                7005,
                4462,
                7186,
                1527,
                7141,
                1863,
                7048,
                6935,
                659,
                7195,
                7042,
                3538,
                4682,
                6922,
                564,
                7031,
                6993,
                5553,
                4165,
                1242,
                7277,
                7001,
                6918,
                4881,
                6960,
                7036,
                4729,
                6932,
                7088,
                7270,
                6964,
                7059,
                7009,
                7075,
                5409,
                2701,
                7278,
                7110,
                1370,
                7022,
                5971,
                7015,
                7085,
                6986,
                2298,
                6912,
                1486,
                3990,
                2512,
                3247,
                7058,
                3013,
                5185,
                6902,
                2071,
                7064,
                5170,
                5102,
                5001,
                7034,
                4185,
                1121,
                7155,
                1840,
                6861,
                3939,
                435,
                7018,
                623,
                7029,
                7118,
                6979,
                4175,
                6935,
                7011,
                4640,
                1337,
                1082,
                7009,
                7079,
                7067,
                7085,
                4685,
                4406,
                6983,
                5209,
                7053,
                5517,
                7440,
                7059,
                1202,
                5194,
                7063,
                6921,
                6963,
                7062,
                111,
                5257,
                5370,
                6992,
                5065,
                2298,
                3117,
                3892,
                5413,
                7124,
                3379,
                39,
                4534,
                1840,
                7297,
                7175,
                7106,
                4059,
                1462,
                2802,
                7129,
                2361,
                7260,
                7242,
                7044,
                7093,
                2436,
                7308,
                7084,
                5095,
                7008,
                3121,
                7127,
                6951
            ]
        },
        "detections": 300,
        "events": 379
    }
}