{
    "job_args": {
        "metric_limit": 300,
        "seed": 496595315
    },
    "job_id": "batch_28_do_300",
    "result": {
        "collections": {
            "crystal": [
                1.0,
                1.0,
                0.8343125076255322,
                1.0000000000000002,
                0.9999999999999999,
                0.40921674278215814,
                1.0,
                1.0,
                1.0,
                0.6616360912977775,
                0.6151649431361219,
                0.9999999999999999,
                0.9999999999999999,
                0.7456490358065796,
                1.0,
                1.0000000000000002,
                0.711264400618654,
                0.6571147685819432,
                0.6954925813502759,
                0.41120084181016897,
                1.0,
                0.3153888278125738,
                1.0,
                1.0,
                1.0,
                1.0,
                1.0,
                0.5049954541726659,
                1.0,
                1.0,
                1.0,
                1.0,
                0.9999999999999999,
                1.0,
                1.0,
                1.0,
                0.6947479834958064,
                1.0,
                0.6155983007117222,
                1.0000000000000002,
                1.0,
                1.0,
                0.12596328411078517,
                0.5000190096679116,
                0.5139023658217551,
                1.0,
                1.0,
                0.4105534928603116,
                0.6697748504509773,
                1.0000000000000002,
                0.9999999999999999,
                0.9999999999999999,
                1.0000000000000002,
                1.0,
                1.0,
                1.0000000000000002,
                0.2137167283697633,
                1.0,
                0.7103990663075785,
                1.0,
                1.0,
                0.42844672591715166,
                1.0000000000000002,
                0.524635086801329,
                1.0,
                1.0,
                0.3152393382664449,
                0.9999999999999998,
                1.0,
                0.35727683306698255,
                1.0,
                0.5566529601133683,
                0.9273699141203755,
                1.0,
                1.0,
                1.0000000000000002,
                1.0,
                0.2150522638201,
                1.0,
                0.7004142668961795,
                1.0,
                0.6036766095231582,
                0.4329208639718297,
                0.2606964383947259,
                0.9999999999999999,
                1.0,
                0.049107832601527734,
                0.576814970942757,
                1.0,
                0.6968533395949467,
                1.0,
                0.010981505506183153,
                1.0,
                1.0,
                1.0000000000000002,
                0.9999999999999999,
                0.9999999999999999,
                0.36307853917038924,
                0.447496843754289,
                1.0,
                1.0,
                1.0,
                1.0,
                1.0,
                0.9999999999999999,
                1.0,
                1.0,
                1.0000000000000002,
                0.7570025048812636,
                1.0,
                0.7929201516890005,
                1.0,
                0.7089445933550018,
                0.9999999999999999,
                0.7142685672321174,
                1.0000000000000002,
                1.0,
                1.0000000000000002,
                1.0,
                0.1732199512393794,
                1.0,
                1.0,
                0.6137449583756484,
                0.7127072670028289,
                0.6809942420217342,
                0.40837443698958853,
                1.0,
                0.646390907599209,
                0.7321187091887262,
                1.0,
                0.7916023707990382,
                0.9999999999999999,
                0.9999999999999999,
                0.08969534870419016,
                0.43453871181665144,
                1.0000000000000002,
                1.0,
                1.0000000000000002,
                1.0,
                1.0,
                0.35616997594091937,
                0.383805104644087,
                1.0,
                0.6391498615366701,
                1.0,
                0.36146835709892666,
                0.9447238140692942,
                1.0,
                0.34808535885514985,
                0.4635434360690344,
                0.2141861177087192,
                0.609867869046655,
                1.0,
                0.5668179296568271,
                1.0,
                1.0,
                0.058681550239177205,
                0.9999999999999999,
                0.8131024699472293,
                0.28829669000777847,
                1.0,
                0.6699226806542126,
                1.0,
                0.7646908601009493,
                1.0,
                1.0,
                0.4396232113706886,
                1.0,
                0.25459923173778515,
                1.0,
                1.0,
                0.9999999999999999,
                0.9999999999999999,
                0.9999999999999999,
                1.0,
                0.30525665895621806,
                1.0,
                0.39623282488208966,
                0.3702645835863299,
                1.0,
                0.6276792091932466,
                0.7794432038087051,
                1.0,
                1.0000000000000002,
                1.0,
                0.11571859602384793,
                0.47698649042945407,
                0.9999999999999999,
                1.0,
                1.0,
                1.0,
                1.0,
                1.0,
                0.6186781542813506,
                1.0,
                1.0,
                0.18602678561949837,
                1.0,
                0.5551653128078275,
                0.6261664017565585,
                1.0,
                0.2573698834741218,
                1.0,
                0.6973038797813946,
                0.9999999999999999,
                0.9999999999999998,
                0.9999999999999998,
                1.0,
                0.21178135505934614,
                0.30724490944203986,
                1.0,
                1.0,
                1.0,
                0.4409885719329121,
                0.9999999999999999,
                1.0,
                1.0,
                1.0,
                1.0,
                1.0,
                1.0000000000000002,
                0.9999999999999999,
                1.0,
                1.0000000000000002,
                1.0,
                0.7343949176903488,
                0.5159977632365625,
                0.7754385697130407,
                0.06066014167428003,
                0.44636142805419293,
                0.34962362660202584,
                0.0016111919356170956,
                0.30704376053296395,
                0.9999999999999999,
                1.0,
                0.22568721697902405,
                0.7307796195508591,
                0.5856238525374702,
                1.0,
                0.7675924053783416,
                0.7941837047202227,
                0.48950360490370093,
                0.5355718550224837,
                1.0,
                1.0,
                1.0000000000000002,
                0.562691665257031,
                0.34234871190012717,
                1.0000000000000002,
                1.0,
                0.21150421684309773,
                0.3786278347606362,
                0.4105572455770401,
                0.38104255913813456,
                0.46568377846572856,
                0.9999999999999998,
                1.0,
                0.9999999999999999,
                1.0,
                1.0,
                0.11399332148527808,
                0.7832526459792611,
                0.9999999999999999,
                1.0,
                0.9999999999999999,
                0.08405575709805437,
                0.03971095807139646,
                0.9999999999999999,
                1.0,
                0.4169440736158642,
                0.6668639672829986,
                0.7374421779111793,
                0.5946556711346607,
                0.5067115915434515,
                1.0,
                0.4648403581336371,
                1.0,
                0.5912519209105954,
                0.6067902303840839,
                0.6256733560081906,
                0.8371432971703413,
                0.34944935720802156,
                0.3212117333672898,
                0.02175880157890897,
                0.29309834829973047,
                1.0000000000000002,
                1.0,
                0.168642986189471,
                0.9999999999999998,
                1.0,
                0.13183995456217112,
                0.9999999999999999,
                0.6718858058197791,
                1.0,
                0.1938885063143122,
                0.49038655511691226,
                0.7830654616484533,
                0.9999999999999999,
                0.9999999999999999,
                0.9999999999999999
            ],
            "photocathode": [
                6873,
                6876,
                5805,
                6964,
                7011,
                2882,
                7127,
                7053,
                7097,
                4685,
                4359,
                7285,
                7002,
                5412,
                7254,
                7022,
                5022,
                4635,
                4856,
                2892,
                7045,
                2294,
                7200,
                6933,
                7012,
                6999,
                7198,
                3584,
                7018,
                6977,
                7129,
                7185,
                7019,
                6991,
                7126,
                7039,
                5072,
                7192,
                4267,
                7066,
                7211,
                7019,
                869,
                3551,
                3686,
                7065,
                7213,
                2848,
                4825,
                7045,
                7015,
                7183,
                7161,
                7053,
                6922,
                7232,
                1519,
                7021,
                4909,
                6886,
                6883,
                3064,
                7123,
                3723,
                7024,
                6888,
                2194,
                7052,
                6960,
                2544,
                6995,
                3915,
                6371,
                6986,
                7137,
                7133,
                6976,
                1473,
                7181,
                4993,
                7007,
                4203,
                2981,
                1945,
                6827,
                7172,
                353,
                4025,
                7170,
                4943,
                6921,
                69,
                7074,
                7274,
                7081,
                6974,
                7181,
                2606,
                3154,
                7063,
                7034,
                6952,
                7098,
                7136,
                7101,
                6951,
                6942,
                7078,
                5328,
                7048,
                5628,
                7057,
                5002,
                7117,
                4924,
                6982,
                7087,
                7177,
                7132,
                1193,
                7109,
                7011,
                4519,
                5114,
                4735,
                2865,
                7082,
                4541,
                5176,
                7035,
                5510,
                7076,
                7038,
                631,
                3013,
                6978,
                7099,
                7037,
                7023,
                7113,
                2580,
                2803,
                7136,
                4515,
                7152,
                2542,
                6716,
                7025,
                2493,
                3170,
                1599,
                4310,
                6932,
                4055,
                7094,
                7171,
                409,
                6958,
                5706,
                1997,
                7284,
                4786,
                7119,
                5285,
                7136,
                7202,
                2954,
                7307,
                1887,
                7046,
                6931,
                7081,
                7086,
                7054,
                6943,
                2189,
                7190,
                2808,
                2610,
                7103,
                4460,
                5573,
                7020,
                6937,
                7060,
                814,
                3431,
                7080,
                7008,
                7084,
                7157,
                7020,
                7365,
                4319,
                6938,
                7065,
                1274,
                6956,
                3956,
                4354,
                7256,
                1888,
                7117,
                4857,
                6954,
                7063,
                7129,
                7044,
                1453,
                2178,
                6973,
                7057,
                7174,
                3132,
                7141,
                7240,
                6933,
                6990,
                7104,
                7083,
                7064,
                7050,
                6889,
                6843,
                7090,
                5262,
                3598,
                5622,
                455,
                3164,
                2599,
                10,
                2132,
                7083,
                7033,
                1552,
                5126,
                4005,
                7080,
                5318,
                5664,
                3434,
                3803,
                6951,
                7070,
                7032,
                3945,
                2407,
                7080,
                7269,
                1562,
                2627,
                2864,
                2705,
                3332,
                6982,
                7030,
                7075,
                7051,
                7069,
                812,
                5502,
                7066,
                7063,
                7051,
                647,
                302,
                6940,
                7052,
                3011,
                4761,
                5217,
                4238,
                3617,
                7025,
                3326,
                7130,
                4058,
                4411,
                4351,
                5904,
                2388,
                2202,
                167,
                2100,
                6963,
                7179,
                1260,
                7166,
                7112,
                917,
                7128,
                4735,
                7122,
                1319,
                3428,
                5586,
                6998,
                7020,
                6969
            ]
        },
        "detections": 300,
        "events": 402
    }
}