{
    "job_args": {
        "metric_limit": 500,
        "seed": 3325321579
    },
    "job_id": "batch_79_do_500",
    "result": {
        "collections": {
            "crystal": [
                0.51099891,
                0.0678678437400836,
                0.5109989099999999,
                1.157002648640952,
                0.5109989099999999,
                0.3295931497417173,
                0.2487006802768663,
                0.2224879582027786,
                0.51099891,
                0.07832342762561914,
                0.0678678437400836,
                0.07832342762561914,
                0.5109989099999999,
                0.10414706874704255,
                0.04971392762561913,
                0.2752552085487514,
                0.51099891,
                0.0678678437400836,
                0.06786784374008362,
                0.8649433204413756,
                0.5109989099999999,
                0.04397824959037755,
                0.07832342762561914,
                0.5109989099999999,
                0.20179463230887568,
                0.04971392762561913,
                0.45901297662084767,
                0.7230806275688706,
                0.5109989100000001,
                0.51099891,
                0.51099891,
                0.0678678437400836,
                1.1570026486409521,
                0.04905312446286919,
                0.1924918322521981,
                0.049713927625619145,
                0.0837460379905699,
                0.06786784374008359,
                0.0678678437400836,
                0.5109989099999999,
                0.51099891,
                0.51099891,
                0.16384043132065815,
                0.51099891,
                0.12446086167013076,
                0.51099891,
                0.08204302305408823,
                0.44522293914366184,
                1.0027283638188897,
                0.09721416362367118,
                0.07832342762561914,
                0.5109989100000001,
                0.37433290281675397,
                0.07832342762561915,
                0.51099891,
                0.51099891,
                0.51099891,
                0.061790122998381665,
                0.5109989100000001,
                0.11328307055098569,
                0.5109989099999999,
                0.51099891,
                0.0678678437400836,
                0.5109989099999999,
                0.4374879923684085,
                0.51099891,
                0.51099891,
                0.18307808256706248,
                0.23097182223304746,
                0.51099891,
                0.07832342762561914,
                0.5595967430129887,
                0.030596344449789536,
                0.24653012145420236,
                0.589591866684616,
                0.07832342762561914,
                0.06786784374008362,
                1.1570026486409521,
                0.51099891,
                0.07832342762561914,
                0.3251045943085949,
                0.05001692762561914,
                0.51099891,
                0.23410392636098815,
                0.2013886116627437,
                0.05810218247395799,
                0.00026124942360006287,
                0.06786784374008359,
                0.51099891,
                0.059112750006085416,
                0.07524999999999998,
                0.14989786954610473,
                1.1570026486409521,
                0.07832342762561913,
                0.51099891,
                0.5236276575088651,
                0.07832342762561914,
                0.5109989100000001,
                0.9288201976452918,
                0.5109989099999999,
                0.24241832316689527,
                0.51099891,
                0.51099891,
                0.1401680668582166,
                0.0678678437400836,
                0.08517800636225403,
                0.8995288166144345,
                0.5109989100000001,
                0.4963830411352589,
                0.51099891,
                0.20819288989369963,
                0.07335544857382498,
                0.06786784374008359,
                0.46657112276120033,
                0.3530658902394106,
                0.0678678437400836,
                0.12331463273169185,
                0.51099891,
                0.5109989099999999,
                0.4183721013574906,
                0.07832342762561914,
                0.10956123441475765,
                0.06786784374008362,
                0.5109989099999999,
                0.07832342762561914,
                0.14123315309634155,
                0.0678678437400836,
                0.47876211,
                0.07832342762561914,
                0.07832342762561914,
                1.1570026486409521,
                0.7916447812294564,
                0.06786784374008359,
                0.32636742133852487,
                0.8332472833739862,
                0.3213981366432114,
                0.5109989100000001,
                0.04369922622294687,
                0.07832342762561914,
                0.30971944233099097,
                0.5109989099999999,
                1.157002648640952,
                0.07832342762561914,
                0.2742789762988796,
                0.08307986809413548,
                0.07832342762561914,
                0.51099891,
                0.06786784374008362,
                0.51099891,
                0.06786784374008362,
                0.0356310437400836,
                0.5109989099999999,
                0.0678678437400836,
                0.06786784374008359,
                0.5109989100000001,
                0.07524999999999998,
                0.51099891,
                0.51099891,
                0.51099891,
                0.17649989955155626,
                0.5109989100000001,
                0.5109989099999999,
                0.07832342762561914,
                0.03925834374008359,
                0.3903575693317687,
                0.23454194863627809,
                0.38888154554767024,
                0.055597820408268356,
                0.51099891,
                0.5323638746861733,
                0.47509167135178776,
                0.07832342762561913,
                0.5109989099999999,
                0.0678678437400836,
                0.07832342762561914,
                0.3322186686257318,
                1.1570026486409521,
                0.6705179424145102,
                0.11287956593066428,
                0.049713927625619145,
                0.07610415451971225,
                0.06786784374008359,
                0.6686520139877388,
                0.07832342762561914,
                0.07832342762561915,
                0.3181362921898331,
                0.3615878818509706,
                0.03756585687184122,
                0.45150970596065737,
                0.51099891,
                0.01703947112346848,
                0.07174777615286305,
                0.51099891,
                0.12747251588427866,
                0.07525,
                0.06786784374008362,
                0.18039578415124452,
                0.06985115233107453,
                0.5109989099999999,
                0.7904805773010994,
                0.19760473410199458,
                0.3289091914440634,
                0.023040909230247653,
                0.5109989099999999,
                0.24983726339794549,
                0.7352228941345638,
                0.07832342762561914,
                0.0652953595819941,
                0.51099891,
                0.08591837225329879,
                0.5109989099999999,
                0.5109989100000001,
                1.1570026486409524,
                0.07832342762561914,
                0.12672991771530545,
                0.3256759241613953,
                0.5319890673392684,
                0.44801578230280764,
                0.5109989100000001,
                0.51099891,
                0.0678678437400836,
                0.2700541098585209,
                0.5109989100000001,
                0.5109989100000001,
                0.51099891,
                0.15039801792038432,
                0.482763762889896,
                0.5109989100000001,
                0.5491850176730055,
                0.5109989099999999,
                0.22670880906536744,
                0.3093747173402712,
                0.6632542331068324,
                0.07426698437228671,
                0.0687405561094992,
                0.0847407,
                0.07737333041854771,
                0.0678678437400836,
                0.0678678437400836,
                0.5109989099999999,
                0.013692619566476716,
                0.12170784688334252,
                0.495365205520025,
                0.25247159401014585,
                0.35336131304435514,
                0.0678678437400836,
                1.157002648640952,
                0.5358192459133483,
                0.51099891,
                0.51099891,
                0.07832342762561913,
                0.0678678437400836,
                0.07832342762561914,
                0.3031581136066341,
                0.3868991750135772,
                0.5109989099999999,
                0.46696573718283857,
                0.5109989100000001,
                0.5624345038374201,
                0.06786784374008359,
                0.0678678437400836,
                0.5109989100000001,
                0.07832342762561914,
                0.2823992950146829,
                0.51099891,
                0.51099891,
                0.04602922762561914,
                0.07525,
                0.3164964858113316,
                0.2795522823829406,
                1.1570026486409521,
                0.07832342762561915,
                0.51099891,
                0.5109989100000001,
                0.07832342762561914,
                0.06786784374008359,
                0.5109989099999999,
                0.13664376828359198,
                0.07832342762561914,
                0.2216132424705109,
                0.23130650685028833,
                0.07832342762561914,
                0.19842630377888654,
                0.0391794176631321,
                0.51099891,
                0.2593746592389685,
                0.6462453712168676,
                0.14098779845734488,
                0.51099891,
                0.279000555709642,
                0.51099891,
                0.07832342762561914,
                0.10094919912314165,
                0.022390667115975205,
                0.06786784374008362,
                0.034541287805856635,
                0.07837611782687115,
                0.06786784374008359,
                0.06786784374008362,
                0.0678678437400836,
                0.06786784374008362,
                0.11919410353054179,
                0.38249012684377814,
                0.07832342762561914,
                0.24386605534995381,
                0.941982634138577,
                0.51099891,
                0.07370917178981434,
                0.7479472253261856,
                0.5109989100000001,
                1.1570026486409524,
                0.4620766652222591,
                0.06786784374008362,
                0.51099891,
                0.07832342762561914,
                0.0466405,
                0.06786784374008359,
                0.07524999999999998,
                0.028346866474069754,
                0.3887001315214507,
                0.320491160567785,
                0.7586537896860917,
                0.5109989099999999,
                1.157002648640952,
                0.51099891,
                0.51099891,
                0.4231742660241484,
                0.08523539999999999,
                0.51099891,
                0.06786784374008359,
                0.51099891,
                0.51099891,
                0.07525,
                0.3175863093358733,
                0.51099891,
                0.34182006100968476,
                0.3080462241834837,
                0.07832342762561914,
                0.036531344649931574,
                0.5109989100000001,
                0.44631372410148196,
                0.5109989100000001,
                0.51099891,
                0.12050474704689863,
                0.17327180874422526,
                0.07832342762561914,
                0.3374761937676319,
                0.06786784374008359,
                0.8977941786881166,
                0.03076866492105134,
                0.45187362950795423,
                0.0652154491580144,
                0.5109989100000001,
                0.07832342762561913,
                0.049713927625619145,
                0.07832342762561914,
                0.07832342762561914,
                0.08103280948771407,
                0.04971392762561914,
                0.35120072691935506,
                0.5109989099999999,
                0.5109989099999999,
                0.07832342762561914,
                0.51099891,
                0.18574926629484592,
                0.5109989100000001,
                0.07832342762561914,
                0.07525000000000001,
                0.2335388720306688,
                0.08000441471745384,
                0.23406782188399547,
                0.36632996546651075,
                0.5109989100000001,
                0.19552902995804,
                0.2285292863860659,
                0.0678678437400836,
                1.157002648640952,
                0.51099891,
                0.07832342762561914,
                0.20857790969125145,
                0.11989778022669163,
                0.06786784374008359,
                0.51099891,
                0.5275103934767835,
                0.51099891,
                0.06617593205504337,
                0.06786784374008359,
                0.282688122288536,
                0.9186406698268261,
                0.5109989099999999,
                0.07832342762561915,
                0.16521055778932017,
                0.073039,
                0.06786784374008357,
                0.07832342762561914,
                0.04510368932623032,
                0.0678678437400836,
                0.51099891,
                0.51099891,
                0.51099891,
                0.51099891,
                0.006155288938063151,
                0.07524999999999998,
                0.34284333705102643,
                0.0678678437400836,
                0.042557218431635846,
                0.2925016620701116,
                0.06786784374008359,
                0.31641899650025085,
                0.07832342762561914,
                0.07832342762561914,
                0.07832342762561915,
                0.06786784374008359,
                1.157002648640952,
                0.12115640563526743,
                0.17849777145478732,
                0.07832342762561914,
                0.47161178185708275,
                0.03756346747539674,
                0.5109989100000001,
                0.16526922984666514,
                0.06786784374008362,
                0.04971392762561913,
                1.1570026486409521,
                0.15020088550854888,
                0.24435223651115168,
                0.07525000000000001,
                0.0678678437400836,
                0.06786784374008359,
                0.5109989100000001,
                0.06681035696640569,
                1.157002648640952,
                0.143795929030115,
                0.51099891,
                1.1570026486409521,
                0.51099891,
                0.06918837191990149,
                0.51099891,
                0.887120614767934,
                0.29601635263158205,
                0.04963856955672744,
                0.3762870457717383,
                0.51099891,
                0.06786784374008359,
                0.07832342762561913,
                0.08382146206523272,
                0.51099891,
                0.24347193361765126,
                0.39224608609718925,
                0.17183500682276798,
                0.51099891,
                0.4623835834989237,
                0.51099891,
                0.5109989099999999,
                0.8888177199253875,
                0.07832342762561914,
                0.07832342762561913,
                0.06786784374008359,
                0.27155800297379934,
                0.51099891,
                0.5109989100000001,
                0.015753307365256652,
                0.05957573961257789,
                0.7514684762151862,
                1.1570026486409521,
                0.18355835291400036,
                0.07524999999999998,
                0.01975448529467677,
                0.03475848716278722,
                0.07525,
                0.5109989100000001,
                0.5109989099999999,
                0.583689244895206,
                0.07832342762561914,
                0.5109989099999999,
                0.611969908006132,
                0.5109989100000001,
                0.0678678437400836,
                0.3022524510273329,
                0.51099891,
                0.51099891,
                0.07832342762561914,
                0.27671051529754376,
                0.51099891,
                0.8534481591662755,
                0.5109989100000001,
                0.11687320064469836,
                0.5109989099999999,
                0.07832342762561914,
                0.0678678437400836,
                0.51099891,
                0.07832342762561914,
                0.07832342762561914,
                0.51099891,
                0.05662590000000001,
                0.5109989099999999,
                0.21672906837131228,
                0.05138567244694545,
                0.07386340025210172,
                0.5109989100000001
            ],
            "photocathode": [
                3666,
                473,
                3544,
                8101,
                3634,
                2372,
                1799,
                1629,
                3518,
                529,
                461,
                512,
                3615,
                723,
                351,
                1871,
                3529,
                501,
                486,
                5966,
                3603,
                289,
                526,
                3563,
                1324,
                324,
                3260,
                5146,
                3679,
                3446,
                3487,
                451,
                8275,
                340,
                1338,
                338,
                616,
                463,
                460,
                3687,
                3599,
                3666,
                1173,
                3582,
                876,
                3702,
                574,
                3083,
                7076,
                702,
                570,
                3602,
                2605,
                535,
                3644,
                3570,
                3569,
                425,
                3562,
                787,
                3618,
                3490,
                485,
                3491,
                3077,
                3606,
                3665,
                1300,
                1603,
                3497,
                539,
                3881,
                228,
                1791,
                4275,
                568,
                499,
                7952,
                3588,
                491,
                2438,
                323,
                3541,
                1611,
                1425,
                376,
                4,
                451,
                3709,
                408,
                516,
                1113,
                7964,
                526,
                3596,
                3557,
                540,
                3545,
                6430,
                3587,
                1656,
                3618,
                3695,
                934,
                433,
                634,
                6419,
                3609,
                3497,
                3508,
                1563,
                479,
                491,
                3353,
                2491,
                471,
                826,
                3606,
                3516,
                2935,
                546,
                775,
                421,
                3625,
                531,
                986,
                469,
                3457,
                558,
                576,
                8094,
                5489,
                487,
                2213,
                5848,
                2290,
                3564,
                323,
                528,
                2188,
                3603,
                8074,
                552,
                2013,
                594,
                528,
                3608,
                451,
                3561,
                440,
                248,
                3576,
                495,
                474,
                3545,
                501,
                3590,
                3578,
                3577,
                1203,
                3650,
                3518,
                575,
                288,
                2776,
                1630,
                2771,
                387,
                3538,
                3803,
                3354,
                516,
                3579,
                481,
                588,
                2424,
                8233,
                4786,
                789,
                336,
                530,
                481,
                4688,
                552,
                487,
                2274,
                2530,
                251,
                3288,
                3566,
                123,
                492,
                3622,
                883,
                546,
                446,
                1229,
                498,
                3493,
                5567,
                1408,
                2231,
                172,
                3539,
                1793,
                5014,
                520,
                446,
                3624,
                613,
                3578,
                3665,
                8068,
                530,
                916,
                2267,
                3739,
                3185,
                3684,
                3601,
                443,
                1912,
                3655,
                3534,
                3527,
                972,
                3397,
                3498,
                3753,
                3539,
                1605,
                2129,
                4832,
                535,
                463,
                561,
                540,
                477,
                477,
                3590,
                83,
                935,
                3551,
                1826,
                2412,
                461,
                7919,
                3759,
                3582,
                3534,
                537,
                475,
                558,
                2219,
                2696,
                3460,
                3200,
                3530,
                3845,
                469,
                492,
                3579,
                549,
                1964,
                3623,
                3621,
                343,
                494,
                2175,
                1943,
                8248,
                560,
                3607,
                3538,
                541,
                449,
                3547,
                960,
                576,
                1577,
                1670,
                536,
                1427,
                266,
                3657,
                1828,
                4699,
                953,
                3573,
                1931,
                3619,
                526,
                732,
                150,
                468,
                231,
                563,
                473,
                487,
                444,
                488,
                870,
                2627,
                489,
                1674,
                6565,
                3630,
                503,
                5247,
                3652,
                8220,
                3286,
                468,
                3600,
                514,
                326,
                453,
                527,
                188,
                2637,
                2246,
                5358,
                3628,
                8322,
                3474,
                3561,
                2946,
                638,
                3589,
                459,
                3522,
                3669,
                556,
                2267,
                3633,
                2448,
                2088,
                523,
                243,
                3464,
                3168,
                3450,
                3503,
                850,
                1200,
                535,
                2469,
                519,
                6368,
                232,
                3155,
                467,
                3478,
                545,
                322,
                539,
                530,
                576,
                342,
                2476,
                3677,
                3486,
                582,
                3668,
                1336,
                3622,
                512,
                532,
                1642,
                543,
                1669,
                2543,
                3494,
                1406,
                1616,
                471,
                8039,
                3517,
                540,
                1486,
                854,
                454,
                3452,
                3707,
                3632,
                473,
                468,
                1889,
                6419,
                3503,
                520,
                1096,
                512,
                478,
                488,
                329,
                453,
                3594,
                3558,
                3552,
                3621,
                45,
                504,
                2414,
                460,
                296,
                2136,
                482,
                2197,
                484,
                562,
                537,
                475,
                8207,
                852,
                1177,
                552,
                3332,
                266,
                3548,
                1186,
                463,
                331,
                7957,
                1030,
                1714,
                527,
                440,
                445,
                3623,
                489,
                8149,
                1023,
                3574,
                8037,
                3545,
                480,
                3493,
                6498,
                2106,
                324,
                2607,
                3771,
                428,
                565,
                570,
                3667,
                1724,
                2750,
                1184,
                3700,
                3257,
                3579,
                3568,
                6156,
                505,
                544,
                439,
                1874,
                3656,
                3577,
                108,
                429,
                5284,
                8011,
                1291,
                522,
                149,
                226,
                554,
                3559,
                3487,
                4220,
                581,
                3613,
                4223,
                3598,
                458,
                2111,
                3634,
                3590,
                543,
                1968,
                3631,
                6150,
                3650,
                831,
                3549,
                543,
                470,
                3454,
                550,
                511,
                3528,
                405,
                3415,
                1483,
                334,
                536,
                3582
            ]
        },
        "detections": 500,
        "events": 15445
    }
}