{
    "job_args": {
        "metric_limit": 500,
        "seed": 150512077
    },
    "job_id": "batch_63_do_500",
    "result": {
        "collections": {
            "crystal": [
                0.684600014680814,
                0.0678678437400836,
                0.51099891,
                0.04747587880441356,
                0.07832342762561914,
                0.26380308034554234,
                0.47103027654650437,
                0.0678678437400836,
                0.51099891,
                0.07832342762561914,
                0.06714889168984049,
                0.8516159021123426,
                0.5109989100000001,
                0.0392583437400836,
                0.07832342762561914,
                0.10396923020756371,
                0.5109989100000001,
                0.51099891,
                1.1570026486409521,
                0.07832342762561914,
                0.13708184372968277,
                0.7339032329348087,
                0.2096879243922088,
                0.0716594632736608,
                1.1570026486409521,
                0.51099891,
                0.51099891,
                0.4347006863952333,
                0.575378170919899,
                0.16642853594962825,
                0.05382180065069509,
                0.07832342762561914,
                0.045304927625619135,
                0.0678678437400836,
                0.4373112771516942,
                0.06786784374008359,
                0.51099891,
                0.0678678437400836,
                0.073039,
                0.51099891,
                0.0678678437400836,
                0.07832342762561914,
                0.5109989100000001,
                0.5109989099999999,
                0.51099891,
                0.07832342762561915,
                0.23188395086030028,
                0.0355736437400836,
                0.07832342762561914,
                0.10913152195286241,
                0.0008350886173783545,
                0.06786784374008362,
                0.23797232367641322,
                0.06323272694093957,
                0.039561343740083604,
                0.2682656558903244,
                0.5109989099999999,
                0.0678678437400836,
                0.51099891,
                0.6433404142387014,
                0.6996230757611894,
                0.059692834977677356,
                0.5109989099999999,
                0.06036546221154737,
                0.013301281022755573,
                0.51099891,
                0.51099891,
                0.8205032454267764,
                0.5109989100000001,
                0.07832342762561914,
                0.17090808098233384,
                0.5109989099999999,
                0.51099891,
                0.1758481228479572,
                0.5893223376256191,
                0.5109989099999999,
                0.07832342762561911,
                0.51099891,
                0.07832342762561913,
                0.5109989100000001,
                0.486335446783794,
                0.3087447528694121,
                0.51099891,
                0.5109989100000001,
                0.03878416793363023,
                0.5109989099999999,
                0.5109989100000001,
                1.1570026486409521,
                0.51099891,
                1.157002648640952,
                0.07832342762561914,
                0.060953163940040814,
                0.51099891,
                0.07832342762561915,
                0.06786784374008359,
                0.07832342762561914,
                0.9280327917248498,
                0.5109989100000001,
                0.51099891,
                0.51099891,
                0.51099891,
                0.5109989099999999,
                0.5109989100000001,
                0.0678678437400836,
                0.9711785897117686,
                0.1859812591070284,
                0.017885752890897777,
                0.5109989100000001,
                0.24427177284515697,
                0.0678678437400836,
                0.51099891,
                0.51099891,
                0.0678678437400836,
                1.1570026486409521,
                0.51099891,
                0.0395613437400836,
                0.05202947352435744,
                0.03925834374008361,
                0.04971392762561913,
                0.0678678437400836,
                0.3332429293202911,
                0.37043440300157543,
                0.3159259006939207,
                0.51099891,
                0.51099891,
                0.07832342762561914,
                0.0678678437400836,
                0.27867472933479864,
                0.51099891,
                0.5109989100000001,
                0.51099891,
                0.0678678437400836,
                0.5109989099999999,
                0.06741427376731854,
                0.51099891,
                0.33260402668760114,
                0.0678678437400836,
                0.51099891,
                0.51099891,
                0.060552293960743936,
                0.0671024059165298,
                0.028554292079634558,
                0.23063056928132236,
                0.05327291479950861,
                0.3275888349700852,
                0.06786784374008359,
                0.36818247993099007,
                0.06786784374008359,
                0.0678678437400836,
                1.1570026486409521,
                0.15235278449362655,
                0.51099891,
                0.51099891,
                0.0678678437400836,
                0.5109989100000001,
                0.51099891,
                0.07832342762561911,
                0.08523540000000002,
                0.5109989100000001,
                0.5109989099999999,
                0.5109989100000001,
                0.51099891,
                0.1776483986213408,
                0.5109989100000001,
                0.5109989099999999,
                0.51099891,
                0.0678678437400836,
                0.333317280568759,
                0.07832342762561914,
                0.51099891,
                0.07832342762561914,
                0.07832342762561914,
                0.37100381891193984,
                0.2302586319027837,
                0.0678678437400836,
                0.51099891,
                0.09317340100662974,
                0.5109989099999999,
                0.07832342762561914,
                0.07832342762561914,
                1.157002648640952,
                0.086698002179387,
                0.0678678437400836,
                0.51099891,
                0.43562776291788796,
                0.3237958412971331,
                0.6190424286767302,
                0.07832342762561914,
                0.51099891,
                0.09701228375986859,
                0.07832342762561914,
                0.03925834374008361,
                0.00843224193680514,
                0.51099891,
                0.51099891,
                0.51099891,
                0.014443642133859347,
                0.5109989100000001,
                0.5206397043001537,
                0.0678678437400836,
                0.09661604548814538,
                0.5109989100000001,
                0.51099891,
                0.5109989099999999,
                0.51099891,
                0.51099891,
                1.1570026486409521,
                0.03578319002794725,
                0.06786784374008359,
                0.51099891,
                0.17278947963031885,
                0.06786784374008359,
                0.5109989099999999,
                0.06786784374008359,
                0.51099891,
                0.15449115290626453,
                0.16839267385838477,
                1.1570026486409521,
                0.51099891,
                1.1570026486409521,
                0.06786784374008359,
                0.5109989100000001,
                0.51099891,
                0.02703054644166597,
                0.07832342762561914,
                0.51099891,
                0.06786784374008362,
                0.0392583437400836,
                0.07832342762561914,
                0.11854575197499773,
                0.005036232125879558,
                0.24486921067908105,
                0.1647354375130756,
                0.3123441170920931,
                0.268191963599619,
                0.5109989099999999,
                0.51099891,
                1.1570026486409521,
                0.36426676572886635,
                0.04569027007609777,
                0.4044739602570336,
                0.0678678437400836,
                0.5410466580721287,
                0.22026953421357964,
                0.07832342762561914,
                0.5109989099999999,
                0.07832342762561914,
                0.43875215792722516,
                0.5109989099999999,
                0.5109989100000001,
                0.06786784374008359,
                0.06018506976482639,
                0.35982776502484215,
                0.07832342762561914,
                0.5109989100000001,
                0.51099891,
                0.23914537785800105,
                0.51099891,
                0.16070853271254065,
                0.0678678437400836,
                0.13834284706153627,
                0.51099891,
                0.4825198234448132,
                0.51099891,
                0.5885665511032654,
                1.1570026486409521,
                0.07832342762561914,
                0.17496392243959286,
                0.14074374313130444,
                0.33491466202833586,
                0.4611223244905505,
                0.4878858412556891,
                0.07525,
                0.005828172779768881,
                0.21055052494028803,
                0.7458167352386889,
                0.5109989100000001,
                0.07832342762561914,
                0.3039233225069407,
                0.0678678437400836,
                0.8343061005438525,
                0.24005785778701666,
                0.1951155007904955,
                0.07821153272511454,
                0.5109989099999999,
                0.07832342762561914,
                0.5109989100000001,
                1.1570026486409521,
                0.5109989100000001,
                0.12590733462755455,
                0.2730326918727493,
                0.8727278420551564,
                0.1346899461294852,
                0.40448299760083223,
                0.51099891,
                0.51099891,
                0.06786784374008362,
                0.51099891,
                0.51099891,
                0.51099891,
                0.08195535597868545,
                0.21671050901157407,
                0.51099891,
                0.51099891,
                0.20107765128771773,
                0.073039,
                1.1570026486409521,
                0.052974946107015475,
                1.1570026486409521,
                0.0678678437400836,
                0.07832342762561914,
                0.0678678437400836,
                0.07832342762561914,
                0.20702688296985636,
                0.49058560772085635,
                0.51099891,
                0.0678678437400836,
                0.51099891,
                0.51099891,
                0.06786784374008359,
                0.51099891,
                0.04905458106862831,
                0.2768755698440012,
                0.07832342762561914,
                0.51099891,
                0.35078820355975227,
                0.51099891,
                0.51099891,
                1.1570026486409521,
                0.07832342762561913,
                0.053974268459148725,
                0.51099891,
                0.20565989242017177,
                0.03182029379007599,
                0.5109989099999999,
                0.0678678437400836,
                0.07303900000000002,
                0.5109989100000001,
                0.07832342762561914,
                0.0678678437400836,
                0.51099891,
                0.07832342762561914,
                0.5109989100000001,
                0.51099891,
                0.6623156210684461,
                0.07832342762561914,
                0.07832342762561914,
                0.08175874254414729,
                0.07303899999999999,
                0.51099891,
                1.157002648640952,
                0.3445652181524508,
                0.0678678437400836,
                0.2357092504806043,
                1.157002648640952,
                0.51099891,
                0.4376759272028624,
                0.23511579210628802,
                0.07832342762561914,
                0.2645456086484964,
                0.07832342762561914,
                0.3273924215288366,
                0.14427412223833203,
                0.2743532414061482,
                0.2188868419277166,
                0.51099891,
                0.27543810838126426,
                0.07832342762561914,
                0.08523539999999999,
                0.07832342762561914,
                0.51099891,
                0.07525,
                0.020786616962419957,
                0.07832342762561914,
                0.061387963431357384,
                0.07832342762561914,
                0.0678678437400836,
                1.1570026486409521,
                0.5109989100000001,
                0.4039797785024553,
                0.51099891,
                0.5109989100000001,
                0.07832342762561914,
                0.4195197989550846,
                0.03925834374008361,
                0.31092804845311856,
                0.5109989100000001,
                0.03563104374008359,
                0.08231065592187137,
                0.51099891,
                0.46319360300303636,
                0.07832342762561914,
                0.51099891,
                0.35626145156499556,
                0.0678678437400836,
                0.5893223376256191,
                0.812981079149654,
                0.22383320958161357,
                0.51099891,
                0.05660089538007057,
                0.07832342762561914,
                0.2915900794982903,
                0.51099891,
                0.51099891,
                0.07832342762561914,
                0.7958731390092372,
                0.06786784374008359,
                0.0678678437400836,
                0.07832342762561914,
                0.2434414708178136,
                0.06786784374008362,
                0.5109989099999999,
                0.42579693308981814,
                0.43041962947806583,
                0.5109989099999999,
                0.0678678437400836,
                0.05001692762561913,
                0.06626601135575126,
                0.5109989099999999,
                0.51099891,
                0.817775517142728,
                0.05001692762561914,
                0.07832342762561914,
                0.51099891,
                0.51099891,
                0.031015001559914046,
                0.5109989100000001,
                0.027003678792039076,
                0.51099891,
                0.5109989099999999,
                0.51099891,
                0.5109989100000001,
                0.07406081435929755,
                0.5109989099999999,
                0.07832342762561914,
                0.020798290807616637,
                0.10993693670899107,
                0.06434651043973288,
                0.51099891,
                0.23926929112470746,
                0.51099891,
                0.04971392762561914,
                0.0678678437400836,
                0.017683087960579602,
                0.5109989099999999,
                0.4920955878102048,
                0.14919763425591442,
                0.0678678437400836,
                0.51099891,
                0.5109989099999999,
                0.5109989100000001,
                0.0547789859138304,
                0.29071083441833134,
                0.2606199804591543,
                0.3164810412950179,
                0.25955109142474386,
                0.0678678437400836,
                0.06786784374008362,
                0.07832342762561914,
                0.07832342762561914,
                0.07832342762561913,
                0.12994415637325396,
                0.07832342762561914,
                0.51099891,
                0.51099891,
                0.51099891,
                0.21893281257933553,
                0.07832342762561914,
                0.03816920008536645,
                0.5109989099999999,
                0.18998358953742953,
                0.285116245595768,
                0.06786784374008359,
                0.24560509679525844,
                0.07832342762561914,
                0.51099891,
                0.3950129142723408,
                0.07832342762561914,
                0.19624414848870306,
                0.0678678437400836,
                0.2735551073598059,
                0.6432617251682711,
                0.2237921444286997,
                0.07238009059224985,
                0.5109989100000001,
                0.0013329521330270877,
                0.5109989100000001,
                0.07832342762561914,
                0.0678678437400836,
                0.06786784374008362,
                0.5109989100000001,
                0.04157346293231379,
                0.28392757598589946,
                0.51099891,
                0.051558649896013775,
                0.087534,
                0.18789721807293844,
                0.5109989100000001,
                0.5109989100000001,
                0.51099891
            ],
            "photocathode": [
                4689,
                489,
                3590,
                323,
                569,
                1874,
                3331,
                476,
                3650,
                541,
                467,
                5780,
                3583,
                288,
                539,
                747,
                3572,
                3486,
                7980,
                533,
                1001,
                5149,
                1414,
                544,
                8164,
                3567,
                3607,
                2988,
                4110,
                1138,
                376,
                587,
                311,
                514,
                3062,
                491,
                3539,
                470,
                530,
                3580,
                468,
                555,
                3514,
                3541,
                3485,
                512,
                1632,
                230,
                518,
                734,
                10,
                443,
                1636,
                463,
                272,
                1859,
                3649,
                432,
                3558,
                4408,
                4749,
                403,
                3660,
                450,
                93,
                3585,
                3611,
                5690,
                3585,
                536,
                1190,
                3643,
                3556,
                1237,
                4103,
                3514,
                558,
                3588,
                548,
                3537,
                3455,
                2238,
                3480,
                3509,
                253,
                3590,
                3666,
                8088,
                3441,
                8316,
                578,
                409,
                3471,
                534,
                473,
                522,
                6555,
                3712,
                3563,
                3607,
                3567,
                3593,
                3500,
                470,
                6818,
                1345,
                128,
                3656,
                1670,
                464,
                3689,
                3624,
                496,
                7964,
                3558,
                222,
                374,
                287,
                338,
                437,
                2317,
                2582,
                2270,
                3591,
                3458,
                522,
                471,
                1894,
                3589,
                3540,
                3561,
                502,
                3626,
                444,
                3619,
                2327,
                487,
                3478,
                3581,
                423,
                438,
                208,
                1571,
                350,
                2275,
                461,
                2564,
                482,
                474,
                8026,
                1053,
                3565,
                3538,
                413,
                3607,
                3591,
                557,
                588,
                3624,
                3581,
                3714,
                3671,
                1254,
                3620,
                3649,
                3468,
                480,
                2321,
                520,
                3489,
                539,
                544,
                2694,
                1601,
                510,
                3559,
                656,
                3606,
                553,
                583,
                8082,
                609,
                460,
                3676,
                3063,
                2269,
                4324,
                529,
                3512,
                674,
                547,
                291,
                62,
                3631,
                3611,
                3864,
                101,
                3640,
                3633,
                494,
                602,
                3563,
                3544,
                3664,
                3553,
                3548,
                8143,
                238,
                449,
                3626,
                1174,
                469,
                3671,
                458,
                3593,
                1108,
                1134,
                8069,
                3590,
                8148,
                478,
                3418,
                3660,
                197,
                568,
                3517,
                471,
                282,
                557,
                791,
                51,
                1693,
                1160,
                1999,
                1846,
                3461,
                3543,
                8128,
                2648,
                328,
                2785,
                505,
                3861,
                1548,
                514,
                3521,
                510,
                3053,
                3604,
                3541,
                452,
                413,
                2505,
                579,
                3509,
                3508,
                1714,
                3620,
                1147,
                466,
                922,
                3497,
                3311,
                3645,
                4170,
                8037,
                499,
                1218,
                950,
                2347,
                3279,
                3490,
                531,
                37,
                1476,
                5173,
                3516,
                540,
                2144,
                440,
                5734,
                1703,
                1363,
                535,
                3737,
                557,
                3661,
                8430,
                3846,
                882,
                1996,
                6150,
                997,
                2866,
                3601,
                3573,
                472,
                3578,
                3618,
                3623,
                617,
                1495,
                3583,
                3578,
                1392,
                507,
                8177,
                355,
                8080,
                473,
                563,
                496,
                534,
                1534,
                3477,
                3493,
                451,
                3601,
                3671,
                485,
                3527,
                334,
                1980,
                531,
                3600,
                2490,
                3600,
                3762,
                8200,
                540,
                371,
                3623,
                1437,
                217,
                3557,
                477,
                477,
                3596,
                538,
                417,
                3587,
                521,
                3517,
                3511,
                4522,
                576,
                576,
                587,
                528,
                3453,
                8048,
                2378,
                450,
                1580,
                8218,
                3617,
                2979,
                1628,
                531,
                1882,
                546,
                2329,
                940,
                1828,
                1511,
                3660,
                1982,
                551,
                582,
                551,
                3476,
                491,
                127,
                565,
                409,
                517,
                457,
                7975,
                3630,
                2824,
                3753,
                3588,
                553,
                3053,
                245,
                2117,
                3607,
                232,
                548,
                3589,
                3174,
                530,
                3665,
                2391,
                465,
                4036,
                5673,
                1538,
                3611,
                412,
                564,
                1994,
                3513,
                3595,
                540,
                5535,
                453,
                449,
                519,
                1724,
                473,
                3562,
                3028,
                3143,
                3738,
                481,
                340,
                460,
                3648,
                3510,
                5787,
                350,
                525,
                3553,
                3547,
                203,
                3568,
                185,
                3606,
                3639,
                3606,
                3642,
                502,
                3666,
                540,
                166,
                844,
                469,
                3657,
                1740,
                3507,
                335,
                451,
                136,
                3559,
                3523,
                1049,
                502,
                3633,
                3731,
                3566,
                381,
                2050,
                1821,
                2273,
                1829,
                467,
                484,
                565,
                555,
                526,
                875,
                573,
                3698,
                3639,
                3643,
                1562,
                556,
                287,
                3568,
                1336,
                1972,
                496,
                1724,
                547,
                3491,
                2713,
                512,
                1339,
                499,
                1837,
                4454,
                1506,
                492,
                3546,
                8,
                3584,
                521,
                481,
                496,
                3640,
                301,
                1944,
                3486,
                359,
                589,
                1303,
                3642,
                3614,
                3635
            ]
        },
        "detections": 500,
        "events": 14753
    }
}