{
    "job_args": {
        "metric_limit": 500,
        "seed": 3464521854
    },
    "job_id": "batch_11_do_500",
    "result": {
        "collections": {
            "crystal": [
                0.29280947657818773,
                0.3560128888220983,
                0.15121349645868776,
                0.30285083031938215,
                0.35601288882209825,
                0.35601288882209836,
                0.35601288882209825,
                0.15123800679792643,
                0.3028508303193821,
                0.27639888506586413,
                0.3560128888220983,
                0.00798923995259665,
                0.3028508303193821,
                0.3028508303193821,
                0.383848504803609,
                0.05032888806776742,
                0.3560128888220983,
                0.35601288882209836,
                0.29967658784116075,
                0.18165838903393047,
                0.028501839739984852,
                0.35601288882209836,
                0.21233833777886646,
                0.08820240000000001,
                0.3560128888220983,
                0.07525,
                0.03440174779719596,
                0.35601288882209825,
                0.14038040295149537,
                0.35133867597134916,
                0.3028508303193821,
                0.0852354,
                0.2763988850658642,
                0.3028508303193821,
                0.3838485048036091,
                0.35601288882209825,
                0.328182179101106,
                0.3028508303193821,
                0.27639888506586413,
                0.19020566395653224,
                0.3560128888220983,
                0.3838485048036091,
                0.06485657651669974,
                0.3443464672726028,
                0.3560128888220983,
                0.3028508303193821,
                0.35601288882209836,
                0.35601288882209825,
                0.07303899999999999,
                0.35601288882209825,
                0.2220350029782673,
                0.27639888506586413,
                0.33183399456861407,
                0.08099787350132079,
                0.052388373501320785,
                0.07525,
                0.10299229022305717,
                0.05269137350132078,
                0.2430616460775284,
                0.11316952737181042,
                0.07525000000000001,
                0.35601288882209836,
                0.35601288882209825,
                0.3560128888220983,
                0.30285083031938215,
                0.35601288882209825,
                0.200258132043676,
                0.3560128888220983,
                0.3560128888220983,
                0.0847407,
                0.07525,
                0.35601288882209836,
                0.27965909502762903,
                0.3560128888220983,
                0.021321264078172697,
                0.35601288882209825,
                0.35601288882209825,
                0.27639888506586413,
                0.3028508303193821,
                0.35601288882209836,
                0.3560128888220983,
                0.35601288882209836,
                0.08099787350132077,
                0.35601288882209825,
                0.35601288882209836,
                0.3028508303193821,
                0.35601288882209825,
                0.07524999999999998,
                0.35601288882209825,
                0.35601288882209825,
                0.2843286362196435,
                0.3560128888220983,
                0.2763988850658642,
                0.3560128888220983,
                0.08099787350132077,
                0.3028508303193821,
                0.2783616979113625,
                0.3028508303193821,
                0.07524999999999998,
                0.19825162916068703,
                0.0809978735013208,
                0.3838485048036091,
                0.3560128888220983,
                0.3560128888220983,
                0.3560128888220984,
                0.33278572857838473,
                0.3560128888220983,
                0.3838485048036091,
                0.3028508303193821,
                0.3560128888220983,
                0.35601288882209825,
                0.35601288882209825,
                0.35601288882209836,
                0.38384850480360916,
                0.3028508303193821,
                0.3560128888220983,
                0.3028508303193821,
                0.3028508303193821,
                0.16817383685725867,
                0.3560128888220983,
                0.3560128888220983,
                0.06463213579158472,
                0.09374809936848688,
                0.3269253831689207,
                0.35601288882209825,
                0.4370107623234191,
                0.35601288882209825,
                0.27184181742298624,
                0.27774925370963155,
                0.3560128888220983,
                0.3560128888220983,
                0.16156647118139833,
                0.35601288882209825,
                0.08403847891227761,
                0.3560128888220983,
                0.3560128888220982,
                0.07525,
                0.35601288882209836,
                0.3560128888220983,
                0.3560128888220983,
                0.3560128888220983,
                0.3738817822170573,
                0.3028508303193821,
                0.3560128888220983,
                0.3560128888220983,
                0.35601288882209825,
                0.30651675151923957,
                0.38384850480360905,
                0.25301738466271,
                0.3560128888220983,
                0.22685300607242864,
                0.2657452679070334,
                0.3560128888220983,
                0.35601288882209836,
                0.2763988850658642,
                0.3838485048036091,
                0.3560128888220983,
                0.35601288882209825,
                0.30285083031938215,
                0.2668815998595124,
                0.35601288882209836,
                0.3028508303193821,
                0.27639888506586413,
                0.35601288882209825,
                0.3560128888220983,
                0.35601288882209825,
                0.04945657356537425,
                0.3028508303193821,
                0.35601288882209825,
                0.046219790706892194,
                0.29331771571900467,
                0.04939066249698537,
                0.3560128888220983,
                0.08099787350132079,
                0.2822896272758558,
                0.3560128888220983,
                0.3838485048036091,
                0.16278106605724793,
                0.35601288882209825,
                0.08099787350132079,
                0.3560128888220983,
                0.3560128888220983,
                0.35601288882209825,
                0.35601288882209825,
                0.3028508303193821,
                0.20385987190022764,
                0.38384850480360916,
                0.3028508303193821,
                0.35601288882209825,
                0.3560128888220983,
                0.35601288882209836,
                0.07524999999999998,
                0.35601288882209825,
                0.07303899999999999,
                0.1868517954786581,
                0.3028508303193821,
                0.073039,
                0.35601288882209825,
                0.31135907083371517,
                0.17537520958749653,
                0.35601288882209836,
                0.35601288882209836,
                0.3560128888220983,
                0.3560128888220983,
                0.27639888506586413,
                0.35601288882209825,
                0.27639888506586413,
                0.35601288882209836,
                0.35601288882209825,
                0.3118647234733949,
                0.19351029216359716,
                0.20467388234029854,
                0.296457332241983,
                0.3028508303193821,
                0.3560128888220983,
                0.004397486136339168,
                0.29311373317705885,
                0.30285083031938204,
                0.35601288882209825,
                0.16179144654414118,
                0.3560128888220983,
                0.3560128888220983,
                0.04127878691775222,
                0.10830173053777263,
                0.0809978735013208,
                0.05601811136035817,
                0.24575916784922863,
                0.30285083031938204,
                0.35601288882209836,
                0.35601288882209825,
                0.35601288882209825,
                0.18128688060910497,
                0.07961417521342577,
                0.35601288882209836,
                0.3560128888220983,
                0.06246279345126743,
                0.30285083031938215,
                0.3560128888220983,
                0.3838485048036091,
                0.08099787350132079,
                0.35601288882209825,
                0.21570993141454597,
                0.27639888506586413,
                0.3028508303193821,
                0.30285083031938204,
                0.35601288882209825,
                0.35601288882209836,
                0.35601288882209836,
                0.10146597220361603,
                0.35601288882209825,
                0.35601288882209836,
                0.0852354,
                0.3560128888220983,
                0.35601288882209825,
                0.3028508303193821,
                0.35601288882209825,
                0.3560128888220983,
                0.35601288882209825,
                0.3560128888220983,
                0.2763988850658642,
                0.07525,
                0.35601288882209825,
                0.3560128888220983,
                0.3560128888220983,
                0.07517083179650286,
                0.3027101990866661,
                0.35601288882209825,
                0.08099787350132079,
                0.15679951145839777,
                0.35601288882209836,
                0.16591050451986475,
                0.2956200160458303,
                0.3028508303193821,
                0.044429500000000004,
                0.3560128888220983,
                0.30285083031938215,
                0.35601288882209836,
                0.3560128888220983,
                0.38384850480360916,
                0.3274033888220983,
                0.2763988850658642,
                0.01270741653397306,
                0.35601288882209825,
                0.07937221436793068,
                0.35601288882209836,
                0.3560128888220983,
                0.2323397806379343,
                0.27639888506586413,
                0.3560128888220983,
                0.3560128888220983,
                0.08330080597285883,
                0.09076148623073388,
                0.35601288882209825,
                0.35601288882209825,
                0.08099787350132079,
                0.08099787350132079,
                0.05238837350132079,
                0.3028508303193821,
                0.3560128888220983,
                0.2863391871956227,
                0.07071496368813754,
                0.3028508303193821,
                0.08099787350132079,
                0.2763988850658641,
                0.35601288882209825,
                0.35601288882209825,
                0.30777692297840265,
                0.3838485048036091,
                0.08523539999999999,
                0.35601288882209836,
                0.2763988850658641,
                0.27255501118202174,
                0.09642420160767073,
                0.3838485048036092,
                0.08817910000000001,
                0.25428938654234345,
                0.35601288882209825,
                0.35601288882209825,
                0.07524999999999998,
                0.2588793670804954,
                0.3838485048036091,
                0.3560128888220982,
                0.3560128888220983,
                0.35601288882209825,
                0.3838485048036092,
                0.15181123848972117,
                0.30285083031938204,
                0.3838485048036091,
                0.3560128888220983,
                0.3560128888220983,
                0.3560128888220983,
                0.35601288882209836,
                0.08099787350132079,
                0.27639888506586413,
                0.3560128888220983,
                0.35601288882209836,
                0.08099787350132077,
                0.3560128888220983,
                0.38384850480360905,
                0.27639888506586413,
                0.3560128888220983,
                0.3560128888220983,
                0.06228390227350161,
                0.3560128888220983,
                0.35601288882209825,
                0.35601288882209825,
                0.35601288882209825,
                0.35601288882209836,
                0.35601288882209825,
                0.060728484952366754,
                0.04539418129670525,
                0.3028508303193821,
                0.26527595584327696,
                0.3560128888220983,
                0.35601288882209825,
                0.35601288882209836,
                0.07204131182174822,
                0.35601288882209825,
                0.35601288882209836,
                0.2043480131668346,
                0.03933850232378744,
                0.35601288882209825,
                0.07525000000000001,
                0.35601288882209825,
                0.35601288882209836,
                0.0276970318813885,
                0.30285083031938204,
                0.3028508303193821,
                0.07525,
                0.08099787350132079,
                0.07525000000000001,
                0.04442950000000001,
                0.3560128888220983,
                0.07525,
                0.3560128888220983,
                0.27639888506586413,
                0.07343867543278335,
                0.2763988850658642,
                0.38384850480360916,
                0.27639888506586413,
                0.0647834599422807,
                0.34348259224321853,
                0.32922389361547655,
                0.27639888506586413,
                0.3560128888220983,
                0.13982485136416895,
                0.2763988850658642,
                0.3028508303193821,
                0.16556507540066473,
                0.08523539999999999,
                0.1657724032324926,
                0.3560128888220983,
                0.35601288882209825,
                0.3560128888220983,
                0.0422202,
                0.2763988850658642,
                0.073039,
                0.35601288882209825,
                0.06409984031661525,
                0.35601288882209825,
                0.010217263721037486,
                0.38384850480360916,
                0.18317211506527123,
                0.3560128888220983,
                0.3028508303193821,
                0.08099787350132079,
                0.35601288882209836,
                0.38384850480360905,
                0.07525,
                0.35601288882209825,
                0.07360250484573011,
                0.08099787350132079,
                0.35601288882209836,
                0.35601288882209825,
                0.08099787350132079,
                0.3560128888220983,
                0.2763988850658641,
                0.3560128888220983,
                0.3560128888220983,
                0.3028508303193821,
                0.012753546467745625,
                0.05927325263970967,
                0.27639888506586413,
                0.30285083031938204,
                0.35601288882209825,
                0.006877345076213515,
                0.3838485048036091,
                0.3560128888220983,
                0.3560128888220983,
                0.35601288882209825,
                0.35601288882209836,
                0.3560128888220983,
                0.3560128888220983,
                0.24903106863935806,
                0.18103407763462837,
                0.35601288882209825,
                0.2561737915659794,
                0.28974227540622205,
                0.35601288882209825,
                0.3028508303193821,
                0.2763988850658642,
                0.35601288882209836,
                0.3560128888220983,
                0.3560128888220983,
                0.35601288882209825,
                0.2890938062949977,
                0.08099787350132079,
                0.07940336233477863,
                0.27639888506586413,
                0.3028508303193821,
                0.3560128888220983,
                0.35601288882209825,
                0.11860791997446088,
                0.0547027690990749,
                0.35601288882209825,
                0.35601288882209836,
                0.35601288882209825,
                0.22274344229487442,
                0.25591634786344,
                0.2763988850658641,
                0.2763988850658641,
                0.3560128888220983,
                0.3560128888220983,
                0.3560128888220983,
                0.1446480467933312,
                0.19585946267132762,
                0.3028508303193821,
                0.3028508303193821,
                0.3838485048036091,
                0.04128654231563484,
                0.3387569323011533,
                0.073039,
                0.00848312860121031,
                0.35601288882209836,
                0.3560128888220983,
                0.35601288882209836,
                0.08099787350132079,
                0.3560128888220983,
                0.35601288882209836,
                0.025525736833009238,
                0.10273459871072979,
                0.2763988850658641,
                0.07525000000000001,
                0.35601288882209836,
                0.3838485048036091,
                0.3028508303193821,
                0.35601288882209836,
                0.3560128888220983,
                0.2763988850658641,
                0.35601288882209825,
                0.2718006561176862,
                0.27639888506586413,
                0.237095302631753,
                0.17370822136589906,
                0.08099787350132079,
                0.3560128888220983,
                0.09591293062843595,
                0.35601288882209825,
                0.3838485048036091,
                0.13634821748434867
            ],
            "photocathode": [
                2113,
                2436,
                1081,
                2051,
                2465,
                2564,
                2423,
                1078,
                2128,
                1978,
                2444,
                58,
                2202,
                2108,
                2682,
                363,
                2564,
                2480,
                2031,
                1260,
                202,
                2455,
                1513,
                626,
                2444,
                507,
                252,
                2506,
                999,
                2489,
                2167,
                586,
                1891,
                2158,
                2669,
                2483,
                2316,
                2022,
                1912,
                1403,
                2493,
                2632,
                485,
                2452,
                2570,
                2155,
                2517,
                2441,
                546,
                2492,
                1579,
                1999,
                2405,
                532,
                398,
                493,
                671,
                395,
                1729,
                756,
                542,
                2342,
                2629,
                2470,
                2084,
                2441,
                1408,
                2561,
                2547,
                593,
                522,
                2564,
                1981,
                2410,
                163,
                2443,
                2417,
                1854,
                2219,
                2497,
                2380,
                2469,
                596,
                2523,
                2538,
                2118,
                2473,
                518,
                2556,
                2509,
                1977,
                2549,
                1937,
                2501,
                557,
                2122,
                1938,
                2059,
                553,
                1439,
                556,
                2684,
                2500,
                2479,
                2361,
                2420,
                2486,
                2608,
                2085,
                2516,
                2484,
                2511,
                2469,
                2602,
                2122,
                2492,
                2164,
                2084,
                1238,
                2544,
                2491,
                441,
                673,
                2328,
                2471,
                2994,
                2458,
                1982,
                1881,
                2472,
                2474,
                1099,
                2429,
                614,
                2467,
                2494,
                538,
                2492,
                2458,
                2488,
                2443,
                2488,
                2192,
                2436,
                2364,
                2472,
                2241,
                2792,
                1732,
                2479,
                1572,
                1894,
                2516,
                2431,
                1897,
                2700,
                2437,
                2421,
                2143,
                1899,
                2587,
                2083,
                1945,
                2470,
                2498,
                2446,
                368,
                2107,
                2476,
                331,
                2022,
                346,
                2485,
                552,
                1919,
                2489,
                2755,
                1189,
                2457,
                564,
                2545,
                2562,
                2665,
                2558,
                2178,
                1434,
                2687,
                2141,
                2571,
                2546,
                2518,
                527,
                2556,
                514,
                1318,
                2147,
                485,
                2586,
                2213,
                1259,
                2458,
                2475,
                2473,
                2546,
                1961,
                2452,
                1928,
                2512,
                2382,
                2139,
                1343,
                1378,
                2085,
                2186,
                2402,
                28,
                2020,
                2219,
                2511,
                1135,
                2476,
                2494,
                279,
                710,
                556,
                406,
                1753,
                2140,
                2548,
                2423,
                2469,
                1258,
                519,
                2460,
                2547,
                421,
                2152,
                2531,
                2726,
                545,
                2521,
                1557,
                1914,
                2190,
                2038,
                2427,
                2450,
                2472,
                718,
                2593,
                2498,
                634,
                2456,
                2549,
                2152,
                2425,
                2552,
                2504,
                2482,
                1955,
                548,
                2508,
                2396,
                2440,
                515,
                2151,
                2422,
                595,
                1092,
                2442,
                1173,
                2040,
                2072,
                320,
                2529,
                2163,
                2420,
                2608,
                2644,
                2333,
                1926,
                92,
                2459,
                531,
                2454,
                2564,
                1628,
                1911,
                2531,
                2437,
                587,
                615,
                2489,
                2476,
                575,
                571,
                375,
                2088,
                2416,
                1987,
                478,
                2146,
                554,
                1955,
                2502,
                2460,
                2241,
                2754,
                597,
                2405,
                1926,
                1902,
                686,
                2726,
                603,
                1763,
                2354,
                2475,
                535,
                1848,
                2672,
                2538,
                2396,
                2478,
                2756,
                1015,
                2126,
                2671,
                2498,
                2494,
                2546,
                2533,
                551,
                1957,
                2472,
                2468,
                524,
                2519,
                2675,
                1833,
                2531,
                2546,
                459,
                2466,
                2445,
                2490,
                2404,
                2448,
                2541,
                430,
                314,
                2147,
                1920,
                2410,
                2452,
                2484,
                476,
                2435,
                2495,
                1402,
                274,
                2367,
                478,
                2439,
                2588,
                189,
                2187,
                2012,
                565,
                576,
                518,
                295,
                2443,
                536,
                2428,
                1914,
                498,
                1939,
                2773,
                1961,
                415,
                2417,
                2257,
                1988,
                2506,
                921,
                1950,
                2079,
                1098,
                597,
                1169,
                2517,
                2504,
                2636,
                293,
                1891,
                525,
                2594,
                437,
                2466,
                67,
                2616,
                1298,
                2541,
                2149,
                498,
                2602,
                2624,
                513,
                2563,
                493,
                575,
                2390,
                2427,
                572,
                2495,
                1941,
                2540,
                2589,
                2143,
                71,
                406,
                1887,
                2170,
                2547,
                55,
                2754,
                2449,
                2453,
                2561,
                2499,
                2444,
                2366,
                1709,
                1273,
                2597,
                1789,
                1979,
                2512,
                2100,
                1941,
                2502,
                2447,
                2435,
                2435,
                2018,
                531,
                576,
                1947,
                2221,
                2501,
                2435,
                819,
                399,
                2519,
                2564,
                2491,
                1568,
                1784,
                1853,
                1898,
                2400,
                2491,
                2552,
                1012,
                1342,
                2044,
                2116,
                2787,
                301,
                2486,
                468,
                56,
                2538,
                2533,
                2448,
                556,
                2413,
                2523,
                187,
                746,
                1863,
                529,
                2479,
                2682,
                2070,
                2558,
                2506,
                1921,
                2465,
                1905,
                1959,
                1694,
                1208,
                567,
                2507,
                690,
                2512,
                2740,
                997
            ]
        },
        "detections": 500,
        "events": 131536
    }
}