{
    "job_args": {
        "metric_limit": 80,
        "seed": 3245584528
    },
    "job_id": "batch_9_do_80",
    "result": {
        "collections": {
            "crystal": [
                0.24641756309244794,
                0.3192289023343979,
                0.6616572831606166,
                0.06113451795229189,
                0.6616572831606167,
                0.6616572831606167,
                0.0815964214278558,
                0.1157172595613154,
                0.6616572831606166,
                0.41303674013692,
                0.4559164394999117,
                0.12517400080437047,
                0.21575542450522944,
                0.031818486489380994,
                0.17183806489453196,
                0.008085515223480656,
                0.13330532158742847,
                0.06841459453939205,
                0.6616572831606166,
                0.08074647112199862,
                0.20234989345331464,
                0.087534,
                0.3062091619228816,
                0.04442950000000001,
                0.6616572831606167,
                0.4645274983970927,
                0.21721463695694881,
                0.1557383872011724,
                0.08722394643705289,
                0.6616572831606166,
                0.18887992799470427,
                0.13599149410847655,
                0.6616572831606167,
                0.6616572831606166,
                0.6616572831606167,
                0.6616572831606166,
                0.37644133093990095,
                0.049960459429671755,
                0.44029838999464677,
                0.6616572831606167,
                0.022656320522031148,
                0.6616572831606164,
                0.6616572831606166,
                0.6616572831606166,
                0.6616572831606164,
                0.6616572831606166,
                0.6616572831606166,
                0.2731816554186373,
                0.09625697244637921,
                0.47735693509031796,
                0.0005694426456599455,
                0.42168267205297383,
                0.6616572831606166,
                0.3855192550586417,
                0.6616572831606167,
                0.6616572831606167,
                0.08995314308754628,
                0.6616572831606167,
                0.6616572831606167,
                0.6616572831606168,
                0.3592082397611098,
                0.07525,
                0.6292491032821292,
                0.52140230894964,
                0.3398169847186693,
                0.44571753005588355,
                0.07966388370710231,
                0.6616572831606166,
                0.6616572831606166,
                0.6616572831606166,
                0.6616572831606166,
                0.6616572831606166,
                0.6616572831606166,
                0.6616572831606164,
                0.03125151925806655,
                0.6616572831606167,
                0.6616572831606167,
                0.6616572831606164,
                0.04301319999999999,
                0.14234989804576337
            ]
        },
        "detections": 80,
        "events": 19727
    }
}