{
    "job_args": {
        "metric_limit": 300,
        "seed": 433836506
    },
    "job_id": "batch_94_do_300",
    "result": {
        "collections": {
            "crystal": [
                0.37306930358539797,
                0.26013892669098004,
                0.6616572831606167,
                0.15555414363716621,
                0.6616572831606166,
                0.23826344854333265,
                0.03039699581489197,
                0.6616572831606164,
                0.6616572831606167,
                0.2822946488256751,
                0.03220536401675851,
                0.6616572831606166,
                0.6616572831606166,
                0.6616572831606166,
                0.6616572831606167,
                0.6616572831606166,
                0.38484767466353886,
                0.6616572831606164,
                0.3406978167876872,
                0.6616572831606164,
                0.6616572831606166,
                0.6616572831606167,
                0.46172263144234477,
                0.6616572831606168,
                0.03181886732358546,
                0.03220580333898747,
                0.6616572831606167,
                0.25187026670645896,
                0.40802993109578367,
                0.2972559767466732,
                0.35567905351101287,
                0.45554897038427444,
                0.4387363228299366,
                0.6616572831606164,
                0.4620717818673031,
                0.6616572831606167,
                0.6616572831606164,
                0.6616572831606164,
                0.6616572831606166,
                0.6616572831606167,
                0.6616572831606166,
                0.31212336724886913,
                0.3359776175390637,
                0.25227345019360914,
                0.6616572831606166,
                0.6616572831606166,
                0.11117922656302104,
                0.6616572831606167,
                0.013442181359696914,
                0.032205515692772343,
                0.6616572831606166,
                0.6616572831606164,
                0.6616572831606164,
                0.6616572831606167,
                0.4313357213000239,
                0.6616572831606167,
                0.6616572831606166,
                0.6616572831606164,
                0.6616572831606164,
                0.6616572831606167,
                0.10779260907827598,
                0.09671610794877135,
                0.6616572831606164,
                0.6616572831606166,
                0.22167111701375392,
                0.13536686167515732,
                0.030014774201961605,
                0.6616572831606167,
                0.04638933641794894,
                0.36572872755627817,
                0.6616572831606164,
                0.16776975183238635,
                0.6329014980846419,
                0.6616572831606167,
                0.39551531842904797,
                0.6616572831606166,
                0.02292769161169065,
                0.18361353984469916,
                0.6616572831606166,
                0.032205394757285205,
                0.045683823834059945,
                0.350775156975846,
                0.6616572831606168,
                0.40555394371777076,
                0.6616572831606167,
                0.08815021172358063,
                0.6616572831606167,
                0.041171461103265104,
                0.6616572831606166,
                0.28490620087219226,
                0.03262775595130824,
                0.13212508658857175,
                0.6616572831606166,
                0.6616572831606166,
                0.6616572831606167,
                0.6616572831606167,
                0.6616572831606166,
                0.09300020240592798,
                0.6616572831606167,
                0.6616572831606167,
                0.28391348537278904,
                0.18895973552660159,
                0.6616572831606167,
                0.13615489722713944,
                0.6616572831606166,
                0.6616572831606166,
                0.6616572831606164,
                0.36829247764281425,
                0.6616572831606167,
                0.07746895779282059,
                0.6616572831606166,
                0.6616572831606167,
                0.6616572831606164,
                0.0346073739395744,
                0.4634028963293347,
                0.6616572831606166,
                0.04861637151122166,
                0.03181868437589492,
                0.6616572831606164,
                0.6616572831606164,
                0.3292267443576233,
                0.6616572831606167,
                0.6616572831606166,
                0.01656777406284048,
                0.6616572831606167,
                0.2748986708510139,
                0.6616572831606164,
                0.21316097566332642,
                0.25020786155451363,
                0.6616572831606166,
                0.6616572831606166,
                0.03220545972864609,
                0.032205575321042776,
                0.6616572831606166,
                0.6616572831606167,
                0.6616572831606166,
                0.6616572831606166,
                0.032205576503938786,
                0.14503827789581672,
                0.14556310302823264,
                0.6616572831606166,
                0.33041523700428954,
                0.16539907642559648,
                0.6616572831606166,
                0.08459382607747523,
                0.6616572831606166,
                0.6616572831606167,
                0.4908702467149042,
                0.6616572831606164,
                0.6616572831606166,
                0.4506910565085263,
                0.6616572831606164,
                0.045412966900469455,
                0.6616572831606166,
                0.6616572831606164,
                0.6616572831606166,
                0.6616572831606166,
                0.03220548349977754,
                0.31448690285442626,
                0.6616572831606166,
                0.6616572831606166,
                0.12956522372277476,
                0.6616572831606167,
                0.6616572831606166,
                0.14304400809435153,
                0.6616572831606166,
                0.28732939848238565,
                0.2490131294873066,
                0.2464377241512437,
                0.6616572831606164,
                0.06804667522757529,
                0.6616572831606164,
                0.6616572831606164,
                0.3981322448253041,
                0.6616572831606167,
                0.6616572831606164,
                0.6616572831606167,
                0.6616572831606164,
                0.6616572831606167,
                0.6616572831606166,
                0.29325211392856254,
                0.6616572831606167,
                0.6616572831606166,
                0.6616572831606164,
                0.6616572831606166,
                0.6616572831606166,
                0.6616572831606164,
                0.6616572831606166,
                0.3552501764870835,
                0.09861788776427322,
                0.6616572831606164,
                0.6616572831606166,
                0.6616572831606164,
                0.6616572831606166,
                0.2000340106844374,
                0.031818483300765955,
                0.12250589254696051,
                0.6616572831606166,
                0.34943528106712407,
                0.40065139931966137,
                0.6616572831606166,
                0.6616572831606168,
                0.6616572831606167,
                0.6616572831606166,
                0.6616572831606166,
                0.6616572831606166,
                0.6616572831606166,
                0.6616572831606167,
                0.6616572831606166,
                0.6616572831606166,
                0.6616572831606167,
                0.6616572831606166,
                0.13982286754124462,
                0.6616572831606167,
                0.02902453561397021,
                0.4768154170134944,
                0.6616572831606164,
                0.09943336800528646,
                0.6616572831606167,
                0.6616572831606166,
                0.6616572831606164,
                0.6616572831606167,
                0.03181844942769357,
                0.6616572831606166,
                0.43149013162687966,
                0.6616572831606166,
                0.6616572831606167,
                0.6616572831606166,
                0.6616572831606166,
                0.6616572831606164,
                0.07259569532869765,
                0.04558333269350395,
                0.6616572831606164,
                0.6616572831606167,
                0.35826681865766596,
                0.15027106621408642,
                0.22046725460871985,
                0.6616572831606164,
                0.031818658942608366,
                0.6616572831606166,
                0.6616572831606167,
                0.487931303654135,
                0.37045352696081507,
                0.25047169372094946,
                0.6616572831606167,
                0.032205464348325934,
                0.032205419376635444,
                0.15423429073649442,
                0.6616572831606167,
                0.4765027324642541,
                0.6616572831606167,
                0.03220544174280941,
                0.6616572831606167,
                0.6616572831606164,
                0.6616572831606167,
                0.6616572831606167,
                0.4463157238666372,
                0.178104490775347,
                0.6616572831606166,
                0.43182521270347457,
                0.6616572831606166,
                0.6616572831606164,
                0.22677331476753404,
                0.019763093698358977,
                0.6616572831606164,
                0.6616572831606166,
                0.6616572831606163,
                0.6616572831606168,
                0.6616572831606168,
                0.03181890323118099,
                0.6616572831606166,
                0.6616572831606164,
                0.6616572831606167,
                0.6616572831606164,
                0.03220560288592345,
                0.03220570352448108,
                0.3563165381989426,
                0.6616572831606166,
                0.03734697280670345,
                0.6616572831606166,
                0.4308192441591157,
                0.03181881901967305,
                0.06761546225580163,
                0.6616572831606166,
                0.6616572831606166,
                0.6616572831606166,
                0.6616572831606166,
                0.09819792262339799,
                0.6616572831606164,
                0.6616572831606164,
                0.6616572831606167,
                0.1870021167032476,
                0.6616572831606167,
                0.4383308236175131,
                0.41961059150397306,
                0.6616572831606166,
                0.6616572831606164,
                0.1217641954069025,
                0.03623919253273944,
                0.6616572831606168
            ]
        },
        "detections": 300,
        "events": 79518
    }
}