{
    "job_args": {
        "metric_limit": 300,
        "seed": 3414588912
    },
    "job_id": "batch_141_do_300",
    "result": {
        "collections": {
            "crystal": [
                0.032205772551898666,
                0.6616572831606166,
                0.6616572831606166,
                0.23865165949197173,
                0.032205549365047,
                0.6616572831606166,
                0.6616572831606164,
                0.6616572831606166,
                0.03181895256208514,
                0.6616572831606166,
                0.6616572831606167,
                0.6616572831606167,
                0.5937109821086999,
                0.6616572831606166,
                0.6616572831606166,
                0.04823422597825834,
                0.6616572831606166,
                0.032205677416401506,
                0.6616572831606167,
                0.18862045951112164,
                0.6616572831606166,
                0.6616572831606167,
                0.4549267384655051,
                0.6616572831606164,
                0.6616572831606166,
                0.6616572831606166,
                0.6616572831606168,
                0.15241685269280583,
                0.6616572831606167,
                0.22141280406519392,
                0.41958648011276123,
                0.6616572831606166,
                0.6616572831606166,
                0.45100425121129184,
                0.41727181848571354,
                0.6616572831606163,
                0.6616572831606164,
                0.35253155379757906,
                0.6616572831606166,
                0.0776293153839508,
                0.21331583485051464,
                0.6616572831606164,
                0.03220582793327941,
                0.6616572831606164,
                0.6616572831606167,
                0.07756151340046513,
                0.6616572831606167,
                0.21036686615796726,
                0.6616572831606164,
                0.6616572831606164,
                0.31940595322445053,
                0.6616572831606166,
                0.2684233953937958,
                0.6616572831606166,
                0.255886145102448,
                0.6616572831606166,
                0.03181874910159028,
                0.6616572831606166,
                0.26164541039455913,
                0.6616572831606166,
                0.1856620050050856,
                0.6616572831606166,
                0.27964038776030575,
                0.474237474799662,
                0.6616572831606166,
                0.6616572831606166,
                0.6616572831606166,
                0.6616572831606164,
                0.03220569757016204,
                0.6616572831606166,
                0.6616572831606167,
                0.6616572831606167,
                0.2373970793115221,
                0.6616572831606166,
                0.6616572831606164,
                0.6616572831606166,
                0.6616572831606167,
                0.031818902216922976,
                0.6616572831606166,
                0.6616572831606166,
                0.6616572831606164,
                0.14069273255693795,
                0.22966808617879653,
                0.3775013335042487,
                0.25580390061839775,
                0.042833146931804435,
                0.6616572831606164,
                0.41187708818632374,
                0.2815148492113162,
                0.6616572831606166,
                0.6616572831606166,
                0.03575993358588647,
                0.20912334439016558,
                0.6616572831606166,
                0.6616572831606166,
                0.6616572831606164,
                0.4526691221166135,
                0.04048408757327728,
                0.10568008002537634,
                0.6616572831606164,
                0.2869077054331259,
                0.6616572831606166,
                0.6616572831606166,
                0.6616572831606166,
                0.4008073405679571,
                0.6616572831606164,
                0.38173953577221165,
                0.03220574448800048,
                0.4013374688037915,
                0.6616572831606166,
                0.6616572831606166,
                0.6616572831606167,
                0.471236013991114,
                0.6616572831606166,
                0.6616572831606167,
                0.6616572831606164,
                0.3155723061470946,
                0.25861260387631774,
                0.6616572831606167,
                0.6616572831606166,
                0.6616572831606166,
                0.23997531680634998,
                0.6616572831606167,
                0.36258162048733134,
                0.6616572831606166,
                0.6616572831606166,
                0.356325174989013,
                0.6616572831606166,
                0.4213789998280461,
                0.03220555450563185,
                0.6616572831606166,
                0.3898151947280921,
                0.00567639278609787,
                0.03592580166871664,
                0.6616572831606166,
                0.6616572831606166,
                0.6616572831606168,
                0.6616572831606166,
                0.07574490507822315,
                0.6616572831606167,
                0.6616572831606167,
                0.6616572831606167,
                0.35743115512058876,
                0.4671731540474046,
                0.6616572831606164,
                0.6616572831606164,
                0.3911739063818145,
                0.6616572831606166,
                0.3633132587197419,
                0.032205500073099476,
                0.30831207383694426,
                0.6616572831606164,
                0.09411177052571038,
                0.1426569616440486,
                0.45616386410339027,
                0.6616572831606164,
                0.4444727836513216,
                0.3186497203040011,
                0.032205613578459094,
                0.20347637386631867,
                0.03181880800745249,
                0.6616572831606166,
                0.6616572831606164,
                0.1564307784060307,
                0.6616572831606166,
                0.6616572831606166,
                0.6616572831606167,
                0.09741252436675306,
                0.27505634436657583,
                0.6616572831606166,
                0.4370084389709912,
                0.03220569395922758,
                0.3988261796325341,
                0.6616572831606164,
                0.1663791985643339,
                0.6616572831606167,
                0.6616572831606166,
                0.6616572831606166,
                0.49769749917473455,
                0.08665918972663632,
                0.09997254454248003,
                0.6616572831606163,
                0.03724506279889306,
                0.6616572831606166,
                0.6616572831606167,
                0.22674413668993038,
                0.6616572831606166,
                0.38096285460231183,
                0.6616572831606166,
                0.2138231413775686,
                0.18684348532862102,
                0.03322809821948825,
                0.6616572831606164,
                0.3865233640177615,
                0.6616572831606167,
                0.24896741389528979,
                0.6616572831606166,
                0.6616572831606164,
                0.6616572831606164,
                0.009198532910497756,
                0.4388324978253628,
                0.13334469954173567,
                0.5996668537242164,
                0.6616572831606167,
                0.6616572831606167,
                0.032205501614270805,
                0.07597313776449173,
                0.03267088377462785,
                0.6616572831606162,
                0.11028165414072687,
                0.18158736268263842,
                0.6616572831606164,
                0.6616572831606166,
                0.6616572831606166,
                0.6616572831606166,
                0.6616572831606166,
                0.6616572831606166,
                0.6616572831606166,
                0.03181872981189364,
                0.23681605359867183,
                0.6616572831606164,
                0.03220542887921201,
                0.6616572831606164,
                0.03220575440349938,
                0.18545546764997042,
                0.045226499510150626,
                0.4595098471325843,
                0.6616572831606166,
                0.6616572831606166,
                0.26143115949747225,
                0.04711805085213465,
                0.03220583076170274,
                0.6103776580609039,
                0.6616572831606167,
                0.003728569220210405,
                0.6616572831606166,
                0.6616572831606164,
                0.6616572831606167,
                0.276755436383967,
                0.6616572831606167,
                0.18700325800059947,
                0.6616572831606164,
                0.28458665716098813,
                0.6616572831606164,
                0.6616572831606166,
                0.03631670455102139,
                0.6616572831606167,
                0.3275493280121958,
                0.6616572831606166,
                0.1484644456636614,
                0.008663735230727486,
                0.6616572831606166,
                0.6616572831606166,
                0.6616572831606166,
                0.6616572831606167,
                0.6616572831606166,
                0.42372927094627455,
                0.6616572831606166,
                0.31437776961379343,
                0.26002295607697956,
                0.43487437191829065,
                0.40611590758002836,
                0.6616572831606167,
                0.316810868365439,
                0.6616572831606164,
                0.11857826660752037,
                0.03631681131581124,
                0.6616572831606167,
                0.03181889790833413,
                0.4576688775107309,
                0.6616572831606167,
                0.6616572831606167,
                0.4464206590480863,
                0.6616572831606168,
                0.6616572831606164,
                0.6616572831606167,
                0.01121823365363353,
                0.6616572831606167,
                0.6616572831606166,
                0.6616572831606166,
                0.6616572831606164,
                0.03639222705532458,
                0.6616572831606167,
                0.6616572831606166,
                0.6616572831606164,
                0.6616572831606167,
                0.19308959139104476,
                0.3112648291512663,
                0.6616572831606166,
                0.20884032185251283,
                0.6616572831606166,
                0.21895842222722225,
                0.6616572831606164,
                0.03220562447393617,
                0.1901715196320876,
                0.35490982282933115,
                0.6616572831606166,
                0.6616572831606166,
                0.428829631751846,
                0.6616572831606166
            ]
        },
        "detections": 300,
        "events": 94529
    }
}