{
    "job_args": {
        "metric_limit": 300,
        "seed": 1194868864
    },
    "job_id": "batch_126_do_300",
    "result": {
        "collections": {
            "crystal": [
                0.6616572831606166,
                0.07202977317930502,
                0.17428976196109325,
                0.6616572831606166,
                0.6616572831606167,
                0.6616572831606166,
                0.2585884523350116,
                0.6616572831606164,
                0.6616572831606166,
                0.6616572831606167,
                0.6616572831606166,
                0.03181885788701094,
                0.6616572831606166,
                0.6616572831606169,
                0.6616572831606167,
                0.6616572831606166,
                0.19927530848570724,
                0.11411849508610011,
                0.6616572831606167,
                0.6616572831606166,
                0.6616572831606166,
                0.6616572831606163,
                0.6616572831606164,
                0.03220563132300762,
                0.6399812292404388,
                0.6616572831606166,
                0.11435911301857832,
                0.6616572831606166,
                0.6616572831606166,
                0.6616572831606167,
                0.20783756031245576,
                0.6616572831606166,
                0.6616572831606166,
                0.6616572831606167,
                0.3738784109312221,
                0.6616572831606164,
                0.6616572831606166,
                0.6616572831606167,
                0.43488832869818694,
                0.6616572831606163,
                0.6616572831606164,
                0.6616572831606166,
                0.6616572831606166,
                0.39017518722421163,
                0.6616572831606167,
                0.14469427475789085,
                0.5648948592739266,
                0.6616572831606164,
                0.6616572831606167,
                0.02564200302673704,
                0.12912021547140917,
                0.2205078077123555,
                0.16453233175412588,
                0.032205460075260955,
                0.08263176959832338,
                0.4313401131614095,
                0.03220559713781268,
                0.015917592918645817,
                0.6616572831606164,
                0.3550549703032797,
                0.6616572831606167,
                0.6616572831606166,
                0.6616572831606167,
                0.6616572831606167,
                0.6616572831606166,
                0.2673309918562937,
                0.4741234703068809,
                0.6616572831606166,
                0.6616572831606167,
                0.03220574717039179,
                0.6616572831606166,
                0.23477677866256555,
                0.6616572831606166,
                0.6616572831606166,
                0.09556684753382759,
                0.6616572831606167,
                0.32538230943539564,
                0.0024402598882504382,
                0.6616572831606164,
                0.6616572831606164,
                0.6616572831606167,
                0.6616572831606166,
                0.6616572831606166,
                0.6616572831606166,
                0.6616572831606167,
                0.6616572831606166,
                0.4070684642578446,
                0.6616572831606167,
                0.6616572831606164,
                0.6616572831606166,
                0.03631668277530207,
                0.24918465354114328,
                0.03322560879360677,
                0.37987436093113913,
                0.6616572831606166,
                0.4270032818318027,
                0.6616572831606164,
                0.333011027676074,
                0.08378081276274423,
                0.6616572831606164,
                0.6616572831606166,
                0.6616572831606167,
                0.6616572831606166,
                0.2980515179078418,
                0.4971118996042333,
                0.6616572831606166,
                0.6616572831606166,
                0.6616572831606167,
                0.03220554498865056,
                0.6616572831606166,
                0.6616572831606166,
                0.0318187401737973,
                0.6616572831606166,
                0.6616572831606166,
                0.2693845831575981,
                0.6616572831606164,
                0.013229270582809226,
                0.6616572831606164,
                0.09372783446814684,
                0.6616572831606167,
                0.03181847948373041,
                0.16704424845361288,
                0.1700681560972762,
                0.12801879091842883,
                0.34823753672849683,
                0.37890452063201946,
                0.5317491721751368,
                0.39137337655340054,
                0.007782567524150057,
                0.6616572831606167,
                0.3586470059184404,
                0.03196524258258967,
                0.6616572831606166,
                0.032205558219131805,
                0.6616572831606167,
                0.13997194368438737,
                0.3961752948798507,
                0.6616572831606166,
                0.032205530636997104,
                0.6616572831606166,
                0.6616572831606167,
                0.08619132849693123,
                0.29528113706832937,
                0.40278433932040514,
                0.19056106052231297,
                0.6616572831606166,
                0.6616572831606166,
                0.6616572831606166,
                0.14065429718322306,
                0.031818669829150666,
                0.6616572831606166,
                0.6616572831606164,
                0.4000562948494232,
                0.3508201604453663,
                0.6616572831606166,
                0.398219505954567,
                0.5719809084517855,
                0.4440866727357709,
                0.6616572831606164,
                0.32990198604542015,
                0.28029508200505304,
                0.6616572831606167,
                0.1405344122818877,
                0.6616572831606164,
                0.03593986877373845,
                0.09749460228464991,
                0.03220537327224831,
                0.6616572831606166,
                0.46619397573813615,
                0.6616572831606166,
                0.6616572831606167,
                0.6616572831606164,
                0.6616572831606167,
                0.1841151756916996,
                0.6616572831606167,
                0.17398705352874516,
                0.6616572831606167,
                0.19032860828284995,
                0.2052939216842976,
                0.01845992170656554,
                0.6616572831606167,
                0.07524446662846528,
                0.2441155141637986,
                0.031818878221034616,
                0.22537586726914655,
                0.6616572831606166,
                0.03639195022449035,
                0.41603529816642304,
                0.6616572831606164,
                0.6616572831606166,
                0.3707654947270451,
                0.6616572831606166,
                0.6616572831606166,
                0.04149076337958875,
                0.31950257116813285,
                0.6616572831606164,
                0.6616572831606164,
                0.6616572831606167,
                0.3916323260741964,
                0.6616572831606164,
                0.030749474160383816,
                0.4456938910447423,
                0.03220534713684844,
                0.15683300349197368,
                0.06866284489392063,
                0.4014103372838589,
                0.1652534001465646,
                0.6616572831606166,
                0.6616572831606167,
                0.031818566388354064,
                0.6616572831606167,
                0.6616572831606167,
                0.6616572831606166,
                0.6616572831606166,
                0.058710125101319885,
                0.6616572831606166,
                0.6616572831606166,
                0.6616572831606167,
                0.07969216998561326,
                0.5086547847802199,
                0.6616572831606164,
                0.6616572831606167,
                0.6616572831606164,
                0.6616572831606166,
                0.6616572831606166,
                0.1001994967217427,
                0.6616572831606166,
                0.6616572831606166,
                0.6616572831606164,
                0.6616572831606166,
                0.28407327891303924,
                0.6616572831606166,
                0.20500850391959372,
                0.6616572831606164,
                0.6616572831606166,
                0.6616572831606164,
                0.6616572831606166,
                0.13663676885718015,
                0.6616572831606164,
                0.6616572831606167,
                0.6616572831606166,
                0.6616572831606167,
                0.47883058959099734,
                0.6616572831606166,
                0.6616572831606164,
                0.6616572831606164,
                0.6616572831606166,
                0.31452424996026546,
                0.028825817580758785,
                0.15208046367555206,
                0.11224242089547831,
                0.2793512838774102,
                0.6616572831606164,
                0.3006135459783687,
                0.03181887883331376,
                0.6616572831606166,
                0.6616572831606167,
                0.4416853266893214,
                0.6616572831606167,
                0.08972386414638137,
                0.6616572831606166,
                0.6616572831606166,
                0.6616572831606164,
                0.6616572831606166,
                0.6616572831606166,
                0.6616572831606166,
                0.6616572831606166,
                0.17007500814340704,
                0.09306741187056203,
                0.23654731137087331,
                0.6330477831606166,
                0.15339406327976754,
                0.5188718677395014,
                0.6616572831606164,
                0.6616572831606166,
                0.6616572831606166,
                0.6616572831606166,
                0.6616572831606164,
                0.6616572831606166,
                0.30465694140923283,
                0.4765217541557179,
                0.6616572831606164,
                0.3894400063717789,
                0.6616572831606164,
                0.2838148182363667,
                0.45116522052267927,
                0.24503701374264558,
                0.6616572831606166,
                0.07609142468328421,
                0.6616572831606166,
                0.6616572831606166,
                0.34042941817547934,
                0.6616572831606164,
                0.6616572831606164,
                0.6616572831606166,
                0.6616572831606164,
                0.455005265297522,
                0.6616572831606167,
                0.6616572831606164,
                0.4323545488028815
            ]
        },
        "detections": 300,
        "events": 96515
    }
}