{
    "job_args": {
        "metric_limit": 300,
        "seed": 1189237717
    },
    "job_id": "batch_202_do_300",
    "result": {
        "collections": {
            "crystal": [
                0.6616572831606166,
                0.3855860688005713,
                0.6616572831606167,
                0.36777025686810566,
                0.04889012693576244,
                0.6616572831606167,
                0.6616572831606166,
                0.6616572831606166,
                0.0166387405467952,
                0.6616572831606167,
                0.2567827036337845,
                0.6616572831606164,
                0.18273588930477405,
                0.6616572831606166,
                0.6616572831606166,
                0.3090561395028524,
                0.6616572831606166,
                0.6616572831606164,
                0.2621988959926731,
                0.6616572831606166,
                0.48481078257389393,
                0.6616572831606167,
                0.6616572831606167,
                0.6616572831606166,
                0.4489695543123231,
                0.6616572831606166,
                0.6616572831606166,
                0.023916385997193344,
                0.6616572831606166,
                0.03220535672432882,
                0.011945652593811432,
                0.036466951862059845,
                0.6616572831606164,
                0.3074659333425652,
                0.4081106335815011,
                0.37602859254220267,
                0.6616572831606164,
                0.4762871068544516,
                0.6616572831606167,
                0.41314441641738486,
                0.6372075282197321,
                0.6616572831606164,
                0.5678703480980444,
                0.19355131075672571,
                0.6616572831606164,
                0.6616572831606167,
                0.032205417555661524,
                0.6616572831606166,
                0.6616572831606167,
                0.6616572831606167,
                0.6616572831606164,
                0.03168374926835843,
                0.6616572831606164,
                0.6616572831606167,
                0.11874621981839159,
                0.6616572831606166,
                0.6616572831606166,
                0.6616572831606166,
                0.6616572831606167,
                0.01053636238908034,
                0.2925741031278831,
                0.6616572831606167,
                0.6616572831606166,
                0.5443122821628497,
                0.0322058530774973,
                0.6616572831606167,
                0.19048230422630036,
                0.060586657491367185,
                0.6616572831606167,
                0.04602004074156137,
                0.6616572831606164,
                0.23155125757655862,
                0.6616572831606164,
                0.6616572831606167,
                0.6616572831606166,
                0.6616572831606167,
                0.6616572831606166,
                0.6616572831606166,
                0.32484662947279125,
                0.6616572831606164,
                0.6616572831606166,
                0.424597982476529,
                0.6616572831606166,
                0.21293672491500973,
                0.03181854477718466,
                0.6616572831606166,
                0.6616572831606166,
                0.6616572831606164,
                0.09201752911288565,
                0.6616572831606167,
                0.18991260635296625,
                0.03220570977566806,
                0.6616572831606164,
                0.37997961789412066,
                0.6616572831606166,
                0.03220558220621259,
                0.30220887763111814,
                0.15638405640707895,
                0.6616572831606166,
                0.1716215725163202,
                0.3254384392550498,
                0.22016227168466457,
                0.16649111987797816,
                0.6616572831606166,
                0.15860001421159364,
                0.6616572831606166,
                0.6616572831606167,
                0.6616572831606166,
                0.6616572831606167,
                0.27016475544223467,
                0.0322056273012477,
                0.6616572831606166,
                0.3386471180558939,
                0.040425789816689796,
                0.1260133613926224,
                0.03220560515390318,
                0.22119380278967074,
                0.03220579249028496,
                0.6616572831606166,
                0.6616572831606166,
                0.6616572831606167,
                0.03220535466152243,
                0.6616572831606166,
                0.3125315970742607,
                0.6616572831606166,
                0.6616572831606166,
                0.6616572831606164,
                0.06073342167918076,
                0.39656431672954295,
                0.3047124727347037,
                0.6616572831606164,
                0.6616572831606166,
                0.6616572831606167,
                0.10304950510178729,
                0.06732988143684873,
                0.6616572831606167,
                0.03181849749935694,
                0.6616572831606166,
                0.6616572831606167,
                0.6616572831606164,
                0.6616572831606166,
                0.6616572831606167,
                0.6616572831606167,
                0.6616572831606166,
                0.6616572831606164,
                0.6616572831606167,
                0.6616572831606166,
                0.6616572831606166,
                0.031818830869472264,
                0.6616572831606167,
                0.6616572831606167,
                0.6616572831606166,
                0.5932902397199245,
                0.6616572831606167,
                0.6616572831606164,
                0.6239008120805124,
                0.6616572831606164,
                0.047089653031292616,
                0.6616572831606167,
                0.28102009068162553,
                0.20500738616500422,
                0.6616572831606167,
                0.6616572831606166,
                0.031818694382681714,
                0.03220551997173721,
                0.1401875651488432,
                0.03137477186502099,
                0.6616572831606163,
                0.6616572831606167,
                0.4076057980729328,
                0.6616572831606164,
                0.6616572831606164,
                0.43341060680826954,
                0.3941781705925846,
                0.5622297528939233,
                0.6616572831606167,
                0.6616572831606166,
                0.6616572831606166,
                0.6616572831606164,
                0.6616572831606166,
                0.19144561660359452,
                0.22896533645456177,
                0.0322055782486527,
                0.1375372651594048,
                0.6616572831606167,
                0.6616572831606164,
                0.6616572831606164,
                0.6616572831606166,
                0.6616572831606166,
                0.03220552251864215,
                0.09225537885858515,
                0.23540950384491827,
                0.03639210195664142,
                0.40264796653750357,
                0.6616572831606166,
                0.6616572831606167,
                0.6616572831606166,
                0.6616572831606164,
                0.6616572831606166,
                0.6616572831606164,
                0.4424852989721435,
                0.6616572831606166,
                0.2660103412946179,
                0.6616572831606167,
                0.6616572831606164,
                0.3266431589490917,
                0.032205449208964454,
                0.6616572831606164,
                0.6616572831606166,
                0.3915818911406951,
                0.09926577653974318,
                0.6616572831606166,
                0.036316843088714384,
                0.6616572831606166,
                0.032205475785169364,
                0.6616572831606166,
                0.6616572831606166,
                0.6616572831606167,
                0.6616572831606164,
                0.6616572831606164,
                0.6616572831606166,
                0.6616572831606166,
                0.0322057742597754,
                0.6616572831606166,
                0.6616572831606166,
                0.44294239997022655,
                0.18963789051428984,
                0.03181893039099008,
                0.6616572831606164,
                0.6616572831606168,
                0.07626078345011578,
                0.3639622876624379,
                0.6616572831606166,
                0.6616572831606166,
                0.3560512379124962,
                0.02683146197467588,
                0.4556643619920367,
                0.3552899666683135,
                0.6616572831606167,
                0.3749856131914553,
                0.6616572831606167,
                0.6616572831606166,
                0.6616572831606166,
                0.6616572831606166,
                0.6616572831606164,
                0.6616572831606164,
                0.6616572831606166,
                0.6616572831606167,
                0.4159909955060476,
                0.6616572831606166,
                0.6616572831606164,
                0.03220557341762144,
                0.6616572831606164,
                0.13840440699049153,
                0.6616572831606164,
                0.6616572831606167,
                0.6616572831606164,
                0.6616572831606167,
                0.6616572831606166,
                0.25120137510180285,
                0.6616572831606166,
                0.6616572831606166,
                0.6616572831606166,
                0.6616572831606166,
                0.1887113892903302,
                0.6616572831606166,
                0.34408673740115653,
                0.2637615511920315,
                0.21698444926856725,
                0.28833240804036897,
                0.6616572831606167,
                0.4589812875616587,
                0.6616572831606166,
                0.6616572831606167,
                0.03181871889559708,
                0.032205771185045376,
                0.6616572831606166,
                0.6616572831606166,
                0.6616572831606166,
                0.03220535215138327,
                0.6616572831606166,
                0.032205772178137075,
                0.6616572831606166,
                0.6616572831606166,
                0.054133507418507885,
                0.6616572831606167,
                0.6616572831606166,
                0.08196497557553824,
                0.12272292264035486,
                0.43114974039736725,
                0.3197627075666701,
                0.6616572831606166,
                0.3726511052652079,
                0.6616572831606167,
                0.42707113112500494,
                0.4013641179395045,
                0.401239793219349,
                0.6616572831606166,
                0.6616572831606167,
                0.2562107702919296
            ]
        },
        "detections": 300,
        "events": 78291
    }
}