{
    "job_args": {
        "metric_limit": 300,
        "seed": 2760378703
    },
    "job_id": "batch_198_do_300",
    "result": {
        "collections": {
            "crystal": [
                0.4206686586992847,
                0.2228412039597477,
                0.6616572831606164,
                0.031818676125595434,
                0.034156076210009725,
                0.6616572831606167,
                0.42201879354762234,
                0.33680086640577656,
                0.11322936008657088,
                0.6616572831606166,
                0.6616572831606166,
                0.6616572831606167,
                0.6616572831606164,
                0.6616572831606166,
                0.6616572831606167,
                0.46683500442063275,
                0.6616572831606164,
                0.4444941279914291,
                0.4013883930153099,
                0.6616572831606166,
                0.0372603302313426,
                0.6616572831606167,
                0.03220545922857797,
                0.11977427308193395,
                0.6616572831606166,
                0.6616572831606166,
                0.6616572831606166,
                0.10447289004678391,
                0.38781791345741884,
                0.6616572831606167,
                0.522049378993985,
                0.6616572831606167,
                0.6616572831606166,
                0.14420534991936676,
                0.6616572831606166,
                0.4627371154082369,
                0.13349537596500405,
                0.6330477831606165,
                0.12342651687532186,
                0.46313916387572257,
                0.05106484965228691,
                0.45612067889743374,
                0.2812823034157696,
                0.038894857180918625,
                0.6616572831606166,
                0.6616572831606164,
                0.4367836300166553,
                0.0017206239274560474,
                0.4889284748286485,
                0.6616572831606164,
                0.03220534647180625,
                0.47798885544529623,
                0.47084586737002676,
                0.4298688004505347,
                0.6616572831606166,
                0.6616572831606166,
                0.6616572831606166,
                0.6616572831606164,
                0.035239554292972715,
                0.03181882387743729,
                0.6616572831606167,
                0.6616572831606166,
                0.2391389886863981,
                0.6616572831606164,
                0.6616572831606167,
                0.29661459866246465,
                0.6616572831606164,
                0.6616572831606167,
                0.6616572831606166,
                0.6616572831606167,
                0.6616572831606164,
                0.6616572831606166,
                0.6616572831606164,
                0.6616572831606166,
                0.4184924475569347,
                0.6616572831606164,
                0.6616572831606166,
                0.6616572831606166,
                0.6616572831606166,
                0.6616572831606166,
                0.6616572831606167,
                0.6616572831606166,
                0.20905059114431357,
                0.6616572831606164,
                0.08091083349462902,
                0.09875238232968576,
                0.4677203306442439,
                0.5025637691715751,
                0.23430899093675892,
                0.6616572831606167,
                0.2173474621834205,
                0.6616572831606166,
                0.01647838202756174,
                0.6616572831606167,
                0.6616572831606168,
                0.6616572831606167,
                0.12452937198874878,
                0.38405989612527347,
                0.6616572831606166,
                0.3772324913128112,
                0.6616572831606164,
                0.6616572831606166,
                0.12236734396886172,
                0.03220544625262632,
                0.23180232093747322,
                0.4164917362129612,
                0.6616572831606166,
                0.6616572831606167,
                0.6616572831606166,
                0.6616572831606164,
                0.1354184614220672,
                0.6616572831606168,
                0.2770182102026446,
                0.6616572831606164,
                0.6616572831606166,
                0.6616572831606166,
                0.6616572831606166,
                0.6616572831606166,
                0.6616572831606164,
                0.6616572831606166,
                0.6616572831606166,
                0.6616572831606164,
                0.6616572831606166,
                0.6616572831606167,
                0.009917841322207726,
                0.6616572831606166,
                0.6616572831606164,
                0.6616572831606167,
                0.42601657960607775,
                0.6616572831606166,
                0.6616572831606166,
                0.17101193045875823,
                0.3635424789298651,
                0.16696577981366542,
                0.13748513371861096,
                0.3407496062626803,
                0.6616572831606166,
                0.6616572831606167,
                0.6616572831606166,
                0.6616572831606167,
                0.0322057920329924,
                0.6616572831606166,
                0.023970271585419266,
                0.03220545535588519,
                0.19460733608139213,
                0.13031391040754284,
                0.3229751371839189,
                0.6616572831606166,
                0.6616572831606166,
                0.6616572831606166,
                0.4197335527373939,
                0.03181870730137603,
                0.032205437931965605,
                0.6616572831606164,
                0.4159987250277346,
                0.020051902721732896,
                0.11963802109561489,
                0.6616572831606164,
                0.6616572831606167,
                0.6616572831606167,
                0.6616572831606167,
                0.6616572831606166,
                0.41968349382145,
                0.6616572831606169,
                0.6616572831606166,
                0.24936375074863426,
                0.6616572831606166,
                0.5287811001057623,
                0.031818937290287244,
                0.03220544335039708,
                0.43329852880949493,
                0.6616572831606164,
                0.4458737402494137,
                0.6616572831606164,
                0.03220536321321419,
                0.6616572831606166,
                0.6616572831606167,
                0.6616572831606166,
                0.06833205805149103,
                0.40295484036839274,
                0.6616572831606166,
                0.6616572831606167,
                0.18832828663608542,
                0.17959355926823994,
                0.6616572831606166,
                0.4773703130279246,
                0.3299375900354543,
                0.6616572831606167,
                0.6616572831606164,
                0.31009806865869716,
                0.0699119090907149,
                0.6616572831606166,
                0.6616572831606166,
                0.4081130089307998,
                0.6616572831606167,
                0.4641961050879958,
                0.6616572831606167,
                0.6616572831606166,
                0.22131216473029772,
                0.21776718970282924,
                0.2172014671762667,
                0.38217909177566683,
                0.032205770029357754,
                0.6616572831606164,
                0.6616572831606166,
                0.6616572831606167,
                0.6616572831606166,
                0.2371044489696672,
                0.6616572831606166,
                0.4020976578222561,
                0.1626531126751526,
                0.6616572831606166,
                0.008010320186706818,
                0.342611044462629,
                0.6616572831606164,
                0.23471137246662271,
                0.6616572831606166,
                0.2164112940477857,
                0.5219405628497242,
                0.2929035704090577,
                0.5641319857488216,
                0.1896886050317949,
                0.13465908884208194,
                0.24258168515746859,
                0.6616572831606167,
                0.6616572831606164,
                0.02582240056677475,
                0.6616572831606167,
                0.03181852443195093,
                0.03181870668116113,
                0.6616572831606167,
                0.4200038668072803,
                0.38263983394690987,
                0.6616572831606164,
                0.24243134455491414,
                0.08277304370714449,
                0.26935811212007965,
                0.6616572831606167,
                0.6616572831606166,
                0.6616572831606166,
                0.6616572831606164,
                0.6616572831606166,
                0.2808090805544198,
                0.6616572831606167,
                0.6616572831606164,
                0.6616572831606166,
                0.04473504615737983,
                0.31982850385571016,
                0.6616572831606166,
                0.6616572831606164,
                0.6616572831606167,
                0.03220576240623892,
                0.6616572831606164,
                0.6616572831606166,
                0.2625003826963118,
                0.6616572831606166,
                0.441315850847763,
                0.6616572831606164,
                0.0618588485866746,
                0.18103305494991445,
                0.6330477831606166,
                0.21438042425703588,
                0.6616572831606167,
                0.42333019284824175,
                0.16221093176977397,
                0.06955377336330099,
                0.6616572831606166,
                0.07721009816434184,
                0.18961865092957775,
                0.6616572831606166,
                0.6616572831606167,
                0.12704074439905277,
                0.04974020909227249,
                0.6616572831606167,
                0.03755827032191767,
                0.6616572831606166,
                0.6616572831606167,
                0.6616572831606166,
                0.26938442832431586,
                0.6616572831606166,
                0.6616572831606164,
                0.3744451996739798,
                0.12389201960748591,
                0.02103905969242899,
                0.6616572831606166,
                0.6616572831606166,
                0.6616572831606164,
                0.6616572831606166,
                0.04099996298778551,
                0.6616572831606166,
                0.6616572831606167,
                0.6616572831606166,
                0.20092171331040767,
                0.6616572831606164,
                0.03220537460649443,
                0.6616572831606166,
                0.6616572831606166,
                0.6616572831606167,
                0.4529625283482272,
                0.1089506123911736
            ]
        },
        "detections": 300,
        "events": 87403
    }
}