{
    "job_args": {
        "metric_limit": 300,
        "seed": 645265017
    },
    "job_id": "batch_177_do_300",
    "result": {
        "collections": {
            "crystal": [
                0.6616572831606164,
                0.036156698319911085,
                0.6616572831606166,
                0.05430979896818726,
                0.03639209754583554,
                0.15930758584449428,
                0.6616572831606166,
                0.08200723579494953,
                0.6616572831606167,
                0.6616572831606164,
                0.3791172245641343,
                0.6616572831606164,
                0.11410439214904448,
                0.10734082994927235,
                0.20800756461259853,
                0.6616572831606166,
                0.4591218361225353,
                0.24184148189299873,
                0.6616572831606166,
                0.6616572831606164,
                0.032205505639473206,
                0.6616572831606167,
                0.06235024818931679,
                0.5720226645164734,
                0.6616572831606166,
                0.6616572831606166,
                0.15935058061659416,
                0.6616572831606166,
                0.001656847204232065,
                0.6616572831606164,
                0.3666540131479428,
                0.6616572831606164,
                0.6616572831606164,
                0.03220582569863689,
                0.6616572831606167,
                0.6616572831606164,
                0.6616572831606166,
                0.19666360530143012,
                0.031818920977960435,
                0.03220557254435271,
                0.4266194720671297,
                0.032205709059997686,
                0.6616572831606166,
                0.6616572831606164,
                0.6616572831606163,
                0.1427384075556609,
                0.03500457558430257,
                0.4708761647822202,
                0.6616572831606167,
                0.031818781990261474,
                0.6616572831606166,
                0.6616572831606164,
                0.6616572831606164,
                0.03220577219693265,
                0.6616572831606166,
                0.18738486253873715,
                0.23101316043657805,
                0.3620204634029445,
                0.3915195380505051,
                0.6616572831606164,
                0.6616572831606167,
                0.03181880670131919,
                0.6616572831606167,
                0.2518381092228462,
                0.6616572831606166,
                0.17803876032466265,
                0.031818903130082114,
                0.6616572831606166,
                0.4702947173383084,
                0.2613112390674393,
                0.39083137153237135,
                0.25487749845997426,
                0.6616572831606167,
                0.032205554438504584,
                0.6616572831606164,
                0.6616572831606166,
                0.16121787625694317,
                0.6616572831606167,
                0.6616572831606167,
                0.38721777323165585,
                0.10201375999214365,
                0.6616572831606166,
                0.6616572831606166,
                0.031818682956448116,
                0.32214380555610705,
                0.031818616783038774,
                0.6616572831606166,
                0.03181871253980695,
                0.3920368291141217,
                0.13482398727789494,
                0.07590492649401015,
                0.6616572831606167,
                0.1786844634300362,
                0.6616572831606167,
                0.06996015175130661,
                0.6616572831606167,
                0.45742060778909877,
                0.6616572831606167,
                0.6616572831606167,
                0.007782447980899738,
                0.6616572831606166,
                0.5163309104160286,
                0.6616572831606167,
                0.16644260567592972,
                0.6616572831606166,
                0.032205548938640735,
                0.6616572831606167,
                0.33797319175774776,
                0.3002980059624168,
                0.029070363064372606,
                0.6616572831606166,
                0.2775354226924457,
                0.6616572831606167,
                0.6616572831606167,
                0.6616572831606166,
                0.6616572831606164,
                0.25534343810117066,
                0.6616572831606164,
                0.21695455277944128,
                0.6616572831606167,
                0.6616572831606166,
                0.10245277596408249,
                0.10786353126388945,
                0.6616572831606164,
                0.6616572831606164,
                0.6616572831606167,
                0.007215732160964603,
                0.6616572831606167,
                0.44813200064673053,
                0.6616572831606166,
                0.22851634965566064,
                0.6616572831606166,
                0.6616572831606166,
                0.03181856114485653,
                0.06384353466680845,
                0.011699633799182721,
                0.6616572831606164,
                0.45132338482182516,
                0.6616572831606166,
                0.33850805964960223,
                0.6616572831606164,
                0.6616572831606167,
                0.6616572831606167,
                0.6616572831606166,
                0.27621749658296385,
                0.6616572831606163,
                0.4175999603981901,
                0.33223741702569637,
                0.6616572831606164,
                0.40571512647189384,
                0.031818729917537245,
                0.28529798004968604,
                0.4418346053327719,
                0.6293630831606164,
                0.0871245434839723,
                0.3767054088091651,
                0.1653540085201237,
                0.425344390759941,
                0.6616572831606168,
                0.03220564751852365,
                0.19143904206734996,
                0.6616572831606166,
                0.6616572831606167,
                0.24650775749735127,
                0.6616572831606166,
                0.4872371464910614,
                0.6616572831606166,
                0.032205645753621955,
                0.03220551747320626,
                0.6616572831606166,
                0.6616572831606166,
                0.041001116497597814,
                0.6616572831606164,
                0.008085263702775923,
                0.6616572831606166,
                0.6616572831606166,
                0.4490381273246416,
                0.6616572831606166,
                0.06844639365306537,
                0.6616572831606166,
                0.44855222384615245,
                0.6616572831606166,
                0.0322056452642543,
                0.6616572831606166,
                0.47009721671174953,
                0.6616572831606166,
                0.10045925242493023,
                0.6616572831606166,
                0.6616572831606164,
                0.41370135102922323,
                0.4258031907998715,
                0.31288909314247243,
                0.2408954495548501,
                0.23366664177934063,
                0.6336841049667374,
                0.07130102694496888,
                0.6616572831606166,
                0.6616572831606164,
                0.6616572831606166,
                0.031352658246897494,
                0.6616572831606164,
                0.6616572831606166,
                0.3902434149589199,
                0.6616572831606162,
                0.6616572831606164,
                0.26365833385239407,
                0.6616572831606164,
                0.0318187658382858,
                0.6616572831606167,
                0.03181876983180462,
                0.6616572831606166,
                0.3749612717554885,
                0.6616572831606166,
                0.3042566158823016,
                0.45769947470505107,
                0.6616572831606167,
                0.6616572831606166,
                0.13361647968861667,
                0.6616572831606167,
                0.031818857467551996,
                0.6616572831606164,
                0.6616572831606167,
                0.4274841760860595,
                0.6616572831606166,
                0.03181863325064803,
                0.23217680961526996,
                0.6616572831606166,
                0.6616572831606166,
                0.6616572831606167,
                0.6616572831606164,
                0.02996118998786385,
                0.6616572831606164,
                0.18783796570072675,
                0.23696610721163391,
                0.6616572831606167,
                0.6616572831606167,
                0.6616572831606166,
                0.6616572831606167,
                0.12773282871757835,
                0.6616572831606167,
                0.6616572831606166,
                0.6616572831606167,
                0.6616572831606166,
                0.6616572831606164,
                0.39437537626768987,
                0.6616572831606164,
                0.13889760033244833,
                0.03639196916473265,
                0.6616572831606166,
                0.6616572831606166,
                0.6616572831606167,
                0.6616572831606164,
                0.6616572831606166,
                0.032205729697473304,
                0.1662209173131126,
                0.6616572831606167,
                0.6616572831606167,
                0.03220571465548257,
                0.021144896666884155,
                0.24043780958261204,
                0.6616572831606167,
                0.41073055695183036,
                0.6616572831606164,
                0.6616572831606166,
                0.6616572831606167,
                0.6616572831606167,
                0.6616572831606166,
                0.6616572831606164,
                0.12847977857472853,
                0.38732105474297435,
                0.6616572831606167,
                0.6616572831606166,
                0.03181869704770255,
                0.6616572831606166,
                0.6616572831606168,
                0.6616572831606167,
                0.6616572831606164,
                0.6616572831606166,
                0.33303655396676707,
                0.29907602239647735,
                0.42376495113858215,
                0.3718369716585598,
                0.257746902446992,
                0.6616572831606164,
                0.07399246501121574,
                0.14744354433764217,
                0.6616572831606164,
                0.6616572831606166,
                0.03220581040896266,
                0.6616572831606166,
                0.03220552848795396,
                0.6616572831606167,
                0.46256855905735067,
                0.6616572831606166,
                0.6616572831606164,
                0.46718786137176593,
                0.6616572831606167,
                0.6616572831606166,
                0.6616572831606166,
                0.26386449345742724
            ]
        },
        "detections": 300,
        "events": 74747
    }
}