{
    "job_args": {
        "metric_limit": 300,
        "seed": 2517169832
    },
    "job_id": "batch_261_do_300",
    "result": {
        "collections": {
            "crystal": [
                0.6616572831606164,
                0.6616572831606167,
                0.6616572831606167,
                0.08804900181888022,
                0.18801234509880416,
                0.6616572831606167,
                0.2297057626376223,
                0.6616572831606167,
                0.6616572831606167,
                0.029818669737255263,
                0.0322058373612222,
                0.3117138930364349,
                0.6616572831606166,
                0.0446105377594976,
                0.3222737972196784,
                0.08296359823709541,
                0.03220552588325477,
                0.6616572831606166,
                0.15333199753991134,
                0.39682184255657516,
                0.6616572831606164,
                0.6616572831606167,
                0.6616572831606166,
                0.6616572831606164,
                0.6616572831606164,
                0.6616572831606164,
                0.6616572831606166,
                0.6616572831606164,
                0.027355331220878073,
                0.6616572831606166,
                0.1891307599132377,
                0.48649419860556536,
                0.2888482051175669,
                0.33455797582345875,
                0.6616572831606166,
                0.6616572831606167,
                0.6616572831606164,
                0.19548550672626494,
                0.01666414328712891,
                0.3968286061374876,
                0.45423564567304386,
                0.033105548307251965,
                0.3545506383499219,
                0.6616572831606166,
                0.020225160733398983,
                0.6616572831606167,
                0.43825760429223726,
                0.4289000082139851,
                0.6616572831606166,
                0.6616572831606166,
                0.6616572831606166,
                0.6616572831606166,
                0.6616572831606167,
                0.1166692119822373,
                0.4468430361652265,
                0.6616572831606164,
                0.6616572831606167,
                0.39623969711021373,
                0.45920758013888774,
                0.6616572831606166,
                0.6616572831606166,
                0.4238980705811645,
                0.03726082456918571,
                0.37113311563267715,
                0.3326616173794674,
                0.6616572831606166,
                0.6616572831606164,
                0.6616572831606166,
                0.04343255538263258,
                0.6616572831606164,
                0.6616572831606164,
                0.0318186589191301,
                0.16761331061912077,
                0.413981754064351,
                0.6616572831606164,
                0.036316669693122354,
                0.44085017487453226,
                0.6616572831606166,
                0.6616572831606164,
                0.6616572831606164,
                0.2424158200606163,
                0.6616572831606164,
                0.18908618698331775,
                0.4903048082178186,
                0.6616572831606167,
                0.49322850710041066,
                0.6616572831606166,
                0.6616572831606166,
                0.6616572831606166,
                0.6616572831606167,
                0.4368965418799241,
                0.5692127769659571,
                0.3782878474119244,
                0.6616572831606166,
                0.6616572831606164,
                0.3746836446657369,
                0.6616572831606164,
                0.25525036971766724,
                0.6616572831606166,
                0.6616572831606167,
                0.0318186198192587,
                0.6616572831606166,
                0.6616572831606166,
                0.4588104809374506,
                0.03181870442313061,
                0.036392035349614306,
                0.6616572831606164,
                0.6616572831606166,
                0.0900471658370882,
                0.6616572831606166,
                0.19323424746460532,
                0.6616572831606164,
                0.6616572831606167,
                0.27261685877594666,
                0.6616572831606166,
                0.6616572831606167,
                0.6616572831606167,
                0.6616572831606167,
                0.004607210079858683,
                0.4583485922778131,
                0.6616572831606166,
                0.6616572831606164,
                0.03639177075884177,
                0.6616572831606166,
                0.33345150569728566,
                0.6616572831606166,
                0.3898448105172314,
                0.053215900642796424,
                0.6616572831606167,
                0.036391938874496585,
                0.6616572831606166,
                0.032205528408442895,
                0.6616572831606166,
                0.6616572831606166,
                0.6616572831606164,
                0.10576828652285927,
                0.6616572831606167,
                0.08934402210481607,
                0.6616572831606164,
                0.3847205644761413,
                0.032205467169102935,
                0.4815290560093336,
                0.6616572831606167,
                0.6616572831606166,
                0.6616572831606164,
                0.6616572831606163,
                0.6616572831606167,
                0.41159396317018415,
                0.06123030809885718,
                0.6616572831606164,
                0.03220577503134648,
                0.03058980866696788,
                0.3681365486565564,
                0.6616572831606167,
                0.03220569476111172,
                0.6616572831606164,
                0.36685306563636466,
                0.6616572831606167,
                0.44917741179996606,
                0.03220551269205011,
                0.6616572831606166,
                0.6616572831606167,
                0.6616572831606168,
                0.3570483994844816,
                0.4228746491888456,
                0.10758619686666425,
                0.6616572831606164,
                0.6616572831606163,
                0.6616572831606167,
                0.6616572831606167,
                0.23951184960000801,
                0.42802135488161464,
                0.6616572831606167,
                0.31722708784520065,
                0.032205559530879516,
                0.27718006837551373,
                0.4736821459936269,
                0.07566719113766811,
                0.6616572831606167,
                0.6616572831606166,
                0.03220572777787575,
                0.6616572831606166,
                0.6616572831606167,
                0.6616572831606167,
                0.16027986492862312,
                0.04474988200960953,
                0.6616572831606166,
                0.6616572831606167,
                0.03220575573765221,
                0.35285553011866366,
                0.6616572831606166,
                0.6616572831606166,
                0.6616572831606167,
                0.6616572831606164,
                0.40487093847321154,
                0.6616572831606166,
                0.6616572831606164,
                0.6616572831606167,
                0.35068932884235066,
                0.6616572831606166,
                0.6616572831606166,
                0.3063704935568289,
                0.6616572831606166,
                0.17569812911906862,
                0.6616572831606164,
                0.6616572831606164,
                0.05058206452762365,
                0.6616572831606167,
                0.6616572831606166,
                0.3017497742653449,
                0.6616572831606166,
                0.6616572831606167,
                0.06034859258968965,
                0.6616572831606167,
                0.6616572831606166,
                0.23289541167843175,
                0.16454476666518766,
                0.6616572831606164,
                0.6616572831606164,
                0.07501682810700595,
                0.6616572831606166,
                0.6616572831606164,
                0.48084959470906286,
                0.32896454927819674,
                0.3100285304376729,
                0.40909484457077666,
                0.39402355809098705,
                0.6616572831606164,
                0.4643786447673189,
                0.06985245249356653,
                0.6616572831606166,
                0.6616572831606164,
                0.6616572831606167,
                0.6616572831606164,
                0.08146573428314353,
                0.6616572831606167,
                0.31782754929130513,
                0.2725171868413557,
                0.6616572831606164,
                0.6616572831606166,
                0.6616572831606166,
                0.031926005601731616,
                0.20945365802841412,
                0.037260868025026206,
                0.036392085924973026,
                0.4473687333402022,
                0.03220577936992137,
                0.008085464220878094,
                0.4028547630084154,
                0.6616572831606164,
                0.29236323575858963,
                0.4270572824252463,
                0.13443918728896465,
                0.30310035519633083,
                0.6616572831606166,
                0.6616572831606166,
                0.6616572831606167,
                0.30899360285299227,
                0.047618849411235134,
                0.6616572831606167,
                0.6616572831606167,
                0.6616572831606166,
                0.6616572831606167,
                0.03631680996414628,
                0.4136365917562048,
                0.6616572831606166,
                0.6616572831606167,
                0.39233807599560333,
                0.6616572831606167,
                0.4423792465604166,
                0.07696355430941465,
                0.3599449338338989,
                0.3535610820571397,
                0.030005129399771697,
                0.6616572831606167,
                0.6616572831606166,
                0.6616572831606166,
                0.6616572831606164,
                0.6616572831606164,
                0.6616572831606167,
                0.6616572831606167,
                0.2469449486224382,
                0.6616572831606166,
                0.6616572831606166,
                0.25739836415880407,
                0.6616572831606167,
                0.6616572831606166,
                0.6616572831606163,
                0.40362663421624895,
                0.6616572831606167,
                0.6616572831606167,
                0.28492540667085703,
                0.2964698846982851,
                0.6616572831606167,
                0.007782685197694293,
                0.6616572831606166,
                0.6616572831606164,
                0.03220558895115206,
                0.03220566231511,
                0.6616572831606166
            ]
        },
        "detections": 300,
        "events": 92881
    }
}