{
    "job_args": {
        "metric_limit": 300,
        "seed": 4078295878
    },
    "job_id": "batch_195_do_300",
    "result": {
        "collections": {
            "crystal": [
                0.15207754939991758,
                0.04208669598662411,
                0.6616572831606164,
                0.09577140724805254,
                0.6616572831606166,
                0.11354014360254407,
                0.6616572831606166,
                0.03752644148042482,
                0.46273151696643056,
                0.6616572831606166,
                0.1361096823522513,
                0.6616572831606164,
                0.6616572831606164,
                0.39768375327842476,
                0.13331337954980652,
                0.03220541509398985,
                0.4069709571264729,
                0.6616572831606166,
                0.3575912238769124,
                0.09320233096007358,
                0.4632361873477354,
                0.09510520302723202,
                0.6616572831606164,
                0.6616572831606167,
                0.6616572831606167,
                0.6616572831606164,
                0.16386829782649956,
                0.6616572831606167,
                0.34942162260785314,
                0.0194597677115691,
                0.6616572831606167,
                0.16086330128555737,
                0.6616572831606167,
                0.6616572831606166,
                0.3629976077285035,
                0.30389825255549197,
                0.6616572831606164,
                0.3789539880636988,
                0.6616572831606167,
                0.26392191974040485,
                0.6616572831606166,
                0.6616572831606167,
                0.2854259641737661,
                0.16127268475464449,
                0.4383125725398964,
                0.15094421580698675,
                0.25520160238494,
                0.6616572831606166,
                0.29332500171697984,
                0.6616572831606167,
                0.6616572831606167,
                0.13163034363644663,
                0.012519211296189827,
                0.03220577533999585,
                0.0984986597245572,
                0.6616572831606164,
                0.15087540678496159,
                0.6616572831606166,
                0.6616572831606166,
                0.09999979833850318,
                0.6616572831606166,
                0.6616572831606164,
                0.6616572831606166,
                0.44255372080942307,
                0.6616572831606166,
                0.6616572831606164,
                0.09146404608266095,
                0.032205781274739324,
                0.08897213724043948,
                0.018638439640547858,
                0.6616572831606164,
                0.6616572831606167,
                0.6616572831606164,
                0.6616572831606167,
                0.6616572831606167,
                0.21576216136063459,
                0.28515495721881634,
                0.6616572831606164,
                0.6616572831606164,
                0.6616572831606166,
                0.28473458393641277,
                0.03220564056533173,
                0.6616572831606166,
                0.2780443142994978,
                0.6616572831606167,
                0.0588128644665318,
                0.6616572831606166,
                0.4233159914684998,
                0.6616572831606166,
                0.6616572831606167,
                0.3896923297821479,
                0.6616572831606166,
                0.28103119592392256,
                0.6616572831606166,
                0.45698584401560205,
                0.6616572831606166,
                0.20868475698738814,
                0.2077372558457771,
                0.6616572831606166,
                0.6616572831606164,
                0.6616572831606164,
                0.6616572831606168,
                0.16010525799411524,
                0.6616572831606164,
                0.3451207209059745,
                0.19492862025783425,
                0.6616572831606164,
                0.03220555306320988,
                0.6616572831606166,
                0.07451067115647411,
                0.4510968161566296,
                0.6616572831606166,
                0.14477351343993308,
                0.6616572831606167,
                0.6616572831606168,
                0.48093884511937224,
                0.03220565369575392,
                0.6616572831606166,
                0.46466619919796537,
                0.3961788744338889,
                0.026231009259148258,
                0.0335524438126684,
                0.6616572831606167,
                0.4726794999371003,
                0.19041849147512413,
                0.032205838528965997,
                0.6616572831606167,
                0.6616572831606168,
                0.14415696666144862,
                0.3619571337194408,
                0.6616572831606167,
                0.03220561425066728,
                0.6616572831606166,
                0.6616572831606164,
                0.6616572831606167,
                0.6616572831606166,
                0.43411325005785484,
                0.6616572831606166,
                0.6616572831606166,
                0.03181868624549105,
                0.6616572831606164,
                0.35600032020989825,
                0.6616572831606166,
                0.5114975652196891,
                0.201597355349114,
                0.01708302063835002,
                0.6616572831606164,
                0.6616572831606167,
                0.5917914451124633,
                0.6616572831606166,
                0.291103414846431,
                0.6616572831606164,
                0.401922815295366,
                0.6616572831606166,
                0.08143817417519629,
                0.6616572831606166,
                0.6616572831606166,
                0.09199153398243984,
                0.033821820003382366,
                0.008635185961518878,
                0.031818884628232194,
                0.019837846641060364,
                0.6616572831606166,
                0.6616572831606166,
                0.032205797217869835,
                0.18140648100982382,
                0.17917071593167463,
                0.6616572831606167,
                0.31377904756188096,
                0.440580415205097,
                0.6616572831606167,
                0.6616572831606166,
                0.6616572831606167,
                0.6616572831606166,
                0.6616572831606166,
                0.6616572831606166,
                0.6616572831606167,
                0.6616572831606168,
                0.22335987960202075,
                0.6616572831606167,
                0.6333507831606165,
                0.032205542698586,
                0.6616572831606164,
                0.1893833398389826,
                0.3762320507783349,
                0.6616572831606164,
                0.6616572831606166,
                0.6616572831606166,
                0.6616572831606164,
                0.49860214626610866,
                0.6616572831606166,
                0.3964493704078567,
                0.03726056039555137,
                0.32469951994612845,
                0.6616572831606166,
                0.18210207729930356,
                0.6616572831606166,
                0.03181852279364386,
                0.6616572831606167,
                0.35716309660456025,
                0.4585492519276965,
                0.2831980049075174,
                0.33731486975755093,
                0.6616572831606167,
                0.01982978093889781,
                0.6616572831606166,
                0.15386362422470343,
                0.3289137816570819,
                0.6616572831606167,
                0.6616572831606166,
                0.0322056982012589,
                0.4152664401756849,
                0.6616572831606164,
                0.48054063642663525,
                0.45602968110455244,
                0.09208927883007664,
                0.6616572831606164,
                0.6616572831606164,
                0.3468072347040849,
                0.6616572831606167,
                0.6616572831606166,
                0.21506830855377584,
                0.12988155976641141,
                0.6616572831606166,
                0.6616572831606166,
                0.6616572831606164,
                0.6616572831606167,
                0.03220560733779871,
                0.6616572831606166,
                0.6616572831606164,
                0.03220538551276834,
                0.6616572831606164,
                0.6616572831606167,
                0.3179786950935982,
                0.6616572831606167,
                0.3440591467546498,
                0.6616572831606163,
                0.6616572831606164,
                0.20375385127935536,
                0.0828295644478568,
                0.16676221973105496,
                0.3096817278487605,
                0.16052028390145723,
                0.6616572831606164,
                0.6616572831606164,
                0.031818639149479674,
                0.26676558452961346,
                0.6616572831606167,
                0.0351588599901827,
                0.07854102240342138,
                0.6616572831606166,
                0.6616572831606167,
                0.05023915040197211,
                0.39512678938247886,
                0.6616572831606166,
                0.3713940755331873,
                0.47053242449698607,
                0.08321314248433781,
                0.6616572831606166,
                0.6616572831606166,
                0.6616572831606166,
                0.038334213211024946,
                0.036392244699473136,
                0.02161997759571275,
                0.6616572831606164,
                0.6616572831606167,
                0.6616572831606166,
                0.6616572831606166,
                0.6616572831606164,
                0.6616572831606164,
                0.6616572831606166,
                0.38243332542201197,
                0.03181879116822646,
                0.6616572831606166,
                0.6616572831606166,
                0.3447408833493924,
                0.6616572831606167,
                0.31260945434429627,
                0.0363919760566189,
                0.1929387029986703,
                0.4228724592840838,
                0.4417947543406087,
                0.03220573807397262,
                0.3144948068545129,
                0.3042517809055923,
                0.40658939007486383,
                0.6616572831606166,
                0.6616572831606164,
                0.6616572831606167,
                0.3547387618390472,
                0.6616572831606166,
                0.3732978549328592,
                0.6616572831606167,
                0.38539815409532174,
                0.22735977050046946,
                0.6616572831606164,
                0.6616572831606164,
                0.3780051947947659,
                0.04095692185174901,
                0.041885572945699875
            ]
        },
        "detections": 300,
        "events": 89220
    }
}