{
    "job_args": {
        "metric_limit": 500,
        "seed": 870624186
    },
    "job_id": "batch_90_do_500",
    "result": {
        "collections": {
            "crystal": [
                0.1941537281929315,
                1.1120768331818676,
                0.9640559192236223,
                0.7789048647004683,
                0.9640559192236221,
                0.6150497531511299,
                0.34427858112655685,
                0.5734058409908094,
                0.8673810337567198,
                0.386015377545025,
                0.8341168615652979,
                1.050629568430973,
                0.9354464192236221,
                0.7789048647004684,
                0.21218596800148987,
                0.23526112663356435,
                1.0966767215466038,
                0.07525,
                0.6347928421604261,
                0.15939079433560865,
                0.7789048647004684,
                0.7789048647004684,
                1.112076833181868,
                0.6773146266915924,
                1.0858368332064599,
                1.0647987050729764,
                0.625161068444736,
                1.408013197545025,
                0.9602253913458973,
                1.112076833181868,
                0.42378076483830096,
                0.15426733435682174,
                0.4022261114272348,
                0.38353244026843436,
                0.5681773231609846,
                0.9640559192236223,
                0.9573039935405464,
                0.7448834909372299,
                1.2129444931966775,
                0.18606653998431244,
                0.6118131978097356,
                0.34427858112655685,
                0.7789048647004684,
                0.7665988634310389,
                0.7789048647004683,
                0.7789048647004684,
                0.16517037757685776,
                0.9166306809378066,
                0.3162316168428603,
                0.5267860780408076,
                0.7662188008069715,
                0.48005744042157533,
                0.48588301142520235,
                0.7076789665976364,
                0.21623848376264476,
                0.6362914032426347,
                0.6039231619310403,
                0.2264045775703012,
                0.012421507168374701,
                0.6041241904986536,
                0.5080007810739015,
                0.3859389058157219,
                0.20804544334476216,
                0.02300473517231505,
                0.5513325075785961,
                0.849888924387358,
                1.1120768331818678,
                0.7990029116768786,
                1.408013197545025,
                0.308905867787174,
                0.11959956022921059,
                0.07303899999999999,
                1.1120768331818678,
                0.4617438791552283,
                1.1120768331818678,
                0.6950620047524122,
                0.7260114997674492,
                0.514553378040451,
                0.6829140329655974,
                0.2907396805696322,
                0.2975849298865272,
                0.6633035052336836,
                0.42009860069098676,
                0.7128712316223608,
                0.93054193983074,
                0.5885089818148289,
                1.0858368332064599,
                0.3951386298635079,
                0.7133271620928376,
                0.4310855054883555,
                1.4080131975450252,
                1.4080131975450252,
                0.5926582233610806,
                0.9113748686339742,
                0.1689099115627487,
                0.7959032100165184,
                1.0449172592645148,
                0.6505648815186631,
                0.48857281117132684,
                0.8586607018426471,
                0.3719642982160749,
                0.15655133778686847,
                0.05850064821110639,
                0.7334726957656199,
                1.2223865769438225,
                0.4652138076931888,
                0.6497582597559595,
                1.1120768331818678,
                1.050133416128869,
                0.10447330207525807,
                0.7789048647004684,
                0.6195866856723375,
                1.1120768331818676,
                1.4080131975450252,
                1.1120768331818676,
                0.6311096738553374,
                0.3223772212487092,
                0.51099891,
                0.319316199396914,
                1.4080131975450252,
                1.0447391664084982,
                0.017455121283976083,
                0.34427858112655685,
                0.15513279624276843,
                0.4967132584797376,
                0.6290575323466685,
                0.6085716178868188,
                0.25908288062222107,
                0.0244205720995751,
                0.174755882696524,
                0.09592673881689605,
                0.7734889848517937,
                0.7789048647004682,
                1.4080131975450252,
                1.2991330441718383,
                0.22428985395155077,
                0.055673987489763155,
                1.4080131975450252,
                0.4196328271609663,
                0.22205030833667516,
                0.655677649909263,
                0.2655569504771962,
                0.495421023650676,
                0.39034213960857855,
                0.613917419177023,
                1.08583683320646,
                0.4257091648920756,
                0.3442785811265569,
                0.9388041966675216,
                0.14846204286890913,
                0.6290315149053064,
                0.5324692367188397,
                0.5712880756968486,
                1.0858368332064596,
                0.39671726144077035,
                0.893593769326166,
                1.408013197545025,
                0.7589508413351647,
                0.17645810454007327,
                0.32633649048269553,
                0.9640559192236223,
                0.6021831849445521,
                0.47985745023598003,
                0.6345625018060452,
                0.3506790845705878,
                0.9640559192236221,
                0.1763279048279124,
                1.1120768331818678,
                0.5892958869512446,
                1.4080131975450247,
                0.4013857485641026,
                0.9640559192236222,
                0.5326848860409786,
                0.08058892734853185,
                0.9640559192236222,
                0.6320189876454492,
                0.34565443795199874,
                1.2991330441718383,
                0.4439603629713093,
                0.4434397927717618,
                0.6754108428906316,
                0.2764791017015432,
                0.8258093800825165,
                0.341123917617027,
                0.2912326983068305,
                0.20923599094223022,
                0.14838949052878497,
                0.3952595977064918,
                0.7689337477467043,
                0.784866028149867,
                0.042755317451936836,
                0.7830797377293988,
                0.18377679082613743,
                0.26730476739006614,
                1.112076833181868,
                0.571324975065287,
                1.019685275399025,
                0.9208556218548577,
                0.07525,
                0.11079829287686369,
                0.7193598637916532,
                0.05238859899596038,
                0.21056379539229808,
                1.1120768331818676,
                0.7473903853341783,
                0.34427858112655685,
                0.04799908355849279,
                0.32080868667165385,
                1.408013197545025,
                1.408013197545025,
                0.6729758297807262,
                0.4042500062236048,
                0.18486149954908634,
                0.050606418649219886,
                0.6894812943943266,
                0.3817018658165533,
                0.6152727834927925,
                0.9937589997693024,
                0.19867752597624155,
                0.938010609235669,
                1.08583683320646,
                0.7789048647004682,
                0.8784999867394737,
                0.11085590718642589,
                0.046640499999999994,
                1.2129444931966775,
                0.3123117893415598,
                0.34758470713057404,
                0.8673810337567199,
                0.6586181476166796,
                0.3602406161427899,
                0.7745715410033378,
                0.30059278741645395,
                0.5639889353995463,
                0.6711512491285342,
                0.24270851221793888,
                0.34401083626803786,
                1.0858368332064599,
                0.7307191135493691,
                0.30353704716190194,
                0.20027471921811513,
                0.7819329649792192,
                1.0858368332064599,
                0.1355078952922335,
                0.06793393304948148,
                0.56313254140291,
                0.51099891,
                0.8673810337567199,
                0.2739990811926062,
                0.38731745859600264,
                0.3167867321112101,
                0.3442785811265569,
                0.27080894867527283,
                0.7900141273712268,
                0.9443408448579349,
                0.010845932685658255,
                0.34427858112655685,
                1.007567392241709,
                0.2712003531772725,
                0.38899452248728766,
                0.7789048647004684,
                0.23790667270580113,
                0.8614913434953944,
                0.9640559192236222,
                0.9147182578917616,
                0.2583002269029585,
                0.18929176054641908,
                0.019506604760097024,
                0.51099891,
                0.8673810337567199,
                0.8597370957357313,
                0.8597192029112578,
                0.7909672727575835,
                0.42066467089342746,
                0.4362285639501797,
                0.2588900849297123,
                0.2625197323543007,
                1.0858368332064599,
                0.9640559192236222,
                1.0305971451050775,
                1.1120768331818678,
                0.037425252114744234,
                0.779932613398909,
                0.23609796316790266,
                0.2860651661985611,
                1.0897368119742794,
                0.9640559192236222,
                0.3863767350616778,
                1.2234961968680367,
                0.36411886130219034,
                0.9156639656765372,
                0.8268725522354935,
                0.7789048647004684,
                0.21055488715891593,
                0.07493789536945039,
                0.7121082298714868,
                0.6788642711110131,
                0.253304123538851,
                0.5981029809425857,
                0.699911168025843,
                0.355884530989595,
                1.016883826511423,
                0.13167005957451122,
                0.5353332942043143,
                0.388747304437266,
                1.2129444931966775,
                0.04768990438732085,
                0.13874985542874052,
                0.7973455571302493,
                1.2499476822978293,
                0.4443569689842785,
                0.6892809034902048,
                1.10852040596221,
                1.408013197545025,
                0.5067370294801277,
                0.0847407,
                0.7533906479577706,
                0.8285052133754863,
                0.22643068519875553,
                0.6126315584766939,
                1.2787678155265698,
                0.13417780693292392,
                0.9640559192236223,
                0.1081333411933374,
                0.902435733085937,
                0.43011056751599563,
                0.7146761181127826,
                1.112076833181868,
                0.2991453831529405,
                0.5149674494596548,
                0.7789048647004686,
                0.11223181950435646,
                0.7789048647004684,
                1.4080131975450247,
                0.09090467908109717,
                1.1277737390521607,
                0.8273226134847463,
                0.7789048647004683,
                1.1120768331818678,
                0.3538955200926601,
                0.2952125798086821,
                1.0858368332064599,
                0.7475097255834906,
                1.408013197545025,
                0.8673810337567198,
                0.4941138412694748,
                1.1120768331818678,
                0.7789048647004682,
                0.5186734219934594,
                0.5115268748094914,
                0.946177683944825,
                0.6489176595627725,
                0.5431158921795842,
                0.40297924715277367,
                0.9640559192236222,
                1.4080131975450247,
                0.23783162736065805,
                0.9640559192236222,
                0.13842516985116954,
                0.1059566024474119,
                0.5510420734292565,
                1.4080131975450247,
                0.5202024517925484,
                0.073039,
                0.819471366428049,
                1.1120768331818678,
                0.9640559192236222,
                0.9640559192236222,
                0.8434713914909678,
                0.4142662367100397,
                0.17215389521947744,
                0.2755518258188212,
                0.7789048647004683,
                0.5053295743111874,
                0.1045323791024736,
                0.48372747557354046,
                0.6660519551690205,
                0.024286593879843554,
                0.028804399054099483,
                0.38913468527302986,
                1.0550591805729965,
                0.9640559192236223,
                0.8197753703585817,
                1.408013197545025,
                0.4111165114560972,
                0.7789048647004684,
                0.23722020030805313,
                0.7789048647004685,
                0.5592582288396639,
                0.631088859280307,
                0.13332878848492166,
                0.7808959791419263,
                1.4080131975450252,
                0.13438095563809016,
                0.6192053946378453,
                0.5750944400638656,
                1.0858368332064596,
                0.3120377399187544,
                0.18490810109007044,
                0.12966666006461036,
                0.5097256083921609,
                0.1156684155194526,
                1.0858368332064599,
                0.5324084055771139,
                0.7264065145950606,
                1.1120768331818678,
                0.6872636939544751,
                1.2364217500294497,
                0.29260158364520494,
                0.27191947185263804,
                1.0858368332064599,
                0.34857799596701766,
                0.35650581627288014,
                0.6527151943013794,
                0.505816645796117,
                0.7789048647004685,
                0.40281000149630014,
                0.3205599635792248,
                0.6293778500421163,
                0.7789048647004683,
                0.773296393997572,
                0.07303899999999999,
                0.7789048647004683,
                0.8467459310387933,
                0.24846195998447174,
                0.7789048647004682,
                0.07525,
                0.4005574209109757,
                0.5139137642601505,
                1.4080131975450247,
                1.028485310088993,
                0.14934917110480173,
                1.4080131975450252,
                0.5271975931450334,
                1.4080131975450247,
                0.7789048647004685,
                0.5742990610908295,
                0.04721840752812012,
                0.19440136562366267,
                0.26475935031554965,
                0.033520561903112034,
                0.5504910303801631,
                0.6010960249842812,
                1.0858368332064599,
                0.5791972230081588,
                0.9640559192236222,
                0.4301416305443408,
                0.15718842069867775,
                0.3797677955711658,
                0.9640559192236222,
                0.5867995651915006,
                1.408013197545025,
                0.2586549292265665,
                0.02601585907982229,
                1.4080131975450247,
                0.4556313686881345,
                0.34427858112655685,
                1.1120768331818678,
                0.3250814502221303,
                0.7902573890766063,
                0.37986237479153284,
                0.015869775506782924,
                0.44396036297130925,
                0.2464187470456802,
                0.3085144757191949,
                1.08583683320646,
                1.1114592805341919,
                0.48486589685860715,
                0.45082396373397204,
                0.550898318103915,
                0.4886791963685171,
                0.9640559192236221,
                0.4224015323561555,
                0.41220950922212785,
                0.5987878444133916,
                1.139965588935673,
                0.34427858112655685,
                1.134273520345142,
                0.14840042721686575,
                0.5711113525640676,
                0.6697344602633968,
                0.9640559192236221,
                0.9640559192236224,
                0.6543084146858535,
                0.05662590000000001,
                0.5527368077393556,
                0.07172723620837125,
                0.8418275475270925,
                1.1120768331818678,
                0.5192370769934538,
                0.9054242116000334,
                0.12741209147953728,
                1.078135904039955,
                0.7867403117693414,
                0.49461715443227144,
                0.9640559192236223,
                0.20786638732192148,
                0.46173648009684487,
                0.7685334158581191,
                0.919431655338679
            ],
            "photocathode": [
                1288,
                8020,
                6687,
                5548,
                6847,
                4564,
                2344,
                3939,
                6010,
                2696,
                5837,
                7437,
                6575,
                5485,
                1440,
                1680,
                7584,
                530,
                4554,
                1081,
                5381,
                5296,
                7912,
                4815,
                7536,
                7303,
                4450,
                9775,
                6766,
                7663,
                2983,
                1082,
                2722,
                2718,
                3899,
                6742,
                6684,
                5275,
                8398,
                1361,
                4261,
                2549,
                5524,
                5356,
                5484,
                5493,
                1139,
                6687,
                2197,
                3714,
                5394,
                3447,
                3484,
                5101,
                1573,
                4528,
                4201,
                1578,
                100,
                4194,
                3506,
                2782,
                1563,
                156,
                3797,
                5787,
                7812,
                5481,
                9887,
                2195,
                838,
                511,
                7636,
                3101,
                7775,
                4860,
                5282,
                3694,
                4651,
                2031,
                2128,
                4637,
                2948,
                5051,
                6557,
                4232,
                8015,
                2743,
                4842,
                3073,
                9720,
                9850,
                4165,
                6477,
                1140,
                5530,
                7244,
                4555,
                3408,
                6074,
                2586,
                1175,
                380,
                5022,
                8445,
                3239,
                4643,
                7705,
                7384,
                747,
                5590,
                4284,
                7748,
                9910,
                7718,
                4471,
                2194,
                3555,
                2218,
                9821,
                7448,
                110,
                2389,
                1134,
                3498,
                4342,
                4221,
                1755,
                187,
                1184,
                661,
                5402,
                5434,
                10108,
                9028,
                1666,
                368,
                9809,
                2954,
                1553,
                4608,
                1875,
                3412,
                2685,
                4361,
                7771,
                3109,
                2392,
                6665,
                1047,
                4471,
                3868,
                3994,
                7709,
                2779,
                6462,
                9878,
                5333,
                1239,
                2405,
                6575,
                4246,
                3311,
                4422,
                2468,
                6912,
                1272,
                7802,
                4152,
                9939,
                2691,
                6604,
                3811,
                578,
                6767,
                4416,
                2451,
                8993,
                3111,
                3163,
                4752,
                1978,
                5851,
                2464,
                2005,
                1460,
                1043,
                2768,
                5605,
                5574,
                303,
                5386,
                1278,
                1900,
                7924,
                3987,
                6973,
                6347,
                536,
                743,
                5319,
                362,
                1490,
                7738,
                5372,
                2354,
                362,
                2306,
                9889,
                9864,
                4759,
                2807,
                1228,
                336,
                4940,
                2730,
                4543,
                6934,
                1402,
                6606,
                7833,
                5587,
                6163,
                776,
                302,
                8516,
                2184,
                2431,
                6020,
                4622,
                2595,
                5461,
                2144,
                4091,
                4843,
                1701,
                2459,
                7522,
                4969,
                2160,
                1431,
                5579,
                7602,
                942,
                494,
                4043,
                3617,
                6181,
                1913,
                2608,
                2199,
                2437,
                1878,
                5623,
                6666,
                83,
                2463,
                7191,
                1854,
                2700,
                5520,
                1691,
                6028,
                6705,
                6673,
                1912,
                1334,
                119,
                3468,
                6063,
                6005,
                6172,
                5426,
                2970,
                3101,
                1878,
                1794,
                7608,
                6687,
                7178,
                7930,
                273,
                5345,
                1664,
                2125,
                7818,
                6913,
                2671,
                8497,
                2579,
                6369,
                5813,
                5210,
                1410,
                556,
                5021,
                4678,
                1714,
                4056,
                5007,
                2473,
                7040,
                877,
                3808,
                2900,
                8811,
                365,
                963,
                5456,
                8689,
                3079,
                4817,
                7675,
                9939,
                3559,
                577,
                5175,
                5731,
                1568,
                4420,
                9038,
                925,
                6855,
                791,
                6471,
                3123,
                4973,
                8076,
                2168,
                3606,
                5562,
                813,
                5471,
                9908,
                640,
                7797,
                5864,
                5471,
                7744,
                2550,
                2099,
                7669,
                5191,
                9955,
                6022,
                3401,
                7766,
                5519,
                3779,
                3698,
                6729,
                4523,
                3843,
                2823,
                6731,
                9758,
                1770,
                6681,
                925,
                757,
                3818,
                9649,
                3728,
                498,
                5784,
                8068,
                6763,
                6651,
                5843,
                2968,
                1174,
                1850,
                5463,
                3573,
                724,
                3375,
                4653,
                155,
                201,
                2687,
                7401,
                6541,
                5809,
                9685,
                2841,
                5488,
                1698,
                5613,
                3931,
                4426,
                930,
                5308,
                9539,
                947,
                4470,
                3891,
                7293,
                2280,
                1254,
                949,
                3653,
                799,
                7550,
                3644,
                5173,
                7834,
                4933,
                8870,
                2027,
                1969,
                7472,
                2386,
                2446,
                4604,
                3629,
                5679,
                2779,
                2241,
                4340,
                5542,
                5385,
                483,
                5505,
                6034,
                1852,
                5440,
                546,
                2860,
                3595,
                9929,
                7206,
                1034,
                9807,
                3709,
                9936,
                5397,
                4115,
                343,
                1403,
                1794,
                253,
                3955,
                4094,
                7588,
                4095,
                6679,
                3053,
                1100,
                2643,
                6590,
                4157,
                9924,
                1759,
                185,
                9638,
                3223,
                2432,
                7824,
                2225,
                5505,
                2602,
                114,
                3146,
                1657,
                2193,
                7737,
                7791,
                3404,
                3214,
                3930,
                3468,
                6692,
                3067,
                2797,
                4223,
                8073,
                2359,
                8099,
                1062,
                4036,
                4694,
                6803,
                6734,
                4487,
                385,
                3934,
                489,
                5776,
                7880,
                3702,
                6307,
                905,
                7364,
                5715,
                3448,
                7046,
                1515,
                3307,
                5512,
                6339
            ]
        },
        "detections": 500,
        "events": 209529
    }
}