{
    "job_args": {
        "metric_limit": 500,
        "seed": 1822750059
    },
    "job_id": "batch_45_do_500",
    "result": {
        "collections": {
            "crystal": [
                0.5063595959505527,
                0.09316308423198533,
                0.6832026362336892,
                0.21090426520160807,
                0.9640559192236222,
                0.9305419398307401,
                0.30482512457937344,
                1.1120768331818678,
                0.5312614861849018,
                0.8736277954767085,
                0.5605622340575145,
                0.6572621425598741,
                0.5260780816370163,
                0.625010225056839,
                0.05951171642401154,
                0.42126322569279495,
                1.4080131975450247,
                1.2499476822978293,
                0.5897314064580728,
                0.6246457518001152,
                1.1313961420444656,
                0.44266910711118834,
                1.1120768331818678,
                0.9640559192236223,
                0.0876557,
                1.0858368332064599,
                0.3030885487885493,
                0.8399826668166144,
                0.7789048647004684,
                0.5577723069538569,
                1.112076833181868,
                0.6951872394530351,
                0.3037898543863842,
                0.5917185415374127,
                0.9640559192236222,
                0.2621563517469161,
                0.62607162496659,
                0.9640559192236222,
                1.4080131975450247,
                0.7789048647004684,
                0.5651364613790627,
                0.6780971417952745,
                0.21259673181809113,
                0.8678707118798558,
                0.3762643136081157,
                1.1120768331818678,
                0.5924547251121925,
                0.7113687876182818,
                0.07303900000000002,
                0.16406119694774035,
                1.1829926335811678,
                0.07303900000000002,
                0.43095627318102825,
                1.0052521213244057,
                0.44676507701880974,
                0.7789048647004684,
                0.8723598763289471,
                0.07525000000000001,
                0.9209313532653153,
                0.5459650223413003,
                1.4576396949610415,
                0.024378560625640255,
                0.2659490217879431,
                1.1120768331818678,
                0.6229600507038564,
                0.03719506282913421,
                0.10553986371257884,
                1.408013197545025,
                0.22841932960850597,
                0.7789048647004684,
                0.5823664915220406,
                0.40590311702134896,
                0.34383838322957905,
                0.32384019831631955,
                1.0561134303180826,
                0.5976047801685302,
                0.34427858112655685,
                0.6054176337181681,
                0.317995937828923,
                0.01244495376261534,
                0.21670469688283642,
                1.08583683320646,
                0.07525,
                0.775846961609415,
                0.07303899999999999,
                0.5961387944276295,
                0.525430123180348,
                1.134613322319972,
                0.11567112650648294,
                0.9640559192236223,
                0.27576942062454046,
                0.7789048647004684,
                0.5281077853724884,
                0.24552773084567803,
                0.0876557,
                0.7789048647004684,
                0.34381535971581,
                0.6586645706925509,
                0.6842276091665851,
                0.07992008995994604,
                0.3145214038576767,
                0.4358046759724706,
                1.408013197545025,
                0.3913770850718167,
                0.560352262155818,
                0.45209785685297127,
                0.03358819955077941,
                0.44227949647883136,
                1.4080131975450245,
                0.8040539086087614,
                1.0042379645062105,
                0.1288091261339276,
                1.0858368332064599,
                0.556991345016851,
                0.32239017821534294,
                0.07524999999999998,
                1.408013197545025,
                0.3557562016891126,
                0.4994180393741534,
                0.33211194228863883,
                0.5279768223401354,
                1.112076833181868,
                1.1020895059464524,
                0.7036258522215021,
                0.6081404580011621,
                0.8126652328880868,
                1.0858368332064599,
                0.7789048647004684,
                0.2857127933614989,
                0.7789048647004685,
                0.498692386141093,
                0.791489310938753,
                1.1813273110040154,
                0.07480762302286659,
                0.5118484381072058,
                0.5553392373588751,
                0.9640559192236222,
                0.7341535943880916,
                0.6023603274395405,
                1.1179013077712132,
                0.9640559192236223,
                0.1657017748323415,
                0.7789048647004685,
                1.08583683320646,
                0.86738103375672,
                1.052983469204547,
                0.9633841108742823,
                0.07525,
                0.5939470249862474,
                0.44396036297130925,
                0.39664407467603907,
                0.589967555212954,
                0.3177874514414022,
                0.01676237390367019,
                0.01640247870615652,
                0.6886695277208058,
                0.6075869055031462,
                0.0024545860830593735,
                0.34633074851917656,
                0.4659842936114471,
                0.8533587493399529,
                0.873175324262164,
                0.1810441986745083,
                1.408013197545025,
                0.647426250305598,
                0.49519675194755697,
                0.6664960869827018,
                1.0858368332064599,
                0.2173485117717877,
                0.5236191968463261,
                0.10815119073633965,
                1.0858368332064599,
                0.34427858112655685,
                0.4055271973624675,
                0.7789048647004684,
                0.5947367044119511,
                0.13509019985632387,
                0.14429686669990757,
                1.0858368332064599,
                0.6980398669304436,
                0.7789048647004683,
                0.17879628851150242,
                0.010838283119050773,
                0.7200476570328374,
                0.6371938916603539,
                0.5872151487123476,
                0.2083706446740561,
                0.8017595644161187,
                0.31627826741041154,
                0.6454603835407804,
                0.20210122145751858,
                1.0440791192209367,
                0.40198234161825674,
                1.408013197545025,
                0.7002693132297371,
                0.5677729530155662,
                0.32958345935629973,
                1.0897368119742792,
                0.6335895661261753,
                0.9034766562689551,
                1.0035659378420934,
                1.4080131975450247,
                0.7789048647004684,
                0.06857064396422974,
                0.18325911100590966,
                0.4085441940430643,
                0.6362557069567832,
                1.1120768331818678,
                0.7789048647004684,
                0.33749308841198594,
                0.4597719361621202,
                1.4080131975450247,
                0.36436988171290785,
                0.26097451485275003,
                0.24219069689099867,
                0.14907106635249817,
                0.2969390036771661,
                0.30242056795737815,
                1.1120768331818678,
                0.6025959213723426,
                0.6747486498441604,
                0.9381914108841747,
                0.14902408071968398,
                0.8627603794445609,
                0.6260893055354335,
                0.7270899663839416,
                0.12389679530696036,
                0.753628132970883,
                0.7789048647004684,
                0.0282906625437761,
                0.8674024651021829,
                0.3413488971648919,
                0.6015845483785511,
                1.4080131975450247,
                0.9752297020717787,
                0.8436145326338237,
                0.32989319011228313,
                0.5126337767074262,
                0.07524999999999998,
                0.3573062343973666,
                0.23877070055063632,
                0.7789048647004684,
                1.1120768331818676,
                0.2389639151754881,
                0.7789048647004684,
                0.6703740200944078,
                0.9457041350684599,
                1.408013197545025,
                0.7185865907831352,
                0.3326286999979553,
                0.6464061441476107,
                0.6312217197413761,
                1.1235073841090248,
                0.09112192886812132,
                1.0858368332064599,
                1.408013197545025,
                0.0852354,
                0.9600552569322143,
                0.28425738589321337,
                0.23313816654575673,
                0.3442785811265569,
                0.34641400510069903,
                1.0031308432099428,
                0.2809658692524719,
                0.916966485477905,
                0.0052370744672115555,
                1.1120768331818678,
                0.9640559192236222,
                0.4569747538979049,
                0.34427858112655696,
                0.2183620764634998,
                1.1120768331818678,
                1.0858368332064596,
                0.5554862190682689,
                0.4436483781861542,
                0.328343090030394,
                1.2921694251422369,
                0.9329081139760382,
                0.9820807191324932,
                0.7789048647004685,
                0.9356265485492811,
                0.44094622629340374,
                0.14097146969745167,
                0.37549221108884784,
                0.8395964818370635,
                0.3746472341406002,
                0.86738103375672,
                1.112076833181868,
                1.089736811974279,
                0.9007865351836619,
                0.13195527946191205,
                0.31237818830718456,
                0.7539823354471075,
                0.21763670456790812,
                0.8047145841563685,
                1.1120768331818678,
                0.511511146955264,
                0.6638949150058632,
                0.7088845186128561,
                0.7789048647004685,
                0.7789048647004684,
                1.2129444931966775,
                1.1120768331818678,
                0.23558683289427473,
                0.656134917344918,
                1.112076833181868,
                0.9640559192236222,
                0.7942410755445358,
                0.601459461168746,
                0.10586317661531697,
                0.5677703585669553,
                0.6825980112908765,
                0.2662832881881602,
                0.9301103712711069,
                0.6117924976940409,
                0.6320295928246609,
                0.7608200578430347,
                0.7653551175137189,
                0.8264366500852796,
                0.8968007725206684,
                1.0858368332064599,
                0.5689011672349433,
                0.15317011274080672,
                0.6483891258965468,
                0.7341452401363779,
                1.408013197545025,
                0.4871416751132476,
                0.2533149234545722,
                0.6695153264354686,
                0.4576192789472015,
                1.408013197545025,
                0.09796800195588928,
                1.0897368119742794,
                1.1120768331818676,
                0.547065480771502,
                0.570955931777033,
                0.08523539999999999,
                1.2209992932494462,
                0.10296720954629479,
                0.1237415514176422,
                1.4080131975450252,
                0.9640559192236222,
                0.14087239230701643,
                1.1120768331818678,
                0.9640559192236221,
                0.7938612206162219,
                0.3000808799050192,
                0.4109707852125172,
                0.07524999999999998,
                1.4080131975450252,
                0.2596426300927014,
                0.0508882644350781,
                0.7307482936311301,
                0.7080313902700948,
                0.622214668943959,
                0.9640559192236222,
                0.4798423758415668,
                0.5721649411063707,
                0.7847412773832898,
                0.3818587523601074,
                0.6999033114759781,
                0.013147365568901836,
                0.073039,
                0.3437874217386029,
                0.6125032230179067,
                1.3133938326377463,
                0.44396036297130936,
                0.29429074738200656,
                0.3442785811265569,
                0.5845554862215725,
                1.4080131975450252,
                0.7789048647004684,
                0.05368732463548675,
                0.6246738437130384,
                0.10255032331724512,
                0.7648655699580154,
                0.2744461284788073,
                0.6475524699697826,
                0.20702992119957853,
                1.408013197545025,
                0.7789048647004684,
                0.2859087049644003,
                0.4934225224907648,
                0.7899166447097942,
                0.4886791963685171,
                0.5068779600866563,
                0.9493821422113334,
                0.11536495502551425,
                0.8290852606641717,
                0.4425844560832962,
                0.048746404400140435,
                0.5449442956308803,
                0.32628754527105475,
                1.1370451657459957,
                0.6831678241046844,
                0.7789048647004684,
                0.23656464360381957,
                0.433596382030035,
                0.34427858112655696,
                0.4373707477250212,
                0.5149616258367379,
                0.655061821737972,
                0.48452252288585385,
                0.3775136120919477,
                0.22700764897300418,
                1.1120768331818678,
                0.22645045336997105,
                0.2990674656723385,
                0.48766011269153947,
                0.7748001893115514,
                0.9640559192236222,
                0.3091414770676567,
                0.9640559192236221,
                0.8586497150773609,
                1.408013197545025,
                0.3894551246266571,
                1.4080131975450247,
                0.22714111196918751,
                0.2876794157429211,
                0.7789048647004684,
                0.4343737112951725,
                1.136225610731534,
                1.4080131975450252,
                0.10484692569533482,
                0.46244554261742593,
                0.3950403693526455,
                0.8070071332470915,
                1.2991330441718385,
                0.7717188749554601,
                1.1120768331818676,
                0.6886695277208056,
                1.1120768331818678,
                0.9640559192236223,
                0.8265173095077012,
                0.7752182134166028,
                1.2129444931966775,
                1.4080131975450252,
                0.5503940533329806,
                0.04348094341424236,
                0.526309118786157,
                0.47308624925706866,
                0.6086138926348847,
                1.115702633502842,
                0.461462311272398,
                1.0077369577821809,
                0.6899496499253117,
                1.4080131975450247,
                0.9640559192236222,
                0.276846583507244,
                0.2245389684905769,
                0.271242535472516,
                1.0897368119742792,
                0.11772921416820314,
                1.1120768331818676,
                0.947440654912623,
                0.6848836265848616,
                0.054673357505689024,
                0.9640559192236222,
                0.22901447354661042,
                1.1578510340227084,
                0.6357171170875405,
                0.3820952272980406,
                1.0027302962337377,
                0.05090289185598784,
                0.6038941420015547,
                0.7214090723820509,
                1.039576518484354,
                0.6006688686103252,
                0.8028699426103414,
                0.4844424481076963,
                0.7789048647004683,
                1.408013197545025,
                0.09398822122268835,
                0.6259310962799443,
                1.0858368332064599,
                0.39984547334736886,
                0.7789048647004684,
                0.9640559192236222,
                0.03593473241667822,
                1.0052521213244054,
                0.37028821171673576,
                0.5862647941086816,
                0.35880073244169153,
                0.4662238773576678,
                0.9640559192236222,
                0.810450678744846,
                0.6325175436740623,
                0.34427858112655685,
                0.554372414348412,
                0.9640559192236223,
                0.9640559192236223,
                0.8673810337567199,
                0.14207074803870912,
                1.1120768331818678,
                0.31330895722862906,
                1.2991330441718385,
                0.22142768840787333,
                1.408013197545025,
                1.0858368332064599,
                0.627557726022649
            ],
            "photocathode": [
                3550,
                644,
                4772,
                1458,
                6772,
                6430,
                2201,
                7876,
                3682,
                6180,
                3935,
                4548,
                3698,
                4372,
                394,
                3026,
                9964,
                8984,
                4132,
                4403,
                7701,
                3139,
                8033,
                6712,
                608,
                7581,
                2074,
                5910,
                5534,
                4048,
                7728,
                4975,
                2211,
                4221,
                7071,
                1788,
                4380,
                6743,
                9926,
                5550,
                4032,
                4707,
                1508,
                6037,
                2658,
                7604,
                4100,
                4984,
                489,
                1150,
                8420,
                503,
                3037,
                7159,
                3138,
                5436,
                6115,
                541,
                6473,
                3816,
                10193,
                182,
                1836,
                7695,
                4348,
                243,
                765,
                10065,
                1571,
                5593,
                4208,
                2735,
                2351,
                2318,
                7553,
                3998,
                2383,
                4270,
                2208,
                78,
                1481,
                7551,
                536,
                5550,
                523,
                4261,
                3743,
                8050,
                831,
                6683,
                1945,
                5571,
                3610,
                1697,
                609,
                5458,
                2437,
                4604,
                4700,
                535,
                2203,
                2931,
                9799,
                2727,
                3883,
                3171,
                222,
                3128,
                9801,
                5585,
                7045,
                931,
                7769,
                3969,
                2290,
                555,
                9835,
                2436,
                3546,
                2311,
                3733,
                7628,
                7760,
                5018,
                4347,
                5699,
                7562,
                5375,
                2048,
                5498,
                3412,
                5585,
                8284,
                527,
                3765,
                3830,
                6686,
                5172,
                4318,
                7865,
                6798,
                1199,
                5728,
                7754,
                6015,
                7492,
                6852,
                544,
                4114,
                3100,
                2830,
                4056,
                2276,
                131,
                131,
                4967,
                4118,
                13,
                2367,
                3150,
                6075,
                6129,
                1224,
                9692,
                4618,
                3404,
                4676,
                7477,
                1548,
                3599,
                780,
                7890,
                2385,
                2855,
                5605,
                4259,
                958,
                1004,
                7773,
                4971,
                5565,
                1282,
                72,
                5083,
                4598,
                4208,
                1505,
                5799,
                2220,
                4591,
                1482,
                7301,
                2897,
                10138,
                5080,
                4074,
                2297,
                7616,
                4388,
                6408,
                6950,
                10053,
                5482,
                497,
                1301,
                2883,
                4514,
                7961,
                5384,
                2297,
                3252,
                9709,
                2515,
                1802,
                1718,
                1080,
                2175,
                2091,
                7836,
                4166,
                4679,
                6486,
                1040,
                6092,
                4346,
                5049,
                828,
                5244,
                5542,
                209,
                6057,
                2530,
                4139,
                9830,
                6812,
                5931,
                2309,
                3627,
                547,
                2532,
                1696,
                5642,
                7846,
                1707,
                5500,
                4657,
                6727,
                9999,
                5099,
                2368,
                4574,
                4384,
                7967,
                649,
                7925,
                10285,
                586,
                6645,
                1979,
                1567,
                2451,
                2441,
                6933,
                1979,
                6594,
                24,
                7934,
                6666,
                3327,
                2378,
                1477,
                7713,
                7466,
                3791,
                3178,
                2313,
                8849,
                6689,
                6863,
                5471,
                6721,
                3047,
                980,
                2602,
                6051,
                2588,
                6418,
                7695,
                7590,
                6431,
                952,
                2214,
                5296,
                1478,
                5543,
                7923,
                3528,
                4746,
                4997,
                5390,
                5438,
                8730,
                7781,
                1623,
                4603,
                7833,
                6732,
                5573,
                4141,
                764,
                3894,
                4913,
                1897,
                6466,
                4176,
                4398,
                5339,
                5495,
                5889,
                6369,
                7463,
                3927,
                1030,
                4600,
                5067,
                9758,
                3348,
                1874,
                4776,
                3352,
                9706,
                680,
                7639,
                7749,
                3613,
                4187,
                586,
                8519,
                746,
                884,
                10078,
                6881,
                1039,
                7713,
                6814,
                5599,
                2097,
                2786,
                544,
                9788,
                1840,
                359,
                5169,
                5019,
                4349,
                6760,
                3355,
                4058,
                5404,
                2623,
                4938,
                116,
                519,
                2479,
                4358,
                9108,
                3105,
                1994,
                2414,
                4222,
                10122,
                5331,
                366,
                4365,
                757,
                5400,
                2002,
                4580,
                1388,
                10032,
                5562,
                1894,
                3367,
                5366,
                3342,
                3577,
                6647,
                786,
                5794,
                3043,
                355,
                3863,
                2295,
                8020,
                4791,
                5513,
                1591,
                3093,
                2434,
                3047,
                3523,
                4615,
                3404,
                2662,
                1563,
                7740,
                1637,
                2116,
                3374,
                5308,
                6778,
                2214,
                6776,
                6048,
                10007,
                2715,
                9893,
                1669,
                1984,
                5481,
                3111,
                8034,
                10009,
                741,
                3275,
                2753,
                5678,
                9125,
                5423,
                7841,
                4694,
                8075,
                6852,
                5771,
                5436,
                8565,
                10066,
                3936,
                283,
                3603,
                3267,
                4459,
                7660,
                3231,
                7289,
                4919,
                9932,
                6751,
                1980,
                1581,
                1818,
                7508,
                837,
                7664,
                6767,
                4718,
                394,
                6767,
                1595,
                8355,
                4403,
                2635,
                7005,
                395,
                4317,
                5152,
                7363,
                4357,
                5883,
                3431,
                5592,
                10184,
                654,
                4289,
                7639,
                2918,
                5278,
                6867,
                284,
                6955,
                2622,
                4183,
                2529,
                3363,
                6768,
                5789,
                4407,
                2402,
                3809,
                6644,
                6839,
                6350,
                923,
                8114,
                2195,
                9219,
                1541,
                9866,
                7814,
                4322
            ]
        },
        "detections": 500,
        "events": 192351
    }
}