{
    "job_args": {
        "metric_limit": 500,
        "seed": 1574294905
    },
    "job_id": "batch_155_do_500",
    "result": {
        "collections": {
            "crystal": [
                0.6538052049252113,
                0.430291644834628,
                1.112076833181868,
                0.13229516249536893,
                0.7699226781231202,
                1.0539916873497952,
                0.5681154706805578,
                0.7175770290568525,
                0.12879512551482253,
                0.8821241203579577,
                0.11817634949362531,
                0.28011422109628137,
                1.408013197545025,
                0.9640559192236223,
                0.8169416270287377,
                0.2514436733265776,
                0.14200590700761018,
                1.101165072306756,
                0.9907355142623185,
                1.4080131975450252,
                0.5386689803925928,
                0.2363245300770241,
                0.04436220721821238,
                0.6047256270437368,
                0.49492624776308314,
                0.419530470362815,
                0.40948250222340987,
                0.18759807275951446,
                0.4119596744464364,
                0.08872768465120706,
                0.7578752272262501,
                0.34427858112655696,
                0.15538164949123534,
                1.0402374406863524,
                0.38098722850041916,
                0.3319417037348366,
                0.7789048647004685,
                0.7789048647004684,
                0.05001143680424225,
                0.39113843115381597,
                0.14724610580313235,
                0.0466405,
                0.429634126072875,
                0.7789048647004683,
                1.4080131975450252,
                0.21502666604039913,
                0.14149885965866293,
                0.34344659165297253,
                0.8673810337567199,
                0.08686556368040255,
                0.8798929525428291,
                1.1603605457109214,
                0.5468891841693811,
                0.09543844793567458,
                0.7487913976426324,
                1.1120768331818676,
                0.9640559192236222,
                0.8933431797975109,
                0.4565599254185054,
                0.7789048647004684,
                0.4875311040447453,
                0.26086044956513704,
                0.0739371356428602,
                1.408013197545025,
                0.8403065338168305,
                0.8019414989866489,
                0.5311722688842653,
                1.1096927402419907,
                1.2991330441718387,
                0.016422576883946216,
                0.7613677533398122,
                0.3552698112581691,
                0.44396036297130936,
                0.1738037491596422,
                0.33302268746461444,
                0.3442785811265569,
                0.07525000000000001,
                0.42372464591145276,
                1.4080131975450252,
                0.7087247220717541,
                0.6065790628046316,
                0.0852354,
                0.665395966626269,
                0.4708113537950933,
                0.2186525157164937,
                0.44397299599870776,
                0.16479525704406672,
                0.21325655734547233,
                0.6273925686032208,
                0.8228771471639136,
                0.71624313645581,
                0.5325021107500766,
                1.4080131975450252,
                1.2499476822978295,
                0.010672960159228584,
                0.28145625449937983,
                0.4439603629713093,
                1.112076833181868,
                0.5647167649143773,
                1.4080131975450252,
                0.6394687594904692,
                0.51378377986903,
                0.2003892135201657,
                0.2246071417709407,
                0.4548741041574518,
                0.3259364168294079,
                0.0876557,
                0.8812104558312143,
                0.6921987612874226,
                0.07669367291199958,
                0.8971512628586762,
                0.9313676774231922,
                0.5692175968350288,
                0.54390494856981,
                1.4080131975450252,
                0.86738103375672,
                0.11009538564892574,
                1.112076833181868,
                0.37583480120117113,
                0.4411627166806946,
                1.08583683320646,
                0.3442785811265569,
                0.6689111793210606,
                0.9092008119029105,
                0.42910027787492566,
                0.29120118777719955,
                0.2736221081767259,
                0.3666215221098653,
                0.6536491219234973,
                0.7178759753041086,
                0.5266924148572193,
                1.112076833181868,
                0.20282945226659047,
                0.0852354,
                0.002822865460630597,
                1.0553901065456943,
                0.2833450436798781,
                0.07525,
                1.4080131975450247,
                0.5765367448849255,
                1.112076833181868,
                0.7789048647004682,
                0.0847407,
                1.2613243862939283,
                0.19739612072574908,
                0.461114987455177,
                0.25002893640172175,
                1.3323345894942875,
                0.7871621559140907,
                1.337330318372157,
                0.4111165114560972,
                0.8746979373785969,
                0.7839749913135404,
                0.09530259981945843,
                0.2563565545517289,
                0.5874861377457362,
                0.48026850612899985,
                0.9640559192236224,
                0.44556030511890365,
                0.8673810337567199,
                0.34427858112655685,
                1.2129444931966777,
                0.0018358401526549217,
                0.4962652788413954,
                0.7193598637916532,
                0.23757337839445913,
                0.7774709353690823,
                0.3735146809853691,
                0.19088588766110978,
                0.964055919223622,
                0.13732043810154404,
                0.47854189250930107,
                1.408013197545025,
                1.408013197545025,
                0.07573532985930498,
                0.5393396308723022,
                0.9640559192236223,
                0.4241290840116796,
                0.1970210152683123,
                1.408013197545025,
                0.3036608292498424,
                1.0858368332064599,
                0.9640559192236223,
                1.2436598014116822,
                0.27992800468646917,
                0.0876557,
                1.4080131975450252,
                1.408013197545025,
                0.031747358012372384,
                0.15055639656868458,
                0.39523399554531213,
                0.25605066839878776,
                0.8453420460030547,
                1.1120768331818678,
                0.10110500532439048,
                0.30940078184531195,
                1.4576396949610415,
                0.41541801713951765,
                0.32096221257623925,
                1.1120768331818678,
                1.112076833181868,
                0.5427019549029952,
                1.4080131975450245,
                0.532471136351517,
                0.48235537498151115,
                0.07381909485458982,
                0.0852354,
                0.9885362582337213,
                0.7812698456212176,
                0.6249869609446584,
                0.15073259120295257,
                0.5645885658035539,
                1.4080131975450245,
                1.1120768331818678,
                0.17969342350391304,
                0.7965045718595627,
                0.027862677490395282,
                0.38232365181508726,
                0.9313034200936563,
                0.06954910329657016,
                1.4080131975450252,
                1.0858368332064599,
                0.6364192118561516,
                0.4912122256617876,
                0.3878438926190559,
                1.2991330441718385,
                0.005068963076140964,
                0.059047546007774405,
                0.8659082746526753,
                0.617572722314295,
                0.641968078865956,
                0.4513170043045734,
                1.408013197545025,
                0.3468315228619334,
                0.26788726406070884,
                0.6876263314516362,
                1.0554329434663061,
                0.012984183098908364,
                0.6185062731292809,
                1.1120768331818678,
                0.5654569752632468,
                1.187032306790337,
                0.3084895277822481,
                0.6663956076349543,
                1.0547642641981274,
                0.9265268659370446,
                0.738424335942538,
                0.7066345439411386,
                0.4439603629713093,
                0.15080354535372945,
                1.0858368332064599,
                0.7344417456749607,
                0.680331625261577,
                0.6425976523777004,
                1.0775424910540414,
                0.4847242841990395,
                0.6398451675459996,
                0.9640559192236223,
                0.004434954224039389,
                1.1120768331818676,
                0.40744150569582765,
                0.34427858112655685,
                0.5935358892105014,
                0.17668262699544934,
                0.3405718462158359,
                0.9640559192236221,
                0.4536780341498835,
                0.9640559192236222,
                0.25116123875390406,
                0.7986044035043436,
                0.49807549733576567,
                0.6746410840987509,
                0.8061690453973314,
                0.6989847576909007,
                0.5182879621795327,
                0.32976201894432106,
                0.8673810337567199,
                1.4080131975450247,
                0.1890287115213462,
                0.5558142998480995,
                0.6868080117144132,
                0.37694103937405277,
                0.1573872542334367,
                0.34427858112655685,
                0.3560585313558293,
                1.408013197545025,
                0.8638514570262747,
                0.6273658039015306,
                0.22113372550354576,
                1.4080131975450252,
                0.08936285655709678,
                0.583659368313262,
                0.4853333406902778,
                1.4080131975450247,
                0.30522294570842595,
                0.21629112393229455,
                1.2129444931966775,
                0.5559898623264357,
                0.10625454389760793,
                0.32576778857671435,
                0.4530124175123358,
                0.5200126192914496,
                0.4458206928526577,
                0.5023196926254443,
                1.408013197545025,
                0.7750525350692697,
                0.9640559192236223,
                0.6598845124255908,
                1.1120768331818678,
                0.13220285533306844,
                0.1518446339590075,
                1.0858368332064599,
                0.6238661591687082,
                0.972044258208703,
                0.3535882734120857,
                0.8008398632522644,
                0.8553014132411232,
                0.4111165114560972,
                0.23529201572911737,
                0.44396036297130936,
                0.511713241723531,
                0.9640559192236222,
                0.24200295802578722,
                1.0858368332064599,
                0.4675115689700983,
                0.9640559192236223,
                1.408013197545025,
                0.5651781496267938,
                0.9640559192236222,
                0.4814135022724382,
                0.9014994578449401,
                0.5271349739421824,
                0.828594486185982,
                1.0858368332064599,
                0.07525,
                1.0858368332064599,
                0.7789048647004684,
                0.11779535361619378,
                0.3020529808001409,
                1.1120768331818678,
                0.10336259478160437,
                0.25562574556540885,
                0.6317413416411708,
                0.059777690772627734,
                0.9640559192236222,
                0.6485345323660383,
                0.2294885518419959,
                0.39390509159825393,
                0.5233959591056638,
                0.6671816307067766,
                0.4663982818561576,
                0.7197611912110988,
                0.7523165559094811,
                0.012186251192084607,
                0.7789048647004684,
                0.9640559192236221,
                0.7277227608129659,
                1.1120768331818676,
                0.7789048647004684,
                0.6921414503230967,
                0.21405919717300637,
                1.408013197545025,
                0.09379375084441183,
                0.5152415582804468,
                1.0726023662761257,
                1.3696259042253294,
                0.6559591128244793,
                0.01486056792588386,
                0.0847407,
                0.9682703760932652,
                0.45822696982365096,
                0.3252965140026113,
                1.0858368332064599,
                0.5119565646038379,
                0.2557195980620879,
                0.45968928387693053,
                0.47001352065481883,
                0.9774862659579376,
                0.9640559192236221,
                1.408013197545025,
                0.9640559192236222,
                0.21641694229983355,
                1.0314513040819575,
                0.9640559192236221,
                0.09649356535890895,
                1.4080131975450247,
                0.572350976788538,
                1.4080131975450247,
                0.7789048647004683,
                0.1534062401820314,
                0.4617287615603907,
                0.19484190400486684,
                0.27277516279177383,
                0.4869222230482884,
                0.26772045571752917,
                0.218897387556807,
                0.7789048647004685,
                0.6998516483787265,
                0.8457787468357822,
                0.9403479271944029,
                0.7370873737291368,
                1.408013197545025,
                0.7789048647004684,
                0.9513879147118548,
                0.4150084316067991,
                0.9193372168731735,
                0.8673810337567199,
                0.6809501616255662,
                0.07525,
                0.03117278933978407,
                0.17117207721059546,
                0.5728981357844942,
                1.1120768331818678,
                1.1225043088275812,
                0.503474131734551,
                0.24063717093416323,
                1.0858368332064596,
                0.26843523491924404,
                0.073039,
                0.19292274975657253,
                0.9640559192236222,
                0.9640559192236222,
                0.5354322291173701,
                1.2129444931966777,
                0.26544185036458035,
                0.3654021432283553,
                0.5762818794442864,
                0.5723086787831463,
                0.7789048647004684,
                1.1091976519589677,
                0.8673810337567199,
                1.1120768331818682,
                0.6785177370828456,
                0.014787326947132806,
                0.5263838549880295,
                0.8056674772168628,
                0.3602528402134534,
                0.2294821185575736,
                0.5285579572391291,
                0.7234875560886499,
                0.5906394924634817,
                1.0858368332064599,
                1.2991330441718385,
                1.408013197545025,
                0.6671687978604127,
                0.08523539999999999,
                0.9035197574998213,
                0.6786222447558068,
                0.4622305252189808,
                0.6289021018936518,
                0.9640559192236221,
                0.7789048647004684,
                0.706035113618895,
                0.11009815253326993,
                0.23861886374818272,
                0.488679196368517,
                0.8414236534082136,
                0.6711285953064974,
                0.279196003447,
                0.30855723303171284,
                0.42238307052706947,
                0.19249678106756984,
                0.07525,
                1.2927670937322722,
                1.5280409521036968,
                0.2972187187911849,
                0.12874799777817603,
                0.7216783140430005,
                0.4844029412631987,
                0.6864031682702527,
                0.3560778328544898,
                0.9640559192236223,
                1.08583683320646,
                0.986476367585637,
                0.9030820349813398,
                0.557143113758363,
                0.5753322587340777,
                0.8673810337567198,
                0.0447325,
                0.35242159415714586,
                0.5241914481601893,
                0.4267195923263821,
                0.22531453744839816,
                0.5687732019667436,
                1.2598260093613238,
                0.34427858112655696,
                0.6742534725433054,
                0.8186226517227604,
                1.0858368332064599,
                0.591173988568635,
                0.4192649005394669,
                0.6787033172445235,
                1.087221649557959,
                0.19171321938970012,
                0.2834585840304847,
                1.0244410344012247,
                0.4946224540994352,
                0.6944117625779818,
                0.4433766515095318,
                1.1566949015764183
            ],
            "photocathode": [
                4585,
                2965,
                7868,
                909,
                5545,
                7366,
                4058,
                5046,
                923,
                6078,
                844,
                2028,
                9804,
                6752,
                5780,
                1748,
                1061,
                7599,
                7008,
                9753,
                3697,
                1705,
                304,
                4336,
                3529,
                3013,
                2853,
                1276,
                2960,
                638,
                5259,
                2361,
                1110,
                7373,
                2725,
                2353,
                5562,
                5383,
                385,
                2807,
                1032,
                335,
                2954,
                5303,
                9703,
                1530,
                1024,
                2382,
                6311,
                637,
                6236,
                7986,
                3770,
                658,
                5256,
                7794,
                6678,
                6138,
                3308,
                5372,
                3439,
                1876,
                494,
                9969,
                5858,
                5585,
                3821,
                7922,
                9391,
                108,
                5301,
                2414,
                3063,
                1183,
                2435,
                2415,
                546,
                2876,
                9901,
                5020,
                4405,
                616,
                4727,
                3392,
                1452,
                3150,
                1171,
                1556,
                4325,
                5813,
                4874,
                3815,
                9757,
                8750,
                75,
                1931,
                2979,
                7926,
                3854,
                10100,
                4442,
                3671,
                1422,
                1586,
                3080,
                2263,
                595,
                6267,
                4878,
                538,
                6214,
                6703,
                4031,
                3714,
                9808,
                6093,
                764,
                7823,
                2604,
                3106,
                7525,
                2522,
                4794,
                6244,
                2981,
                2058,
                1948,
                2565,
                4592,
                5024,
                3577,
                7881,
                1393,
                582,
                14,
                7378,
                2026,
                524,
                9888,
                4008,
                7734,
                5482,
                616,
                8964,
                1412,
                3189,
                1803,
                9134,
                5590,
                9291,
                2808,
                6219,
                5668,
                685,
                1807,
                4057,
                3382,
                6681,
                3180,
                5974,
                2365,
                8348,
                21,
                3403,
                5140,
                1599,
                5477,
                2632,
                1354,
                7022,
                919,
                3373,
                10211,
                9829,
                557,
                3911,
                6679,
                2928,
                1415,
                10016,
                2103,
                7662,
                6526,
                8855,
                2021,
                621,
                9824,
                9851,
                210,
                1019,
                2911,
                1781,
                5809,
                7990,
                761,
                2219,
                10386,
                2874,
                2187,
                7739,
                7791,
                3801,
                9838,
                3729,
                3344,
                520,
                577,
                6781,
                5542,
                4389,
                1047,
                4070,
                9999,
                7734,
                1269,
                5564,
                202,
                2731,
                6516,
                488,
                10210,
                7528,
                4414,
                3398,
                2692,
                9055,
                32,
                380,
                6121,
                4395,
                4426,
                3127,
                10050,
                2388,
                1885,
                4981,
                7266,
                92,
                4354,
                8028,
                3919,
                8426,
                2107,
                4513,
                7414,
                6554,
                5225,
                4974,
                3080,
                1077,
                7532,
                5127,
                4778,
                4491,
                7428,
                3485,
                4624,
                6709,
                29,
                7847,
                2950,
                2408,
                4130,
                1280,
                2309,
                6908,
                3236,
                6795,
                1694,
                5462,
                3471,
                4597,
                5606,
                4927,
                3638,
                2482,
                6168,
                9843,
                1326,
                3930,
                4806,
                2666,
                1085,
                2439,
                2673,
                9822,
                6115,
                4369,
                1546,
                9983,
                609,
                4084,
                3401,
                9970,
                2181,
                1499,
                8420,
                3871,
                736,
                2366,
                3197,
                3653,
                3239,
                3416,
                9769,
                5490,
                7025,
                4681,
                8008,
                891,
                1028,
                7654,
                4353,
                6907,
                2481,
                5689,
                6083,
                2900,
                1595,
                3225,
                3622,
                6615,
                1780,
                7734,
                3185,
                7080,
                9900,
                3991,
                6663,
                3319,
                6358,
                3672,
                6114,
                7646,
                550,
                7608,
                5477,
                871,
                2020,
                7835,
                766,
                1727,
                4385,
                449,
                6584,
                4620,
                1587,
                2810,
                3735,
                4699,
                3235,
                5109,
                5463,
                89,
                5510,
                6645,
                5124,
                7774,
                5421,
                4739,
                1512,
                9847,
                661,
                3661,
                7523,
                9443,
                4677,
                96,
                583,
                6743,
                3208,
                2297,
                7397,
                3738,
                1806,
                3314,
                3510,
                6642,
                6774,
                10089,
                6593,
                1502,
                7452,
                6823,
                704,
                9852,
                4115,
                9863,
                5363,
                1069,
                3187,
                1344,
                1919,
                3455,
                1892,
                1577,
                5376,
                4936,
                5911,
                6599,
                5374,
                10091,
                5425,
                6925,
                2809,
                6414,
                5991,
                4775,
                511,
                244,
                1187,
                4037,
                7842,
                8212,
                3614,
                1754,
                7638,
                1852,
                488,
                1309,
                6755,
                6623,
                3669,
                8560,
                1926,
                2490,
                4017,
                4034,
                5515,
                7848,
                6012,
                7678,
                4761,
                86,
                3754,
                5546,
                2530,
                1651,
                3751,
                5164,
                4028,
                7569,
                9251,
                9791,
                4633,
                574,
                6266,
                4803,
                3309,
                4370,
                6735,
                5403,
                5006,
                797,
                1720,
                3395,
                5957,
                4708,
                1965,
                2248,
                2969,
                1363,
                529,
                8934,
                10708,
                2163,
                891,
                5129,
                3441,
                4728,
                2485,
                6640,
                7723,
                6895,
                6455,
                3890,
                4020,
                5893,
                330,
                2512,
                3779,
                3058,
                1520,
                3935,
                8826,
                2327,
                4680,
                5634,
                7591,
                4229,
                3015,
                4659,
                7564,
                1361,
                2041,
                7169,
                3436,
                4951,
                3080,
                8143
            ]
        },
        "detections": 500,
        "events": 209596
    }
}