{
    "job_args": {
        "metric_limit": 500,
        "seed": 1277309809
    },
    "job_id": "batch_61_do_500",
    "result": {
        "collections": {
            "crystal": [
                0.11263209097886066,
                0.5109989100000001,
                0.3060927833598958,
                0.31347835805727076,
                0.03403598551017817,
                0.508204417609274,
                0.31892434050201346,
                0.51099891,
                0.5109989099999999,
                0.920998476552338,
                0.421418140949343,
                0.6881776301386922,
                0.7991409066400372,
                0.3506709806621028,
                0.30712390636774267,
                0.51099891,
                0.3039813933017259,
                0.7027200904426574,
                0.39691643744781385,
                0.4481763656303613,
                0.07525000000000001,
                0.4734672598836202,
                0.020590587461696508,
                0.8669865370855072,
                0.04694349999999999,
                0.39475945994512496,
                0.51099891,
                0.1923006255028388,
                0.1112389758173572,
                0.13119265725485948,
                0.13136897129461206,
                0.37577789743287043,
                0.34534883963803914,
                0.6505628251235208,
                1.1570026486409521,
                0.2323554173795671,
                0.5072984469237701,
                0.33083212312722765,
                0.8420110953985868,
                0.29795933316739265,
                0.06722540648235599,
                0.35065930860225114,
                1.1570026486409524,
                0.51099891,
                0.46471554594418235,
                0.5655763988634248,
                1.1570026486409521,
                0.3080591209600022,
                1.1570026486409521,
                1.1570026486409521,
                0.48632248101062625,
                0.15853870804799752,
                0.4494131483633975,
                0.03162028820083762,
                0.26419447436644206,
                0.5223348276934768,
                0.7697446897744035,
                0.43963638221867485,
                0.3485448875561711,
                0.51099891,
                0.24626422603619916,
                1.1570026486409521,
                0.05471518612823745,
                0.51099891,
                0.51099891,
                0.51099891,
                0.51099891,
                1.1570026486409521,
                0.14183930659682792,
                0.49482712882826024,
                0.21340941152151882,
                0.8686910317384553,
                0.11782435285278382,
                0.1350048286409521,
                0.21205488510796983,
                0.9245748678574323,
                1.157002648640952,
                0.49579359650031435,
                0.0444295,
                0.1599918327738505,
                0.51099891,
                1.1570026486409524,
                0.5109989099999999,
                0.4846618538642319,
                0.09580497823192968,
                0.07525,
                0.5193248620996685,
                0.1158334057615873,
                0.1502825297516115,
                0.1703625614350985,
                0.51099891,
                0.8878682410766991,
                0.027051302996768223,
                0.07524999999999998,
                0.36173670625364684,
                0.8870369249015164,
                0.08476256925215608,
                0.5109989099999999,
                0.51099891,
                1.157002648640952,
                0.3802699214509595,
                0.51099891,
                0.728504844042126,
                0.5313193579686464,
                0.698949583017126,
                0.0876557,
                0.1997013062798903,
                0.16282696079981568,
                0.5109989100000001,
                0.02053586269294705,
                0.03149768979963258,
                1.128393148640952,
                0.24766311188772508,
                1.1570026486409521,
                0.24571570410338758,
                0.11509539996666496,
                0.10150828618929605,
                0.709807035823407,
                0.45570665212971373,
                1.157002648640952,
                0.3750050299040498,
                0.5109989099999999,
                1.1570026486409521,
                0.25073198719488476,
                0.7188862420414679,
                0.3361506243450765,
                0.5109989100000001,
                1.1446104414235132,
                0.19620918478293034,
                0.26432829950616943,
                0.51099891,
                0.6271233501350202,
                0.36802520122072624,
                0.11822292825489505,
                0.3388660330231615,
                0.8608124497645994,
                0.51099891,
                0.122359989131416,
                0.30331611511587603,
                0.44926764724132184,
                0.8319971918795959,
                0.51099891,
                0.3962811693010072,
                1.6680015586409522,
                0.7146543293974486,
                0.51099891,
                1.157002648640952,
                0.51099891,
                0.07525,
                0.06978402741126466,
                0.08813952490396226,
                0.40416071463001957,
                0.3148850480078651,
                0.23332265465046276,
                0.6300652956981125,
                0.19938562869072188,
                1.157002648640952,
                0.8825229720220489,
                1.1570026486409524,
                0.32668362383720373,
                1.1570026486409521,
                1.1570026486409521,
                0.51099891,
                0.7980109985654907,
                1.1570026486409521,
                1.1570026486409521,
                0.51099891,
                0.7906436186064573,
                0.19963192789383483,
                0.5109989100000001,
                0.3939182009745127,
                0.51099891,
                0.51099891,
                0.073039,
                1.1570026486409524,
                0.51099891,
                0.5109989100000001,
                0.21236070180235353,
                1.1182909443643867,
                0.6078793498009704,
                0.10785167161604975,
                1.1570026486409521,
                0.7912344467728215,
                0.7217971118282013,
                1.157002648640952,
                0.6011582845469714,
                0.799658904843426,
                0.51099891,
                1.1570026486409521,
                0.17905756998490413,
                1.157002648640952,
                1.157002648640952,
                0.31571917273764605,
                0.08861492459933762,
                1.157002648640952,
                1.157002648640952,
                0.1813023505638661,
                1.02556527831269,
                1.1570026486409521,
                0.6731494939367544,
                0.5846189433626987,
                0.3270258433682213,
                1.1570026486409521,
                0.5109989099999999,
                0.5109989099999999,
                0.24640998347322257,
                1.1570026486409521,
                0.8285343231311153,
                0.2636323692302372,
                0.51099891,
                0.51099891,
                1.157002648640952,
                0.48832187180897857,
                0.6002119546015683,
                0.4239846579486093,
                0.51099891,
                0.3782246717024723,
                0.4936064051055341,
                0.24622693899863068,
                0.024033870042636185,
                0.4364408883705864,
                0.19524019930703618,
                0.6240694182631434,
                0.34116365916938396,
                0.4515771161932069,
                0.51099891,
                0.3042065470666413,
                0.6372936307493933,
                0.4077393769739554,
                0.5109989100000001,
                0.4293127844822667,
                0.6067954139138269,
                0.618910916722236,
                0.51099891,
                0.46434057908945414,
                0.7842575315070175,
                0.5021724656339641,
                0.3033651116710724,
                0.51099891,
                0.8835856149835472,
                0.041947106895172226,
                0.16340783923615332,
                0.6271762687543371,
                0.4958445401854775,
                0.16155212070479602,
                0.51099891,
                0.3883156127439027,
                0.6055368184758234,
                0.007202882976356517,
                0.16601413009776061,
                0.2842679147761396,
                0.8146743438342355,
                0.3004031924359848,
                0.7405660534194594,
                0.31161727404655826,
                0.51099891,
                0.5109989099999999,
                0.3106346627757324,
                0.0643863061043547,
                0.041044145971836254,
                0.15405481754639838,
                0.4835557830260277,
                0.06239830413889036,
                0.37058266779895754,
                0.2409937440228379,
                0.51099891,
                0.5109989099999999,
                0.5241080526623859,
                0.23329968588955635,
                1.3946809029576346,
                0.6251875892806795,
                1.1570026486409521,
                0.51099891,
                1.157002648640952,
                1.0196631727565255,
                0.6049713772685803,
                0.07303900000000002,
                0.36566124006822986,
                0.5443618095901666,
                0.8267049103835258,
                0.1852046644980701,
                0.51099891,
                1.1570026486409521,
                0.9377872223042424,
                0.4942438374678366,
                0.23733900318590526,
                0.7938741184413455,
                0.5109989100000001,
                1.1570026486409521,
                0.24870488155442969,
                0.07124076030084447,
                1.1570026486409524,
                0.7396587850934977,
                0.48387318520310574,
                0.08523539999999999,
                0.1295774324776394,
                1.1570026486409524,
                0.7504074421251454,
                0.37013221592624423,
                0.34514285414748996,
                0.453987075085819,
                0.8762752353641896,
                0.51099891,
                0.3756373290466694,
                0.5109989099999999,
                0.19167939477962923,
                1.157002648640952,
                0.5109989099999999,
                0.16198177677878892,
                0.2601970598993959,
                0.51099891,
                0.05084290124377644,
                0.44970481156655795,
                0.06015792062482073,
                0.1531457440794241,
                0.5109989100000001,
                0.51099891,
                0.9460506876961705,
                0.5109989100000001,
                0.19166195552553258,
                1.1570026486409521,
                0.4779899137681811,
                0.29203581086888497,
                0.7156494268443614,
                1.1570026486409521,
                0.11620515813910148,
                0.3738494095095168,
                0.30537946012141515,
                0.4927710924278298,
                0.8667132377461789,
                1.1570026486409521,
                0.44380051050702474,
                0.4805736783350387,
                1.157002648640952,
                0.3436673000303559,
                0.7453203775528393,
                0.41748837267870864,
                0.5036947440353915,
                0.00035650137831677586,
                0.4949039126755206,
                0.1356951824161046,
                0.6448616875448805,
                0.51099891,
                0.8912641377723419,
                1.1570026486409521,
                0.7207824960189092,
                0.4864643785533299,
                0.47514730718968246,
                0.8684449032837552,
                0.3835608749487215,
                0.51099891,
                0.9914767864073704,
                0.734835840555892,
                1.1570026486409524,
                0.4798942092118749,
                0.6079036869140122,
                0.015085855996974373,
                1.1570026486409524,
                1.0396020625192461,
                0.21342849716808937,
                1.1570026486409524,
                0.51099891,
                1.1570026486409521,
                0.2529508809579852,
                0.28298644656714256,
                0.1482516350452392,
                1.157002648640952,
                0.796278628732857,
                0.0852354,
                1.157002648640952,
                0.51099891,
                0.6240611256505113,
                0.28146065237575485,
                0.51099891,
                0.6767727064345115,
                0.5175479476311636,
                0.51099891,
                0.7995879332198306,
                0.6384954103451701,
                0.31843283480841983,
                0.30762652576367766,
                0.51099891,
                0.073039,
                0.5328647497091564,
                0.51099891,
                0.5109989099999999,
                1.1570026486409524,
                0.4032507403770842,
                0.05550696808676231,
                0.9516795970812872,
                0.51099891,
                0.3914384127586282,
                1.1570026486409521,
                0.10051514966636277,
                0.2795693018497922,
                1.1570026486409524,
                0.43339657778515484,
                0.6600640073915184,
                0.6786475806880228,
                0.04439768934136934,
                1.157002648640952,
                0.45797145898880853,
                0.3257714165994342,
                0.51099891,
                0.073039,
                0.43969320614543717,
                0.22444694297630552,
                0.51099891,
                0.3948394739680925,
                0.3776501547462851,
                0.617141921751615,
                0.7840293423979448,
                0.3401107043254366,
                0.39862187062473897,
                0.2247977549103029,
                0.6049919318826162,
                0.2118590581593276,
                1.1570026486409521,
                1.145741263877284,
                0.8917124287098267,
                0.8328928673057161,
                1.1570026486409521,
                0.51099891,
                1.157002648640952,
                0.2236591368231554,
                0.5109989100000001,
                0.3081977538298637,
                0.8984836945447978,
                0.5109989099999999,
                0.5109989100000001,
                0.21931727362228742,
                0.51099891,
                0.33893652236317634,
                0.03415887770760184,
                0.1361826806648796,
                0.5469613734499559,
                0.4608224908770391,
                0.51099891,
                0.2531643603948792,
                0.3767304060863731,
                0.10940519721288533,
                0.455598698102301,
                1.1570026486409521,
                0.7332123434924888,
                0.51099891,
                1.1570026486409524,
                0.3638391984282374,
                0.51099891,
                0.5401583340873308,
                0.3882270552391379,
                0.462459889046265,
                0.8171252918387606,
                0.3763216631840661,
                0.5717826078785971,
                0.51099891,
                0.51099891,
                0.26341032129548847,
                0.7919535396032418,
                1.1570026486409524,
                0.51099891,
                1.157002648640952,
                0.5622866875227512,
                0.5109989099999999,
                0.38251795090317164,
                1.157002648640952,
                1.157002648640952,
                1.157002648640952,
                0.16709616104058228,
                0.51099891,
                0.51099891,
                0.6557368150173524,
                0.5109989100000001,
                0.087534,
                0.3623359410179185,
                1.0494539694170275,
                0.0011198032309454597,
                0.5109989100000001,
                0.5109989100000001,
                0.001389739344069718,
                0.32692927218431067,
                1.111187478036357,
                0.6089874293323899,
                0.51099891,
                0.3348115935565614,
                0.49180157322208545,
                0.3807929623432325,
                0.5109989100000001,
                0.35178025582398903,
                0.4404220692887194,
                0.26083472790122597,
                0.8844456473398421,
                0.389171408260139,
                0.51099891,
                0.4380890275541827,
                0.682358843942277,
                0.4159713834136962,
                0.07043120326928776,
                0.06125149752185577,
                0.49497869569359176,
                0.4421866657284448
            ],
            "photocathode": [
                866,
                3778,
                2161,
                2119,
                232,
                3587,
                2253,
                3567,
                3685,
                6701,
                2853,
                5023,
                5700,
                2489,
                2153,
                3585,
                2105,
                4928,
                2848,
                3168,
                523,
                3340,
                134,
                5997,
                339,
                2821,
                3506,
                1326,
                780,
                862,
                875,
                2614,
                2380,
                4653,
                8152,
                1613,
                3566,
                2406,
                5933,
                2127,
                455,
                2376,
                7974,
                3559,
                3192,
                3921,
                7959,
                2083,
                7993,
                8096,
                3452,
                1108,
                3180,
                218,
                1851,
                3661,
                5533,
                3165,
                2368,
                3523,
                1739,
                8211,
                388,
                3559,
                3629,
                3746,
                3562,
                8229,
                965,
                3543,
                1514,
                6017,
                846,
                957,
                1480,
                6438,
                8079,
                3450,
                319,
                1110,
                3542,
                8016,
                3447,
                3467,
                671,
                537,
                3606,
                858,
                1063,
                1154,
                3595,
                6362,
                195,
                575,
                2498,
                6126,
                627,
                3704,
                3633,
                7901,
                2699,
                3530,
                5067,
                3742,
                4817,
                586,
                1351,
                1130,
                3568,
                120,
                196,
                8000,
                1708,
                8112,
                1776,
                768,
                712,
                4917,
                3234,
                8354,
                2717,
                3607,
                8060,
                1755,
                5056,
                2263,
                3525,
                8288,
                1418,
                1844,
                3595,
                4383,
                2625,
                873,
                2334,
                6167,
                3598,
                823,
                2134,
                3302,
                5844,
                3583,
                2773,
                11754,
                5087,
                3495,
                8074,
                3524,
                540,
                475,
                641,
                2856,
                2286,
                1729,
                4498,
                1400,
                7998,
                6377,
                8084,
                2305,
                8103,
                8135,
                3544,
                5454,
                8141,
                7984,
                3646,
                5572,
                1418,
                3502,
                2765,
                3631,
                3565,
                505,
                8237,
                3572,
                3550,
                1517,
                7829,
                4250,
                774,
                8075,
                5586,
                5054,
                8096,
                4313,
                5590,
                3653,
                8116,
                1281,
                8114,
                8192,
                2102,
                609,
                8124,
                8311,
                1266,
                7356,
                8131,
                4632,
                3960,
                2255,
                8169,
                3555,
                3618,
                1763,
                8139,
                5747,
                1910,
                3565,
                3584,
                8246,
                3393,
                4200,
                2929,
                3586,
                2668,
                3531,
                1805,
                164,
                3001,
                1370,
                4497,
                2369,
                3165,
                3536,
                2204,
                4378,
                2921,
                3605,
                2982,
                4317,
                4392,
                3468,
                3245,
                5531,
                3557,
                2151,
                3551,
                6226,
                275,
                1202,
                4347,
                3514,
                1113,
                3529,
                2704,
                4238,
                59,
                1181,
                2006,
                5737,
                2080,
                5225,
                2182,
                3653,
                3670,
                2097,
                447,
                299,
                1093,
                3242,
                443,
                2589,
                1681,
                3542,
                3703,
                3673,
                1593,
                9840,
                4327,
                8058,
                3710,
                7969,
                7207,
                4163,
                486,
                2508,
                3843,
                5726,
                1375,
                3594,
                8192,
                6530,
                3451,
                1591,
                5544,
                3569,
                7983,
                1768,
                520,
                8026,
                5214,
                3334,
                593,
                913,
                8059,
                5086,
                2580,
                2431,
                3164,
                6210,
                3503,
                2550,
                3571,
                1400,
                8231,
                3638,
                1185,
                1892,
                3565,
                355,
                3219,
                418,
                1143,
                3600,
                3547,
                6672,
                3704,
                1390,
                8524,
                3326,
                2006,
                5125,
                8163,
                859,
                2685,
                2158,
                3504,
                5942,
                8209,
                3073,
                3366,
                7945,
                2348,
                5120,
                3026,
                3531,
                1,
                3407,
                1002,
                4544,
                3509,
                6323,
                8208,
                5147,
                3503,
                3273,
                5980,
                2792,
                3692,
                7024,
                5093,
                8020,
                3362,
                4182,
                113,
                8128,
                7211,
                1471,
                7904,
                3620,
                8095,
                1870,
                1974,
                1018,
                8130,
                5700,
                596,
                8001,
                3671,
                4325,
                1959,
                3533,
                4721,
                3454,
                3611,
                5449,
                4553,
                2229,
                2174,
                3526,
                525,
                3627,
                3667,
                3567,
                7803,
                2791,
                395,
                6697,
                3463,
                2751,
                8266,
                672,
                1904,
                8166,
                3107,
                4627,
                4728,
                311,
                8271,
                3121,
                2234,
                3648,
                483,
                3086,
                1462,
                3546,
                2722,
                2597,
                4333,
                5623,
                2403,
                2870,
                1560,
                4139,
                1615,
                8123,
                8081,
                6573,
                6003,
                7919,
                3721,
                8153,
                1609,
                3605,
                2274,
                6328,
                3411,
                3543,
                1525,
                3527,
                2474,
                245,
                923,
                3942,
                3157,
                3465,
                1753,
                2683,
                770,
                3224,
                8127,
                5197,
                3662,
                8105,
                2588,
                3554,
                3866,
                2801,
                3261,
                5554,
                2607,
                3981,
                3557,
                3608,
                1853,
                5473,
                8103,
                3656,
                8174,
                4077,
                3539,
                2773,
                8180,
                8069,
                8138,
                1218,
                3605,
                3596,
                4415,
                3555,
                596,
                2585,
                7152,
                6,
                3470,
                3460,
                7,
                2251,
                7824,
                4244,
                3657,
                2340,
                3535,
                2642,
                3526,
                2506,
                3163,
                1811,
                6449,
                2672,
                3660,
                3056,
                4814,
                2754,
                466,
                426,
                3447,
                3049
            ]
        },
        "detections": 500,
        "events": 94251
    }
}