{
    "job_args": {
        "metric_limit": 500,
        "seed": 305531158
    },
    "job_id": "batch_13_do_500",
    "result": {
        "collections": {
            "crystal": [
                0.040168239834570935,
                0.12178174758776705,
                0.7789048647004683,
                0.011558601532201847,
                0.03955776299086662,
                0.8160149642183427,
                0.0847407,
                0.5589745727570532,
                0.01186161481075672,
                0.9640559192236222,
                0.045468250940852405,
                0.24469729216765215,
                1.112076833181868,
                0.4439603629713093,
                0.7689739125777089,
                0.559697097341913,
                0.34427858112655685,
                1.1120768331818678,
                0.7789048647004685,
                0.011558458999936665,
                0.07525,
                0.3442785811265568,
                0.007873819889590319,
                0.073039,
                0.07524999999999998,
                0.011558601425248425,
                0.3442785811265569,
                0.34427858112655685,
                0.1901640579475918,
                0.30214599005056336,
                1.0858368332064599,
                1.1120768331818678,
                0.07525,
                0.12178174758776705,
                0.3442785811265569,
                0.5839954610047413,
                0.45903036050402535,
                0.039557758954716325,
                1.4080131975450252,
                0.040168257261382984,
                0.12178174758776705,
                0.12178174758776707,
                0.03955780809042477,
                0.4109842001216969,
                0.03955777969153527,
                0.12178174758776705,
                0.34427858112655685,
                0.12178174758776705,
                0.04016817275951484,
                0.01094823145409898,
                0.2516508165046435,
                0.12178174758776705,
                0.3442785811265569,
                0.04074480000000001,
                0.4749542051125346,
                0.03955785011713612,
                0.045468272182053814,
                0.08474069999999999,
                0.045468232340150724,
                0.011251296270954407,
                0.5190356970797678,
                0.04534408853831876,
                0.0401681240855365,
                0.03955773526391537,
                0.04546824200383632,
                0.040168092204674384,
                0.3442785811265569,
                0.073039,
                0.6835223925196007,
                0.04016816059515528,
                0.7553788750658323,
                0.8206878635159081,
                0.3442785811265569,
                0.040168110135130816,
                0.3442785811265569,
                0.011558661327121385,
                0.12178174758776708,
                0.12178174758776705,
                0.039557669897765414,
                0.7235739337108449,
                1.1120768331818678,
                0.03955774744018364,
                0.7789048647004684,
                0.24469729216765215,
                0.07525,
                0.3834053439474152,
                0.6099972835381338,
                0.24469729216765215,
                0.07525,
                0.040168223066387204,
                0.964055919223622,
                0.07525,
                0.006527989734150019,
                0.3442785811265569,
                0.0795781635231577,
                0.9987046289357988,
                0.4856378051977895,
                0.488679196368517,
                0.5956378364712572,
                0.007873963656534614,
                0.03955783641588788,
                0.039557776829229147,
                0.34427858112655685,
                0.2711067582444874,
                1.1120768331818678,
                0.040168181066493794,
                0.04016798229503534,
                0.5521464004784498,
                0.04534404630685247,
                0.09448704567382826,
                0.0617579926432007,
                0.04240645005055617,
                0.04016818035538172,
                0.07111324861157903,
                0.44396036297130925,
                0.8198410970301143,
                0.08948754758776707,
                0.07376678977432584,
                0.12178174758776707,
                0.12178174758776708,
                0.04546828780565009,
                0.07525,
                0.04673456001959972,
                0.0401681572385609,
                0.5675877372417595,
                0.010948632950169847,
                0.026357236365587504,
                1.4080131975450247,
                0.07525,
                0.3580901651520984,
                0.3442785811265569,
                0.639756168386813,
                0.25529279356669093,
                0.34427858112655685,
                0.28467255594771057,
                0.34427858112655685,
                0.8684285790531672,
                0.03955797188043041,
                0.03955785435924251,
                0.4111165114560972,
                0.04016805003229821,
                0.045468358430382556,
                0.12178174758776705,
                0.9640559192236221,
                0.0717249357364178,
                0.007149672812303811,
                0.04546833267847078,
                1.4080131975450252,
                0.846201489239824,
                0.11675466478841291,
                0.5633072919687481,
                0.0553051575455078,
                1.4080131975450247,
                0.34427858112655685,
                0.488679196368517,
                0.04016813645592838,
                0.09347524758776705,
                0.04016810226497132,
                0.37618327168570775,
                0.039557776441915195,
                0.03955780080285791,
                0.6804200649047962,
                0.8673810337567198,
                0.7789048647004686,
                1.408013197545025,
                0.04546845605389962,
                0.12178174758776708,
                0.6022080210710049,
                1.2298033035695675,
                0.04797808910380147,
                0.34427858112655685,
                0.22039984255042638,
                0.48679056706832996,
                0.12178174758776708,
                0.34427858112655685,
                0.0403969606341206,
                0.03955786188896133,
                0.9640559192236221,
                0.12178174758776705,
                0.03955773587399379,
                0.039557875597921996,
                0.12178174758776707,
                0.04016803206240849,
                0.03955777518401789,
                0.07524999999999998,
                0.12178174758776705,
                0.03955784650927764,
                1.4080131975450252,
                0.03955781010948491,
                0.040168166735053044,
                0.34427858112655685,
                0.44396036297130936,
                0.04016806919840214,
                0.3442785811265569,
                0.7789048647004684,
                0.03955770763959033,
                0.49231430184294955,
                0.12178174758776705,
                0.07525,
                0.12178174758776708,
                0.12178174758776707,
                0.025939323588961782,
                0.04684615159969613,
                0.7789048647004683,
                0.12178174758776707,
                0.04016804571100393,
                0.3442785811265569,
                0.9640559192236223,
                0.34427858112655696,
                0.12178174758776705,
                0.12178174758776708,
                0.0938397939368516,
                0.3442785811265569,
                0.052941199999999994,
                0.045468464366505215,
                0.8826994596142406,
                0.7789048647004683,
                0.8716297464149807,
                0.039557764096074824,
                0.08765570000000002,
                0.38494500680200205,
                0.12178174758776705,
                0.3442785811265569,
                0.03148724509322829,
                1.1347721085854983,
                0.04016805793006013,
                0.12178174758776708,
                0.3442785811265569,
                0.7789048647004684,
                0.045468217014494494,
                0.04016825814819684,
                0.05255601050976899,
                1.408013197545025,
                0.03955762744959688,
                0.12178174758776707,
                0.2875433397993563,
                0.12178174758776705,
                0.12178174758776707,
                1.4080131975450252,
                0.6619793651803327,
                0.011251232288406087,
                0.12178174758776705,
                0.4710828592603957,
                0.3442785811265569,
                0.04546848933398594,
                0.7789048647004685,
                0.6228604697258705,
                0.19905792242437248,
                0.12178174758776708,
                0.12178174758776707,
                0.24469729216765213,
                0.008590801171966811,
                0.7193471736023049,
                0.9640559192236222,
                0.3442785811265569,
                0.685480689352755,
                0.5416902823893095,
                0.039557818017499254,
                0.0395578583054651,
                0.010948354208754627,
                1.112076833181868,
                0.011558725980094012,
                0.7789048647004684,
                0.04546831163318281,
                0.045344083209054864,
                0.24913893197738296,
                1.0282504762515394,
                0.4237227806073952,
                0.04546827988910013,
                0.03955775414767479,
                0.6474026714507348,
                0.24469729216765213,
                0.07524999999999998,
                0.12178174758776707,
                0.24469729216765218,
                0.36778939426329943,
                0.07525,
                0.3393046846607639,
                0.0852354,
                0.12178174758776705,
                0.12178174758776708,
                0.7679670129148921,
                0.12178174758776708,
                0.9640559192236222,
                0.6886695277208057,
                0.639324982225145,
                0.04534428181440204,
                0.34427858112655685,
                0.039557763361513655,
                0.03955776842736208,
                0.04534421799264662,
                0.03942183011765511,
                0.04047706177736911,
                0.046625878002088665,
                0.9640559192236222,
                0.34427858112655685,
                0.045468135866500684,
                0.1652878072357023,
                0.04016804395080352,
                0.0847407,
                0.13030726716706487,
                0.009892397565049785,
                0.41432183801347766,
                0.03955783141098909,
                0.04016802816871596,
                0.24469729216765213,
                0.44662865845329297,
                1.1612259304359989,
                0.03955783499674133,
                1.0897368119742792,
                0.12178174758776707,
                0.36767147454323035,
                0.04016803009061895,
                0.011558488657566798,
                0.011558502474577188,
                0.3442785811265569,
                0.12178174758776707,
                0.07525,
                0.49358719854254773,
                0.7377337634767269,
                0.24469729216765215,
                0.073039,
                0.04016829461451026,
                0.04016804609280664,
                0.19525742521920575,
                0.18738521546497103,
                0.04662598995596131,
                0.24469729216765215,
                1.112076833181868,
                0.039557855427074774,
                0.07525,
                0.48867919636851703,
                0.34427858112655696,
                0.007873819011645352,
                0.5750945564074245,
                0.4110283300785216,
                0.04016816803932693,
                0.3442785811265569,
                0.12178174758776707,
                0.011558613357624146,
                0.5238941080613227,
                0.038115557254527234,
                0.3442785811265569,
                0.04027752281242443,
                0.07439289327005369,
                0.040168257474840915,
                0.073039,
                0.04016810098160132,
                0.4111165114560972,
                0.03955787588634539,
                0.09317224758776707,
                0.011558629599730563,
                1.0045613720462967,
                0.964055919223622,
                0.04016803975468436,
                0.4111165114560972,
                0.6786222447558068,
                0.16688458387469912,
                0.011558524892734316,
                0.9640559192236222,
                0.7789048647004682,
                0.8633674684623346,
                0.12178174758776708,
                0.7789048647004684,
                0.14227454853994403,
                0.040168263554907796,
                1.0858368332064599,
                0.045468349774297374,
                0.3442785811265569,
                0.0395579276263338,
                0.07525,
                0.011251119116259943,
                1.4080131975450247,
                0.12178174758776708,
                0.010948282239707436,
                0.34427858112655696,
                0.04016814478946048,
                0.12178174758776707,
                0.04016810213794514,
                0.31528849915063833,
                0.04016762313750116,
                0.9640559192236222,
                0.6857387214273044,
                0.858811592902223,
                1.1120768331818676,
                0.040168172945770075,
                1.4080131975450252,
                0.4211177219764646,
                0.1814597993868511,
                0.24678868068834175,
                0.0395578314650039,
                0.15339583803594545,
                0.12178174758776705,
                0.04016796617191384,
                0.3125404855559865,
                0.24469729216765218,
                0.4111165114560972,
                0.039557745106085784,
                0.3442785811265569,
                0.6762362075752718,
                0.24469729216765213,
                0.7789048647004683,
                0.9640559192236222,
                0.8970319203415291,
                0.0876557,
                1.408013197545025,
                0.1865389071859892,
                0.03955789338003215,
                0.34427858112655685,
                0.34427858112655685,
                0.0928523917170424,
                0.06223361892554341,
                0.14314957460077188,
                0.04016807241127315,
                0.12178174758776707,
                0.5692009770895857,
                0.007149572164754811,
                0.2223076402888221,
                0.9640559192236222,
                0.5970684820593616,
                0.045468225908333125,
                0.397115437730682,
                0.04016820001914193,
                0.04016828475109196,
                0.011558578953664286,
                0.22890006888051112,
                0.04016817487619534,
                0.040168129337683746,
                0.4153367453795598,
                0.24469729216765218,
                1.5280409521036968,
                0.22412639991682604,
                0.040168025041325474,
                0.07303899999999999,
                0.24469729216765213,
                0.04016818281638848,
                0.039557938911215854,
                0.073039,
                0.03955783812292213,
                0.039557902263337996,
                0.011861565689309196,
                0.12178174758776708,
                0.045344104643775376,
                0.04016801197268368,
                0.04694349999999999,
                0.04016828546553828,
                0.8673810337567196,
                0.12178174758776707,
                0.12178174758776707,
                0.12178174758776707,
                1.112076833181868,
                0.0847407,
                0.07525,
                0.3187629869510246,
                0.073039,
                0.03955777721576132,
                0.03955778515865837,
                0.03955769511704442,
                0.3782470835695624,
                0.03801046501479757,
                0.11992770038167991,
                0.07524999999999998,
                0.040168035322053534,
                0.0012502428992987587,
                1.4080131975450247,
                0.12178174758776705,
                0.3442785811265569,
                0.3442785811265569,
                0.34427858112655685,
                0.3677893942632995,
                0.039557665704304495,
                0.03955768608533748,
                0.04016816765306647,
                0.20063121589816513,
                0.03955776062967093,
                0.011558675290875658,
                0.4490133088216134,
                0.03955787557887822,
                0.0852354,
                1.112076833181868,
                1.4080131975450252,
                0.016734605428577735,
                0.007264042856771637,
                0.9640559192236222,
                0.04016823732682259,
                0.12178174758776707,
                0.007263679227477636,
                0.06945315037346356,
                0.34427858112655685,
                0.41111651145609707,
                0.073039,
                0.2689658587088172,
                1.457639694961042,
                0.30611442609650213,
                0.04546828871305136,
                0.794761640043945,
                0.7372922099565207,
                0.2197045276177265,
                0.34427858112655685,
                0.12178174758776707
            ],
            "photocathode": [
                282,
                800,
                5571,
                75,
                301,
                5632,
                540,
                4061,
                90,
                6690,
                304,
                1764,
                7913,
                3155,
                5415,
                3892,
                2450,
                7797,
                5574,
                74,
                527,
                2462,
                54,
                521,
                484,
                74,
                2410,
                2322,
                1382,
                2113,
                7613,
                7864,
                549,
                858,
                2403,
                4119,
                3204,
                274,
                9872,
                289,
                893,
                852,
                262,
                2947,
                257,
                802,
                2335,
                831,
                252,
                84,
                1664,
                857,
                2326,
                290,
                3283,
                273,
                320,
                583,
                323,
                73,
                3716,
                303,
                246,
                301,
                289,
                276,
                2413,
                535,
                4772,
                277,
                5349,
                5807,
                2362,
                311,
                2430,
                80,
                811,
                820,
                273,
                4945,
                7940,
                254,
                5552,
                1713,
                522,
                2706,
                4201,
                1711,
                512,
                248,
                6714,
                556,
                43,
                2380,
                561,
                6954,
                3380,
                3382,
                4212,
                47,
                281,
                292,
                2432,
                1852,
                7867,
                280,
                294,
                3906,
                320,
                648,
                441,
                301,
                281,
                482,
                3034,
                5689,
                594,
                549,
                826,
                785,
                292,
                528,
                314,
                273,
                4009,
                86,
                178,
                10217,
                538,
                2427,
                2397,
                4511,
                1705,
                2449,
                1944,
                2398,
                6090,
                274,
                254,
                2862,
                273,
                296,
                837,
                6834,
                519,
                44,
                315,
                9849,
                5822,
                818,
                3968,
                380,
                9810,
                2387,
                3401,
                270,
                665,
                276,
                2604,
                290,
                294,
                4730,
                6091,
                5316,
                9691,
                305,
                860,
                4305,
                8546,
                334,
                2411,
                1536,
                3394,
                852,
                2387,
                266,
                280,
                6580,
                849,
                267,
                277,
                831,
                305,
                257,
                513,
                884,
                263,
                9777,
                227,
                264,
                2385,
                3105,
                266,
                2392,
                5513,
                267,
                3503,
                894,
                569,
                882,
                895,
                182,
                327,
                5355,
                897,
                276,
                2406,
                6739,
                2367,
                845,
                832,
                650,
                2371,
                392,
                294,
                6383,
                5420,
                6099,
                256,
                626,
                2741,
                870,
                2399,
                250,
                8201,
                274,
                862,
                2441,
                5409,
                336,
                298,
                402,
                9898,
                289,
                829,
                2077,
                910,
                923,
                9837,
                4813,
                63,
                828,
                3338,
                2391,
                313,
                5580,
                4430,
                1362,
                843,
                872,
                1736,
                51,
                5096,
                6898,
                2471,
                4807,
                3835,
                288,
                271,
                73,
                7915,
                62,
                5395,
                332,
                321,
                1707,
                7042,
                3062,
                351,
                261,
                4449,
                1704,
                548,
                871,
                1667,
                2511,
                508,
                2394,
                566,
                843,
                882,
                5387,
                843,
                6594,
                4849,
                4696,
                335,
                2322,
                286,
                273,
                291,
                257,
                260,
                290,
                6807,
                2487,
                276,
                1171,
                242,
                631,
                947,
                74,
                2925,
                274,
                281,
                1666,
                3169,
                8214,
                286,
                7646,
                853,
                2628,
                290,
                88,
                77,
                2351,
                912,
                561,
                3551,
                5007,
                1690,
                502,
                245,
                283,
                1358,
                1355,
                314,
                1727,
                7845,
                296,
                564,
                3327,
                2353,
                56,
                4070,
                2967,
                293,
                2474,
                862,
                79,
                3642,
                241,
                2390,
                268,
                498,
                270,
                526,
                278,
                2824,
                289,
                697,
                82,
                7056,
                6869,
                284,
                2964,
                4680,
                1170,
                70,
                6764,
                5561,
                6129,
                828,
                5452,
                999,
                273,
                7722,
                304,
                2395,
                280,
                523,
                82,
                9737,
                882,
                80,
                2423,
                298,
                833,
                284,
                2149,
                282,
                6787,
                4854,
                6076,
                7661,
                304,
                10181,
                2931,
                1224,
                1710,
                258,
                1095,
                864,
                239,
                2137,
                1732,
                2973,
                255,
                2271,
                4671,
                1739,
                5443,
                6692,
                6251,
                653,
                9957,
                1296,
                233,
                2350,
                2444,
                679,
                448,
                976,
                273,
                850,
                4134,
                44,
                1555,
                6757,
                4349,
                307,
                2752,
                303,
                312,
                71,
                1603,
                240,
                254,
                2957,
                1784,
                10608,
                1582,
                289,
                508,
                1784,
                283,
                257,
                501,
                286,
                281,
                80,
                851,
                322,
                264,
                308,
                293,
                6000,
                898,
                821,
                877,
                7745,
                605,
                505,
                2226,
                464,
                297,
                269,
                268,
                2612,
                272,
                881,
                529,
                254,
                6,
                10042,
                867,
                2475,
                2507,
                2501,
                2599,
                263,
                268,
                288,
                1396,
                288,
                87,
                3195,
                263,
                631,
                7696,
                10029,
                114,
                54,
                6878,
                247,
                893,
                56,
                521,
                2413,
                2913,
                551,
                1820,
                10101,
                2110,
                296,
                5710,
                5064,
                1481,
                2402,
                852
            ]
        },
        "detections": 500,
        "events": 41172
    }
}