{
    "job_args": {
        "metric_limit": 500,
        "seed": 702160232
    },
    "job_id": "batch_12_do_500",
    "result": {
        "collections": {
            "crystal": [
                0.0401681740484225,
                0.07303899999999999,
                0.12178174758776705,
                0.4092862898059893,
                1.1120768331818678,
                0.0876557,
                0.374621638946775,
                0.04016813783298685,
                0.41213036947288667,
                0.4111165114560972,
                0.12178174758776705,
                0.4111165114560972,
                0.4100804829916079,
                0.04546835441310128,
                0.21330018674403678,
                0.04534421924740868,
                0.10803155069312263,
                0.04016815641496264,
                0.040168248145672415,
                0.011251322631245382,
                0.24469729216765215,
                0.1298645016761709,
                0.040168071015119614,
                0.24469729216765213,
                0.12178174758776705,
                0.008918415024731719,
                0.04662602334222447,
                0.41111651145609723,
                1.08583683320646,
                0.12178174758776707,
                0.12178174758776707,
                0.04534419180529273,
                1.408013197545025,
                0.9640559192236222,
                0.07303900000000002,
                1.408013197545025,
                0.017988988390995185,
                0.039557855709387274,
                0.34427858112655696,
                0.3151586397741265,
                0.4159566168497788,
                0.4360078483764811,
                0.12178174758776707,
                0.07525,
                0.34427858112655685,
                0.011558532792200128,
                0.12178174758776708,
                0.04016810741957462,
                0.01155851981543926,
                0.04016813507503443,
                0.04546849007089478,
                0.12178174758776705,
                0.3677893942632995,
                0.3442785811265569,
                0.7789048647004685,
                0.14841537090305898,
                0.07303899999999999,
                0.12178174758776707,
                0.9640559192236223,
                1.1120768331818676,
                0.5862647941086816,
                0.03955778178058845,
                0.07303899999999999,
                0.040168019097003044,
                0.34427858112655685,
                0.0876557,
                0.03955777664902789,
                0.4817191309333314,
                0.34427858112655685,
                0.12178174758776707,
                0.039557792597115435,
                0.30902256201984857,
                0.3442785811265569,
                0.010948354001148835,
                0.04016817963653356,
                0.3332075245896995,
                0.03955786584731649,
                0.51099891,
                0.24469729216765218,
                0.038638361651703416,
                0.02580914496739889,
                0.007263672440389023,
                0.3442785811265569,
                0.6348691499252185,
                0.34427858112655685,
                0.03955775274627232,
                0.03955776010254829,
                0.039557946326676835,
                0.12178174758776708,
                0.7789048647004683,
                0.7942918553733525,
                0.8398826345205347,
                0.040168223126604195,
                0.073039,
                0.04016806039891603,
                0.7142243082960791,
                0.34427858112655685,
                0.12178174758776707,
                0.24469729216765218,
                0.04016804817975794,
                0.04510680846547593,
                0.41316249602550187,
                0.2091356462887708,
                0.0561312,
                0.09317224758776706,
                0.12178174758776705,
                0.7789048647004685,
                0.12178174758776705,
                0.4729884704100799,
                0.073039,
                0.07524999999999998,
                0.039557727639646836,
                0.04546838418882303,
                0.07524999999999998,
                0.34427858112655696,
                0.07525,
                0.09355551315085942,
                0.2945265403088435,
                0.34427858112655685,
                0.03955781459743303,
                0.9448759518047655,
                0.04016810763043363,
                0.34427858112655696,
                0.8142391872397019,
                0.6746410840987509,
                0.3738036644405558,
                0.9431406730583272,
                0.014450788688293298,
                0.3442785811265569,
                0.043060282414431064,
                1.0145519559436946,
                0.012656300000000002,
                0.03955764148233443,
                0.011861633504507686,
                0.04016795368879078,
                0.4622281049130735,
                0.12178174758776708,
                0.056434200000000004,
                0.04016804603982348,
                0.6913676984406119,
                1.4080131975450247,
                0.7075214891713087,
                0.7480082162342336,
                0.12178174758776707,
                0.24469729216765213,
                0.6921013475205791,
                1.1120768331818678,
                0.045468364285258175,
                0.12178174758776707,
                0.34427858112655685,
                0.3442785811265569,
                0.04016811016356526,
                0.5569727027506078,
                1.4080131975450252,
                0.3442785811265569,
                0.07525,
                0.12178174758776705,
                0.011251234532072104,
                0.07525,
                0.5311040925160178,
                0.07303900000000002,
                0.040168043012878143,
                0.1584445247395621,
                0.04016813939102821,
                0.15858813845228095,
                0.04016798922756382,
                0.07525,
                0.12178174758776705,
                0.013174282726577462,
                0.19960961941852334,
                0.04546835275686047,
                0.007373789790744212,
                0.12178174758776707,
                0.087534,
                0.12178174758776708,
                0.34427858112655685,
                0.073039,
                0.12178174758776705,
                0.538013113793741,
                0.45465166972937565,
                0.018016377841693184,
                0.12178174758776708,
                0.04016814106887921,
                0.24469729216765218,
                0.04534427072973244,
                0.022078959216181582,
                0.1537293924736777,
                0.3442785811265569,
                0.7789048647004685,
                0.24469729216765213,
                0.04016806979931611,
                0.12178174758776707,
                0.28516878427770276,
                0.86738103375672,
                0.04016804096352928,
                0.0333097116838007,
                0.07525,
                0.9640559192236222,
                0.040168019224207686,
                0.5739524262105454,
                0.12178174758776707,
                0.9640559192236223,
                0.768973912577709,
                0.0423558543609902,
                0.34427858112655685,
                0.045344136134150295,
                0.07525,
                0.4087238196877867,
                0.03955784451187408,
                0.08523539999999999,
                0.34427858112655685,
                0.27470117824213125,
                0.3442785811265569,
                0.04016812705585823,
                0.04016813408562281,
                0.0852354,
                0.1178395254300223,
                0.3677893942632995,
                0.04016816462924721,
                0.03955794567921754,
                0.08523539999999999,
                0.5041809412823519,
                0.5800156536584953,
                0.039557804261125346,
                0.7789048647004684,
                0.24469729216765213,
                0.3442785811265569,
                0.4111165114560972,
                0.04016803283433623,
                1.2129444931966777,
                0.6359550424829692,
                0.073039,
                0.07501497407166485,
                0.3377363360061828,
                0.12178174758776707,
                1.0858368332064599,
                0.12178174758776708,
                0.07524999999999998,
                0.03955772960211742,
                0.0852354,
                0.34612916054760384,
                0.12178174758776707,
                0.5427243306781063,
                0.34680726760733205,
                0.04546838607435947,
                0.04016803440278575,
                0.4322261592181912,
                0.040168149436012206,
                0.7789048647004683,
                0.040168195539006246,
                0.12178174758776707,
                0.8216609827783852,
                0.01748872827813282,
                0.34427858112655685,
                0.06496436231387331,
                0.2867100865707668,
                0.12178174758776705,
                0.07525,
                0.34427858112655685,
                0.12178174758776708,
                1.4080131975450247,
                0.39271541648988584,
                0.04016802763025251,
                0.04662577986553367,
                0.04685000163048801,
                0.7440718398489297,
                0.34427858112655696,
                0.07525,
                0.039557831119478096,
                0.045468339511371254,
                0.04016806026713227,
                1.08583683320646,
                0.039557793687515344,
                0.03955772025592408,
                0.5417279918278619,
                0.12532861022859643,
                0.04016807443401912,
                0.07303899999999999,
                0.12178174758776707,
                0.2947939766857738,
                0.07525,
                0.03955781508877085,
                0.04016817297407855,
                1.2991330441718385,
                0.4523387188307679,
                0.0868032007441214,
                0.6015932358167494,
                0.34427858112655685,
                0.07525,
                0.3328434946816581,
                0.12178174758776707,
                0.24469729216765215,
                0.011251352817348924,
                0.040168286235637236,
                0.6886695277208057,
                0.8415736858305894,
                0.011715922607451268,
                0.03579275381978141,
                0.045468375922381996,
                0.34427858112655685,
                0.5385956439705113,
                0.40874796555395365,
                0.3494943795586706,
                0.07524999999999998,
                0.6162350254550353,
                0.07150263345558025,
                0.01155851756665731,
                0.03198593195265931,
                0.5939998033091338,
                0.9161706805466137,
                0.12178174758776708,
                0.21173245590070783,
                0.1742204255205322,
                0.12178174758776707,
                0.04546829335803247,
                0.040168128982368906,
                1.0858368332064599,
                0.19698397372508578,
                0.36975611445028966,
                0.44396036297130936,
                0.7789048647004684,
                0.011251384960474863,
                0.14861191860990638,
                0.44396036297130936,
                0.016734526198609927,
                0.1325035571224884,
                0.040168264374656516,
                0.5608275512139873,
                0.3442785811265569,
                0.03955772191808799,
                0.04016815724036322,
                0.08962318651873363,
                0.3442785811265569,
                0.34427858112655685,
                0.12178174758776707,
                0.14802198209370165,
                0.12178174758776705,
                0.04016806816739888,
                0.073039,
                0.07303899999999999,
                0.9640559192236222,
                0.3442785811265569,
                0.9640559192236222,
                0.04016810803926814,
                0.01716184986670591,
                0.12178174758776707,
                0.5890269933520974,
                0.011251307045287533,
                0.039557669094398375,
                0.12178174758776708,
                0.3596521250234463,
                0.3442785811265569,
                0.12178174758776708,
                0.11815806176924952,
                0.6444573849475536,
                0.7789048647004685,
                0.7789048647004684,
                1.408013197545025,
                0.03955788778354031,
                0.267960175805664,
                0.3442785811265569,
                0.7789048647004684,
                0.9640559192236223,
                0.040168029872960545,
                0.01155854101002452,
                0.02416971029265444,
                0.040168173188647634,
                0.0015846773294708738,
                0.03955778893149037,
                0.34427858112655685,
                0.04016815277928115,
                0.04016818606573162,
                0.9640559192236222,
                0.6098000988898864,
                0.011251413601167493,
                0.010948341751772773,
                0.03955789624481984,
                0.040168148564967025,
                0.01888605877096982,
                0.1269555648043074,
                0.090808948240171,
                0.12178174758776705,
                0.04546821913716544,
                0.34427858112655685,
                0.3179912662871176,
                0.040168038300085335,
                0.03955771062746258,
                0.12178174758776708,
                0.8540379664442859,
                0.07525,
                0.5235340869856809,
                0.5969604361960797,
                0.04016801062170826,
                0.4439603629713093,
                0.25278453284740476,
                0.04016798452993211,
                0.5021565614366985,
                0.7789048647004684,
                0.28250194793658745,
                0.03955781580034392,
                0.12178174758776705,
                0.12178174758776705,
                0.03955783234812129,
                0.3480042826133044,
                0.38789373045587217,
                0.12178174758776707,
                1.1120768331818678,
                0.03955786787937689,
                0.03955780533959384,
                0.04016822195755629,
                0.5510819468361078,
                1.0858368332064599,
                0.3384536765501226,
                0.4735517839978344,
                0.07137812330716917,
                0.12178174758776707,
                0.12178174758776707,
                0.5977551339258962,
                0.040168173300902325,
                0.011510044998750711,
                0.01716191628564352,
                0.8962517514484734,
                0.08523539999999999,
                0.04016795134267841,
                0.07525000000000001,
                0.04534400596211463,
                0.5289696462505978,
                0.41111651145609723,
                0.039557725946749445,
                0.9640559192236222,
                0.9640559192236223,
                0.04016815029032713,
                0.04016814442605664,
                0.12178174758776705,
                1.1120768331818676,
                0.24469729216765213,
                0.45474100298818765,
                0.0401680512185088,
                0.07525,
                1.0858368332064599,
                0.8673810337567199,
                0.12178174758776704,
                0.04016824195092704,
                0.07525,
                0.4911089393170301,
                0.02329665600137265,
                0.09978936855494157,
                0.07524999999999998,
                0.9640559192236222,
                0.7671140351124911,
                0.04546833248486875,
                0.05002402076061199,
                0.007326050203276991,
                0.045344120033167866,
                0.05993793072123034,
                0.04016802366373041,
                0.28233321859918314,
                0.032471037435203416,
                0.04534414653140491,
                0.0469435,
                0.13440872094944226,
                0.12178174758776708,
                0.897014287545025,
                0.39088928189760386,
                0.3444075016597077,
                0.41535086297130935,
                0.04016816673737394,
                0.39455944905088586,
                0.04016787048311335,
                0.12178174758776707,
                0.011558608138888416,
                0.18113256903267907,
                0.040168026023020956,
                0.4666662305617405,
                0.5751573054068448,
                0.040168025701001746,
                0.03955773877721304,
                0.011558605201733147,
                0.13965642202759063,
                0.04534406579936571,
                0.040168113246086504,
                0.6289200026687388,
                0.014304481676377085,
                0.7430005622890274,
                0.39109201961683604,
                0.2697562546882375,
                0.12178174758776705,
                0.010948284108541623,
                0.04534411861515897,
                0.4919581352094428,
                0.12178174758776707,
                0.12178174758776708,
                0.04016811441171165,
                0.040167949974618186,
                0.040168139263636056,
                0.24469729216765213,
                0.3530026197176035,
                0.12178174758776708,
                0.040168266516354655,
                0.12178174758776707
            ],
            "photocathode": [
                271,
                519,
                828,
                2825,
                7619,
                598,
                2604,
                260,
                2851,
                2751,
                848,
                2894,
                2843,
                304,
                1446,
                283,
                828,
                252,
                284,
                67,
                1735,
                921,
                267,
                1712,
                780,
                62,
                294,
                2846,
                7574,
                838,
                890,
                314,
                10125,
                6581,
                559,
                9763,
                111,
                248,
                2339,
                2216,
                2914,
                3109,
                813,
                494,
                2473,
                92,
                872,
                250,
                66,
                294,
                302,
                907,
                2513,
                2453,
                5405,
                971,
                479,
                880,
                6746,
                7830,
                4140,
                256,
                519,
                286,
                2374,
                609,
                286,
                3458,
                2459,
                869,
                266,
                2144,
                2397,
                90,
                257,
                2330,
                275,
                3579,
                1719,
                252,
                167,
                42,
                2405,
                4451,
                2453,
                263,
                263,
                242,
                825,
                5342,
                5794,
                5937,
                286,
                524,
                230,
                4885,
                2420,
                858,
                1760,
                304,
                307,
                2913,
                1500,
                398,
                638,
                820,
                5511,
                942,
                3460,
                496,
                522,
                289,
                309,
                497,
                2349,
                498,
                663,
                2029,
                2390,
                284,
                6708,
                261,
                2375,
                5881,
                4740,
                2528,
                6706,
                91,
                2460,
                295,
                7133,
                87,
                284,
                82,
                282,
                3375,
                818,
                435,
                257,
                4856,
                9879,
                4875,
                5159,
                871,
                1640,
                4792,
                7753,
                299,
                810,
                2496,
                2303,
                302,
                3878,
                9910,
                2386,
                531,
                855,
                77,
                496,
                3658,
                507,
                275,
                1143,
                287,
                1215,
                274,
                551,
                898,
                91,
                1403,
                320,
                52,
                898,
                606,
                865,
                2436,
                504,
                884,
                3713,
                3237,
                141,
                809,
                288,
                1736,
                289,
                159,
                1148,
                2337,
                5494,
                1671,
                299,
                858,
                1995,
                6011,
                300,
                218,
                530,
                6853,
                293,
                3990,
                861,
                6709,
                5458,
                301,
                2472,
                290,
                490,
                2785,
                240,
                618,
                2466,
                1903,
                2406,
                279,
                278,
                587,
                824,
                2583,
                293,
                247,
                562,
                3500,
                4255,
                235,
                5534,
                1738,
                2526,
                2801,
                264,
                8530,
                4487,
                480,
                511,
                2450,
                816,
                7585,
                833,
                546,
                256,
                541,
                2487,
                849,
                3858,
                2614,
                315,
                281,
                3001,
                259,
                5297,
                301,
                816,
                5933,
                117,
                2390,
                479,
                2060,
                857,
                502,
                2482,
                821,
                9912,
                2729,
                270,
                293,
                302,
                5268,
                2394,
                487,
                269,
                284,
                264,
                7755,
                264,
                273,
                3923,
                894,
                272,
                517,
                881,
                2088,
                515,
                265,
                248,
                9016,
                3145,
                608,
                4133,
                2328,
                548,
                2359,
                840,
                1711,
                63,
                264,
                4949,
                5946,
                77,
                244,
                318,
                2401,
                3686,
                2911,
                2436,
                520,
                4313,
                510,
                67,
                211,
                4125,
                6658,
                850,
                1508,
                1266,
                829,
                318,
                241,
                7830,
                1401,
                2550,
                3122,
                5516,
                79,
                1076,
                3012,
                94,
                933,
                242,
                3927,
                2434,
                302,
                249,
                634,
                2325,
                2356,
                809,
                999,
                827,
                268,
                509,
                523,
                6642,
                2453,
                6589,
                259,
                101,
                797,
                4094,
                70,
                261,
                817,
                2506,
                2382,
                873,
                799,
                4394,
                5392,
                5541,
                9928,
                259,
                1838,
                2335,
                5556,
                6901,
                243,
                81,
                143,
                300,
                14,
                252,
                2416,
                301,
                243,
                6610,
                4226,
                85,
                62,
                261,
                269,
                124,
                872,
                644,
                873,
                298,
                2390,
                2312,
                288,
                272,
                845,
                5984,
                528,
                3713,
                4244,
                275,
                3130,
                1730,
                316,
                3616,
                5397,
                1941,
                256,
                832,
                831,
                293,
                2289,
                2660,
                874,
                7825,
                276,
                258,
                289,
                3883,
                7582,
                2247,
                3375,
                527,
                851,
                847,
                4144,
                278,
                69,
                142,
                6287,
                580,
                290,
                511,
                311,
                3673,
                2858,
                257,
                6819,
                6588,
                278,
                258,
                837,
                7691,
                1695,
                3200,
                254,
                558,
                7514,
                6004,
                846,
                263,
                536,
                3520,
                180,
                708,
                534,
                6653,
                5479,
                314,
                347,
                56,
                295,
                419,
                286,
                1947,
                243,
                311,
                306,
                964,
                851,
                6241,
                2648,
                2370,
                2922,
                276,
                2686,
                305,
                842,
                69,
                1258,
                271,
                3264,
                4208,
                241,
                264,
                66,
                1008,
                291,
                280,
                4495,
                79,
                5248,
                2689,
                1903,
                849,
                82,
                325,
                3448,
                821,
                838,
                282,
                262,
                312,
                1719,
                2418,
                833,
                319,
                830
            ]
        },
        "detections": 500,
        "events": 39825
    }
}