{
    "job_args": {
        "metric_limit": 500,
        "seed": 784147106
    },
    "job_id": "batch_80_do_500",
    "result": {
        "collections": {
            "crystal": [
                0.4886791963685171,
                0.045468325166990585,
                0.12178174758776705,
                0.34427858112655685,
                0.1823562700463316,
                0.04546813199163821,
                0.7789048647004683,
                0.9640559192236222,
                0.0401680708496785,
                0.7895015801609377,
                0.011805742686484823,
                0.04016816136420033,
                0.34427858112655696,
                0.523971234648397,
                0.007931335568161646,
                0.039557765559510676,
                0.3476454492395513,
                0.04534413203617295,
                0.6000548806556438,
                0.23179358201819023,
                0.039557790014164956,
                0.09317224758776707,
                0.12178174758776708,
                0.3442785811265568,
                0.073039,
                0.939700724022295,
                0.073039,
                1.4080131975450247,
                0.04016812780183039,
                0.04016816867542623,
                0.04016805143780046,
                0.3442785811265569,
                0.21608779216765214,
                0.04546845455120219,
                0.7789048647004683,
                0.10823470235836533,
                0.12178174758776705,
                0.04016796598319606,
                0.07525000000000001,
                0.12178174758776705,
                0.04016820565490779,
                0.017161634083961215,
                0.34427858112655696,
                0.04659869755426095,
                0.07525,
                0.18955860487518023,
                0.08523539999999999,
                0.12178174758776707,
                0.04016809163311569,
                0.046625917091519274,
                0.34427858112655685,
                0.12178174758776704,
                1.165228348303907,
                0.2446972921676521,
                0.34427858112655685,
                0.040167623331776016,
                0.017161778930900092,
                0.12178174758776707,
                0.2824993683188576,
                0.12178174758776707,
                0.42257403172457164,
                0.12178174758776705,
                0.15080572532737282,
                0.039557858651797353,
                0.04534414448825913,
                0.03955781065401258,
                0.040168140749418386,
                0.4135634994448802,
                1.112076833181868,
                0.3442785811265569,
                0.040168099801799896,
                0.010948357290716228,
                0.03955782171571516,
                0.34427858112655696,
                0.37513673851148277,
                0.503474131734551,
                0.36435197094205773,
                0.1836557589333052,
                0.5386775686825288,
                0.07525,
                0.4736283648819583,
                0.20013329294219845,
                0.5823857241507034,
                0.24471540659539864,
                0.12178174758776708,
                0.24469729216765215,
                0.8138726540278487,
                0.09347524758776705,
                0.3558118318343949,
                0.059444322689336915,
                0.9640559192236222,
                0.12178174758776705,
                0.21304066784209114,
                0.009861057873040258,
                0.21166749216765213,
                0.552108047808884,
                0.9640559192236222,
                0.073039,
                0.24020125042766774,
                0.10885418564008469,
                0.41706082630059516,
                1.2129444931966775,
                0.3192099843727731,
                0.34427858112655685,
                0.12178174758776707,
                0.073039,
                0.34427858112655685,
                0.7789048647004683,
                1.0858368332064599,
                0.12178174758776708,
                1.108542896764786,
                0.08992803767674584,
                0.28548010947369323,
                0.34427858112655685,
                0.03955785070769693,
                0.9640559192236222,
                0.32032744571320093,
                0.045468189455161075,
                1.2991330441718385,
                0.5389320792666746,
                0.0401681384653449,
                0.12178174758776707,
                0.0401682893657695,
                0.12483834243447423,
                0.07303899999999999,
                0.3442785811265569,
                0.12178174758776707,
                0.04534414703778375,
                0.04016802026081008,
                0.03760847774639591,
                0.0395577172292267,
                0.04760086962047361,
                0.4861654218388327,
                0.12178174758776707,
                0.3442785811265569,
                0.04016794706661289,
                0.12178174758776705,
                0.4026709847154557,
                0.040168035543873534,
                0.44396036297130925,
                0.15633757277979968,
                0.04016818365122792,
                0.6786222447558069,
                0.073039,
                0.04016824014773421,
                0.5694718726362237,
                0.9640559192236222,
                0.24131956312312008,
                0.040168198205453955,
                0.5639889353995464,
                0.29782803705817873,
                0.24469729216765207,
                0.12178174758776707,
                0.40298357584163147,
                0.039557782273123974,
                0.006528018497580578,
                1.1120768331818678,
                0.5864255784792745,
                0.01716187204110586,
                0.040168190226311594,
                0.010948285993926044,
                0.48867919636851703,
                0.12178174758776707,
                0.15035863448102166,
                0.04016820707727065,
                0.04546831165722955,
                1.4080131975450247,
                0.04546839514008139,
                0.040168043235124296,
                0.073039,
                0.04016804126350695,
                0.0852354,
                0.011558554537581495,
                0.44396036297130936,
                0.03955786805331113,
                0.01673468421513262,
                0.8104506787448459,
                0.4505839555429932,
                0.12178174758776707,
                0.12178174758776707,
                0.040168069978216245,
                0.10149310898102937,
                0.04016806759646891,
                1.112076833181868,
                0.04016808169289335,
                0.04546819771879601,
                0.073039,
                0.9640559192236222,
                0.04016807654569406,
                0.03955784380403564,
                0.04546818817628537,
                0.005150585573490423,
                0.3442785811265569,
                0.04016816588485613,
                0.8933333391756706,
                0.04016814218029451,
                0.04016817778765721,
                0.07303899999999999,
                0.5611143395065021,
                0.24469729216765215,
                0.04016811359721704,
                0.51099891,
                0.24469729216765215,
                0.12126548812238726,
                0.332019849996448,
                0.51099891,
                0.04659873145021995,
                1.1120768331818676,
                0.2513320412109936,
                0.045344006613429313,
                0.4863248942376762,
                0.040168045088752824,
                0.07524999999999998,
                0.7202905919916565,
                0.34427858112655685,
                0.8673810337567198,
                0.2959386943952337,
                0.04016791879665731,
                0.04016816096840586,
                0.37356323200488784,
                0.1459204612095708,
                0.07525,
                0.12178174758776707,
                0.011558466858878446,
                0.5766456551023167,
                0.12178174758776707,
                0.12178174758776707,
                0.07535007243230984,
                1.112076833181868,
                0.07577040547335234,
                0.7092529365513348,
                0.045468239641104205,
                0.4960917607138022,
                0.7789048647004682,
                0.3442785811265569,
                0.7789048647004684,
                0.38258080732232796,
                0.03955772723695676,
                1.1120768331818678,
                0.12178174758776707,
                0.2581883966487241,
                0.07303899999999999,
                0.12178174758776707,
                0.12178174758776705,
                0.12178174758776707,
                0.34427858112655685,
                0.34427858112655696,
                0.1887674238334818,
                0.12178174758776704,
                0.03738098821715243,
                0.0847407,
                0.8115223987178981,
                0.039557647719413426,
                0.04016806478861118,
                0.2702934330231702,
                0.2607239792680521,
                0.039557766147570866,
                0.04546820677799782,
                0.12178174758776705,
                0.19424041434602368,
                0.34427858112655685,
                0.14755235670591535,
                0.039557821786799195,
                0.07303899999999999,
                0.04534405395084423,
                0.08170056352162762,
                0.04016801917476976,
                1.0858368332064599,
                0.24469729216765218,
                0.12178174758776707,
                0.86738103375672,
                0.4439603629713093,
                0.9262906603269351,
                1.4080131975450252,
                0.08474069999999999,
                0.17943697333935815,
                1.2129444931966773,
                0.12178174758776705,
                0.13493040996233463,
                0.04016809299440949,
                0.12178174758776705,
                0.04306047129065248,
                0.07525,
                0.3442785811265569,
                1.4080131975450252,
                0.42731851651483854,
                0.12178174758776707,
                0.12178174758776707,
                0.07525,
                0.12178174758776707,
                0.6155785468352841,
                0.04016817590237818,
                0.04016804752096141,
                0.12178174758776705,
                0.011558576725674705,
                0.12178174758776708,
                0.674641084098751,
                0.4663987085495426,
                0.04016814442187672,
                0.9725553930126077,
                0.0453440940323992,
                0.03683257956729674,
                0.7684928496521708,
                0.07525000000000001,
                0.04016814792000543,
                1.0052521213244057,
                0.03955786428447542,
                0.24469729216765215,
                0.5855080438473553,
                0.3442785811265569,
                0.054648336952646266,
                0.12178174758776707,
                0.040168175884590845,
                0.4111165114560972,
                0.0401680514718505,
                0.07525,
                0.0469435,
                0.04016811818162814,
                0.1200504164351264,
                0.03955793489060188,
                0.007873920308051483,
                0.04016828200428805,
                0.046625902520238904,
                0.601848879934732,
                0.01094834243765278,
                0.040168057689364926,
                0.13449040687580455,
                0.03955778966453235,
                0.38024348038249395,
                0.7789048647004684,
                0.040168122907106155,
                0.18538616973715802,
                0.03955769251022716,
                0.5563324825660957,
                0.6750624170740865,
                0.2785800388838935,
                0.34427858112655685,
                0.08523540000000002,
                0.3442785811265569,
                1.4080131975450245,
                0.039557835788125176,
                0.7789048647004683,
                0.11242064336522473,
                0.4375011577885104,
                0.12178174758776707,
                0.8469365523561914,
                0.028131213746686146,
                0.039557853984302865,
                0.5862647941086815,
                0.41833268914081373,
                0.12178174758776707,
                0.04016825123774945,
                0.07525,
                0.020811235362657967,
                0.04308489634137913,
                0.039557831931376325,
                0.007023195055541422,
                0.34427858112655696,
                0.7128712316223608,
                0.24469729216765213,
                0.24469729216765215,
                0.0401681330626452,
                0.03955780802228116,
                0.03955769012170408,
                0.040168163705785576,
                0.12178174758776705,
                1.408013197545025,
                0.7789048647004684,
                0.06290761333293604,
                0.04016815800245878,
                0.9640559192236221,
                0.12178174758776707,
                0.3649629337915543,
                0.007138377629716023,
                0.9640559192236222,
                0.04016790099788145,
                0.039557818631639305,
                0.039557842342772584,
                0.5498344453698045,
                0.03920532605264641,
                0.04016817547037788,
                0.040168561010400214,
                0.04016814432676175,
                0.24469729216765213,
                0.039557880215504604,
                0.4111165114560971,
                0.394796696517617,
                0.03955787854987168,
                0.8784114081114364,
                0.03955782752912427,
                0.04546825059305788,
                1.4080131975450247,
                0.05964500391652605,
                0.04534423014080864,
                0.039557655124661646,
                0.12178174758776707,
                0.8905616820749078,
                0.12178174758776705,
                1.4080131975450247,
                0.3442785811265569,
                0.24469729216765213,
                0.0876557,
                0.9790469095492581,
                0.040167947452292956,
                0.040168126746780095,
                0.8733895396916598,
                0.029227118122672424,
                0.055269556460908975,
                0.7035121744234388,
                0.5749272208033054,
                0.9640559192236221,
                0.7033367213008339,
                0.040168018983580106,
                0.04546838471577134,
                0.9640559192236222,
                0.34427858112655696,
                0.32963559686655314,
                0.12178174758776707,
                0.7789048647004684,
                0.0882024,
                0.08895604066282442,
                0.04016810523302933,
                0.010948316905952202,
                0.12178174758776705,
                0.12178174758776707,
                0.7338399213314909,
                0.547191944451688,
                0.12178174758776707,
                0.16965111759845541,
                0.07524999999999998,
                0.07524999999999998,
                0.0401681759876357,
                0.23663134947178907,
                0.07524999999999998,
                0.26994973625997876,
                0.5109989100000001,
                0.12178174758776707,
                0.30826909124112695,
                0.3442785811265569,
                0.013174273490691876,
                0.011558636637223797,
                0.34427858112655685,
                0.03955760895463291,
                0.12178174758776705,
                0.08417349178950084,
                0.014762816298647397,
                0.24469729216765215,
                0.04016802999739452,
                0.040168128371018685,
                1.408013197545025,
                0.03955779663794851,
                0.2621387953523007,
                1.0858368332064599,
                0.03955798264284487,
                0.7789048647004684,
                0.9640559192236221,
                0.01094826813563024,
                0.12178174758776708,
                0.8673810337567199,
                0.046598686955740695,
                0.040168149199621944,
                0.12178174758776705,
                0.04016809043373573,
                0.04016796688220658,
                0.9640559192236223,
                1.0858368332064599,
                0.12178174758776705,
                0.16814819197772196,
                0.04546832752653087,
                0.7944388069031685,
                0.44396036297130936,
                0.009045237727219829,
                0.04016802561677303,
                0.4733708478959298,
                0.22952927276555052,
                0.37479891216552497,
                0.12178174758776705,
                0.03955778005570221,
                1.408013197545025,
                0.34427858112655685,
                0.12178174758776705,
                0.017161595048351283,
                0.007873863349039917,
                0.07303900000000002,
                0.18131378442504342,
                0.34427858112655685,
                0.040168037181497154,
                0.07524999999999998,
                0.12178174758776707,
                0.9640559192236222,
                0.3109412842252451,
                0.5868191625412706,
                0.04016798024208822,
                0.04016809363083579,
                0.12178174758776705,
                0.2373530025275113,
                0.5932596296379777,
                0.25493401145392713,
                0.007873920857526636,
                0.0852354
            ],
            "photocathode": [
                3388,
                324,
                852,
                2447,
                1230,
                287,
                5603,
                6716,
                280,
                5511,
                83,
                282,
                2383,
                3598,
                55,
                298,
                2478,
                311,
                4203,
                1679,
                283,
                653,
                826,
                2494,
                491,
                6477,
                559,
                9778,
                257,
                245,
                304,
                2384,
                1513,
                335,
                5457,
                793,
                890,
                272,
                561,
                874,
                275,
                120,
                2330,
                349,
                513,
                1365,
                558,
                874,
                237,
                312,
                2431,
                828,
                8421,
                1721,
                2378,
                288,
                117,
                827,
                1986,
                862,
                2970,
                842,
                1067,
                313,
                325,
                271,
                287,
                2938,
                7810,
                2282,
                307,
                75,
                296,
                2385,
                2627,
                3519,
                2550,
                1312,
                3768,
                572,
                3313,
                1378,
                4013,
                1753,
                847,
                1627,
                5677,
                645,
                2469,
                378,
                6700,
                830,
                1467,
                63,
                1538,
                3765,
                6566,
                477,
                1686,
                757,
                3104,
                8459,
                2312,
                2428,
                803,
                505,
                2427,
                5408,
                7546,
                871,
                7848,
                636,
                2042,
                2314,
                283,
                7259,
                2206,
                291,
                9114,
                3833,
                271,
                817,
                284,
                873,
                504,
                2289,
                815,
                324,
                309,
                248,
                307,
                320,
                3383,
                812,
                2397,
                262,
                797,
                2746,
                315,
                3197,
                1094,
                279,
                4663,
                520,
                249,
                3951,
                6800,
                1702,
                279,
                3917,
                2145,
                1682,
                903,
                2786,
                250,
                52,
                7709,
                3914,
                98,
                302,
                83,
                3466,
                802,
                1043,
                270,
                292,
                9831,
                306,
                288,
                490,
                280,
                598,
                89,
                3155,
                294,
                108,
                5651,
                3074,
                814,
                874,
                291,
                702,
                271,
                7815,
                272,
                316,
                534,
                6680,
                307,
                260,
                318,
                38,
                2302,
                296,
                6376,
                260,
                284,
                512,
                3981,
                1741,
                251,
                3671,
                1657,
                832,
                2400,
                3632,
                331,
                7733,
                1701,
                307,
                3448,
                283,
                495,
                5170,
                2323,
                6284,
                2082,
                279,
                260,
                2581,
                1001,
                522,
                832,
                75,
                4054,
                889,
                833,
                495,
                7833,
                517,
                5000,
                298,
                3488,
                5419,
                2428,
                5269,
                2738,
                270,
                7777,
                814,
                1814,
                503,
                856,
                824,
                799,
                2456,
                2473,
                1320,
                834,
                262,
                547,
                5677,
                270,
                282,
                1942,
                1798,
                261,
                312,
                875,
                1358,
                2322,
                1017,
                284,
                514,
                288,
                522,
                269,
                7775,
                1683,
                857,
                6310,
                3122,
                6753,
                9737,
                628,
                1330,
                8505,
                824,
                942,
                281,
                868,
                257,
                495,
                2464,
                10145,
                3101,
                859,
                822,
                504,
                833,
                4217,
                275,
                266,
                803,
                68,
                867,
                4867,
                3241,
                303,
                6726,
                290,
                266,
                5495,
                535,
                272,
                6781,
                250,
                1697,
                4101,
                2416,
                372,
                837,
                254,
                2890,
                290,
                510,
                315,
                296,
                830,
                248,
                54,
                276,
                303,
                4219,
                79,
                287,
                925,
                262,
                2651,
                5472,
                278,
                1333,
                308,
                3953,
                4553,
                1977,
                2396,
                572,
                2314,
                10058,
                271,
                5396,
                779,
                2959,
                834,
                6117,
                189,
                280,
                3988,
                2978,
                880,
                275,
                514,
                155,
                289,
                271,
                49,
                2430,
                4980,
                1681,
                1657,
                265,
                274,
                243,
                262,
                847,
                9832,
                5764,
                456,
                264,
                6824,
                849,
                2592,
                54,
                6961,
                250,
                278,
                286,
                3912,
                268,
                284,
                291,
                307,
                1687,
                250,
                2877,
                2812,
                295,
                6289,
                257,
                295,
                9883,
                419,
                309,
                257,
                845,
                6165,
                850,
                9792,
                2450,
                1723,
                601,
                6982,
                272,
                282,
                6233,
                193,
                381,
                5047,
                4104,
                6640,
                5014,
                272,
                340,
                6560,
                2414,
                2341,
                854,
                5517,
                598,
                592,
                254,
                82,
                867,
                846,
                5241,
                3791,
                869,
                1207,
                549,
                515,
                311,
                1748,
                533,
                1815,
                3586,
                806,
                2156,
                2372,
                87,
                88,
                2348,
                261,
                844,
                576,
                108,
                1698,
                278,
                264,
                9879,
                286,
                1799,
                7707,
                298,
                5355,
                6546,
                67,
                838,
                5966,
                316,
                253,
                848,
                295,
                293,
                6777,
                7402,
                863,
                1159,
                320,
                5806,
                3185,
                62,
                260,
                3414,
                1641,
                2546,
                871,
                293,
                9769,
                2383,
                880,
                112,
                42,
                478,
                1234,
                2349,
                276,
                546,
                825,
                6709,
                2184,
                4192,
                288,
                256,
                845,
                1678,
                4180,
                1792,
                51,
                579
            ]
        },
        "detections": 500,
        "events": 40729
    }
}