{
    "job_args": {
        "metric_limit": 500,
        "seed": 1059923233
    },
    "job_id": "batch_18_do_500",
    "result": {
        "collections": {
            "crystal": [
                0.2398012361955528,
                0.6616572831606167,
                0.6616572831606167,
                0.6616572831606166,
                0.6616572831606166,
                0.4644869839074047,
                0.489536187392729,
                0.6616572831606164,
                0.15303042813231393,
                0.6616572831606164,
                0.4751687916691599,
                0.6616572831606166,
                0.6616572831606166,
                0.6616572831606167,
                0.10442329935610828,
                0.4285237424345231,
                0.2579429420807352,
                0.6616572831606166,
                0.4955397333641669,
                0.2648063168974323,
                0.6616572831606164,
                0.6616572831606166,
                0.10968953016993788,
                0.4411574889000615,
                0.1806047515012688,
                0.6616572831606166,
                0.11674355188500585,
                0.1253866134903182,
                0.04663835119638382,
                0.2576130661168187,
                0.42116914246050385,
                0.4982106482525437,
                0.6616572831606167,
                0.0469435,
                0.23589865722896453,
                0.6616572831606167,
                0.6616572831606166,
                0.19216947911118043,
                0.47952883931316825,
                0.6616572831606164,
                0.6616572831606166,
                0.34315866101577097,
                0.6338700278714451,
                0.1269426830920661,
                0.6616572831606167,
                0.6616572831606166,
                0.6616572831606164,
                0.04080219999999999,
                0.052775054685450684,
                0.6616572831606168,
                0.631302594743571,
                0.6616572831606166,
                0.6616572831606167,
                0.18910827597567298,
                0.0875364785010535,
                0.2103978991658912,
                0.4466853509160057,
                0.6616572831606166,
                0.12033316248022984,
                0.4620210657531969,
                0.6616572831606166,
                0.08085300671027806,
                0.6616572831606166,
                0.6616572831606164,
                0.6616572831606166,
                0.060626218044807285,
                0.6616572831606167,
                0.6616572831606167,
                0.07830884766519397,
                0.6616572831606166,
                0.26675720776042905,
                0.6616572831606166,
                0.2327872808477256,
                0.6616572831606164,
                0.38124111003258365,
                0.18865706769444485,
                0.6616572831606166,
                0.4261010636249126,
                0.6616572831606164,
                0.15210374903587243,
                0.48665321555197444,
                0.22822608438169179,
                0.6616572831606166,
                0.6616572831606167,
                0.37476957123897203,
                0.6616572831606166,
                0.21962904657315047,
                0.07382410242943324,
                0.6616572831606167,
                0.4526632282864188,
                0.403816448701007,
                0.6616572831606166,
                0.6616572831606166,
                0.32320518897315065,
                0.6616572831606167,
                0.6616572831606164,
                0.031939052900132436,
                0.40607812613008426,
                0.021994553590797272,
                0.2207109999082863,
                0.42518113371009575,
                0.33249897475050755,
                0.20338431983148847,
                0.6616572831606167,
                0.5140190945492719,
                0.6616572831606164,
                0.6616572831606166,
                0.20174197587783424,
                0.6616572831606166,
                0.6616572831606166,
                0.4312684715230094,
                0.14715104810947222,
                0.6616572831606167,
                0.6616572831606168,
                0.6616572831606164,
                0.6616572831606166,
                0.3961532146881096,
                0.20940836139066255,
                0.33380417491848663,
                0.5492663174317728,
                0.6616572831606166,
                0.0397834510016597,
                0.4499295128855596,
                0.6616572831606166,
                0.6616572831606167,
                0.467548674298797,
                0.6616572831606166,
                0.0857680631928015,
                0.6616572831606167,
                0.27521463194963947,
                0.6616572831606164,
                0.073039,
                0.6616572831606164,
                0.4022300657338101,
                0.6616572831606164,
                0.6616572831606166,
                0.07524999999999998,
                0.6616572831606164,
                0.6616572831606166,
                0.1968876711644041,
                0.6616572831606166,
                0.6616572831606166,
                0.45510599828528375,
                0.5121925148343044,
                0.6616572831606167,
                0.6616572831606167,
                0.6616572831606164,
                0.6616572831606166,
                0.6616572831606166,
                0.6616572831606166,
                0.20164323038741516,
                0.40252334643767385,
                0.4285775609072319,
                0.6616572831606166,
                0.6616572831606167,
                0.4889256076460923,
                0.02417321170910558,
                0.1496198353045769,
                0.22383745809635505,
                0.6616572831606167,
                0.18916872395346768,
                0.6616572831606166,
                0.6616572831606166,
                0.6616572831606164,
                0.6616572831606164,
                0.6616572831606166,
                0.24861374738483746,
                0.6616572831606164,
                0.37873855637078496,
                0.564863619452446,
                0.18778283521053038,
                0.5994368619727276,
                0.6616572831606167,
                0.6616572831606166,
                0.6616572831606168,
                0.47711240483966116,
                0.49064519469304857,
                0.3051641601440675,
                0.6616572831606166,
                0.3715317287938527,
                0.26405104085041975,
                0.6616572831606167,
                0.5226765036645868,
                0.6616572831606166,
                0.6616572831606166,
                0.3956656527336975,
                0.10393802407163277,
                0.1438193456887068,
                0.6616572831606166,
                0.002396194483554992,
                0.6616572831606166,
                0.6616572831606166,
                0.22120654309468582,
                0.24571675419751515,
                0.073039,
                0.616704681863884,
                0.25185702620779093,
                0.08255650513625967,
                0.6616572831606166,
                0.6616572831606166,
                0.21191183716150314,
                0.09441795473829528,
                0.06400163631813016,
                0.22559866605885553,
                0.21676026211876048,
                0.6616572831606166,
                0.23949678117779605,
                0.6616572831606164,
                0.6616572831606167,
                0.6616572831606167,
                0.040253634222368495,
                0.6616572831606167,
                0.6616572831606166,
                0.6616572831606166,
                0.3090560531765844,
                0.5158730373400557,
                0.26418791634967836,
                0.6616572831606164,
                0.1657700389294292,
                0.1514262462288419,
                0.218763857138055,
                0.4037327678369392,
                0.040744800000000005,
                0.20106972901072562,
                0.05833234770297857,
                0.6616572831606166,
                0.4873860217939934,
                0.18273373559815836,
                0.6616572831606168,
                0.15428355403543237,
                0.6616572831606167,
                0.6616572831606167,
                0.6616572831606163,
                0.6616572831606166,
                0.3114119534664487,
                0.6616572831606167,
                0.6616572831606166,
                0.6616572831606167,
                0.4719809679856854,
                0.383141679081333,
                0.6616572831606167,
                0.6616572831606164,
                0.18684285521828137,
                0.6616572831606166,
                0.6616572831606167,
                0.6616572831606166,
                0.6616572831606166,
                0.16355423010991244,
                0.40609851524227353,
                0.36849846835060684,
                0.6616572831606167,
                0.41878939840171436,
                0.6616572831606167,
                0.6616572831606166,
                0.6616572831606166,
                0.6616572831606166,
                0.0251165470667557,
                0.2166773677925618,
                0.5490308264180332,
                0.18478573406748555,
                0.10909509490965233,
                0.6616572831606166,
                0.3035659158813638,
                0.4185646921496172,
                0.0840766941338369,
                0.6616572831606166,
                0.45304415641436746,
                0.6616572831606164,
                0.4012818970499944,
                0.17644121242348593,
                0.42208614015040546,
                0.2076483875960206,
                0.005320795221927743,
                0.6616572831606166,
                0.6616572831606167,
                0.3212267293712109,
                0.2878223559835372,
                0.281922723285433,
                0.6616572831606164,
                0.6616572831606166,
                0.3955247948073352,
                0.44957792280104875,
                0.6616572831606166,
                0.3424245761362397,
                0.45711248660728376,
                0.12353109690568052,
                0.2713219102927292,
                0.6616572831606166,
                0.13725209528614435,
                0.6616572831606167,
                0.01517981483834385,
                0.27285183126797147,
                0.2733955185917178,
                0.6616572831606167,
                0.6616572831606164,
                0.6616572831606166,
                0.6616572831606166,
                0.6616572831606166,
                0.6616572831606167,
                0.6616572831606167,
                0.046453646148505334,
                0.6616572831606164,
                0.5064905446601945,
                0.07125530709574146,
                0.6616572831606166,
                0.6616572831606167,
                0.40410962876025297,
                0.5253200638666614,
                0.6616572831606166,
                0.07525,
                0.38219461714751246,
                0.11644528559894408,
                0.6616572831606167,
                0.6616572831606164,
                0.049980996455720184,
                0.025783594632578177,
                0.4490909679386309,
                0.35025083411783275,
                0.6616572831606166,
                0.1761630034082024,
                0.18980210728287344,
                0.0368301766659217,
                0.2012370228085933,
                0.6616572831606166,
                0.04648678447163368,
                0.2638263739164493,
                0.04082018841533752,
                0.6616572831606164,
                0.6616572831606167,
                0.6616572831606166,
                0.22162975122814976,
                0.41844738581789154,
                0.6616572831606167,
                0.6616572831606166,
                0.1586240302975973,
                0.6616572831606166,
                0.35197582057259164,
                0.6616572831606164,
                0.09964683161043597,
                0.6616572831606166,
                0.6616572831606167,
                0.6616572831606168,
                0.6616572831606166,
                0.6616572831606167,
                0.2980950049265017,
                0.2518210234250651,
                0.6616572831606166,
                0.073039,
                0.4367051569541752,
                0.1830447246918026,
                0.16182247357886798,
                0.6616572831606164,
                0.6616572831606166,
                0.44896536066874126,
                0.6616572831606164,
                0.6616572831606164,
                0.6616572831606166,
                0.33707349512650603,
                0.4428634936259552,
                0.6616572831606166,
                0.6616572831606166,
                0.6616572831606166,
                0.14260478576872204,
                0.6616572831606166,
                0.6616572831606164,
                0.6616572831606166,
                0.0738128953843711,
                0.6616572831606166,
                0.6616572831606164,
                0.29927094695362577,
                0.6616572831606168,
                0.6616572831606167,
                0.4574412887305153,
                0.3334599545236497,
                0.3040222931157192,
                0.19461494078918215,
                0.13946945864423038,
                0.040744800000000005,
                0.29891698415057494,
                0.6616572831606166,
                0.6616572831606166,
                0.2634636983771331,
                0.6616572831606164,
                0.10146140012476056,
                0.6616572831606166,
                0.39757667111985995,
                0.6616572831606164,
                0.6616572831606164,
                0.009565754449341601,
                0.1471059279445459,
                0.6616572831606166,
                0.5139403461552937,
                0.6616572831606167,
                0.6616572831606166,
                0.23721219423770734,
                0.6616572831606166,
                0.6616572831606166,
                0.6553477575395289,
                0.4794065448403952,
                0.6616572831606167,
                0.5565182165119114,
                0.26845180298008975,
                0.5141022611751604,
                0.436783685038343,
                0.6616572831606164,
                0.6616572831606164,
                0.26313940428825205,
                0.28139903862967924,
                0.29400066603220665,
                0.6616572831606166,
                0.028517905974070553,
                0.6616572831606166,
                0.6616572831606164,
                0.6616572831606167,
                0.2670579780417139,
                0.4914233678506946,
                0.1969731803233915,
                0.6616572831606166,
                0.6616572831606166,
                0.6616572831606166,
                0.6616572831606167,
                0.6616572831606166,
                0.197356556874474,
                0.6616572831606164,
                0.6616572831606166,
                0.41254122596951914,
                0.6616572831606166,
                0.6616572831606167,
                0.6616572831606164,
                0.6616572831606164,
                0.6616572831606164,
                0.32197886069543263,
                0.6616572831606166,
                0.6616572831606168,
                0.46832858234939956,
                0.3664078142227076,
                0.2998285145230211,
                0.6616572831606166,
                0.6616572831606166,
                0.18290435395171772,
                0.20577562025467128,
                0.6616572831606167,
                0.6616572831606166,
                0.20666727482587421,
                0.6616572831606164,
                0.6616572831606166,
                0.6616572831606166,
                0.6616572831606166,
                0.6616572831606164,
                0.6616572831606166,
                0.10190475308520562,
                0.6616572831606167,
                0.6616572831606166,
                0.07037288458637725,
                0.4466300251576886,
                0.2065261437779242,
                0.42443108593650647,
                0.6616572831606167,
                0.6616572831606166,
                0.6616572831606166,
                0.0038608880529722445,
                0.46271731924032594,
                0.6616572831606166,
                0.6616572831606167,
                0.17844959253414483,
                0.36019415640965213,
                0.6616572831606164,
                0.6616572831606164,
                0.6616572831606164,
                0.43569751625427977,
                0.6616572831606167,
                0.3479762582016102,
                0.3724933782856625,
                0.44299022630342144,
                0.087534,
                0.6616572831606166,
                0.6616572831606167,
                0.3707852214808211,
                0.6616572831606166,
                0.6616572831606166,
                0.44412380588230543,
                0.24782606381428196,
                0.39230044559218125,
                0.014205059541242293,
                0.06207194056545595,
                0.6616572831606168,
                0.6616572831606166,
                0.6616572831606166,
                0.6616572831606167,
                0.6616572831606166,
                0.4182956868660521,
                0.19864521742494967,
                0.6616572831606166,
                0.015629720012002912,
                0.6616572831606166,
                0.027320754276406373,
                0.6616572831606164,
                0.6616572831606167,
                0.4655788454759294,
                0.6616572831606166
            ],
            "photocathode": [
                1780,
                4601,
                4628,
                4568,
                4673,
                3286,
                3358,
                4675,
                1076,
                4751,
                3279,
                4663,
                4567,
                4741,
                695,
                3019,
                1761,
                4639,
                3455,
                1898,
                4546,
                4646,
                748,
                2998,
                1240,
                4551,
                814,
                924,
                325,
                1865,
                3022,
                3541,
                4639,
                331,
                1623,
                4686,
                4678,
                1315,
                3498,
                4791,
                4608,
                2319,
                4408,
                874,
                4730,
                4655,
                4563,
                301,
                336,
                4710,
                4374,
                4690,
                4573,
                1347,
                615,
                1462,
                3139,
                4568,
                845,
                3181,
                4689,
                593,
                4690,
                4743,
                4776,
                447,
                4608,
                4798,
                546,
                4676,
                1913,
                4613,
                1647,
                4622,
                2741,
                1303,
                4645,
                3011,
                4640,
                1077,
                3424,
                1571,
                4505,
                4679,
                2625,
                4574,
                1656,
                522,
                4503,
                3375,
                2757,
                4701,
                4600,
                2299,
                4680,
                4626,
                226,
                2840,
                152,
                1530,
                3034,
                2266,
                1353,
                4626,
                3604,
                4619,
                4730,
                1407,
                4585,
                4578,
                2944,
                1018,
                4727,
                4770,
                4676,
                4628,
                2767,
                1463,
                2416,
                3881,
                4801,
                262,
                3191,
                4590,
                4539,
                3290,
                4661,
                583,
                4595,
                1931,
                4729,
                500,
                4572,
                2840,
                4630,
                4729,
                516,
                4543,
                4678,
                1334,
                4706,
                4730,
                3182,
                3561,
                4568,
                4663,
                4510,
                4623,
                4719,
                4622,
                1374,
                2758,
                2986,
                4552,
                4621,
                3355,
                178,
                1003,
                1575,
                4777,
                1322,
                4521,
                4536,
                4569,
                4672,
                4733,
                1754,
                4648,
                2646,
                4000,
                1347,
                4386,
                4687,
                4769,
                4613,
                3327,
                3357,
                2231,
                4643,
                2685,
                1850,
                4640,
                3569,
                4514,
                4695,
                2714,
                733,
                1018,
                4594,
                21,
                4572,
                4555,
                1541,
                1703,
                501,
                4312,
                1816,
                517,
                4737,
                4565,
                1524,
                650,
                454,
                1700,
                1484,
                4561,
                1679,
                4557,
                4510,
                4579,
                302,
                4552,
                4472,
                4699,
                2087,
                3706,
                1833,
                4627,
                1245,
                1079,
                1537,
                2834,
                275,
                1403,
                408,
                4653,
                3445,
                1375,
                4804,
                1099,
                4730,
                4732,
                4551,
                4839,
                2206,
                4721,
                4659,
                4625,
                3325,
                2562,
                4660,
                4601,
                1258,
                4628,
                4548,
                4560,
                4603,
                1087,
                2917,
                2569,
                4643,
                2915,
                4828,
                4731,
                4673,
                4612,
                156,
                1553,
                3781,
                1303,
                812,
                4593,
                2116,
                2977,
                552,
                4621,
                3208,
                4525,
                2847,
                1246,
                2872,
                1444,
                40,
                4539,
                4633,
                2267,
                2064,
                2011,
                4802,
                4614,
                2740,
                3086,
                4601,
                2398,
                3083,
                865,
                1895,
                4687,
                963,
                4660,
                99,
                1996,
                1955,
                4628,
                4626,
                4517,
                4550,
                4512,
                4587,
                4796,
                333,
                4656,
                3533,
                532,
                4719,
                4592,
                2825,
                3748,
                4707,
                498,
                2623,
                844,
                4635,
                4873,
                349,
                186,
                3154,
                2521,
                4669,
                1185,
                1308,
                250,
                1359,
                4603,
                292,
                1857,
                289,
                4575,
                4526,
                4651,
                1599,
                2928,
                4502,
                4629,
                1079,
                4830,
                2526,
                4977,
                749,
                4692,
                4591,
                4586,
                4679,
                4637,
                2232,
                1800,
                4601,
                497,
                3118,
                1220,
                1052,
                4601,
                4620,
                3270,
                4589,
                4681,
                4740,
                2415,
                3187,
                4660,
                4621,
                4592,
                1021,
                4621,
                4677,
                4751,
                476,
                4658,
                4669,
                2142,
                4547,
                4568,
                3223,
                2398,
                2115,
                1377,
                972,
                287,
                2077,
                4612,
                4511,
                1883,
                4694,
                711,
                4677,
                2788,
                4688,
                4625,
                65,
                1052,
                4728,
                3572,
                4526,
                4700,
                1685,
                4718,
                4616,
                4509,
                3445,
                4597,
                3893,
                1858,
                3707,
                3215,
                4708,
                4436,
                1888,
                1967,
                2074,
                4689,
                220,
                4583,
                4512,
                4640,
                1930,
                3495,
                1398,
                4735,
                4637,
                4851,
                4453,
                4612,
                1339,
                4670,
                4676,
                2979,
                4597,
                4538,
                4629,
                4526,
                4574,
                2318,
                4501,
                4681,
                3262,
                2575,
                2226,
                4574,
                4503,
                1340,
                1411,
                4720,
                4588,
                1408,
                4696,
                4607,
                4582,
                4686,
                4695,
                4657,
                737,
                4517,
                4536,
                475,
                3170,
                1454,
                2980,
                4733,
                4696,
                4568,
                17,
                3296,
                4612,
                4570,
                1318,
                2575,
                4588,
                4582,
                4856,
                3017,
                4492,
                2445,
                2625,
                3049,
                618,
                4700,
                4621,
                2571,
                4530,
                4754,
                3197,
                1760,
                2721,
                107,
                450,
                4611,
                4608,
                4527,
                4669,
                4598,
                2871,
                1294,
                4642,
                94,
                4619,
                190,
                4519,
                4620,
                3249,
                4696
            ]
        },
        "detections": 500,
        "events": 128405
    }
}