{
    "job_args": {
        "metric_limit": 500,
        "seed": 3103069671
    },
    "job_id": "batch_29_do_500",
    "result": {
        "collections": {
            "crystal": [
                0.6616572831606164,
                0.2269939652542908,
                0.3427830295613145,
                0.2995914033978582,
                0.6616572831606167,
                0.6616572831606166,
                0.073039,
                0.6616572831606166,
                0.6616572831606166,
                0.24177101647181334,
                0.6616572831606167,
                0.22165147932079649,
                0.3815256285147933,
                0.16085241360384972,
                0.6616572831606166,
                0.0847407,
                0.17909746498821866,
                0.38299733432420113,
                0.6616572831606167,
                0.6616572831606166,
                0.6616572831606167,
                0.2569891478116352,
                0.6616572831606167,
                0.12671579267036548,
                0.6616572831606167,
                0.32889520502210423,
                0.6616572831606167,
                0.6616572831606164,
                0.1334864238260728,
                0.28066672100274676,
                0.6616572831606166,
                0.6616572831606164,
                0.6616572831606166,
                0.4080040117627964,
                0.26250446873310457,
                0.4454744554115638,
                0.41679252920789434,
                0.33962247368231613,
                0.09694969335215675,
                0.6616572831606164,
                0.6616572831606166,
                0.6616572831606166,
                0.6616572831606167,
                0.5565353427416173,
                0.42418785767464423,
                0.14390294410909152,
                0.509700851994133,
                0.517778296407834,
                0.36147683211228926,
                0.13847952077443582,
                0.1557363459954656,
                0.6330477831606165,
                0.6616572831606167,
                0.6616572831606166,
                0.6616572831606166,
                0.6616572831606166,
                0.2954298840796202,
                0.6616572831606166,
                0.13438401475699033,
                0.6616572831606166,
                0.47861251459491627,
                0.6616572831606166,
                0.04030727602983189,
                0.6616572831606164,
                0.6616572831606167,
                0.20282100624748198,
                0.6616572831606167,
                0.26416630783238054,
                0.6616572831606164,
                0.36133862932043237,
                0.6616572831606166,
                0.6616572831606164,
                0.6616572831606164,
                0.6616572831606166,
                0.6616572831606164,
                0.4702472925892691,
                0.47008376109744443,
                0.05423033185469151,
                0.4548476602518359,
                0.2101624715030745,
                0.5276855213754228,
                0.43340336028104043,
                0.6616572831606166,
                0.6616572831606166,
                0.6616572831606166,
                0.6616572831606164,
                0.27172055037630144,
                0.4759262435134015,
                0.49565296992071506,
                0.6616572831606167,
                0.420450705863895,
                0.6616572831606167,
                0.4377225023027975,
                0.6616572831606167,
                0.6616572831606166,
                0.6616572831606164,
                0.391442327107733,
                0.441609868379099,
                0.6616572831606166,
                0.20191552638038207,
                0.08379976290724389,
                0.2827973280100038,
                0.14264964705586125,
                0.6616572831606166,
                0.4227004940309005,
                0.6616572831606167,
                0.6616572831606167,
                0.6616572831606164,
                0.44024930232858717,
                0.06479626335653191,
                0.6616572831606166,
                0.06348729984493984,
                0.6616572831606166,
                0.6616572831606164,
                0.6616572831606166,
                0.27036294693470575,
                0.4309158812450681,
                0.1991916650337311,
                0.6616572831606167,
                0.4743769063041374,
                0.6616572831606166,
                0.6616572831606166,
                0.4678080639473701,
                0.31155638535500907,
                0.4123115765489743,
                0.6616572831606164,
                0.44826296825046186,
                0.18232219392411214,
                0.2792239102789565,
                0.40041060965493097,
                0.40564771858061655,
                0.006823508161496461,
                0.24253098888876062,
                0.4484706584104551,
                0.6616572831606166,
                0.4414217535651262,
                0.6616572831606164,
                0.6616572831606166,
                0.6616572831606167,
                0.6616572831606166,
                0.21013242978653943,
                0.6616572831606166,
                0.3082923235306305,
                0.6616572831606167,
                0.1447352861339591,
                0.6616572831606166,
                0.6616572831606167,
                0.6616572831606164,
                0.1078858752269487,
                0.6616572831606166,
                0.18115171259598056,
                0.22725469357244854,
                0.6616572831606166,
                0.6616572831606167,
                0.6616572831606167,
                0.45857582900521443,
                0.6616572831606166,
                0.0876557,
                0.6616572831606166,
                0.35407178422273894,
                0.6616572831606164,
                0.6616572831606164,
                0.3589044477921309,
                0.6616572831606166,
                0.0876557,
                0.044164435254348544,
                0.3497913438523392,
                0.22476362131781535,
                0.6616572831606166,
                0.30260591353555666,
                0.6616572831606164,
                0.6616572831606167,
                0.08862929022641486,
                0.3147192026406232,
                0.6616572831606167,
                0.6616572831606166,
                0.325864347510159,
                0.6616572831606164,
                0.6616572831606164,
                0.6616572831606164,
                0.007475498179758122,
                0.6616572831606167,
                0.02991594917074797,
                0.363197812408833,
                0.07525,
                0.19367872085758764,
                0.06943123364788105,
                0.23927717543057986,
                0.030356577135166152,
                0.6616572831606164,
                0.0393578694081711,
                0.4789196012044119,
                0.6616572831606164,
                0.16991259028633232,
                0.6616572831606167,
                0.1544645097352959,
                0.6616572831606167,
                0.23392335556509164,
                0.4125069121163004,
                0.6494147818814195,
                0.6616572831606164,
                0.6616572831606167,
                0.6616572831606167,
                0.6616572831606164,
                0.6616572831606166,
                0.6616572831606166,
                0.20293951394845577,
                0.5829463776811061,
                0.3161123059311117,
                0.33229914102996305,
                0.4649239192778748,
                0.6616572831606166,
                0.18381854109183285,
                0.6616572831606164,
                0.6616572831606164,
                0.04169706597177225,
                0.4504795008493693,
                0.6616572831606166,
                0.0603417482267129,
                0.6616572831606166,
                0.42304603636487875,
                0.2306925943150384,
                0.04457675877069611,
                0.6616572831606166,
                0.5647393088571739,
                0.20427107469940786,
                0.2195803952289229,
                0.6616572831606166,
                0.3706445230010245,
                0.6616572831606166,
                0.6616572831606166,
                0.6616572831606167,
                0.628810011879298,
                0.6616572831606166,
                0.6616572831606164,
                0.03719666902803398,
                0.29854564035152026,
                0.13353754896385606,
                0.10652002818839429,
                0.6616572831606166,
                0.19003151371291804,
                0.6616572831606167,
                0.5543987932321446,
                0.6616572831606164,
                0.35109920499835867,
                0.6616572831606166,
                0.6616572831606164,
                0.6616572831606164,
                0.6616572831606164,
                0.580124541838122,
                0.1354196728074002,
                0.6616572831606166,
                0.23271381878502784,
                0.6616572831606166,
                0.41246882171877053,
                0.1828542037047542,
                0.3356557472048277,
                0.4062084748114479,
                0.0852354,
                0.29799669877120416,
                0.3815029800354591,
                0.6616572831606164,
                0.34030719041626495,
                0.46511637116851473,
                0.6616572831606164,
                0.3576871963123701,
                0.44605452969314285,
                0.6616572831606167,
                0.6616572831606167,
                0.30019574640692803,
                0.42317812067378135,
                0.5163055667453031,
                0.6616572831606166,
                0.6616572831606166,
                0.4636475940664868,
                0.6616572831606166,
                0.20125706130436677,
                0.2383492006922282,
                0.1615208701857037,
                0.6616572831606167,
                0.6616572831606166,
                0.6616572831606164,
                0.6616572831606166,
                0.09699623924635993,
                0.6616572831606166,
                0.6616572831606166,
                0.41962064853342734,
                0.6616572831606166,
                0.6616572831606164,
                0.4012090332849131,
                0.6616572831606167,
                0.6616572831606167,
                0.3190406392306241,
                0.6616572831606166,
                0.6616572831606164,
                0.6616572831606167,
                0.41538304908621015,
                0.6616572831606167,
                0.4219587733808401,
                0.6616572831606164,
                0.30486210181871415,
                0.3571177834347773,
                0.19242514193958066,
                0.10323278766636684,
                0.45463119137678965,
                0.2479436662305437,
                0.44725021974706825,
                0.6616572831606166,
                0.6616572831606166,
                0.6616572831606166,
                0.4170970307941201,
                0.2564606471169716,
                0.19099328532517737,
                0.07525,
                0.06829442371251677,
                0.6616572831606166,
                0.6616572831606164,
                0.0909231038603221,
                0.6616572831606167,
                0.27232647932896104,
                0.6616572831606167,
                0.2207703817795457,
                0.6616572831606166,
                0.4995765982629664,
                0.6616572831606166,
                0.3176538018675209,
                0.26737269787592577,
                0.6330477831606166,
                0.6616572831606164,
                0.25027314163730796,
                0.6616572831606166,
                0.26041837893032715,
                0.07303900000000002,
                0.6616572831606164,
                0.14370075859514175,
                0.6616572831606166,
                0.6616572831606167,
                0.6616572831606166,
                0.3365345299741215,
                0.6616572831606164,
                0.6616572831606164,
                0.4742733369733269,
                0.6616572831606166,
                0.2713123785882665,
                0.6616572831606166,
                0.6616572831606166,
                0.6616572831606166,
                0.4636948513546037,
                0.6616572831606167,
                0.6616572831606164,
                0.6616572831606166,
                0.6616572831606167,
                0.6616572831606167,
                0.15016689443195574,
                0.38890111480047584,
                0.32192148029717593,
                0.5300817989753476,
                0.024338992141448412,
                0.6616572831606166,
                0.6616572831606166,
                0.05973521371743762,
                0.4988249923011797,
                0.6616572831606167,
                0.10078400022739187,
                0.6616572831606167,
                0.6616572831606166,
                0.3375810721167128,
                0.36905404128110975,
                0.0852354,
                0.05032861345765283,
                0.24985509334667663,
                0.6616572831606166,
                0.3389633719971372,
                0.3727528130598436,
                0.6616572831606164,
                0.1828805662954336,
                0.17752609355933652,
                0.2969026692383808,
                0.07303899999999999,
                0.4122684428311222,
                0.08364626385140184,
                0.3190563832805688,
                0.6616572831606167,
                0.01573159615530817,
                0.6616572831606166,
                0.40157538356598044,
                0.42278537837672353,
                0.6616572831606167,
                0.6616572831606166,
                0.34906353218481795,
                0.4266403839861522,
                0.33599896379052685,
                0.07525,
                0.455821420154252,
                0.32187295167579394,
                0.6616572831606164,
                0.4677771389370271,
                0.6616572831606166,
                0.6616572831606167,
                0.6616572831606164,
                0.3894908197558573,
                0.41591620821342185,
                0.11840703645413508,
                0.5152482925594366,
                0.6616572831606166,
                0.06271141549337197,
                0.6616572831606167,
                0.6616572831606166,
                0.6616572831606166,
                0.6616572831606164,
                0.6616572831606167,
                0.6616572831606166,
                0.12712223815206414,
                0.6616572831606167,
                0.48919456821565377,
                0.6616572831606164,
                0.4641391179841408,
                0.6616572831606164,
                0.34129486215595395,
                0.6616572831606166,
                0.26308849682939084,
                0.6616572831606166,
                0.6616572831606166,
                0.6616572831606164,
                0.6616572831606166,
                0.6616572831606164,
                0.6616572831606166,
                0.03724582148307043,
                0.6616572831606164,
                0.15452796013670433,
                0.6616572831606166,
                0.6616572831606167,
                0.5363973031813455,
                0.3805858550666409,
                0.3325667643400955,
                0.43960436531330854,
                0.24062245593176296,
                0.6505373575041431,
                0.3749874224562225,
                0.6616572831606166,
                0.6616572831606164,
                0.24350658801663555,
                0.6616572831606163,
                0.08761578946534987,
                0.6616572831606166,
                0.6616572831606166,
                0.37226267254078893,
                0.27632202923473365,
                0.3687359048962333,
                0.028848632602289648,
                0.6616572831606166,
                0.3854661317711943,
                0.40144044213815366,
                0.2564066960524484,
                0.6616572831606166,
                0.6393739066110835,
                0.3651321888754392,
                0.6616572831606164,
                0.0847407,
                0.15800255854804368,
                0.6616572831606164,
                0.3250006568318358,
                0.6616572831606164,
                0.6616572831606164,
                0.6616572831606166,
                0.6616572831606166,
                0.6616572831606167,
                0.14903608511564842,
                0.14944090934935916,
                0.3730973479520899,
                0.29826108844576754,
                0.6616572831606166,
                0.1950607656769537,
                0.6616572831606166,
                0.3848761119818793,
                0.6616572831606166,
                0.08523539999999999,
                0.46407154631573855,
                0.4371816293676,
                0.42338993950411785,
                0.27555662565452704,
                0.6616572831606164,
                0.4346798153163207,
                0.4601219253371245,
                0.6616572831606164,
                0.6616572831606166,
                0.6616572831606166,
                0.10971823478154702,
                0.5015265649242436,
                0.07524999999999998,
                0.6616572831606164,
                0.5335020620338269,
                0.6616572831606167,
                0.6616572831606166,
                0.2203981983507743,
                0.6616572831606166,
                0.5401450586826407,
                0.2759042677521187,
                0.45173266747687557,
                0.40946214947294046
            ],
            "photocathode": [
                4670,
                1594,
                2468,
                2050,
                4710,
                4603,
                529,
                4643,
                4592,
                1786,
                4684,
                1522,
                2710,
                1127,
                4635,
                596,
                1286,
                2750,
                4607,
                4660,
                4459,
                1775,
                4638,
                859,
                4606,
                2217,
                4681,
                4629,
                963,
                1985,
                4698,
                4546,
                4695,
                2838,
                1836,
                3099,
                2841,
                2392,
                662,
                4589,
                4629,
                4759,
                4704,
                3942,
                3077,
                1028,
                3604,
                3525,
                2597,
                928,
                1107,
                4530,
                4601,
                4503,
                4751,
                4718,
                2090,
                4627,
                933,
                4709,
                3371,
                4671,
                274,
                4585,
                4647,
                1426,
                4567,
                1885,
                4754,
                2582,
                4648,
                4627,
                4653,
                4629,
                4809,
                3326,
                3394,
                381,
                3155,
                1500,
                3714,
                3030,
                4592,
                4638,
                4537,
                4731,
                1933,
                3325,
                3504,
                4484,
                2957,
                4665,
                3045,
                4597,
                4612,
                4609,
                2780,
                2946,
                4633,
                1430,
                563,
                1899,
                1026,
                4685,
                2861,
                4687,
                4667,
                4674,
                3122,
                482,
                4601,
                454,
                4649,
                4793,
                4650,
                1845,
                3010,
                1470,
                4719,
                3271,
                4710,
                4817,
                3358,
                2187,
                2950,
                4528,
                3215,
                1231,
                1932,
                2800,
                2803,
                46,
                1727,
                3160,
                4764,
                3030,
                4715,
                4721,
                4734,
                4744,
                1490,
                4652,
                2108,
                4633,
                1118,
                4683,
                4611,
                4648,
                784,
                4722,
                1268,
                1633,
                4628,
                4767,
                4645,
                3187,
                4621,
                607,
                4604,
                2537,
                4667,
                4698,
                2539,
                4663,
                600,
                311,
                2436,
                1538,
                4648,
                2266,
                4701,
                4571,
                629,
                2192,
                4524,
                4570,
                2217,
                4806,
                4605,
                4639,
                48,
                4586,
                212,
                2616,
                478,
                1351,
                459,
                1612,
                204,
                4698,
                279,
                3285,
                4712,
                1199,
                4523,
                1168,
                4797,
                1606,
                2899,
                4549,
                4583,
                4549,
                4691,
                4821,
                4572,
                4577,
                1480,
                4120,
                2243,
                2306,
                3185,
                4859,
                1306,
                4725,
                4558,
                270,
                3217,
                4693,
                418,
                4619,
                2929,
                1637,
                303,
                4735,
                3955,
                1419,
                1461,
                4599,
                2542,
                4592,
                4710,
                4636,
                4519,
                4828,
                4615,
                261,
                2158,
                974,
                752,
                4711,
                1311,
                4645,
                3860,
                4635,
                2467,
                4491,
                4509,
                4595,
                4640,
                4029,
                862,
                4700,
                1667,
                4771,
                2955,
                1257,
                2378,
                2801,
                572,
                2038,
                2649,
                4627,
                2446,
                3240,
                4528,
                2505,
                3176,
                4602,
                4639,
                2104,
                2892,
                3707,
                4674,
                4565,
                3215,
                4713,
                1374,
                1567,
                1121,
                4669,
                4529,
                4728,
                4535,
                687,
                4573,
                4610,
                3033,
                4779,
                4694,
                2817,
                4768,
                4812,
                2268,
                4698,
                4875,
                4658,
                2852,
                4521,
                2929,
                4591,
                2110,
                2425,
                1347,
                719,
                3275,
                1736,
                3090,
                4714,
                4803,
                4658,
                2907,
                1857,
                1303,
                546,
                497,
                4656,
                4551,
                616,
                4705,
                1921,
                4669,
                1475,
                4574,
                3475,
                4569,
                2168,
                1932,
                4470,
                4645,
                1770,
                4659,
                1807,
                488,
                4541,
                1005,
                4617,
                4476,
                4708,
                2283,
                4661,
                4719,
                3360,
                4516,
                1828,
                4649,
                4577,
                4720,
                3390,
                4599,
                4549,
                4656,
                4605,
                4580,
                1038,
                2720,
                2243,
                3717,
                166,
                4589,
                4617,
                397,
                3438,
                4699,
                746,
                4704,
                4589,
                2477,
                2644,
                601,
                367,
                1749,
                4673,
                2453,
                2657,
                4728,
                1308,
                1254,
                2096,
                542,
                2850,
                593,
                2187,
                4697,
                104,
                4594,
                2749,
                2801,
                4683,
                4679,
                2438,
                2924,
                2333,
                544,
                3162,
                2260,
                4682,
                3187,
                4570,
                4648,
                4632,
                2707,
                2941,
                807,
                3555,
                4775,
                409,
                4774,
                4659,
                4778,
                4519,
                4541,
                4667,
                905,
                4668,
                3522,
                4851,
                3277,
                4609,
                2388,
                4510,
                1818,
                4731,
                4645,
                4548,
                4719,
                4579,
                4621,
                240,
                4700,
                1127,
                4590,
                4626,
                3797,
                2721,
                2337,
                3131,
                1675,
                4725,
                2684,
                4620,
                4501,
                1740,
                4624,
                644,
                4480,
                4667,
                2594,
                1884,
                2598,
                204,
                4670,
                2768,
                2826,
                1821,
                4571,
                4410,
                2563,
                4784,
                591,
                1150,
                4616,
                2283,
                4640,
                4572,
                4789,
                4600,
                4604,
                1051,
                1014,
                2706,
                2142,
                4542,
                1324,
                4585,
                2745,
                4789,
                605,
                3183,
                2978,
                3112,
                1966,
                4710,
                3099,
                3192,
                4547,
                4794,
                4669,
                778,
                3408,
                507,
                4682,
                3728,
                4638,
                4666,
                1475,
                4591,
                3929,
                1921,
                3014,
                2875
            ]
        },
        "detections": 500,
        "events": 124232
    }
}