{
    "job_args": {
        "metric_limit": 500,
        "seed": 1544902330
    },
    "job_id": "batch_13_do_500",
    "result": {
        "collections": {
            "crystal": [
                0.4662924383860333,
                0.33230895716688746,
                0.6616572831606166,
                0.6616572831606167,
                0.5800406120005723,
                0.26516273501134513,
                0.4759437842393741,
                0.13849624987433026,
                0.6616572831606166,
                0.6616572831606164,
                0.6616572831606166,
                0.45844791547336544,
                0.3902478976804893,
                0.6616572831606166,
                0.06622700004816506,
                0.008216794363061664,
                0.13976866545771582,
                0.2216550059496521,
                0.6616572831606164,
                0.6616572831606164,
                0.6616572831606166,
                0.6616572831606166,
                0.6616572831606164,
                0.0408022,
                0.6616572831606166,
                0.6616572831606167,
                0.1999085424883639,
                0.09304616193404092,
                0.23952135562670554,
                0.43155797319566014,
                0.5458940356757556,
                0.10859735805944337,
                0.0847407,
                0.6616572831606166,
                0.296434470302207,
                0.6616572831606167,
                0.0852354,
                0.6616572831606167,
                0.36652703078652804,
                0.6616572831606166,
                0.08981222225693397,
                0.19280375410377715,
                0.17416783340402098,
                0.4758448797637829,
                0.6616572831606167,
                0.47376979022510923,
                0.6616572831606167,
                0.6616572831606166,
                0.40216435970404346,
                0.005797703838808066,
                0.1341268343445457,
                0.34426617543375326,
                0.03460743725404858,
                0.1894362528208568,
                0.3058821925704013,
                0.6616572831606167,
                0.6311016157816104,
                0.07524999999999998,
                0.6616572831606166,
                0.3650271787703216,
                0.6616572831606166,
                0.6616572831606166,
                0.4666875494900902,
                0.18483137540370104,
                0.6616572831606167,
                0.36785659493361356,
                0.073039,
                0.5385617134719871,
                0.018048410240525725,
                0.6616572831606167,
                0.6616572831606166,
                0.1786061650439863,
                0.17670638891170742,
                0.6616572831606167,
                0.6616572831606164,
                0.46256992564233035,
                0.22841004121927636,
                0.18184859714920856,
                0.503933374089206,
                0.08574049508241832,
                0.12064204210169438,
                0.24124062674028696,
                0.6109709053329548,
                0.6616572831606164,
                0.3081117503940206,
                0.24755809323894523,
                0.03340960913928259,
                0.6616572831606166,
                0.2838250003090286,
                0.37651239069111603,
                0.4806145606930705,
                0.07524999999999998,
                0.31171076979114654,
                0.46696354598335027,
                0.6616572831606167,
                0.32551826826918756,
                0.6616572831606164,
                0.6616572831606164,
                0.37773291846627804,
                0.5868488862835417,
                0.6616572831606164,
                0.0847407,
                0.6616572831606166,
                0.6616572831606167,
                0.13987361955651978,
                0.6616572831606167,
                0.6616572831606166,
                0.2862244631889046,
                0.6616572831606166,
                0.3823469040021354,
                0.17695831493219522,
                0.25669699667893564,
                0.30826227363200254,
                0.06888478458489873,
                0.6616572831606166,
                0.6616572831606166,
                0.6616572831606166,
                0.6616572831606166,
                0.4777974564586033,
                0.4654349040506448,
                0.3630479125155899,
                0.6616572831606166,
                0.6616572831606166,
                0.3040019723119602,
                0.6616572831606166,
                0.6616572831606166,
                0.6616572831606166,
                0.5696593144087977,
                0.6616572831606166,
                0.6616572831606164,
                0.5238641591316118,
                0.31380968084408184,
                0.6616572831606166,
                0.6616572831606167,
                0.21568072036778044,
                0.40486793022398515,
                0.6616572831606164,
                0.4949920215066475,
                0.6616572831606166,
                0.6616572831606167,
                0.47936405258033066,
                0.03955644937651037,
                0.6616572831606166,
                0.45306338607055713,
                0.22282357952289839,
                0.10623724282162039,
                0.21769387442730131,
                0.5593364932190612,
                0.2200367437238384,
                0.18380307933045553,
                0.05766968978550863,
                0.07524999999999998,
                0.6616572831606167,
                0.3720368099002748,
                0.2553667472482866,
                0.4738164471986561,
                0.3269144673603718,
                0.6616572831606167,
                0.02176408286082432,
                0.3576804360837005,
                0.13473786366286433,
                0.6616572831606166,
                0.6330477831606166,
                0.6616572831606166,
                0.6616572831606166,
                0.010353507856941335,
                0.4491310008566006,
                0.6616572831606167,
                0.4731625371593723,
                0.38527086643135317,
                0.6616572831606166,
                0.6616572831606167,
                0.40136127222119455,
                0.4039569900549529,
                0.6616572831606166,
                0.6616572831606166,
                0.2709347610753166,
                0.1603541976014601,
                0.44799042297337444,
                0.6616572831606166,
                0.08474069999999999,
                0.6616572831606167,
                0.6616572831606166,
                0.37285262412973363,
                0.3299685458538519,
                0.4557021272088274,
                0.0842069422418874,
                0.2195018914532246,
                0.20241147934529952,
                0.3038933578744627,
                0.4872973619651934,
                0.21188346614618836,
                0.2418861860783869,
                0.44126658137839864,
                0.6616572831606167,
                0.6616572831606164,
                0.07524999999999998,
                0.3987361300621581,
                0.6616572831606166,
                0.6616572831606166,
                0.48947826557809604,
                0.08523539999999999,
                0.6616572831606166,
                0.07836221559710677,
                0.0852354,
                0.38660387518159395,
                0.2035557877223684,
                0.4218050975536144,
                0.6616572831606166,
                0.34494189044277757,
                0.0708649789505805,
                0.6290622811584619,
                0.15341057569505312,
                0.6616572831606166,
                0.6616572831606166,
                0.3772872702462561,
                0.6616572831606167,
                0.6616572831606166,
                0.2216542107908552,
                0.43335555718904173,
                0.37421959685693607,
                0.47580146393971967,
                0.6616572831606166,
                0.04227359025836219,
                0.5593263833689993,
                0.5415876307118538,
                0.4222816057685719,
                0.46236365141629066,
                0.6616572831606164,
                0.0852354,
                0.07303899999999999,
                0.3329202347656461,
                0.6616572831606167,
                0.446700509578864,
                0.6616572831606167,
                0.31504388326988697,
                0.3545822383086028,
                0.22028087896220733,
                0.4317211363075728,
                0.3693342639283502,
                0.1034701629620939,
                0.011068402789577384,
                0.15566411046882545,
                0.6616572831606166,
                0.34977966199343863,
                0.6616572831606164,
                0.6616572831606166,
                0.08667454696833556,
                0.4105617002456554,
                0.6616572831606166,
                0.33394838456079123,
                0.5141265136122699,
                0.6616572831606167,
                0.1884378709961811,
                0.6616572831606164,
                0.6616572831606166,
                0.1606904665918809,
                0.6616572831606167,
                0.256155127577364,
                0.3842135925645255,
                0.6616572831606166,
                0.6616572831606167,
                0.21928294834355228,
                0.6616572831606166,
                0.6616572831606164,
                0.4356301340770273,
                0.3106137464466845,
                0.23640133820326592,
                0.6616572831606166,
                0.18928144430579624,
                0.14060719891613188,
                0.6616572831606166,
                0.6616572831606166,
                0.6616572831606166,
                0.2054315928308659,
                0.6616572831606164,
                0.6616572831606167,
                0.6616572831606166,
                0.4550170856857869,
                0.19067751338931668,
                0.532481152254664,
                0.43238249270569695,
                0.00022208070230211874,
                0.2408849080785245,
                0.6616572831606166,
                0.28370169006571455,
                0.17827577508466974,
                0.6616572831606166,
                0.6616572831606167,
                0.6616572831606166,
                0.17130680289559583,
                0.6616572831606166,
                0.39886411071723366,
                0.027772205848987763,
                0.5098208342104001,
                0.6616572831606166,
                0.385536774406502,
                0.20600837203237318,
                0.4652474731601488,
                0.5813668297786548,
                0.1347426848687182,
                0.6616572831606167,
                0.6616572831606164,
                0.21574365529265743,
                0.07525,
                0.6616572831606167,
                0.45428522097771107,
                0.3854409806915182,
                0.24759529147006665,
                0.31698121269541685,
                0.6616572831606166,
                0.6616572831606167,
                0.2150030533486611,
                0.22130753099826878,
                0.07524999999999998,
                0.6616572831606164,
                0.6616572831606166,
                0.2227832612156822,
                0.6616572831606166,
                0.24207790958402775,
                0.6616572831606166,
                0.19219373685172783,
                0.6616572831606166,
                0.6616572831606166,
                0.16636741476084632,
                0.6616572831606167,
                0.1633826027686715,
                0.07525,
                0.6616572831606167,
                0.6616572831606166,
                0.6616572831606164,
                0.5230682362701067,
                0.4400166641403694,
                0.06299879959163435,
                0.6616572831606166,
                0.10041421361314018,
                0.6616572831606167,
                0.6616572831606167,
                0.6616572831606167,
                0.3868010356875701,
                0.23033361830168284,
                0.36181836420685853,
                0.2598181577826748,
                0.6616572831606163,
                0.6616572831606166,
                0.22702255385600234,
                0.2357849642801838,
                0.2900445182456646,
                0.6616572831606164,
                0.6616572831606166,
                0.44428973626390117,
                0.6616572831606166,
                0.28948052459620516,
                0.4390431332735435,
                0.6616572831606167,
                0.36892233461282625,
                0.14753080585189537,
                0.46384100989102733,
                0.14242685236161856,
                0.6616572831606164,
                0.477244323950801,
                0.37134105338943624,
                0.20808651523921823,
                0.4978315268416816,
                0.6616572831606166,
                0.2487801386983156,
                0.016224058954214096,
                0.6616572831606167,
                0.26984565007268496,
                0.6616572831606166,
                0.37852105511797884,
                0.6616572831606166,
                0.6616572831606164,
                0.6616572831606164,
                0.6616572831606164,
                0.05325266276424334,
                0.6616572831606166,
                0.07525,
                0.009664514392833334,
                0.2760110633465932,
                0.6616572831606166,
                0.08431741299285367,
                0.6616572831606167,
                0.6616572831606166,
                0.6616572831606167,
                0.6616572831606166,
                0.6616572831606164,
                0.31039938141552825,
                0.6616572831606166,
                0.524590251427161,
                0.2186586828673997,
                0.03279616262335183,
                0.6616572831606164,
                0.6616572831606167,
                0.6616572831606167,
                0.6616572831606166,
                0.6616572831606166,
                0.10354665890921455,
                0.6616572831606166,
                0.12185311875663307,
                0.24711310607518303,
                0.3691843511999489,
                0.14932879081734995,
                0.6616572831606167,
                0.0852354,
                0.6616572831606166,
                0.5721657476773211,
                0.10001389095658825,
                0.6616572831606164,
                0.5356042052795209,
                0.6616572831606167,
                0.40722744621830226,
                0.6616572831606167,
                0.4063994421064885,
                0.2087381107051427,
                0.6616572831606164,
                0.073039,
                0.6616572831606167,
                0.6616572831606164,
                0.6616572831606167,
                0.07468909797008105,
                0.428178360229646,
                0.23826228394772797,
                0.3366279048743188,
                0.21616789433586187,
                0.6616572831606166,
                0.27872883323840647,
                0.3103370458236616,
                0.278117664684996,
                0.42089018115496135,
                0.39676714412841585,
                0.6616572831606167,
                0.41943312607432387,
                0.13019925728120274,
                0.6616572831606166,
                0.6616572831606164,
                0.1662241329195236,
                0.41286717541959395,
                0.6616572831606167,
                0.2692652751633149,
                0.05002415389679937,
                0.41831985184118026,
                0.27939477127067075,
                0.33486622631764384,
                0.6616572831606164,
                0.004852218020830024,
                0.10852375595454522,
                0.6616572831606167,
                0.6616572831606166,
                0.31297174607685047,
                0.6616572831606167,
                0.6616572831606167,
                0.46361234587367106,
                0.6616572831606166,
                0.4862569912696121,
                0.11010977823093582,
                0.6616572831606166,
                0.6616572831606164,
                0.10843372708379273,
                0.24510172275552625,
                0.6616572831606166,
                0.32535529012573283,
                0.6616572831606166,
                0.24352434116996602,
                0.6616572831606167,
                0.6616572831606167,
                0.6616572831606166,
                0.1274605363037843,
                0.35117148390310454,
                0.17611019358084135,
                0.6616572831606164,
                0.6616572831606166,
                0.33993670398091247,
                0.6616572831606166,
                0.6616572831606166,
                0.10704445085932923,
                0.6616572831606166,
                0.6616572831606164,
                0.6616572831606166,
                0.27599313946419923,
                0.6616572831606166,
                0.44794833281713126,
                0.6616572831606167,
                0.6616572831606166,
                0.2561598821966983,
                0.6616572831606166,
                0.3409327673161401,
                0.10025706378714361,
                0.3714770065467021,
                0.2875139845846687,
                0.311558447889557,
                0.6616572831606166,
                0.6616572831606167,
                0.2418762412733983,
                0.6616572831606167,
                0.03355302381467363,
                0.6616572831606166,
                0.6616572831606166,
                0.05498830040714253,
                0.6616572831606167
            ],
            "photocathode": [
                3370,
                2365,
                4665,
                4512,
                4039,
                1820,
                3349,
                1000,
                4715,
                4760,
                4607,
                3183,
                2799,
                4556,
                465,
                57,
                1004,
                1559,
                4603,
                4633,
                4675,
                4655,
                4625,
                288,
                4642,
                4702,
                1396,
                687,
                1705,
                2935,
                3892,
                748,
                596,
                4576,
                2104,
                4595,
                564,
                4724,
                2574,
                4653,
                609,
                1375,
                1303,
                3290,
                4642,
                3289,
                4640,
                4671,
                2881,
                40,
                951,
                2480,
                239,
                1312,
                2133,
                4677,
                4516,
                545,
                4695,
                2510,
                4613,
                4595,
                3218,
                1333,
                4385,
                2628,
                526,
                4008,
                120,
                4734,
                4763,
                1266,
                1247,
                4579,
                4587,
                3260,
                1613,
                1308,
                3521,
                607,
                860,
                1743,
                4273,
                4628,
                2188,
                1774,
                232,
                4515,
                1971,
                2519,
                3346,
                516,
                2183,
                3245,
                4579,
                2338,
                4724,
                4677,
                2652,
                4101,
                4705,
                580,
                4783,
                4727,
                957,
                4655,
                4705,
                1978,
                4674,
                2692,
                1134,
                1832,
                2159,
                459,
                4707,
                4562,
                4754,
                4510,
                3376,
                3209,
                2644,
                4671,
                4595,
                2057,
                4786,
                4582,
                4652,
                4002,
                4551,
                4628,
                3809,
                2288,
                4490,
                4557,
                1494,
                2755,
                4499,
                3400,
                4624,
                4776,
                3402,
                264,
                4712,
                3140,
                1553,
                762,
                1576,
                4092,
                1574,
                1285,
                423,
                539,
                4726,
                2521,
                1817,
                3242,
                2189,
                4548,
                141,
                2546,
                983,
                4676,
                4545,
                4637,
                4671,
                63,
                3146,
                4594,
                3524,
                2741,
                4608,
                4698,
                2787,
                2815,
                4692,
                4713,
                1952,
                1126,
                3249,
                4613,
                591,
                4480,
                4650,
                2512,
                2218,
                3334,
                548,
                1501,
                1443,
                2173,
                3315,
                1601,
                1661,
                3212,
                4671,
                4618,
                508,
                2717,
                4607,
                4858,
                3518,
                564,
                4665,
                550,
                591,
                2720,
                1418,
                2888,
                4697,
                2451,
                491,
                4371,
                991,
                4635,
                4791,
                2680,
                4592,
                4640,
                1529,
                3054,
                2615,
                3295,
                4788,
                311,
                3831,
                3903,
                2943,
                3204,
                4722,
                644,
                500,
                2256,
                4597,
                3085,
                4744,
                2193,
                2538,
                1484,
                3255,
                2607,
                712,
                79,
                1078,
                4682,
                2427,
                4538,
                4675,
                617,
                2866,
                4685,
                2259,
                3609,
                4603,
                1345,
                4578,
                4611,
                1145,
                4489,
                1875,
                2616,
                4570,
                4625,
                1541,
                4644,
                4701,
                2995,
                2255,
                1704,
                4654,
                1390,
                950,
                4730,
                4714,
                4718,
                1381,
                4444,
                4616,
                4645,
                3047,
                1298,
                3710,
                3075,
                1,
                1705,
                4777,
                1970,
                1256,
                4606,
                4593,
                4714,
                1208,
                4796,
                2839,
                200,
                3548,
                4697,
                2615,
                1394,
                3325,
                4145,
                945,
                4568,
                4697,
                1517,
                509,
                4671,
                3164,
                2822,
                1696,
                2318,
                4591,
                4672,
                1485,
                1581,
                499,
                4561,
                4735,
                1548,
                4693,
                1699,
                4657,
                1348,
                4545,
                4707,
                1124,
                4870,
                1137,
                474,
                4602,
                4583,
                4632,
                3694,
                2960,
                392,
                4538,
                692,
                4734,
                4507,
                4652,
                2723,
                1578,
                2504,
                1906,
                4510,
                4817,
                1489,
                1560,
                2084,
                4719,
                4646,
                3179,
                4619,
                2083,
                3148,
                4620,
                2666,
                1004,
                3321,
                965,
                4640,
                3387,
                2576,
                1436,
                3447,
                4644,
                1786,
                127,
                4526,
                1936,
                4733,
                2695,
                4656,
                4658,
                4546,
                4519,
                380,
                4693,
                507,
                67,
                1997,
                4575,
                615,
                4616,
                4549,
                4628,
                4716,
                4728,
                2247,
                4765,
                3600,
                1605,
                221,
                4806,
                4699,
                4598,
                4775,
                4684,
                749,
                4555,
                825,
                1713,
                2581,
                1066,
                4550,
                565,
                4566,
                4020,
                685,
                4372,
                3694,
                4691,
                2785,
                4573,
                2848,
                1523,
                4591,
                532,
                4814,
                4572,
                4669,
                534,
                2895,
                1600,
                2428,
                1557,
                4706,
                1889,
                2157,
                1892,
                2870,
                2827,
                4614,
                2982,
                931,
                4594,
                4565,
                1169,
                2912,
                4600,
                1918,
                359,
                3044,
                1988,
                2304,
                4585,
                25,
                721,
                4657,
                4743,
                2180,
                4577,
                4691,
                3214,
                4686,
                3404,
                704,
                4645,
                4670,
                739,
                1666,
                4583,
                2307,
                4663,
                1746,
                4724,
                4715,
                4762,
                917,
                2400,
                1246,
                4551,
                4584,
                2379,
                4631,
                4628,
                786,
                4633,
                4629,
                4612,
                1893,
                4547,
                3124,
                4678,
                4485,
                1786,
                4626,
                2420,
                702,
                2574,
                2049,
                2202,
                4653,
                4867,
                1660,
                4667,
                240,
                4679,
                4600,
                387,
                4681
            ]
        },
        "detections": 500,
        "events": 123223
    }
}