{
    "job_args": {
        "metric_limit": 500,
        "seed": 3796018197
    },
    "job_id": "batch_73_do_500",
    "result": {
        "collections": {
            "crystal": [
                0.7526509357371867,
                0.04435259189110052,
                0.06984574378273556,
                0.18900232799543915,
                0.6618010027528926,
                0.4329712444851611,
                1.4608223291577749,
                0.8817114466561832,
                0.10141875381740606,
                0.267648213193602,
                1.4608223291577753,
                0.4302104310064749,
                1.0142006800384473,
                0.7625918555632418,
                1.460822329157775,
                1.3098695919583512,
                1.460822329157775,
                0.2306740956853483,
                0.1453285070118531,
                1.028456121494317,
                0.3003354150915028,
                0.43904818523751343,
                0.5951408569528602,
                0.0029145724464299423,
                1.1517118387355856,
                0.5519599832244813,
                1.4608223291577749,
                0.306768304122632,
                0.07525000000000001,
                1.460822329157775,
                1.460822329157775,
                1.2145646165922588,
                1.363831115692847,
                0.18395385490506375,
                1.460822329157775,
                0.3324694492267375,
                1.281101289158807,
                0.9238844055143419,
                1.460822329157775,
                1.3325289838410928,
                0.39024463518337993,
                1.460822329157775,
                0.9245965869651098,
                0.712640861940145,
                1.065027315152365,
                0.6262875617572219,
                1.0464437560517097,
                0.1840406520568633,
                0.3517534927238064,
                0.3859002411935199,
                0.8332413681011167,
                0.8961405808631461,
                0.09288681281394551,
                0.36830863077349774,
                1.3829398925373577,
                1.460822329157775,
                1.1605118772554652,
                1.135133611274465,
                0.3994361100067782,
                0.4376344829002544,
                1.460822329157775,
                0.9086868321553143,
                1.001124831202391,
                0.09420062161800358,
                0.5000562376453608,
                0.3293832061348967,
                0.9554184986566213,
                1.237388019059977,
                0.81123207258658,
                0.642998871200188,
                1.034312277975386,
                1.460822329157775,
                0.43882450915777516,
                0.9569292066182968,
                0.5780423574840837,
                0.8152878581874653,
                0.9757832432760701,
                1.4608223291577749,
                0.5109989100000001,
                0.07310979887673445,
                1.460822329157775,
                1.0536955031769655,
                1.4431435556190362,
                1.0134628630132447,
                0.9474457356816312,
                0.6565461734520992,
                0.06549458412669681,
                0.264173378269486,
                1.4608223291577753,
                1.1274659028875125,
                0.9869344903741127,
                1.4608223291577749,
                1.1001076647832075,
                0.40735961570272156,
                0.014623927214156951,
                1.4608223291577753,
                1.460822329157775,
                1.122890440887279,
                0.7607835522799344,
                0.0023067291489395902,
                1.460822329157775,
                1.460822329157775,
                1.4608223291577749,
                1.0128501310856364,
                1.4608223291577749,
                0.5145074600947334,
                1.460822329157775,
                1.4608223291577749,
                0.6482465869246278,
                1.4608223291577749,
                0.4993210387612398,
                0.2952456368487492,
                0.8721332986907574,
                1.2895407454187835,
                1.460822329157775,
                0.9868047153646168,
                1.460822329157775,
                0.6537626653591178,
                0.7343907131184709,
                1.460822329157775,
                0.644774832643788,
                0.6786825199789622,
                1.2177142718011094,
                1.460822329157775,
                0.6070541428375645,
                1.460822329157775,
                0.2114913072340657,
                1.460822329157775,
                0.24446677279867846,
                0.36179871371319416,
                1.460822329157775,
                1.460822329157775,
                0.980749852764582,
                0.8909471584954397,
                0.6614753495366106,
                0.21470529937367241,
                0.6825208439521684,
                1.460822329157775,
                1.460822329157775,
                1.4608223291577749,
                0.6936949391299057,
                0.21834426875355273,
                1.460822329157775,
                0.4159536496719489,
                1.460822329157775,
                1.1846184149716825,
                1.1547752962759015,
                1.460822329157775,
                0.5109989100000001,
                0.21348587871267088,
                1.319022918861379,
                1.460822329157775,
                1.0728084148783024,
                0.20496924679993445,
                1.460822329157775,
                1.025691284918597,
                0.1594058518337662,
                1.460822329157775,
                0.20318979730620315,
                0.07525,
                0.3977499652259851,
                1.460822329157775,
                0.4451633141174286,
                0.4394326170084005,
                1.460822329157775,
                1.108672423100327,
                0.4064612851138423,
                0.47844233643720235,
                1.4608223291577749,
                1.460822329157775,
                0.5237443710392091,
                0.8793503166055724,
                0.8742109037112111,
                0.3509133069623211,
                1.460822329157775,
                1.460822329157775,
                0.0031880350852226957,
                0.47433771911608785,
                1.460822329157775,
                0.2583229629544639,
                0.20708857674099823,
                0.053214612436589814,
                0.9507485836648034,
                1.460822329157775,
                0.5120014023339917,
                1.1278918536839193,
                0.937810809419835,
                1.460822329157775,
                1.460822329157775,
                0.7234406668733422,
                1.112622724539753,
                0.39042584601704333,
                0.6599000323882822,
                1.2624956664014864,
                1.460822329157775,
                1.2685442670737748,
                0.4837430742373482,
                1.2351040808696496,
                0.3211459561945167,
                1.460822329157775,
                1.460822329157775,
                1.4608223291577753,
                1.460822329157775,
                0.0466405,
                0.060477707615729015,
                1.1516867412643237,
                0.2624626113986528,
                0.21904688634106528,
                0.8717361378679036,
                1.460822329157775,
                0.09517649395476291,
                0.2603479201947341,
                1.4608223291577753,
                1.460822329157775,
                1.0474156723453458,
                0.8500165755588637,
                1.4120495878015893,
                0.053450692665388155,
                0.33893209729030827,
                1.4608223291577749,
                1.1531445318612152,
                1.460822329157775,
                0.9651877885816739,
                0.8291669025250546,
                0.10119265505728571,
                1.2084793359787234,
                0.4028502737878326,
                0.4459683170920459,
                1.1120028657781755,
                0.8914840816200325,
                0.8422638586204523,
                0.9498234191577752,
                1.4608223291577755,
                0.316984609326004,
                1.267632060447148,
                1.460822329157775,
                0.6942753841703246,
                0.18400885138712547,
                1.2416423029298125,
                0.3243310112150295,
                0.048812046282677934,
                0.679065009215286,
                1.0848636528578,
                0.3293976476841584,
                0.6857601283439895,
                1.460822329157775,
                1.4608223291577753,
                1.460822329157775,
                1.3099934868463396,
                0.38368381007702024,
                0.41867031469334576,
                0.2858188398248719,
                0.9546176405615698,
                1.0319679857825872,
                1.4574775418139876,
                0.39819969002986877,
                1.460822329157775,
                0.20477109560565848,
                0.28685727963063834,
                0.587484000178418,
                1.4608223291577749,
                0.6745112011351949,
                0.5246823676771442,
                0.2189979702399387,
                1.0197995133235094,
                0.38232385183245937,
                0.23275101652597646,
                0.4636446267197259,
                0.7175394673717983,
                0.14159074350557765,
                1.4608223291577755,
                0.5974658093854015,
                0.6916284954624877,
                1.460822329157775,
                1.1292954063594287,
                0.7865725088528362,
                0.43529064996383426,
                0.5205552181786233,
                0.012934832897508741,
                0.40471564139938426,
                0.4825207633069159,
                0.21171360716334975,
                1.460822329157775,
                0.1893974880799396,
                0.6552626015322162,
                0.16515242798089697,
                1.087993661873162,
                0.30294448179997246,
                1.0333196428701685,
                0.2026052457971117,
                0.10981143388150005,
                1.460822329157775,
                0.040667111414567136,
                0.9315966231490121,
                0.4684600989924327,
                0.17144830196371347,
                0.44776338871512533,
                0.3325140416160483,
                0.7091319715485508,
                0.7810956555846282,
                0.6940258276178409,
                0.2487505951476477,
                0.009191684602848527,
                1.460822329157775,
                0.842213901787026,
                0.2645759641498512,
                1.460822329157775,
                1.4608223291577749,
                0.6016192263176544,
                0.9827539534654667,
                0.09196745536965839,
                0.9499958923466996,
                0.8473106163705371,
                1.4608223291577749,
                1.460822329157775,
                0.745767048199758,
                1.4608223291577749,
                1.460822329157775,
                1.460822329157775,
                0.48509750084730907,
                0.24664910007934687,
                0.25838231988804816,
                0.43052027326604064,
                0.19918130267986484,
                0.047806559512935554,
                0.30770302164750063,
                0.26032389933918476,
                0.29258335606882024,
                0.8799289233670657,
                1.460822329157775,
                0.245182584768322,
                1.4608223291577753,
                0.2554463528890818,
                0.7349634830599929,
                0.07525,
                1.033740464220342,
                1.143278204889056,
                0.6667378057351294,
                0.06827521722831942,
                0.8803241628160697,
                0.8683430034731001,
                0.06109943842621396,
                1.4608223291577753,
                0.9542130112776052,
                0.07525,
                0.47578286759444355,
                0.14199599788384853,
                1.4559363800359033,
                0.184528244494121,
                0.09193297278353363,
                0.6510092055591764,
                1.460822329157775,
                1.460822329157775,
                1.1402293282425418,
                0.6563944811604514,
                0.966084060733599,
                0.12769592361488497,
                0.26569792781391155,
                0.28889797344381957,
                0.38201440552065713,
                0.7232566329069606,
                0.6532536114308543,
                0.010797249441656769,
                0.6949426877584315,
                0.9238222839845058,
                1.1163073528613365,
                1.0610505240790025,
                1.0649408475089202,
                0.46035651389233145,
                0.6114285821969742,
                1.4608223291577747,
                1.460822329157775,
                0.3920015982281166,
                0.4476695284969823,
                0.7142895386504714,
                0.310424551906904,
                1.460822329157775,
                0.4581747023666778,
                0.8093245753298998,
                0.38306067845108277,
                1.4608223291577749,
                0.5872414153573419,
                0.3928556330897389,
                1.460822329157775,
                1.4608223291577749,
                1.0394371200245651,
                0.6647669107387253,
                0.7258402795833747,
                0.3370010824347167,
                0.3643352745179118,
                1.2400103969651457,
                0.4894134905389988,
                1.460822329157775,
                0.504487336050359,
                0.2796340518668743,
                1.460822329157775,
                0.04996825102928315,
                0.975652382357218,
                1.460822329157775,
                0.8143616315069064,
                0.33411549780331695,
                0.949823419157775,
                1.4608223291577753,
                0.4140804519570587,
                1.460822329157775,
                1.4608223291577749,
                0.7895972036247247,
                0.22166521285933571,
                0.23211098497691696,
                0.26084507996787343,
                0.073039,
                0.011935044841893783,
                0.30368076931632104,
                0.5173573166655842,
                0.12317292680590386,
                1.460822329157775,
                0.48197669632675555,
                0.8840124429540746,
                0.2607920774531469,
                0.6417481131728043,
                1.0702939385586245,
                1.4608223291577749,
                1.1081178404788643,
                0.3267563939434732,
                0.9095470980320356,
                1.1383716421820995,
                0.2820526493297458,
                0.7430701432939031,
                0.17467442048762205,
                1.139241912892675,
                0.1005710407838687,
                1.460822329157775,
                1.088287737604182,
                1.1631739548323017,
                1.1747107171220705,
                1.460822329157775,
                1.4608223291577753,
                0.678382125883795,
                1.4608223291577753,
                0.7798744478164468,
                1.460822329157775,
                0.45705574717492636,
                1.4608223291577753,
                0.9908884971090428,
                0.03742633408155771,
                1.4608223291577753,
                0.3141281317933773,
                0.3069755223978151,
                1.4608223291577749,
                0.445469057095527,
                1.460822329157775,
                1.4608223291577755,
                1.4608223291577749,
                0.25694644191963767,
                0.44288458573042844,
                0.5109989099999999,
                0.27155567000029013,
                1.460822329157775,
                0.046750161337097085,
                0.12560529921567695,
                0.9801323122395543,
                0.45243264925067295,
                0.9661465090253939,
                0.1449786868589522,
                0.43882450915777516,
                1.4608223291577753,
                0.005259220422057176,
                1.2154098738226176,
                0.2949835351938208,
                0.24635759525030748,
                1.1289367734524565,
                0.51099891,
                0.5694534430389532,
                0.3346648724555416,
                0.5964615758337959,
                0.4186709209805848,
                0.4784124737082365,
                0.624307058724566,
                1.4608223291577753,
                0.6519681460085729,
                1.134962469437191,
                1.1782861317952809,
                1.460822329157775,
                1.0580713774493211,
                0.21108556212772328,
                1.460822329157775,
                0.03514476699992697,
                1.1375595041060944,
                0.06036798897672713,
                0.36030184267532445,
                0.3738019281112377,
                0.9765409546987761,
                0.28024828436158744,
                0.7228794733332411,
                0.2371877896386886,
                0.5927150910125489,
                0.1941849198772445,
                0.011512337375002735,
                0.9087465234902823,
                0.26587869803711417
            ],
            "photocathode": [
                5498,
                276,
                486,
                1355,
                4664,
                3058,
                10285,
                6049,
                666,
                1897,
                10202,
                3011,
                7251,
                5369,
                10584,
                9348,
                10279,
                1600,
                1038,
                7338,
                2152,
                3095,
                4198,
                20,
                8018,
                3785,
                10409,
                2194,
                523,
                9985,
                10394,
                8524,
                9485,
                1298,
                10095,
                2319,
                8913,
                6554,
                10313,
                9367,
                2765,
                10454,
                6457,
                5141,
                7502,
                4451,
                7390,
                1352,
                2480,
                2736,
                5749,
                6527,
                647,
                2670,
                9742,
                10126,
                8225,
                7945,
                2855,
                3029,
                10126,
                6406,
                7209,
                648,
                3522,
                2371,
                6996,
                8930,
                5753,
                4627,
                7347,
                10325,
                3124,
                6773,
                4030,
                5852,
                6972,
                10054,
                3532,
                481,
                10270,
                7427,
                9997,
                7101,
                6627,
                4662,
                426,
                1837,
                10564,
                7995,
                6712,
                10162,
                7699,
                2895,
                112,
                10371,
                10394,
                7981,
                5279,
                11,
                10377,
                10276,
                10393,
                7128,
                10693,
                3671,
                10281,
                10357,
                4549,
                10321,
                3456,
                2033,
                6098,
                9144,
                10118,
                6875,
                10231,
                4737,
                5108,
                10348,
                4557,
                4690,
                8648,
                10292,
                4357,
                10275,
                1498,
                10411,
                1659,
                2557,
                10691,
                10255,
                6693,
                6140,
                4753,
                1461,
                4700,
                10395,
                10119,
                10078,
                4958,
                1517,
                10340,
                2883,
                10395,
                8385,
                8130,
                10105,
                3577,
                1478,
                9377,
                10119,
                7482,
                1469,
                10094,
                7105,
                1098,
                9996,
                1451,
                520,
                2724,
                10316,
                3128,
                3062,
                10125,
                7569,
                2844,
                3401,
                10290,
                10177,
                3715,
                6192,
                6212,
                2501,
                10128,
                10488,
                15,
                3341,
                10433,
                1786,
                1441,
                386,
                6850,
                10426,
                3557,
                7897,
                6641,
                10290,
                10353,
                5192,
                7882,
                2723,
                4595,
                8858,
                10125,
                8862,
                3437,
                8721,
                2244,
                10154,
                10073,
                10360,
                10227,
                350,
                450,
                7940,
                1815,
                1574,
                6023,
                10344,
                668,
                1752,
                10309,
                10340,
                7247,
                6068,
                10000,
                380,
                2371,
                10349,
                8091,
                10211,
                6749,
                5886,
                686,
                8553,
                2727,
                3113,
                7937,
                6290,
                5808,
                6538,
                10215,
                2299,
                8758,
                10344,
                5018,
                1261,
                8683,
                2291,
                325,
                4657,
                7598,
                2333,
                4899,
                10220,
                10593,
                10621,
                9359,
                2767,
                2969,
                1965,
                6889,
                7242,
                10255,
                2729,
                10325,
                1418,
                1870,
                4090,
                10112,
                4679,
                3716,
                1540,
                7125,
                2663,
                1654,
                3229,
                4919,
                1021,
                10360,
                4182,
                5001,
                10424,
                8165,
                5422,
                3050,
                3560,
                94,
                2861,
                3354,
                1412,
                10355,
                1477,
                4563,
                1168,
                7669,
                2220,
                7393,
                1441,
                759,
                10211,
                265,
                6439,
                3279,
                1206,
                3065,
                2362,
                4978,
                5505,
                4860,
                1706,
                60,
                10160,
                6032,
                1814,
                10165,
                10163,
                4371,
                6890,
                665,
                6735,
                5977,
                10135,
                10525,
                5245,
                10254,
                10335,
                9946,
                3288,
                1776,
                1842,
                3015,
                1386,
                356,
                2169,
                1895,
                2036,
                6062,
                10207,
                1730,
                10642,
                1736,
                5126,
                544,
                7501,
                7996,
                4637,
                472,
                6122,
                6343,
                428,
                10450,
                6789,
                531,
                3403,
                1035,
                9969,
                1318,
                633,
                4593,
                10339,
                10178,
                8323,
                4684,
                6803,
                915,
                1889,
                2050,
                2636,
                5169,
                4486,
                88,
                4883,
                6502,
                8000,
                7536,
                7634,
                3241,
                4297,
                10239,
                10615,
                2714,
                3220,
                5009,
                2163,
                10457,
                3242,
                5705,
                2704,
                10353,
                3999,
                2758,
                10489,
                10137,
                7159,
                4876,
                5104,
                2331,
                2490,
                8645,
                3540,
                10290,
                3539,
                1901,
                10172,
                367,
                6823,
                10313,
                5805,
                2388,
                6709,
                10276,
                2949,
                10321,
                10135,
                5501,
                1574,
                1613,
                1859,
                465,
                62,
                2172,
                3748,
                861,
                10427,
                3347,
                6458,
                1836,
                4506,
                7503,
                10299,
                8114,
                2245,
                6391,
                7942,
                2015,
                5148,
                1152,
                8022,
                719,
                10478,
                7752,
                8242,
                8315,
                10357,
                10569,
                4666,
                10328,
                5313,
                10261,
                3132,
                10266,
                7110,
                258,
                10309,
                2193,
                2104,
                10504,
                3213,
                10358,
                10132,
                10331,
                1812,
                2993,
                3582,
                1932,
                10332,
                329,
                895,
                7087,
                3221,
                6514,
                1031,
                3030,
                10463,
                41,
                8718,
                2027,
                1733,
                7872,
                3590,
                4115,
                2317,
                4265,
                2899,
                3400,
                4251,
                10359,
                4588,
                8042,
                8199,
                10454,
                7353,
                1520,
                10331,
                248,
                7933,
                441,
                2556,
                2550,
                6972,
                2029,
                5047,
                1593,
                4483,
                1332,
                86,
                6173,
                1885
            ]
        },
        "detections": 500,
        "events": 1089806
    }
}