{
    "job_args": {
        "metric_limit": 500,
        "seed": 2823537731
    },
    "job_id": "batch_124_do_500",
    "result": {
        "collections": {
            "crystal": [
                0.06268516239335353,
                0.18534256698349166,
                1.460822329157775,
                0.2426919019656858,
                0.9498234191577752,
                0.5648828909038615,
                0.5013173094827751,
                1.0186475595244886,
                0.1760591459896812,
                1.460822329157775,
                0.3500885699433224,
                1.067235796174274,
                0.31705384278995563,
                0.7809231602924941,
                1.460822329157775,
                0.41218400636097674,
                0.5184476877235604,
                1.460822329157775,
                0.5175917585326412,
                0.055296673798789005,
                1.116732387655657,
                0.51099891,
                1.3137980350499303,
                0.07222719211532869,
                0.3597927505870917,
                0.6259471310398605,
                0.9463547132375209,
                0.3936403792273352,
                0.9481545040409642,
                1.460822329157775,
                1.1512976566710846,
                1.4608223291577747,
                1.4608223291577753,
                0.8310779254143609,
                0.8361784102465034,
                1.1661241500818391,
                0.551646510301501,
                0.7632500837463576,
                1.1594707526053605,
                1.460822329157775,
                1.157057422652217,
                0.60150183036685,
                0.8608497527450694,
                1.460822329157775,
                0.7056296488307582,
                1.460822329157775,
                0.39183641011277043,
                0.695405044471814,
                1.2113694323010216,
                0.7270803234408341,
                0.834448661795174,
                0.06951196026597171,
                0.6743390939715597,
                0.7933013126069607,
                1.4001480768058119,
                0.05685404730349358,
                1.4608223291577749,
                0.6678639150739946,
                0.7701036182256888,
                0.5510936910860202,
                0.468470877364643,
                0.073039,
                0.07539514159011246,
                0.7937050770266163,
                1.4608223291577753,
                0.07524999999999998,
                0.44164650311531883,
                1.460822329157775,
                0.013959374227660026,
                0.3743900070913123,
                0.38085755379221226,
                1.2146198162656907,
                1.4608223291577753,
                0.1511218706951899,
                0.7525724661197288,
                0.3112074009453681,
                0.40725828666663383,
                0.4655437806945084,
                0.42906501667297936,
                0.022841292160305837,
                1.2392849276145752,
                0.355875985555854,
                1.460822329157775,
                1.4608223291577753,
                0.8523674434001933,
                0.3504499007490774,
                1.460822329157775,
                1.460822329157775,
                0.20668590380025592,
                0.3897145352186515,
                0.27498721877604004,
                0.3915776471524093,
                1.4608223291577753,
                0.4504694238008037,
                0.073039,
                1.134263987206215,
                1.2302928821989434,
                1.460822329157775,
                0.3560613637795664,
                1.460822329157775,
                1.460822329157775,
                0.26547486271969856,
                1.1195519119076927,
                1.460822329157775,
                1.0880652482523985,
                1.460822329157775,
                1.4608223291577749,
                0.8109584317975653,
                1.2294138725836001,
                0.45400893267995623,
                0.5613123765591471,
                0.8670742957646621,
                0.45376065911816726,
                0.5677332753823305,
                0.010691995405512023,
                1.460822329157775,
                1.460822329157775,
                0.0034923110495959087,
                0.7106438362123347,
                1.142894600619198,
                0.9656821736935917,
                1.097046545160583,
                1.4608223291577753,
                1.4608223291577749,
                1.460822329157775,
                1.1731849938182313,
                0.4073777511980622,
                0.40877748008838344,
                0.2634420570360871,
                0.3029342866002116,
                0.9715171249967598,
                0.3171753858796307,
                0.790937739217332,
                0.45789715717816915,
                0.6792168347429763,
                1.0523067858433832,
                0.3505718965826801,
                0.3767460764602851,
                1.4608223291577749,
                1.460822329157775,
                0.6079754234157937,
                0.7564568463027501,
                0.3342886059611658,
                0.05013549135979023,
                1.460822329157775,
                1.460822329157775,
                1.460822329157775,
                1.0667758341682794,
                0.8728585633750894,
                1.4608223291577753,
                1.460822329157775,
                0.041091957387230815,
                0.5487073402466643,
                0.6780145406391106,
                0.3761879690338879,
                1.0667526182836988,
                0.07524999999999998,
                0.3034875241545061,
                0.14692122383296935,
                0.023806367618061097,
                0.25694146019945996,
                0.9011299913089451,
                0.4707067830411988,
                1.087536499922137,
                0.7547847390978714,
                0.27283668324440874,
                0.5836593273571902,
                1.0289262939490922,
                1.460822329157775,
                0.3399930830305212,
                0.5049812238581325,
                0.7111241492269502,
                0.07621250520811174,
                0.515205382501589,
                1.4608223291577753,
                0.1300247767811995,
                0.21121283839681906,
                0.5109989100000001,
                0.980607620340144,
                0.4815249365171998,
                1.059232246230508,
                0.5603699673613936,
                0.39049641944329294,
                0.8813990566825833,
                0.5064218127103546,
                1.460822329157775,
                1.460822329157775,
                0.16650578038931574,
                0.9280233194832992,
                0.9637574943214897,
                0.3393285434023174,
                1.216693751447606,
                1.460822329157775,
                1.3288216852366583,
                0.3393196633390112,
                0.8965696683853417,
                0.51099891,
                1.460822329157775,
                0.023293374243165132,
                0.44479289178315234,
                0.393717854832329,
                0.8915641395976552,
                0.6497162766329027,
                0.8351421251652247,
                1.2509476520091498,
                0.6606594098105975,
                1.0124784708999608,
                0.897725951112873,
                0.3971619400983047,
                1.4608223291577749,
                0.2141207275552363,
                0.053073381655575735,
                1.460822329157775,
                0.4880906085689969,
                0.11482618620270246,
                0.03462896295997431,
                0.31191412751263353,
                0.6478454503626567,
                1.1158549284745038,
                0.5994952532017974,
                1.4608223291577753,
                0.4966822620510071,
                0.4387368175035618,
                1.460822329157775,
                1.460822329157775,
                0.5847818180822937,
                0.3000659211375748,
                0.07524999999999998,
                1.460822329157775,
                1.460822329157775,
                0.9261113466582422,
                0.0825290010257146,
                0.3932919217256511,
                1.460822329157775,
                0.3881826517273946,
                0.6449886361562619,
                1.4608223291577753,
                1.2060574051874422,
                0.8333632655037135,
                0.8762425287514617,
                0.9498234191577751,
                0.8625090521972667,
                0.12159384623634295,
                0.3623756397775595,
                1.460822329157775,
                0.7490507261245316,
                0.533000878563822,
                0.17369834343133664,
                0.9999464230019159,
                0.46593740120367144,
                1.460822329157775,
                0.6644800962789745,
                1.460822329157775,
                0.4071754529185152,
                0.6664016183334601,
                1.1069108723946253,
                0.464664900162567,
                0.0653614196055643,
                1.460822329157775,
                1.4608223291577749,
                1.0721348011609093,
                1.460822329157775,
                0.8255371337843853,
                0.2784275813745208,
                1.460822329157775,
                1.194415523810903,
                1.4608223291577749,
                0.5793771767832367,
                1.4608223291577749,
                0.24583961347447109,
                0.6884544993487439,
                0.7856481818752865,
                0.087534,
                1.460822329157775,
                1.4608223291577747,
                1.4608223291577749,
                0.8050127241048669,
                0.5719299995681328,
                0.35943912463340244,
                0.5995337116875062,
                0.4372905197109892,
                1.460822329157775,
                0.3437640882984074,
                1.239523825117481,
                1.460822329157775,
                0.07303899999999999,
                0.3634214764129092,
                0.5859576272101943,
                1.4608223291577755,
                0.5966007994463147,
                1.460822329157775,
                1.460822329157775,
                0.1563038879502346,
                0.33582599484390163,
                1.4608223291577753,
                1.4608223291577753,
                1.255933363845922,
                0.8603369491903776,
                0.7936848726997323,
                0.26406959951786113,
                1.460822329157775,
                1.4608223291577749,
                0.028472481629265856,
                0.9936491533422799,
                0.2890249237759106,
                1.005412747752734,
                1.3084876634400364,
                0.11579229536357884,
                0.48296774030934864,
                1.460822329157775,
                0.4354864248167395,
                0.3140072223086414,
                1.460822329157775,
                1.460822329157775,
                1.4608223291577753,
                0.9619780531280964,
                0.20381298941989495,
                1.4608223291577753,
                0.2449887328110099,
                1.460822329157775,
                0.5437303059746181,
                0.08523540000000002,
                1.4608223291577749,
                0.5782470045140202,
                0.6226252960459919,
                0.5109989100000001,
                1.1481692815595514,
                1.4608223291577749,
                1.4608223291577753,
                0.05899673797981421,
                0.771327774772786,
                1.4608223291577753,
                1.0372867801172432,
                0.6618319708595726,
                1.2488510916240254,
                0.0422202,
                0.4318874763674387,
                0.3871645871738336,
                0.9272440711734521,
                1.039287512964194,
                0.4992489208289275,
                0.6000794102122662,
                1.3140213547044728,
                0.22562057313820905,
                0.5597563387700408,
                1.4608223291577753,
                0.3948370601114733,
                0.15301434069457892,
                1.460822329157775,
                1.460822329157775,
                1.0270211046112543,
                0.17518164024606392,
                0.14628570200854352,
                1.4608223291577755,
                1.4608223291577753,
                1.220187911701973,
                1.1836745632192485,
                1.0837849109723867,
                1.4608223291577749,
                1.218896171586211,
                0.7706749384696046,
                0.7041971430740148,
                0.35561094795690873,
                0.701344810709513,
                0.13287696031932325,
                0.0407448,
                0.08523539999999999,
                0.23259565786456257,
                1.4608223291577749,
                1.4608223291577753,
                1.460822329157775,
                1.0011416402361846,
                0.13671637677832726,
                0.4156677398922989,
                0.820105351010626,
                1.186547571192482,
                1.1635692581163495,
                1.4608223291577753,
                0.41598270226851275,
                0.5292971367119876,
                1.1256614220460084,
                1.4608223291577749,
                0.3172747622161871,
                1.460822329157775,
                1.4608223291577753,
                1.4608223291577749,
                0.23929053364500896,
                0.6112990838169245,
                0.7260267312995141,
                1.147771304267789,
                0.9359637095591071,
                0.0876557,
                1.4608223291577747,
                0.3594486038054601,
                1.460822329157775,
                1.460822329157775,
                0.4648059069334962,
                1.460822329157775,
                0.14603851088466954,
                0.32368339591516376,
                1.460822329157775,
                0.678598028334281,
                0.6075363977075299,
                0.825016930262308,
                1.460822329157775,
                0.10162964798207763,
                0.8905937014179135,
                0.8586550421264405,
                0.4279848300716631,
                1.0979838366605208,
                0.45694633547245533,
                0.5537080809851986,
                1.460822329157775,
                0.09300563897283173,
                1.4608223291577753,
                0.31839543323226094,
                0.23892117967774276,
                0.19565862096259246,
                1.460822329157775,
                0.8419613288690064,
                1.2261556528019506,
                1.4608223291577753,
                0.6996752238615357,
                1.460822329157775,
                1.460822329157775,
                1.460822329157775,
                0.48288697582059736,
                1.4608223291577753,
                0.35336218489825727,
                0.27568789348775335,
                0.8079050003558665,
                1.460822329157775,
                0.5953731176541777,
                0.08523539999999999,
                0.0741500329774254,
                0.3788339410917662,
                0.0847407,
                0.7719401278072143,
                1.175609335238248,
                0.07525000000000001,
                0.310622639075394,
                0.49257592623355806,
                0.5758357651250567,
                0.7278893905074313,
                0.46882952259718,
                0.27507783426593047,
                0.4115250960298847,
                1.4608223291577753,
                1.4608223291577747,
                0.9988264632752979,
                0.593296175319096,
                0.2972188762715548,
                1.0534613039063156,
                0.11204715776204034,
                1.4608223291577753,
                0.3880791126335123,
                1.460822329157775,
                0.2541025580688352,
                0.020031368616941547,
                1.460822329157775,
                0.25005492686654207,
                0.8368831704987633,
                0.1057331721308419,
                0.1831017569003368,
                1.057526248078962,
                1.0389436140169663,
                0.44009854680818516,
                0.613635875316743,
                1.460822329157775,
                1.4608223291577749,
                0.4151595201220786,
                1.1291179791642927,
                1.460822329157775,
                0.43000633959208584,
                0.7500721312282508,
                0.519770983569407,
                0.18388089797223706,
                1.460822329157775,
                1.460822329157775,
                0.5296001870560596,
                0.19451525343881568,
                1.460822329157775,
                1.460822329157775,
                0.9107294137715365,
                1.0873886234841679,
                1.460822329157775,
                0.6286287984102615,
                0.4642668775632867,
                0.05349288902809057,
                0.7038161575845074,
                1.1778974523351384,
                0.11316504592980385,
                1.3718963556523858,
                0.04664049999999998,
                1.460822329157775,
                1.4608223291577749,
                0.7855458913951819,
                1.460822329157775,
                1.0862798085768413,
                0.8406266666800791
            ],
            "photocathode": [
                445,
                1245,
                10694,
                1690,
                6563,
                3898,
                3657,
                7088,
                1167,
                10301,
                2401,
                7503,
                2138,
                5664,
                10030,
                2950,
                3731,
                10602,
                3622,
                441,
                8004,
                3671,
                9042,
                503,
                2431,
                4508,
                6677,
                2773,
                6695,
                10174,
                8147,
                10417,
                10158,
                5988,
                5894,
                8280,
                4137,
                5455,
                8025,
                10282,
                8121,
                4241,
                6223,
                10129,
                4955,
                10510,
                2676,
                5127,
                8540,
                5136,
                5895,
                529,
                4666,
                5564,
                9927,
                413,
                9941,
                4778,
                5366,
                3858,
                3176,
                551,
                554,
                5453,
                10302,
                526,
                3068,
                10413,
                95,
                2670,
                2710,
                8417,
                10353,
                1088,
                5307,
                2220,
                2875,
                3389,
                3000,
                174,
                8696,
                2622,
                10390,
                10339,
                5878,
                2485,
                10326,
                10290,
                1479,
                2785,
                1884,
                2649,
                10360,
                3135,
                499,
                7854,
                8742,
                10413,
                2513,
                10359,
                10340,
                1790,
                7911,
                10169,
                7631,
                10409,
                10454,
                5827,
                8564,
                3229,
                3928,
                6028,
                3230,
                4020,
                67,
                10302,
                10129,
                40,
                5062,
                8018,
                6746,
                7715,
                10074,
                10648,
                10031,
                8424,
                2860,
                2858,
                1847,
                2140,
                7035,
                2246,
                5706,
                3349,
                4788,
                7331,
                2512,
                2668,
                10161,
                10264,
                4240,
                5393,
                2279,
                384,
                10287,
                10349,
                10533,
                7610,
                6237,
                10319,
                9995,
                263,
                3861,
                4723,
                2736,
                7570,
                493,
                2116,
                1075,
                190,
                1839,
                6330,
                3280,
                7571,
                5209,
                1999,
                4043,
                7293,
                10180,
                2403,
                3646,
                5047,
                504,
                3685,
                10099,
                950,
                1505,
                3489,
                6920,
                3485,
                7447,
                4092,
                2829,
                6020,
                3472,
                10231,
                10064,
                1180,
                6394,
                6771,
                2399,
                8520,
                10195,
                9139,
                2348,
                6304,
                3363,
                10559,
                147,
                3146,
                2790,
                6232,
                4589,
                5830,
                8922,
                4623,
                7145,
                6395,
                2682,
                10483,
                1493,
                359,
                10441,
                3374,
                835,
                222,
                2172,
                4602,
                7773,
                4083,
                10386,
                3521,
                3197,
                10401,
                10095,
                4080,
                2108,
                523,
                10272,
                10080,
                6473,
                585,
                2769,
                10389,
                2736,
                4509,
                10173,
                8397,
                5901,
                6132,
                6610,
                6137,
                855,
                2617,
                10575,
                5359,
                3705,
                1232,
                6905,
                3314,
                10102,
                4595,
                10168,
                2905,
                4753,
                8005,
                3263,
                445,
                10321,
                10085,
                7441,
                10582,
                5697,
                1959,
                10364,
                8481,
                10192,
                4042,
                10112,
                1807,
                4977,
                5517,
                637,
                10194,
                10141,
                10248,
                5775,
                3992,
                2501,
                4086,
                2993,
                10126,
                2389,
                8830,
                10295,
                533,
                2503,
                3994,
                10158,
                4179,
                10003,
                10294,
                1125,
                2495,
                10255,
                9941,
                8723,
                5974,
                5570,
                1885,
                10179,
                10185,
                199,
                6793,
                2011,
                7133,
                9191,
                793,
                3412,
                10567,
                2990,
                2091,
                10482,
                10302,
                10473,
                6886,
                1394,
                10228,
                1682,
                10466,
                3910,
                576,
                10226,
                3994,
                4491,
                3591,
                8302,
                10185,
                10152,
                417,
                5469,
                10231,
                7304,
                4724,
                8944,
                301,
                3007,
                2841,
                6472,
                7213,
                3569,
                4224,
                9205,
                1596,
                3907,
                10440,
                2807,
                1139,
                10513,
                10108,
                7428,
                1196,
                1037,
                10107,
                10215,
                8692,
                8224,
                7728,
                10604,
                8513,
                5344,
                5009,
                2382,
                4972,
                992,
                282,
                595,
                1669,
                10554,
                10306,
                10313,
                7020,
                959,
                2914,
                5748,
                8327,
                8123,
                10501,
                2905,
                3720,
                7911,
                10350,
                2351,
                10124,
                10362,
                10143,
                1722,
                4357,
                5055,
                8242,
                6649,
                593,
                10649,
                2544,
                10423,
                10525,
                3200,
                10293,
                1016,
                2327,
                10163,
                4788,
                4307,
                5801,
                10242,
                662,
                6167,
                6002,
                2972,
                8010,
                3186,
                3891,
                10331,
                688,
                10354,
                2327,
                1713,
                1309,
                10213,
                5993,
                8621,
                10393,
                5084,
                10377,
                10026,
                10025,
                3453,
                10467,
                2591,
                1919,
                5670,
                10221,
                4255,
                629,
                513,
                2629,
                596,
                5401,
                8255,
                537,
                2085,
                3591,
                3974,
                5030,
                3225,
                1994,
                2910,
                10005,
                10572,
                7095,
                4243,
                2153,
                7455,
                793,
                10211,
                2700,
                10110,
                1833,
                140,
                10325,
                1786,
                5947,
                709,
                1312,
                7310,
                7151,
                3083,
                4351,
                10246,
                10381,
                2979,
                8006,
                10385,
                3013,
                5352,
                3634,
                1223,
                10243,
                10179,
                3734,
                1403,
                10338,
                10287,
                6278,
                7695,
                10170,
                4320,
                3251,
                379,
                4701,
                8282,
                798,
                9450,
                345,
                10458,
                10312,
                5571,
                10065,
                7655,
                5807
            ]
        },
        "detections": 500,
        "events": 1119262
    }
}