{
    "job_args": {
        "metric_limit": 500,
        "seed": 1825675211
    },
    "job_id": "batch_141_do_500",
    "result": {
        "collections": {
            "crystal": [
                1.0268257440826376,
                0.7846693601229555,
                0.04276999165038875,
                1.2418094949056289,
                1.460822329157775,
                0.6853826992889329,
                1.0007504422140265,
                0.04598244092852699,
                1.460822329157775,
                0.6925802862648448,
                0.8331793535540925,
                0.6461072448909401,
                1.111097075481239,
                0.059745127461651615,
                0.8560772020424324,
                0.21396754152882913,
                1.4608223291577753,
                1.4608223291577749,
                0.35889188219124396,
                0.4833512591071948,
                1.0337532765437112,
                0.011841861921221277,
                1.1825967178658028,
                0.33023795550082247,
                1.171628309123126,
                1.4608223291577753,
                0.6626615962194246,
                0.8182018379388017,
                0.944152851080244,
                0.5150349377129344,
                0.5547067060514227,
                0.36117115856247484,
                0.82732632703655,
                1.460822329157775,
                0.9023958605703719,
                0.6713916307341481,
                0.03920462739066575,
                0.4626858539723814,
                0.6907962659601703,
                1.1873336093270794,
                0.5068890216714071,
                1.460822329157775,
                1.2254340838256148,
                0.8415814577524199,
                0.40002505865745697,
                1.4608223291577749,
                0.30387877939022545,
                0.016466833248937773,
                1.2499740977099065,
                1.1932383303970318,
                0.4561661228362571,
                0.073039,
                0.11237817449454436,
                0.3464600402693483,
                1.1096641792551005,
                0.40460176434329853,
                0.6552080722132783,
                1.218190191108138,
                0.16246418748504998,
                0.049868296972026105,
                0.5703636372870965,
                0.7135937403442963,
                0.321893537703508,
                0.6151678981617585,
                1.460822329157775,
                0.0625541161268014,
                1.4608223291577749,
                0.51099891,
                1.0482061730052052,
                0.6871518037466182,
                1.2101808920094803,
                1.202158060547996,
                0.259766490643901,
                0.07303899999999999,
                1.4608223291577747,
                1.460822329157775,
                1.1860492307089259,
                0.09844494678227533,
                0.07525,
                0.03911159435234044,
                0.45452889113986106,
                0.626916537257126,
                1.4608223291577749,
                0.3789196817681135,
                1.1466339418863334,
                1.4608223291577753,
                0.2817152892146021,
                1.026201522148353,
                0.7370056460378862,
                1.0264747430581207,
                0.8766170625901816,
                0.3714525754651403,
                0.008145911489482849,
                0.23111608425573274,
                0.24097439345318458,
                1.035557280016199,
                1.4608223291577753,
                0.13067262186425294,
                0.8290610476402941,
                0.32102565790210935,
                0.9401957816955301,
                0.7946947599144556,
                0.5155731303461516,
                0.6148400271487,
                1.2393544121803899,
                0.3638712515860033,
                0.3852432749114215,
                0.6035629859419027,
                1.4608223291577753,
                0.41077334936315635,
                0.6825580097797121,
                1.1891753958621183,
                1.460822329157775,
                0.38856312618912175,
                0.12040211600429335,
                1.2757266038070958,
                0.5406216035793753,
                0.8633612968280143,
                0.38320907882308364,
                1.0821046229156723,
                1.460822329157775,
                0.8404740816710929,
                0.9729653464852457,
                1.460822329157775,
                0.13383739428581498,
                1.0153928496710063,
                0.851095396893484,
                0.4739497444371783,
                0.8459055040672153,
                0.3440104478971323,
                0.4676223481818131,
                0.052257858720945294,
                1.460822329157775,
                1.460822329157775,
                1.460822329157775,
                0.27001245683467734,
                1.460822329157775,
                0.07303899999999999,
                1.460822329157775,
                0.8287214063807242,
                1.2021504627577821,
                0.08523539999999999,
                0.40556116244086604,
                1.460822329157775,
                0.45681119622853067,
                0.03349051076148335,
                0.5717264666964508,
                0.2347772663920254,
                0.01576199978705753,
                0.10377012654186758,
                1.460822329157775,
                1.460822329157775,
                1.1156867033880515,
                0.35843234035505683,
                0.6920444148281253,
                0.65474192051538,
                0.5034440573347896,
                1.460822329157775,
                1.4608223291577753,
                0.7083603505773408,
                0.06737977835414168,
                0.9498234191577751,
                0.19428740020985158,
                1.460822329157775,
                1.460822329157775,
                0.49851246439876096,
                0.07646776772348685,
                1.460822329157775,
                0.43271738349746747,
                0.08562843531813447,
                1.018207954344209,
                0.13893073105799536,
                1.4608223291577749,
                0.24501138464349667,
                1.460822329157775,
                0.907199228207234,
                0.12640963416584827,
                0.9637186270785235,
                0.9752146237089789,
                0.51099891,
                0.073039,
                0.9596790759894497,
                1.0218592377813658,
                0.19530187271703026,
                1.262621474079136,
                0.3437698199963602,
                0.3594363491520066,
                0.7718449818747359,
                0.3134916035351638,
                0.5662030247103199,
                0.5109989100000001,
                1.3065739886563916,
                0.8492195039541199,
                1.0564252378173833,
                0.32274077227636805,
                0.5846388575245228,
                0.8187119909944307,
                0.2687642430096661,
                0.11893394852570549,
                0.08909008282528585,
                1.460822329157775,
                0.11672530816386528,
                0.5006871157012388,
                1.145631688860071,
                0.8031441924322715,
                0.82089337076924,
                0.9103973517116073,
                0.7127871944498129,
                0.5872610873207993,
                0.22469081710027416,
                1.1464762624266567,
                0.444904421830978,
                1.460822329157775,
                0.8435596003848705,
                1.460822329157775,
                1.2152359457277335,
                0.04058867522781395,
                1.0538228971120136,
                0.07525,
                1.4608223291577749,
                0.5717899566593534,
                1.0007795972263844,
                0.07998056755003735,
                0.6583901893686033,
                0.99234736467616,
                0.031067730341257427,
                0.1991085226323459,
                1.460822329157775,
                1.0082981740160948,
                1.1764712048673422,
                0.9498234191577752,
                0.29170211625780096,
                0.07303899999999999,
                0.14989283911082982,
                1.4608223291577753,
                1.460822329157775,
                1.460822329157775,
                0.830439601882876,
                1.4608223291577749,
                0.8963985912198222,
                0.9073171827572963,
                0.5656039450357212,
                1.0987469114207613,
                1.460822329157775,
                0.320136746807526,
                1.125371756341689,
                0.3937032530552571,
                0.17300292814526536,
                0.6681570384404244,
                0.7519349764263634,
                1.4608223291577747,
                0.970024548321012,
                1.4608223291577753,
                0.2924341410977088,
                1.460822329157775,
                0.025733896403823616,
                0.693764060108986,
                1.460822329157775,
                0.5779710751161358,
                1.460822329157775,
                1.0398861980175977,
                1.460822329157775,
                1.0354470859786793,
                0.4721795243183906,
                0.8704177362748196,
                0.6331563371912197,
                1.2653518440632516,
                1.0704352174277945,
                1.460822329157775,
                0.13962506472202807,
                0.09421549699023701,
                1.1146008854882459,
                0.39989832071404585,
                1.460822329157775,
                0.696223898996476,
                0.3444198531433038,
                0.4137394821751431,
                0.22628379741168742,
                0.7828144606951452,
                1.3209872667240807,
                0.9588715758982058,
                1.0339161391695353,
                0.8975371422231473,
                0.271521078292666,
                0.8038258292635659,
                0.03946812163594693,
                0.3878194001776019,
                1.4608223291577749,
                0.2887103280116468,
                0.7690730263999459,
                0.407437829997658,
                1.1586825545600818,
                0.9224835174583751,
                0.22282806222206622,
                0.8537084379517232,
                1.460822329157775,
                1.460822329157775,
                0.8712883384035638,
                0.0401229900274902,
                0.07525,
                0.5096300097551547,
                0.4712464723604819,
                1.2341335130376712,
                0.5606615830081518,
                0.08474069999999999,
                1.460822329157775,
                0.6448346138057037,
                1.460822329157775,
                0.3470882714179304,
                0.9919656886678249,
                1.4608223291577753,
                1.460822329157775,
                0.02953157436770515,
                0.3343065037567491,
                0.16373211135317298,
                0.0247416741960782,
                0.3555029512860871,
                0.8006202712718842,
                0.9498234191577749,
                0.15372335209024846,
                1.4608223291577753,
                0.7057257537482357,
                0.08380673063363675,
                0.254518183654844,
                0.9728855218018582,
                0.5532631483472032,
                0.26157321741091777,
                0.5364084516262155,
                1.2147940688663859,
                0.015660938031220484,
                0.6067704946099418,
                0.7603780872991693,
                1.2259618461625683,
                1.0076203310794,
                1.460822329157775,
                1.4608223291577749,
                1.0194915952920187,
                1.2074117943134846,
                0.5787307760501951,
                1.460822329157775,
                0.690331746066814,
                1.460822329157775,
                0.4206082747249569,
                0.8627558359683282,
                0.6899716606324329,
                0.4515464862123885,
                0.7584667787190107,
                0.1774733262416024,
                1.1053458021193698,
                1.4608223291577749,
                0.36579904307691913,
                0.6091172650888992,
                1.460822329157775,
                0.16763357017761904,
                0.34294913109812863,
                1.2307667447476476,
                1.460822329157775,
                0.5149077761331262,
                0.18850582813613587,
                1.4608223291577747,
                0.7934355869500036,
                0.709350244867003,
                1.4608223291577753,
                0.5328997990425545,
                1.4608223291577749,
                0.6086278921997799,
                0.19136011900364414,
                1.0412512467789221,
                0.4879379598092666,
                0.35003421389232514,
                1.0499650725006922,
                1.460822329157775,
                1.2853612568426096,
                1.460822329157775,
                1.4608223291577749,
                1.0482020524064537,
                0.6674997905677929,
                1.460822329157775,
                1.21384856862891,
                0.9189719367841729,
                1.460822329157775,
                1.460822329157775,
                1.117982222687549,
                0.5933128792778535,
                0.311448162599424,
                0.073039,
                1.4608223291577749,
                0.07303900000000002,
                1.460822329157775,
                0.1486183751179053,
                0.044429500000000004,
                0.8681719815969301,
                0.8543742620600601,
                0.28778618062375,
                0.5109899069011923,
                0.7521481816687146,
                1.460822329157775,
                1.2391463381810932,
                1.0189015611694334,
                0.7259439524361028,
                0.7969799049185888,
                0.800660214990975,
                0.28159930373153375,
                1.460822329157775,
                1.2485211456428447,
                0.013310285165570201,
                0.23711120004594674,
                0.8050957568785824,
                1.460822329157775,
                1.143429017585043,
                1.193902057313581,
                0.8901089780137246,
                0.07319475479217585,
                1.460822329157775,
                0.04853462267263742,
                1.4608223291577753,
                1.3411387225929872,
                0.03425609648146832,
                0.9412854859200391,
                1.4608223291577753,
                0.5846375210843887,
                0.24336115138831269,
                0.7825911212130289,
                0.3804837682503279,
                0.8429254566593719,
                0.23959357803023917,
                1.460822329157775,
                0.9612053031008735,
                1.1960995524140738,
                0.47689708724508517,
                1.3828701256608065,
                0.27444401363981674,
                1.4608223291577753,
                1.4608223291577749,
                0.3407299055850073,
                1.4608223291577753,
                0.025835437042858067,
                0.8682757431167695,
                0.6610492565370383,
                0.2613469853545197,
                0.10270988927243807,
                1.191944064648418,
                1.4608223291577753,
                1.4608223291577753,
                0.5831260628686241,
                0.542837296737585,
                0.9322658909942231,
                0.5315720342700305,
                0.9855923790751303,
                1.460822329157775,
                0.371590372344779,
                0.4050679746791326,
                1.460822329157775,
                1.4608223291577749,
                1.460822329157775,
                0.2911809043050796,
                1.460822329157775,
                1.460822329157775,
                1.4608223291577753,
                0.28690466570396306,
                1.0897294714997219,
                0.5763636584139381,
                0.063144702393923,
                0.042955799999999995,
                0.6114688808641787,
                0.3174249322022631,
                1.1522173313328836,
                0.805438030889445,
                1.4608223291577749,
                1.4608223291577749,
                0.8572370638226462,
                1.460822329157775,
                0.8585414063558066,
                0.35667042155167583,
                0.8760888165562775,
                0.29040658779957307,
                0.8282425051331286,
                0.3935985936170245,
                0.6231584808550066,
                0.2913803806340072,
                0.8343900875185856,
                1.1965312184321257,
                1.460822329157775,
                0.5118834859288222,
                0.3284779232416914,
                0.650084954924504,
                1.460822329157775,
                0.47340050632124253,
                0.6169452170909151,
                0.24534022170773687,
                0.7936826893492128,
                0.23299039639376262,
                0.10790885945345985,
                0.9961215857213467,
                1.0876757746787538,
                0.2544639417558439,
                0.38270989239660247,
                1.4608223291577753,
                0.43136068699376195,
                0.3227334982467378
            ],
            "photocathode": [
                7285,
                5441,
                297,
                8707,
                10213,
                5026,
                7000,
                317,
                10059,
                4925,
                6016,
                4519,
                7815,
                427,
                6036,
                1455,
                10186,
                10287,
                2496,
                3504,
                7178,
                80,
                8269,
                2326,
                7982,
                10348,
                4871,
                5913,
                6532,
                3580,
                3954,
                2567,
                5934,
                10113,
                6165,
                4822,
                281,
                3082,
                4744,
                8370,
                3594,
                9944,
                8564,
                5863,
                2815,
                10207,
                2164,
                125,
                9090,
                8403,
                3227,
                487,
                765,
                2532,
                7739,
                2729,
                4639,
                8569,
                1113,
                370,
                3965,
                5075,
                2257,
                4285,
                10188,
                468,
                10259,
                3585,
                7418,
                4783,
                8467,
                8510,
                1808,
                561,
                10306,
                10410,
                8701,
                699,
                520,
                285,
                3054,
                4366,
                10282,
                2755,
                8052,
                10641,
                1989,
                7302,
                5204,
                7247,
                6226,
                2543,
                55,
                1684,
                1723,
                7287,
                10425,
                979,
                5900,
                2248,
                6794,
                5499,
                3669,
                4379,
                8841,
                2583,
                2703,
                4110,
                10448,
                2996,
                4794,
                8210,
                10309,
                2656,
                897,
                9179,
                3715,
                6073,
                2715,
                7662,
                10559,
                5929,
                6940,
                10400,
                918,
                7212,
                5925,
                3379,
                6005,
                2440,
                3218,
                337,
                10160,
                10121,
                10319,
                1848,
                10232,
                512,
                10162,
                5695,
                8516,
                596,
                2859,
                10336,
                3163,
                220,
                4084,
                1698,
                126,
                695,
                10174,
                10247,
                7817,
                2508,
                4901,
                4457,
                3595,
                10149,
                10089,
                4975,
                493,
                6754,
                1296,
                10242,
                10101,
                3533,
                517,
                10166,
                3043,
                600,
                7158,
                983,
                10349,
                1784,
                10043,
                6371,
                913,
                6845,
                6798,
                3496,
                524,
                6780,
                7108,
                1320,
                8895,
                2492,
                2585,
                5369,
                2290,
                4017,
                3627,
                9246,
                5966,
                7516,
                2249,
                4221,
                5657,
                1770,
                822,
                585,
                9925,
                809,
                3501,
                7897,
                5588,
                5762,
                6470,
                5167,
                4025,
                1600,
                8022,
                3051,
                10449,
                5800,
                10241,
                8369,
                285,
                7220,
                531,
                10133,
                3998,
                7044,
                533,
                4536,
                6744,
                223,
                1417,
                10473,
                6990,
                8166,
                6581,
                2047,
                521,
                1052,
                10050,
                10248,
                10214,
                6034,
                10487,
                6405,
                6332,
                3942,
                7661,
                10119,
                2167,
                8046,
                2773,
                1194,
                4711,
                5325,
                10374,
                6996,
                10150,
                2041,
                10084,
                162,
                4921,
                10060,
                4041,
                10556,
                7654,
                10154,
                7256,
                3231,
                5988,
                4352,
                8506,
                7424,
                10377,
                987,
                627,
                7864,
                2830,
                10403,
                4845,
                2530,
                2928,
                1592,
                5517,
                9271,
                6551,
                7416,
                6258,
                2022,
                5493,
                278,
                2824,
                10030,
                1989,
                5391,
                2884,
                8091,
                6732,
                1530,
                5894,
                10196,
                10593,
                6196,
                283,
                537,
                3462,
                3389,
                8588,
                3964,
                576,
                10311,
                4581,
                10315,
                2466,
                7017,
                10312,
                10395,
                210,
                2372,
                1178,
                178,
                2474,
                5589,
                6677,
                1097,
                10302,
                4926,
                578,
                1792,
                6840,
                3801,
                1835,
                3516,
                8414,
                115,
                4173,
                5355,
                8772,
                6927,
                10066,
                10218,
                7208,
                8491,
                4143,
                10234,
                4881,
                10336,
                3063,
                6041,
                4890,
                3100,
                5140,
                1266,
                7643,
                10074,
                2537,
                4138,
                10537,
                1164,
                2395,
                8735,
                10302,
                3671,
                1374,
                10442,
                5489,
                5038,
                10339,
                3871,
                10201,
                4266,
                1364,
                7247,
                3421,
                2412,
                7408,
                10175,
                9147,
                10320,
                10029,
                7701,
                4693,
                10238,
                8437,
                6576,
                10320,
                10039,
                7813,
                4179,
                2177,
                546,
                10077,
                497,
                10275,
                1013,
                302,
                6117,
                6025,
                2003,
                3707,
                5322,
                10158,
                8599,
                7148,
                5246,
                5644,
                5571,
                1987,
                10233,
                8762,
                101,
                1638,
                5580,
                10127,
                8208,
                8326,
                6248,
                493,
                10231,
                356,
                10339,
                9449,
                235,
                6683,
                10053,
                4160,
                1668,
                5452,
                2703,
                5879,
                1641,
                10394,
                6803,
                8243,
                3227,
                9541,
                1892,
                10211,
                10024,
                2367,
                10309,
                201,
                6214,
                4708,
                1859,
                751,
                8459,
                10122,
                10316,
                4158,
                3810,
                6834,
                3642,
                6787,
                10273,
                2499,
                2821,
                10695,
                10025,
                10199,
                2084,
                10202,
                10262,
                10066,
                1974,
                7805,
                3979,
                441,
                306,
                4266,
                2205,
                8049,
                5669,
                10406,
                10267,
                6065,
                10266,
                5944,
                2520,
                6232,
                1971,
                5804,
                2705,
                4331,
                2025,
                5840,
                8394,
                10096,
                3523,
                2316,
                4592,
                10359,
                3179,
                4298,
                1647,
                5594,
                1712,
                762,
                6869,
                7593,
                1750,
                2615,
                10539,
                3108,
                2325
            ]
        },
        "detections": 500,
        "events": 1155913
    }
}