{
    "job_args": {
        "metric_limit": 300,
        "seed": 3207699194
    },
    "job_id": "batch_84_do_300",
    "result": {
        "collections": {
            "crystal": [
                0.51099891,
                0.424022172229566,
                0.4048087345293424,
                0.0847407,
                0.51099891,
                0.34966149266878377,
                0.51099891,
                0.51099891,
                0.17121844451714935,
                0.07839508503722742,
                0.51099891,
                0.51099891,
                0.19808146528498938,
                0.09266561614264862,
                0.5109989100000001,
                0.20645930814697275,
                0.51099891,
                0.51099891,
                0.5109989100000001,
                0.5461329464390804,
                0.073039,
                0.8793061673250199,
                0.51099891,
                0.036688269738750334,
                0.51099891,
                0.5109989100000001,
                0.51099891,
                0.44497356375090324,
                0.31865957445362636,
                0.05833100265011437,
                0.5109989100000001,
                0.51099891,
                0.28653598120884016,
                0.22141333718386308,
                0.51099891,
                0.6054285771606566,
                0.21674194350975928,
                0.51099891,
                1.274537340179464,
                0.51099891,
                0.51099891,
                0.5109989100000001,
                1.415006792111046,
                0.13935234566420207,
                0.11855763089825849,
                0.08896146190175344,
                0.3182444152259685,
                0.12900878873613075,
                1.2745373401794642,
                0.51099891,
                1.2745373401794637,
                0.51099891,
                0.04564973422909718,
                0.5109989100000001,
                0.51099891,
                1.274537340179464,
                0.5109989100000001,
                0.51099891,
                0.51099891,
                0.27052747639475266,
                0.51099891,
                0.4262914573875889,
                0.8598381640178554,
                0.07525000000000001,
                0.51099891,
                0.51099891,
                0.5109989100000001,
                0.04940957272682639,
                0.51099891,
                0.51099891,
                0.39584925042449615,
                0.24467539748373732,
                0.06817634698200808,
                0.07524999999999998,
                0.5109989100000001,
                0.51099891,
                0.51099891,
                0.30184819066425456,
                0.51099891,
                0.32104712634732513,
                0.51099891,
                0.34203471100127936,
                0.05890925715332411,
                0.005110931804361285,
                0.2424365863752982,
                0.51099891,
                0.2540537820620648,
                0.635374061427187,
                1.274537340179464,
                0.23375448228081758,
                0.5109989100000001,
                0.5109989100000001,
                0.51099891,
                0.51099891,
                0.15939568903606893,
                0.51099891,
                0.51099891,
                0.51099891,
                0.51099891,
                0.51099891,
                0.5109989100000001,
                0.51099891,
                0.02277978970554706,
                0.5347250565410531,
                0.6193191042294173,
                0.51099891,
                0.2744766476109138,
                0.012368810957071652,
                0.51099891,
                0.5384334575126483,
                0.7858527486799085,
                0.2876543614365903,
                0.8304010276998723,
                0.12187634813592818,
                0.0878775,
                0.5109989100000001,
                0.16763105679703738,
                0.5109989100000001,
                0.07524999999999998,
                0.5109989100000001,
                0.7516631371194895,
                0.5109989099999999,
                1.274537340179464,
                1.0168658524419287,
                1.0140557140558881,
                0.44834716945338027,
                0.51099891,
                0.27653681983307954,
                0.5109989099999999,
                0.19977181051816856,
                0.9403845904936142,
                0.2301407723883898,
                0.17226309586857252,
                0.15929424928531205,
                0.12690956804577808,
                0.37822882209020725,
                0.08223036736531703,
                0.5109989099999999,
                0.7131576323155573,
                0.1536989380129018,
                0.5109989099999999,
                0.51099891,
                0.226477533540878,
                0.008527087929616761,
                0.51099891,
                0.4423651580182649,
                0.5109989100000001,
                1.274537340179464,
                0.6903857081750288,
                0.18640832449550537,
                0.49481995677035706,
                0.5109989100000001,
                0.51099891,
                0.15347793358906428,
                0.4473527313007258,
                0.20783493242677778,
                1.274537340179464,
                0.5109989100000001,
                0.6844016853122484,
                0.045580283892294404,
                0.5109989099999999,
                0.51099891,
                0.51099891,
                0.51099891,
                0.22836886555776534,
                0.20926106916906,
                0.2766683849936367,
                0.007541034149637471,
                1.2745373401794642,
                1.2745373401794642,
                1.2745373401794637,
                0.5109989099999999,
                0.300102581259603,
                0.2730711040520301,
                0.07763930158771526,
                1.274537340179464,
                0.51099891,
                0.20250747900134153,
                0.51099891,
                0.1254269301317995,
                0.5109989100000001,
                0.51099891,
                0.31062498376311287,
                0.3858805297123163,
                0.51099891,
                0.17529697144141204,
                0.51099891,
                0.07303900000000002,
                0.5109989099999999,
                0.11300304987640569,
                0.51099891,
                1.274537340179464,
                0.8570368685694484,
                0.26428240033133854,
                1.274537340179464,
                0.51099891,
                0.51099891,
                0.51099891,
                0.51099891,
                0.51099891,
                0.2770390349642025,
                0.5109989099999999,
                0.51099891,
                0.4152444383689843,
                0.51099891,
                0.51099891,
                0.51099891,
                0.5109989100000001,
                1.274537340179464,
                1.2745373401794642,
                0.51099891,
                0.568436804212169,
                1.274537340179464,
                1.2745373401794642,
                0.007421127579043674,
                0.3787124460608784,
                0.48269241000000007,
                0.26170611290381024,
                0.51099891,
                0.3491757364824696,
                0.51099891,
                0.14918125678538224,
                0.1372605588153742,
                0.26219175995358196,
                0.22688857814700697,
                0.49422458700067073,
                0.2156610752625181,
                0.51099891,
                0.5109989099999999,
                0.51099891,
                0.19765641704602788,
                1.2745373401794637,
                0.51099891,
                0.51099891,
                0.473143859335457,
                0.51099891,
                0.31545820668378366,
                0.51099891,
                0.44741352910450416,
                0.5109989100000001,
                0.19917145934587405,
                0.51099891,
                0.51099891,
                0.51099891,
                0.51099891,
                1.2745373401794642,
                0.34409953350466377,
                0.33582939655276156,
                0.5109989100000001,
                0.24882595441455904,
                0.7434044939537172,
                0.073039,
                0.47738083904393375,
                0.32086914817614043,
                0.2541831766573481,
                0.51099891,
                0.07524999999999998,
                0.025596524189228753,
                0.1525346228080609,
                0.034958890925735224,
                0.51099891,
                0.05255734431017722,
                0.07525,
                1.274537340179464,
                0.51099891,
                0.22611729529610933,
                0.39995023568779375,
                0.08143475744075235,
                0.2724908835810735,
                0.33646138234385303,
                0.07525,
                1.2745373401794642,
                0.51099891,
                0.5802623622977682,
                0.5109989100000001,
                0.51099891,
                0.003866581080217202,
                0.698893709558128,
                1.2745373401794642,
                0.5109989100000001,
                0.2518495743768795,
                0.7894804351231106,
                0.01079595819676038,
                0.4325841619861876,
                0.51099891,
                0.4673827744356798,
                0.24869972753326003,
                0.320105519810064,
                0.020819453573265645,
                0.43472464548607087,
                0.002849618184672109,
                0.1609661407399685,
                0.5109989100000001,
                0.3167032043097995,
                0.1345571423661982,
                0.26673105360435073,
                0.5913804040959681,
                0.51099891,
                0.05016247794846268,
                0.51099891
            ]
        },
        "detections": 300,
        "events": 15325
    }
}