{
    "job_args": {
        "metric_limit": 300,
        "seed": 4166003880
    },
    "job_id": "batch_8_do_300",
    "result": {
        "collections": {
            "crystal": [
                0.5109989099999999,
                0.3916467272698066,
                0.51099891,
                0.7192802734091133,
                0.51099891,
                0.30950132797245067,
                0.20325988166097914,
                0.875882054339963,
                0.5109989099999999,
                0.18320235582898808,
                0.017385610285924225,
                0.6580903968425921,
                0.38857053268143005,
                0.5109989099999999,
                1.274537340179464,
                0.073039,
                0.05515907788611285,
                0.5109989100000001,
                0.06504618751582669,
                1.274537340179464,
                0.51099891,
                0.36173074253357584,
                0.51099891,
                0.3772603331059615,
                0.5109989099999999,
                0.08099177041977385,
                0.3009631698098463,
                0.51099891,
                0.5109989100000001,
                0.31171417974540394,
                0.5109989099999999,
                0.51099891,
                0.5109989100000001,
                0.51099891,
                0.30749412913524626,
                0.51099891,
                0.30724755435364337,
                0.5109989100000001,
                0.51099891,
                0.5109989100000001,
                0.51099891,
                0.104408065320345,
                0.24495116911239603,
                0.5109989099999999,
                0.51099891,
                0.18222929203786542,
                0.38874564963654773,
                0.34552906551784723,
                0.51099891,
                0.51099891,
                0.5109989100000001,
                0.9884109301288988,
                0.51099891,
                0.42835906903205834,
                0.51099891,
                0.22414653763126038,
                0.5109989099999999,
                0.51099891,
                0.51099891,
                0.3004008318247001,
                0.5109989099999999,
                0.51099891,
                0.47017014606602203,
                0.5109989100000001,
                0.5109989100000001,
                0.5109989100000001,
                0.7222636537918874,
                0.5109989100000001,
                0.5109989100000001,
                0.17724046114159517,
                0.5109989100000001,
                0.19896611874209774,
                0.1889276378018692,
                0.5109989099999999,
                0.5109989099999999,
                0.51099891,
                0.2833068080752258,
                0.47898608703168466,
                0.5109989100000001,
                0.07303899999999999,
                0.51099891,
                0.1280952994852158,
                0.33364107018387384,
                0.5109989099999999,
                0.5109989100000001,
                0.03738457226476807,
                0.2684399097361265,
                0.15447817819921034,
                0.37313960055335105,
                0.7950786236441475,
                0.51099891,
                0.51099891,
                0.23654502572654812,
                0.5109989099999999,
                0.51099891,
                1.274537340179464,
                0.5985098887863335,
                0.27071123414776166,
                1.274537340179464,
                0.1699201046412559,
                0.3218067178291173,
                1.274537340179464,
                1.2745373401794642,
                0.2386063539970596,
                0.07525,
                0.2102200107901585,
                0.51099891,
                0.5109989100000001,
                0.07303900000000002,
                0.41231817520009584,
                0.5109989099999999,
                0.21374708706663134,
                0.5109989100000001,
                0.9121928366211518,
                1.2745373401794642,
                0.32016899420789446,
                0.5109989099999999,
                0.5109989100000001,
                0.51099891,
                0.369601597221167,
                0.51099891,
                0.51099891,
                0.51099891,
                0.7200423749078062,
                0.5109989100000001,
                0.5400694698403513,
                0.51099891,
                0.20553546223828306,
                0.5109989100000001,
                0.51099891,
                0.073039,
                0.07155007377689582,
                0.19565868800310005,
                0.21875376007540884,
                0.07525,
                0.5109989100000001,
                0.2342085368057808,
                1.2745373401794642,
                0.035660145058926895,
                0.51099891,
                0.51099891,
                0.5109989099999999,
                0.2654928738769425,
                0.51099891,
                0.22391100471333925,
                0.8452081768844798,
                0.51099891,
                0.30262330978048385,
                0.02717506504264944,
                0.576940490903601,
                0.51099891,
                0.51099891,
                0.5306830495838676,
                0.09433036415670376,
                1.2745373401794642,
                0.10644373606881775,
                0.33725947785813404,
                0.51099891,
                0.9235431664760906,
                0.24711830624270892,
                0.4423519123931829,
                0.1611508687010944,
                0.42161819345978946,
                1.0058490784801404,
                0.2889597105365903,
                0.0024896549758650632,
                0.11711625260482289,
                0.2833634123188187,
                1.0054215517489706,
                0.2292053890084354,
                0.4132790515487773,
                0.51099891,
                0.0021320957219881365,
                0.51099891,
                0.51099891,
                0.51099891,
                0.23792489685839202,
                0.51099891,
                0.51099891,
                0.05857562406917699,
                0.51099891,
                0.3209289662677747,
                0.17954119745804692,
                0.51099891,
                0.5109989100000001,
                0.6622387320196512,
                0.5109989099999999,
                0.0062740437677546446,
                0.3663874969069101,
                0.08890893353885021,
                0.51099891,
                0.51099891,
                1.274537340179464,
                1.274537340179464,
                0.07525,
                0.51099891,
                0.51099891,
                0.51099891,
                0.10832409297402429,
                0.1171727903491786,
                0.51099891,
                0.047709929400196804,
                0.51099891,
                1.274537340179464,
                0.5109989100000001,
                0.51099891,
                0.0876557,
                0.51099891,
                0.23880159551669886,
                0.005579685214630592,
                0.5109989099999999,
                0.016743013234109982,
                0.5109989100000001,
                0.21060056937270927,
                0.3526520611523602,
                0.51099891,
                0.44386016953950497,
                0.5109989099999999,
                0.2871660132385387,
                0.07458423991844226,
                0.51099891,
                0.51099891,
                0.51099891,
                0.010234605910097283,
                0.51099891,
                0.073039,
                0.51099891,
                0.26499287219467904,
                0.5109989100000001,
                0.11486398640183693,
                0.1600868000560351,
                0.2363590039331921,
                0.5109989100000001,
                0.07524999999999998,
                0.23646399138288537,
                0.985645613340819,
                0.51099891,
                0.22184034546865833,
                0.51099891,
                0.6117850374862508,
                1.274537340179464,
                0.5109989100000001,
                0.676672037290117,
                1.274537340179464,
                0.6861152934846194,
                1.2745373401794642,
                1.274537340179464,
                0.16030649608882824,
                1.2745373401794642,
                0.06964052017509609,
                1.2745373401794635,
                0.7832464525268752,
                0.51099891,
                0.8714022969235703,
                0.231892813675325,
                0.5348469477641989,
                0.51099891,
                0.5045869094232541,
                0.51099891,
                0.5109989099999999,
                0.5109989099999999,
                0.23709064215606224,
                0.0840320105064189,
                0.0469816724686124,
                0.51099891,
                0.07525,
                0.51099891,
                0.41368179836153135,
                0.04855583791244589,
                0.51099891,
                0.51099891,
                0.29637080800669147,
                0.18847063758404636,
                0.5109989100000001,
                0.51099891,
                0.5109989100000001,
                0.09000189358852434,
                0.016892951607111406,
                0.5109989099999999,
                0.038121645717906605,
                0.9924795526596839,
                0.51099891,
                0.05717612283286827,
                0.51099891,
                0.3011964545920518,
                0.51099891,
                0.6159590136933586,
                0.51099891,
                0.9421358747724676,
                0.8664366419377068,
                0.51099891,
                0.51099891,
                0.51099891,
                0.5109989100000001,
                0.51099891,
                1.094262778325898,
                0.5109989100000001,
                0.5109989099999999,
                0.51099891,
                0.4671295252582779
            ]
        },
        "detections": 300,
        "events": 15108
    }
}