{
    "job_args": {
        "metric_limit": 300,
        "seed": 3287200750
    },
    "job_id": "batch_73_do_300",
    "result": {
        "collections": {
            "crystal": [
                0.073039,
                0.3030749726615707,
                0.51099891,
                0.483989327026501,
                0.5109989099999999,
                0.40524931446468393,
                0.08523540000000002,
                0.04594446709329375,
                0.4355304013878741,
                0.5109989099999999,
                0.3145363486617534,
                0.48103586426957506,
                1.0326013599330655,
                0.7521690975402101,
                0.51099891,
                1.2745373401794637,
                0.51099891,
                0.51099891,
                0.07524999999999998,
                0.2704408919069216,
                0.51099891,
                0.51099891,
                0.0704710318028034,
                0.08580830367083542,
                0.6113869269425948,
                0.31958540780304445,
                1.274537340179464,
                0.5109989099999999,
                0.51099891,
                0.51099891,
                0.3977598461397224,
                0.07303900000000002,
                0.21762937801847826,
                0.51099891,
                0.51099891,
                0.6541074451983363,
                0.51099891,
                0.4677636284480443,
                0.41401845657302117,
                0.5109989099999999,
                0.51099891,
                0.22187767009451664,
                0.13753392928944513,
                0.51099891,
                0.23540582311389022,
                0.51099891,
                0.029380752747608763,
                0.12256436894109624,
                0.21636120360113853,
                0.51099891,
                0.2187261111481459,
                0.29684909955077216,
                0.31413592108318467,
                0.20817604085069763,
                1.210617310494187,
                0.51099891,
                1.274537340179464,
                1.274537340179464,
                0.3586760382296862,
                1.0014251507341843,
                0.8127175934838053,
                0.07525,
                0.14919677142915344,
                0.2231073442942939,
                0.5109989099999999,
                0.3534167347915925,
                0.336042288524932,
                0.14526509928974762,
                0.5109989100000001,
                0.5109989099999999,
                0.09951803956732243,
                0.19352237252734547,
                0.073039,
                0.25836277156104936,
                0.33266004909082025,
                0.21980703081210728,
                0.7089849585938579,
                1.274537340179464,
                0.835134502900003,
                0.51099891,
                0.6878581262907437,
                0.5109989099999999,
                0.47876210999999996,
                0.2326689902286184,
                0.28878281738723993,
                0.2892384729147757,
                0.51099891,
                0.5109989100000001,
                0.5109989100000001,
                0.51099891,
                0.21769566035722226,
                0.51099891,
                0.51099891,
                0.06257618358461031,
                0.07525,
                0.4740018345121609,
                0.30329250330651636,
                0.2774728740990356,
                0.07303899999999999,
                0.9822170727075553,
                0.3483702819793012,
                0.51099891,
                0.51099891,
                0.12853342914510624,
                0.08523539999999999,
                0.5109989100000001,
                0.4416049889048651,
                0.51099891,
                0.4738655892279835,
                0.5109989100000001,
                0.8460121840509147,
                0.1168139795366111,
                0.27665915248128625,
                0.51099891,
                0.5109989100000001,
                0.5109989100000001,
                0.51099891,
                0.1293626153069276,
                1.274537340179464,
                0.51099891,
                0.5109989099999999,
                0.2505805417212057,
                0.19890350874408702,
                0.07092478690075288,
                0.642432657886437,
                0.4630060350422695,
                0.1717190590400669,
                0.018280566955405697,
                0.2452417520071122,
                0.16733812889062305,
                0.2974252699757608,
                0.0847407,
                0.5109989099999999,
                0.2941805568246555,
                0.34162965999375017,
                0.5109989100000001,
                0.8305179207668617,
                0.3628587445293381,
                0.51099891,
                0.30397826810172834,
                0.51099891,
                0.51099891,
                0.1727398324935427,
                0.3668583184173089,
                0.14257652237806306,
                0.024505789132569067,
                0.16777634524805302,
                0.51099891,
                0.51099891,
                0.51099891,
                0.5109989100000001,
                0.51099891,
                0.51099891,
                0.296772990704247,
                1.2745373401794637,
                0.04293864330170588,
                0.51099891,
                0.3422695547854567,
                0.51099891,
                0.5903124303940765,
                0.12777679198484904,
                0.51099891,
                0.5109989099999999,
                0.02260338988340288,
                0.07303899999999999,
                0.06871874997293681,
                0.08345645155681958,
                0.5109989099999999,
                0.463255738776268,
                0.08469043254691622,
                0.1813333069382631,
                0.51099891,
                0.7817263853904397,
                1.2745373401794642,
                0.06863699047590294,
                0.1452273970085463,
                0.04800951380314977,
                0.962047501435494,
                0.9021517481767016,
                0.5109989100000001,
                0.51099891,
                0.51099891,
                0.0920795636563988,
                0.51099891,
                0.51099891,
                0.08523539999999999,
                0.2037732204038235,
                0.2553563888664799,
                0.11918506954601987,
                0.3368736145249288,
                0.1465556933062526,
                0.08848917696787106,
                1.2745373401794642,
                0.848582293726268,
                0.51099891,
                0.3080642281836291,
                1.2745373401794637,
                0.3204382605852273,
                0.16309545433097705,
                0.39112856211415603,
                0.2362251878644699,
                0.51099891,
                0.23665526117091945,
                0.087534,
                0.4294660168210981,
                0.20688164897614283,
                0.3048445124984198,
                0.0047340487485260235,
                0.51099891,
                0.8482295740757305,
                0.51099891,
                0.27042574970198097,
                0.5109989099999999,
                0.8335344075778844,
                0.29392727259672746,
                0.5109989100000001,
                0.51099891,
                1.274537340179464,
                0.51099891,
                0.18201933246989532,
                0.04214453127613638,
                0.08630970953615019,
                0.51099891,
                0.51099891,
                0.5109989099999999,
                0.2541388420773272,
                0.4879441840954209,
                0.032718189383363606,
                0.51099891,
                0.26198878763527855,
                0.3225077599462545,
                0.2722588507029513,
                0.6847826553888152,
                0.23456993469758255,
                0.51099891,
                0.21760695634118465,
                0.5109989100000001,
                0.51099891,
                0.51099891,
                0.51099891,
                0.0730445672670309,
                0.51099891,
                0.32601772244900523,
                0.51099891,
                0.03593866101863308,
                0.5109989100000001,
                0.19748183884220658,
                0.5389675928380662,
                0.5109989100000001,
                0.9270864307675808,
                0.26996815741097646,
                0.51099891,
                0.51099891,
                0.5109989100000001,
                0.51099891,
                0.5109989100000001,
                0.5109989099999999,
                0.5109989100000001,
                0.51099891,
                0.047093209732035124,
                0.5109989099999999,
                0.22300943821509742,
                0.11344812083304456,
                0.5109989100000001,
                0.51099891,
                0.20645303432208462,
                0.51099891,
                0.12442494210707683,
                0.19432069593712892,
                0.8628428166434974,
                0.5940339867669775,
                0.3081725711934318,
                0.51099891,
                0.3107261510912351,
                0.5109989100000001,
                0.330315992179547,
                0.16314561257293603,
                0.35408660820057225,
                0.51099891,
                0.2892869401949988,
                1.274537340179464,
                0.51099891,
                0.51099891,
                0.08523540000000002,
                0.51099891,
                0.5109989099999999,
                0.5109989099999999,
                0.5109989099999999,
                0.26405272004973723,
                0.51099891,
                0.51099891,
                0.51099891,
                0.51099891,
                0.5109989099999999,
                0.51099891,
                0.087534,
                0.51099891,
                0.13771835787183218,
                0.15074352635804147,
                0.046640499999999994
            ]
        },
        "detections": 300,
        "events": 15131
    }
}