{
    "job_args": {
        "metric_limit": 300,
        "seed": 1449730450
    },
    "job_id": "batch_31_do_300",
    "result": {
        "collections": {
            "crystal": [
                0.5109989100000001,
                0.2925607721422624,
                0.33123189495404115,
                0.13711497102617418,
                0.3144259329793606,
                0.51099891,
                0.05258218896995886,
                0.51099891,
                0.276659236627018,
                0.5109989100000001,
                0.51099891,
                0.10438877277480337,
                0.03197208318931688,
                0.4762749297882177,
                0.05112007508462557,
                0.51099891,
                0.4247595133294769,
                0.51099891,
                0.51099891,
                0.2588682347129677,
                0.51099891,
                0.51099891,
                0.4237753648506011,
                0.51099891,
                0.3276789121047634,
                1.2745373401794637,
                1.785536250179464,
                0.3549672921252126,
                0.10939674345138717,
                0.51099891,
                0.51099891,
                0.08790723368265996,
                0.1644325267213454,
                0.3429376669204721,
                0.2413426740221529,
                0.51099891,
                0.5109989100000001,
                0.07525,
                0.07303899999999999,
                0.03693175865371989,
                0.51099891,
                0.51099891,
                0.51099891,
                0.5109989099999999,
                0.51099891,
                0.51099891,
                0.51099891,
                0.33550634582352595,
                0.5109989099999999,
                0.07524999999999998,
                0.22724459409621567,
                0.51099891,
                0.51099891,
                0.51099891,
                0.402123592132167,
                0.08125336164375177,
                0.45381936911887355,
                0.026069448819065477,
                0.5109989100000001,
                0.51099891,
                0.5109989100000001,
                0.321769696455,
                0.51099891,
                0.31690168484689074,
                0.51099891,
                0.28890291443997307,
                0.51099891,
                0.39534419784506897,
                0.07524999999999998,
                1.2745373401794637,
                0.9453283260316692,
                0.08523539999999999,
                0.51099891,
                0.51099891,
                0.05270483588032942,
                0.5109989099999999,
                0.5109989100000001,
                1.2745373401794637,
                0.21421191589691801,
                0.8274284983293787,
                0.08191981384304382,
                1.274537340179464,
                0.2063516614285288,
                0.3962173914934685,
                0.16947996115133204,
                0.51099891,
                1.1059074813227332,
                0.2453550982614051,
                0.660883925761338,
                1.2745373401794635,
                0.51099891,
                0.672377479556195,
                0.3144585981371478,
                0.08522797980832064,
                0.51099891,
                0.00750170120379634,
                0.23829907092193134,
                0.3151552879457423,
                1.2745373401794642,
                0.07525,
                0.0882024,
                0.11443815602519658,
                0.51099891,
                1.274537340179464,
                0.16654965739747202,
                0.30620854163257494,
                0.6066569621401517,
                0.51099891,
                0.51099891,
                0.41583795882159535,
                0.5109989100000001,
                0.5109989099999999,
                0.2801476489053502,
                0.51099891,
                0.2603252323112438,
                0.2262128271786893,
                0.51099891,
                0.51099891,
                0.2956811287494021,
                0.7049363179993208,
                1.2745373401794637,
                0.5109989099999999,
                0.2783287023225011,
                0.51099891,
                0.5109989100000001,
                0.21678247719694477,
                0.5109989100000001,
                1.2248694965335647,
                0.22615757580084211,
                0.5109989099999999,
                0.11517424525703696,
                0.356167085771879,
                0.7914028364418507,
                0.5109989099999999,
                0.3178169436426775,
                0.040400440595228515,
                0.4398556455688498,
                0.6178007171663151,
                0.005866628557735533,
                0.21990756512424037,
                0.51099891,
                0.51099891,
                0.07525,
                0.2974379547869362,
                1.0347036586604725,
                0.51099891,
                0.5109989100000001,
                0.07303899999999999,
                0.51099891,
                0.6233522628741383,
                0.932494458192453,
                0.1270365608910734,
                0.51099891,
                0.51099891,
                0.40620071892304943,
                1.274537340179464,
                0.5811120819999673,
                0.51099891,
                0.8523275730435896,
                0.51099891,
                0.6427866020260585,
                0.5109989100000001,
                0.3111953386278295,
                1.274537340179464,
                0.03817542313057237,
                0.07525,
                0.27262630732487747,
                0.51099891,
                0.18380104651298926,
                0.51099891,
                0.51099891,
                0.13537562663844993,
                0.51099891,
                0.03570198472651237,
                0.51099891,
                0.51099891,
                0.5109989100000001,
                0.25407816760584423,
                0.31061153299311145,
                0.5109989100000001,
                0.5109989100000001,
                0.51099891,
                0.19705135881564384,
                0.18549448876221858,
                0.5109989100000001,
                0.51099891,
                0.2672147333986308,
                0.05304118459677507,
                0.51099891,
                0.05151577048539824,
                0.5387277352578663,
                0.51099891,
                0.1746805536128208,
                0.51099891,
                0.51099891,
                0.2587113583825207,
                0.39354979654604616,
                0.8343170953258064,
                0.06552588172674323,
                0.28373437157022263,
                0.5109989099999999,
                0.5109989100000001,
                0.549595580246113,
                0.19434335182906204,
                0.11250043688793776,
                0.07525,
                0.51099891,
                0.0997821582523809,
                0.39390550481111647,
                0.5109989100000001,
                0.27335474869892595,
                0.51099891,
                0.2712240258270113,
                0.25054064937867027,
                0.5109989099999999,
                0.51099891,
                0.51099891,
                1.274537340179464,
                0.07043078014599449,
                0.51099891,
                0.17913532465814053,
                0.3737815362772177,
                0.51099891,
                0.51099891,
                0.5109989100000001,
                0.5109989099999999,
                0.51099891,
                0.07525,
                0.19385772119071173,
                0.26600821240575884,
                0.47983158458207437,
                0.51099891,
                0.14799467926780746,
                1.2745373401794637,
                0.21554548628250841,
                0.53334665599131,
                0.5109989099999999,
                0.2501772242738063,
                0.23404865558236854,
                0.51099891,
                0.11375727725537384,
                0.28369693825755077,
                0.0852354,
                0.51099891,
                0.51099891,
                1.2745373401794637,
                0.51099891,
                1.274537340179464,
                0.48441180586001004,
                0.5109989099999999,
                0.51099891,
                0.5109989100000001,
                0.5109989099999999,
                0.51099891,
                0.6896216196801579,
                1.2745373401794642,
                0.51099891,
                0.51099891,
                0.51099891,
                0.1310088545713663,
                0.20046194420815577,
                0.15484208526311316,
                0.21284488589348327,
                0.2715487866770906,
                0.09791773773106616,
                0.26696703547991185,
                0.07324058523401955,
                0.19703742404172525,
                0.51099891,
                0.018916376539297813,
                0.073039,
                0.51099891,
                1.2745373401794642,
                1.274537340179464,
                0.46829368159749424,
                0.51099891,
                0.42844417549469793,
                0.40797172065452203,
                0.51099891,
                1.077933275125818,
                0.5109989100000001,
                0.12056376292961389,
                1.2745373401794637,
                0.51099891,
                0.51099891,
                0.51099891,
                0.5109989099999999,
                0.51099891,
                0.3361338567157959,
                0.07524999999999998,
                0.5034345615327417,
                0.10803871104936208,
                0.6101243558612524,
                0.3847682076070074,
                0.9787585427128545,
                0.13616322919792706,
                0.51099891,
                0.51099891,
                0.25024045457348,
                0.1340671283179404
            ]
        },
        "detections": 300,
        "events": 15515
    }
}