{
    "job_args": {
        "metric_limit": 300,
        "seed": 2551075190
    },
    "job_id": "batch_256_do_300",
    "result": {
        "collections": {
            "crystal": [
                1.274537340179464,
                0.20079770311384915,
                0.4538424287560009,
                1.274537340179464,
                0.51099891,
                0.14564884132701433,
                1.2745373401794642,
                0.51099891,
                1.0051077676847335,
                0.51099891,
                0.702453757046469,
                0.51099891,
                0.5109989100000001,
                0.51099891,
                0.27190604737533175,
                0.24919189704562023,
                0.590648263359601,
                0.51099891,
                0.2541909815843526,
                0.45810566960600707,
                0.07525,
                0.09312757887594986,
                0.51099891,
                0.51099891,
                0.8747847461477939,
                0.5109989099999999,
                0.51099891,
                0.51099891,
                0.11000353429678056,
                0.51099891,
                1.274537340179464,
                0.5109989099999999,
                0.5109989100000001,
                0.51099891,
                0.1685836121787354,
                0.005776554793570199,
                1.2745373401794642,
                0.51099891,
                1.274537340179464,
                0.51099891,
                0.073039,
                0.8147807981277264,
                0.17798451894761746,
                0.51099891,
                0.5109989099999999,
                0.4893482969083114,
                0.5109989100000001,
                0.51099891,
                0.51099891,
                0.25207903697939965,
                0.51099891,
                1.2745373401794642,
                0.51099891,
                0.16568007028819276,
                0.1332344404225078,
                0.20791261347127996,
                0.5109989099999999,
                0.18379009334563912,
                0.5109989100000001,
                0.5109989100000001,
                0.51099891,
                0.3200511722621692,
                0.5109989100000001,
                0.51099891,
                0.12176001217425636,
                0.5109989099999999,
                0.19681372751499587,
                0.6683758517312035,
                0.2479694283546906,
                0.51099891,
                0.20884531049725646,
                0.12092790349306726,
                0.51099891,
                0.5109989100000001,
                0.26142254252112546,
                0.06777612651984244,
                0.32252312204501077,
                0.51099891,
                0.51099891,
                0.22819008936791857,
                0.51099891,
                0.3380693435518906,
                0.51099891,
                0.6435987236243291,
                0.7091524684810249,
                0.51099891,
                0.4115594787959015,
                0.7981051770666017,
                0.51099891,
                0.1381809926284583,
                0.46819062503635395,
                1.2745373401794642,
                0.5109989100000001,
                0.3130981916668626,
                0.51099891,
                0.51099891,
                1.2745373401794642,
                1.274537340179464,
                0.20347840026653974,
                0.052759701650559765,
                0.5109989100000001,
                0.2462737031122192,
                0.3392320596814118,
                0.51099891,
                0.23325644068718798,
                0.36513134665844466,
                0.10671489011692023,
                1.274537340179464,
                0.51099891,
                0.12539195798722902,
                0.7842429416326019,
                0.51099891,
                0.046943499999999985,
                0.10747803471005958,
                0.04846880060040559,
                0.03899151145158214,
                1.0127976739278604,
                0.5109989099999999,
                0.51099891,
                0.21112980081171062,
                0.51099891,
                0.51099891,
                0.2658143863969326,
                0.5109989099999999,
                0.51099891,
                0.005695105970130853,
                0.51099891,
                0.711600554541608,
                0.5099791100989459,
                0.1775445127404655,
                0.33208596834067955,
                0.5109989100000001,
                1.2745373401794637,
                0.5109989099999999,
                0.8883230431324465,
                0.31646382883204416,
                0.51099891,
                0.51099891,
                0.25082316150825434,
                0.51099891,
                0.26860714340051783,
                0.9018514002720849,
                1.115001091762179,
                0.51099891,
                0.27513625296155136,
                0.29243330345782814,
                0.3009238066881058,
                0.38851270346644334,
                0.5109989100000001,
                0.024245388666011003,
                0.5109989099999999,
                0.07525,
                0.20481373649274207,
                0.51099891,
                0.51099891,
                0.51099891,
                0.51099891,
                0.51099891,
                0.4463516137796378,
                0.8533066334515107,
                0.20390532897142202,
                0.51099891,
                0.46027304331978125,
                0.51099891,
                0.51099891,
                0.2019518704820229,
                0.51099891,
                0.51099891,
                0.51099891,
                0.6320318415337829,
                0.5109989099999999,
                0.11779589292946169,
                0.31628764515810276,
                0.51099891,
                0.8416185642943418,
                0.51099891,
                0.51099891,
                0.51099891,
                0.51099891,
                0.51099891,
                0.34003820634829574,
                0.5109989099999999,
                0.02541452051469323,
                0.51099891,
                0.51099891,
                0.073039,
                0.3190748430280285,
                0.3462700540366992,
                1.0242321469108449,
                0.2003337857153559,
                0.51099891,
                0.51099891,
                0.51099891,
                0.51099891,
                0.20345418835449428,
                0.5109989100000001,
                0.0681439514565268,
                0.048069849204046944,
                0.02472204259330102,
                0.51099891,
                0.4395504247533908,
                0.0852354,
                0.51099891,
                0.3019224571980415,
                0.5109989100000001,
                1.2745373401794637,
                0.51099891,
                0.08804575192960168,
                0.51099891,
                1.274537340179464,
                0.14516840762112393,
                0.51099891,
                0.07525,
                0.5109989099999999,
                0.14551065479370873,
                0.021835364870286755,
                0.1765224078950825,
                1.274537340179464,
                0.5109989099999999,
                0.08920882868161417,
                0.5436028875689991,
                0.5109989100000001,
                0.32716603467295463,
                0.09912118351950441,
                0.275888217013604,
                0.5109989100000001,
                0.51099891,
                0.5109989100000001,
                0.3232289523225008,
                0.3101228505402304,
                0.51099891,
                0.51099891,
                0.034072384421465596,
                0.31416136075996254,
                0.6089906074769756,
                1.274537340179464,
                1.274537340179464,
                1.2745373401794637,
                0.4642863158941968,
                0.1658938412875655,
                0.51099891,
                0.51099891,
                0.51099891,
                0.51099891,
                0.21960908463682835,
                0.9886421554213839,
                0.08523540000000002,
                0.07525,
                0.1312070606421514,
                0.51099891,
                0.51099891,
                0.17329098280703747,
                0.06269645656879086,
                1.274537340179464,
                0.5109989099999999,
                0.5109989099999999,
                0.51099891,
                0.042685650119941965,
                1.2745373401794642,
                0.5109989100000001,
                0.0417148791092416,
                0.13056899794315707,
                0.5109989100000001,
                0.08108870199391383,
                0.2684880199521946,
                0.032389956141171794,
                0.14124269545419624,
                0.51099891,
                0.13901262018820154,
                0.3385920592718157,
                0.51099891,
                0.23383194417589576,
                0.51099891,
                0.2703078542727361,
                1.1618960795129665,
                0.09146830698186115,
                0.29081446350852047,
                0.018988521695887217,
                1.2745373401794642,
                0.08523539999999999,
                0.4318714930860509,
                0.3191710827771167,
                0.8338794195018582,
                0.08131208883577568,
                0.5109989100000001,
                0.8226705001573612,
                0.44825125137696986,
                0.33000064361798886,
                0.5109989100000001,
                0.16495864464212373,
                0.6311642431261937,
                1.2745373401794642,
                0.2844109153304685,
                0.4449914186916615,
                0.16380134119922016,
                0.5580916005763472,
                0.5109989100000001,
                0.07524999999999997,
                0.8468770049317524,
                0.07303899999999999
            ]
        },
        "detections": 300,
        "events": 14601
    }
}