{
    "job_args": {
        "metric_limit": 300,
        "seed": 1702825758
    },
    "job_id": "batch_136_do_300",
    "result": {
        "collections": {
            "crystal": [
                0.36098415261489303,
                0.51099891,
                0.14759435240134167,
                0.5109989099999999,
                0.30796441467101965,
                0.03457436511148371,
                1.2745373401794637,
                0.51099891,
                0.4131498135589288,
                0.14452482032178637,
                0.8749514276465367,
                0.51099891,
                0.3240449515776431,
                0.06436829411894315,
                0.51099891,
                0.5109989100000001,
                0.015485661329584899,
                1.274537340179464,
                0.5109989100000001,
                0.51099891,
                0.2405261612706435,
                0.51099891,
                0.05457523484814297,
                0.2734463433393741,
                0.51099891,
                0.51099891,
                0.7785922436091954,
                0.51099891,
                0.07163072342317767,
                1.2745373401794642,
                0.5109989100000001,
                0.3170090184817937,
                0.5109989099999999,
                0.5853216738302255,
                0.017725561861955175,
                0.44755762380708275,
                0.3229356820521839,
                0.51099891,
                0.6913937609459857,
                0.3412036127990576,
                0.51099891,
                0.31611241505660154,
                0.0017722668495763205,
                1.274537340179464,
                0.2317298402280334,
                1.274537340179464,
                0.21539050110420682,
                0.09660367024310118,
                0.51099891,
                0.22174526491584054,
                0.5109989099999999,
                1.274537340179464,
                0.5109989100000001,
                0.9753990889347807,
                0.51099891,
                1.274537340179464,
                0.5109989099999999,
                0.03819525031224957,
                0.14379404157273193,
                0.3296459896979284,
                0.05692889999999999,
                0.26207862145412947,
                0.3239790654295418,
                0.51099891,
                0.5109989100000001,
                0.5109989099999999,
                0.51099891,
                0.5109989100000001,
                0.5109989099999999,
                0.5109989100000001,
                0.08523539999999999,
                0.07525,
                0.51099891,
                0.51099891,
                0.51099891,
                0.51099891,
                0.003633712350693652,
                0.51099891,
                0.0852354,
                0.51099891,
                0.35927280107350684,
                0.5109989100000001,
                0.13793114080169447,
                0.5109989100000001,
                1.2745373401794637,
                0.51099891,
                0.7955602267381197,
                0.51099891,
                0.51099891,
                0.07144347731952139,
                0.51099891,
                0.51099891,
                0.42108822432060833,
                0.09133270359981327,
                0.2468291887137024,
                0.0847407,
                0.51099891,
                0.00019143217433348347,
                0.362434022530517,
                0.51099891,
                0.5109989099999999,
                0.5109989100000001,
                0.51099891,
                0.2152777108536139,
                0.51099891,
                0.35279763439290907,
                0.08674499960998211,
                0.51099891,
                0.51099891,
                0.011775421419943366,
                0.21945091856466323,
                0.20276970973590064,
                0.3104788707168811,
                0.027709273769107534,
                1.274537340179464,
                0.51099891,
                0.51099891,
                0.51099891,
                0.4093044978766037,
                0.5109989099999999,
                0.51099891,
                0.9886200162800836,
                0.5109989100000001,
                0.10982076117743511,
                0.6261070225321694,
                1.1036487627581129,
                0.07525,
                0.51099891,
                0.5109989100000001,
                0.3284990058740592,
                0.06367964109446855,
                0.16311182883243702,
                0.10502629276641012,
                0.020041023025985538,
                0.010449543734454503,
                1.274537340179464,
                0.51099891,
                1.2745373401794642,
                0.15317272586159572,
                0.11184828472264141,
                0.51099891,
                0.5559908530183932,
                0.51099891,
                0.2681443417803256,
                0.40079190387695784,
                0.22868584639696754,
                0.31340169455949507,
                0.7882276335972611,
                0.51099891,
                0.5109989100000001,
                0.51099891,
                0.51099891,
                0.7667518480131879,
                0.51099891,
                0.6744240051462566,
                0.5109989100000001,
                0.2883950010007261,
                0.1418166004178692,
                0.2347774605744921,
                0.51099891,
                0.16635186990039807,
                0.196159751256238,
                0.11901439256391541,
                0.046826898712285736,
                0.51099891,
                0.22730116287027025,
                1.2745373401794642,
                0.745515652607778,
                0.007670512963851017,
                0.51099891,
                0.059748968620284115,
                0.5109989099999999,
                0.5109989099999999,
                0.6721920867757282,
                0.2844939178201087,
                1.274537340179464,
                0.8015526676217193,
                0.5109989099999999,
                0.36685670750408134,
                0.21744660899887353,
                0.18848376774908107,
                0.51099891,
                0.51099891,
                0.08662086259928203,
                0.5109989100000002,
                0.11343025155719808,
                1.2745373401794637,
                0.51099891,
                0.51099891,
                0.4090376244084624,
                0.23924949449983304,
                0.4540797085057826,
                1.274537340179464,
                0.20506028245700314,
                0.51099891,
                0.3308129110559434,
                0.51099891,
                0.51099891,
                0.04505261581912643,
                0.48972345673365214,
                0.5109989100000001,
                0.51099891,
                0.51099891,
                0.2137828120791237,
                1.2745373401794642,
                0.22719807274486267,
                0.51099891,
                0.27327148161741377,
                0.51099891,
                0.2951574833844481,
                1.0436230371925768,
                0.51099891,
                0.19234235870538258,
                0.5109989099999999,
                0.51099891,
                0.073039,
                0.39667270019504874,
                0.058588913513435925,
                0.5109989099999999,
                0.46085118434316363,
                0.5109989099999999,
                0.51099891,
                0.07043105900394608,
                0.18745133177717793,
                0.51099891,
                0.51099891,
                0.51099891,
                0.34477453014607395,
                0.3112239043762448,
                0.09541997298456312,
                0.51099891,
                0.5109989100000001,
                0.9810446560434594,
                0.6235146088910704,
                0.1936210730032023,
                0.29750905236618763,
                0.9428673183381113,
                0.51099891,
                0.5109989099999999,
                0.07524999999999998,
                1.2745373401794642,
                0.5109989099999999,
                0.51099891,
                1.2745373401794637,
                0.5109989100000001,
                0.09760285957454273,
                0.5109989100000001,
                0.34141731970099193,
                0.293322279038827,
                0.51099891,
                0.28935497041355823,
                0.06521094850696245,
                0.1255308824234272,
                0.51099891,
                1.2459278401794638,
                0.43713742443036285,
                0.7249550015985023,
                0.06402640633609646,
                0.1348280158210458,
                0.3043926318175013,
                0.51099891,
                0.0882024,
                0.29562332621017684,
                0.51099891,
                0.19223403775943076,
                0.04132124515895169,
                1.274537340179464,
                0.51099891,
                0.41940933044825424,
                0.51099891,
                0.06269135456339997,
                0.09742318429137577,
                0.08270770908673541,
                0.28029352195233403,
                0.5109989100000001,
                0.51099891,
                0.5109989099999999,
                0.45963707538515675,
                0.51099891,
                0.51099891,
                0.5109989100000001,
                0.5109989100000001,
                0.33727805668463523,
                0.5109989100000001,
                0.013497816615786862,
                0.51099891,
                0.4314587617135319,
                0.36421490905928444,
                0.06599642315685805,
                0.2810753886213705,
                0.51099891,
                0.7001211697442591,
                0.29204575010308,
                0.51099891,
                0.222201275233015,
                0.5109989099999999,
                0.36476851231491836,
                0.0013879896721676332,
                0.51099891,
                0.51099891
            ]
        },
        "detections": 300,
        "events": 16813
    }
}