{
    "job_args": {
        "metric_limit": 300,
        "seed": 1622269495
    },
    "job_id": "batch_74_do_300",
    "result": {
        "collections": {
            "crystal": [
                0.51099891,
                0.17584407209992955,
                0.22285739424001172,
                0.51099891,
                0.51099891,
                0.51099891,
                0.08587346309320706,
                0.5109989099999999,
                0.51099891,
                0.2921958185701955,
                0.5109989100000001,
                0.23257388491067155,
                0.51099891,
                0.23198993512433988,
                0.7345845233362432,
                0.51099891,
                0.51099891,
                0.278817606069232,
                0.04694349999999999,
                0.5109989100000001,
                0.8082510120260883,
                0.5109989099999999,
                0.9298987117542721,
                0.5109989099999999,
                0.51099891,
                0.2761131590081991,
                1.2745373401794642,
                0.5143046652766249,
                0.51099891,
                0.25628779921333966,
                0.51099891,
                0.08089942140435669,
                0.5109989099999999,
                0.2927791007421986,
                0.51099891,
                0.30311827214971243,
                0.16782298044643312,
                0.51099891,
                0.5109989100000001,
                0.5109989099999999,
                0.3092378960089679,
                0.5109989100000001,
                0.11254725636045408,
                0.24885257725200233,
                0.03750467017143061,
                0.51099891,
                0.2875164590970041,
                0.21504519661850546,
                0.5109989099999999,
                0.23540113948850894,
                0.51099891,
                0.18882462039596135,
                0.34352917491818147,
                0.5109989099999999,
                1.2745373401794637,
                0.1584866439865914,
                0.51099891,
                0.8164581937461615,
                0.8604926190782456,
                0.51099891,
                0.5109989099999999,
                0.51099891,
                0.8732843856996052,
                0.014449537477385754,
                1.274537340179464,
                0.8315454263122846,
                0.51099891,
                0.51099891,
                0.51099891,
                0.564276509177577,
                0.51099891,
                0.5109989100000001,
                0.0439180840915926,
                0.51099891,
                0.32806311395137794,
                0.39210439957340065,
                0.15519481708532057,
                0.073039,
                0.32574964424816105,
                0.51099891,
                0.042324565953887616,
                0.31504390674272176,
                0.1457322441979768,
                0.5109989099999999,
                0.1839686370835118,
                0.5109989099999999,
                0.308039608086956,
                0.5109989100000001,
                0.5109989100000001,
                0.14796554824810376,
                0.51099891,
                0.4158048951183541,
                0.51099891,
                0.51099891,
                0.51099891,
                0.51099891,
                0.5109989099999999,
                0.51099891,
                0.62060108346526,
                0.5109989100000001,
                0.19176449790966132,
                0.07525,
                0.07395031951974253,
                0.51099891,
                1.2745373401794637,
                0.0898301138631305,
                0.12479735630648575,
                0.51099891,
                0.51099891,
                0.9311884936515046,
                0.33994836587530014,
                0.22209672872446068,
                0.023797923132896248,
                0.23288318920420575,
                0.51099891,
                0.51099891,
                0.51099891,
                1.274537340179464,
                0.13215562161058733,
                0.51099891,
                0.51099891,
                0.3661778240780796,
                0.51099891,
                0.2077911895554918,
                0.2114101837742437,
                0.5109989100000001,
                0.36698635674367786,
                0.51099891,
                0.51099891,
                0.388706842037329,
                0.22338792794612813,
                0.1576008989891838,
                0.03856335336098149,
                0.51099891,
                0.13854305388367816,
                0.20712234955948378,
                0.14665503786847942,
                0.51099891,
                0.09995169585123538,
                0.51099891,
                0.3923774195143488,
                1.274537340179464,
                0.26385982343439507,
                0.51099891,
                0.4432415558985831,
                0.5662487410643152,
                0.51099891,
                0.13932579314049398,
                0.5109989100000001,
                0.7851977135297411,
                0.51099891,
                1.274537340179464,
                1.0039327623984657,
                0.4622904824959907,
                0.2797800746083436,
                1.274537340179464,
                0.1933420934278997,
                0.513203467295998,
                0.51099891,
                1.274537340179464,
                0.037570712001285644,
                0.073039,
                1.274537340179464,
                0.05210574654113631,
                0.4853305391647771,
                0.5109989100000001,
                0.403004777383459,
                0.26937921762499056,
                0.51099891,
                0.5742968548248744,
                0.51099891,
                0.7910867025474567,
                0.42644183141246683,
                0.5109989099999999,
                0.51099891,
                0.03330578218614001,
                0.51099891,
                0.51099891,
                0.51099891,
                0.51099891,
                0.51099891,
                0.07492991313724229,
                0.40246129704778183,
                0.51099891,
                1.274537340179464,
                0.51099891,
                0.7592120349708928,
                1.274537340179464,
                0.0847407,
                0.36136320801156874,
                0.4206552798276173,
                0.09097600651306703,
                0.23803026979629982,
                0.24498843250468244,
                0.51099891,
                0.51099891,
                0.09710736864316799,
                0.5109989100000001,
                0.13150194014759142,
                0.5109989100000001,
                0.5109989099999999,
                0.8797188615728428,
                0.5109989100000001,
                0.5109989100000001,
                0.28012413118461543,
                0.51099891,
                0.073039,
                0.27578070249278475,
                0.22809592529471212,
                0.5109989099999999,
                0.1411234678791784,
                0.51099891,
                0.51099891,
                0.010410229281624384,
                0.42733974914305667,
                0.14160921257664877,
                0.51099891,
                1.274537340179464,
                0.0033181853155839214,
                0.51099891,
                0.042955799999999995,
                0.51099891,
                0.17731351516351052,
                0.51099891,
                0.34220446797559795,
                1.2745373401794642,
                0.22570736947717748,
                0.51099891,
                0.51099891,
                1.274537340179464,
                0.5109989100000001,
                0.34833874350263233,
                0.5109989099999999,
                0.9838973310953992,
                0.07609232301470248,
                0.014216398149743514,
                0.017052636329288662,
                0.51099891,
                0.51099891,
                0.51099891,
                0.5109989100000001,
                0.09287221741880392,
                0.51099891,
                0.51099891,
                0.5765936312373504,
                0.5688920624220724,
                0.5109989100000001,
                0.5109989100000001,
                0.008264096065668247,
                0.07007611582009755,
                0.5109989099999999,
                0.09650638281963153,
                0.51099891,
                0.51099891,
                0.51099891,
                0.4580474365874499,
                0.7775787317843317,
                0.9433259996086258,
                0.32119201953299187,
                1.2745373401794637,
                0.5109989099999999,
                0.51099891,
                0.09409424045336795,
                0.5109989100000001,
                0.19526012698695083,
                0.5109989100000001,
                0.21226346853081224,
                0.5109989100000001,
                0.8820740339761506,
                0.315525511972185,
                0.11566720713323418,
                0.5597586980012917,
                0.5109989099999999,
                0.7451613123671649,
                1.2745373401794642,
                0.51099891,
                0.4591286901045183,
                0.51099891,
                0.26725094535408345,
                1.274537340179464,
                0.51099891,
                0.51099891,
                0.3186440748797475,
                0.04363184292886551,
                0.19929243686922746,
                0.5040146607005154,
                0.47761508626242183,
                1.274537340179464,
                0.10962036598482255,
                0.51099891,
                0.2443538083788066,
                0.5109989100000001,
                0.36211982092973427,
                0.5109989100000001,
                0.2670536824406397,
                0.1584791546658093,
                0.5109989099999999,
                0.09893652507926735,
                0.31382869276555203,
                0.5109989100000001
            ]
        },
        "detections": 300,
        "events": 15814
    }
}